,batsman,total_runs
0,AD Russell,82
1,RR Pant,65
2,CH Gayle,61
3,KL Rahul,57
4,AB de Villiers,56
5,SR Watson,56
6,MS Dhoni,51
7,AT Rayudu,41
8,HH Pandya,41
9,CA Lynn,40
10,JC Buttler,36
11,N Rana,35
12,SS Iyer,35
13,SP Narine,34
14,Q de Kock,34
15,KS Williamson,33
16,SV Samson,32
17,V Kohli,31
18,RV Uthappa,31
19,KD Karthik,30
20,KA Pollard,27
21,AS Yadav,26
22,E Lewis,26
23,S Dhawan,25
24,V Shankar,23
25,M Ali,23
26,DA Warner,22
27,Ishan Kishan,21
28,F du Plessis,21
29,SK Raina,21
30,RG Sharma,21
31,MA Agarwal,19
32,P Shaw,19
33,J Bairstow,18
34,KH Pandya,16
35,S Gill,15
36,Mandeep Singh,15
37,MP Stoinis,14
38,N Pooran,14
39,AM Rahane,14
40,PA Patel,14
41,KK Nair,13
42,YK Pathan,12
43,C de Grandhomme,12
44,DJ Bravo,12
45,MK Pandey,11
46,RA Tripathi,11
47,BA Stokes,10
48,K Gowtham,10
49,GJ Maxwell,9
50,DA Miller,9
51,BCJ Cutting,9
52,RA Jadeja,8
53,R Ashwin,8
54,AJ Finch,8
55,Rashid Khan,8
56,C Munro,8
57,CR Brathwaite,8
58,Yuvraj Singh,8
59,JJ Roy,7
60,Shakib Al Hasan,7
61,MJ Guptill,7
62,S Rutherford,7
63,Mohammad Nabi,7
64,S Hetmyer,7
65,AR Patel,7
66,STR Binny,6
67,HV Patel,6
68,A Hales,6
69,SN Khan,6
70,C Ingram,5
71,SW Billings,5
72,Ankit Sharma,5
73,R Parag,5
74,BB McCullum,5
75,L Livingstone,5
76,D Short,5
77,KM Jadhav,5
78,SPD Smith,4
79,DL Chahar,4
80,M Vohra,4
81,J Archer,4
82,DJ Hooda,4
83,CH Morris,4
84,Washington Sundar,4
85,PP Chawla,3
86,S Curran,3
87,S Dube,3
88,M Santner,3
89,WP Saha,2
90,AD Nath,2
91,Gurkeerat Singh,2
92,R Singh,2
93,R Tewatia,2
94,M Vijay,2
95,JD Unadkat,1
96,AJ Tye,1
97,JP Duminy,1
98,I Sharma,1
99,J Searles,1
100,K Paul,1
101,K Rabada,1
102,S Gopal,1
103,D Shorey,1
104,H Klaasen,1
105,UT Yadav,1
106,Mohammed Siraj,1
107,I Sodhi,1
108,TA Boult,1
109,SD Lad,1
110,KC Cariappa,1
111,TG Southee,1
112,G Gambhir,1
113,CR Woakes,1
114,Harbhajan Singh,1
115,MK Tiwary,1
116,H Brar,1
117,MJ McClenaghan,1
118,CJ Anderson,1
119,SP Goswami,1
120,DT Christian,1
121,S Singh,1
122,SN Thakur,1
123,YS Chahal,0
124,T Curran,0
125,VR Aaron,0
126,Sandeep Sharma,0
127,RD Chahar,0
128,S Kaul,0
129,S Lamichhane,0
130,S Mavi,0
131,S Nadeem,0
132,S Sharma,0
133,A Dananjaya,0
134,R Vinay Kumar,0
135,BB Sran,0
136,J Suchith,0
137,J Denly,0
138,Imran Tahir,0
139,H Viljoen,0
140,H Vihari,0
141,H Gurney,0
142,DS Kulkarni,0
143,Basil Thampi,0
144,B Stanlake,0
145,K Ahmed,0
146,B Laughlin,0
147,B Kumar,0
148,Avesh Khan,0
149,Anureet Singh,0
150,AS Rajpoot,0
151,A Turner,0
152,A Mishra,0
153,A Joseph,0
154,JJ Bumrah,0
155,Kuldeep Yadav,0
156,R Salam,0
157,N Saini,0
158,R Bhui,0
159,PJ Sangwan,0
160,P Raj,0
161,P R Barman,0
162,P Negi,0
163,P Krishna,0
164,P Chopra,0
165,NV Ojha,0
166,N Naik,0
167,L Plunkett,0
168,Mustafizur Rahman,0
169,Mohammed Shami,0
170,MM Sharma,0
171,MG Johnson,0
172,M Wood,0
173,M Ur Rahman,0
174,M Markande,0
175,M Ashwin,0
176,M Lomror,0
