,batsman,batsman_runs
88,S Singh,0
89,S Sharma,0
90,S Rutherford,0
91,S Nadeem,0
92,S Mavi,0
93,S Lamichhane,0
94,S Kaul,0
95,S Gopal,0
96,Rashid Khan,0
97,RD Chahar,0
98,RA Jadeja,0
99,R Vinay Kumar,0
100,R Tewatia,0
101,Mandeep Singh,0
102,A Dananjaya,0
103,MP Stoinis,0
104,BCJ Cutting,0
105,C Ingram,0
106,C Munro,0
107,C de Grandhomme,0
108,CH Morris,0
109,CJ Anderson,0
110,CR Brathwaite,0
111,CR Woakes,0
112,D Shorey,0
113,D Short,0
114,DJ Hooda,0
115,DL Chahar,0
116,DS Kulkarni,0
117,DT Christian,0
118,GJ Maxwell,0
119,H Brar,0
120,Basil Thampi,0
121,BB Sran,0
122,MM Sharma,0
123,BB McCullum,0
124,A Joseph,0
125,A Mishra,0
126,A Turner,0
127,AD Nath,0
128,AJ Finch,0
129,AJ Tye,0
130,AR Patel,0
131,AS Rajpoot,0
132,Ankit Sharma,0
133,Anureet Singh,0
134,Avesh Khan,0
135,B Kumar,0
136,B Laughlin,0
137,B Stanlake,0
138,BA Stokes,0
139,H Gurney,0
140,H Klaasen,0
141,H Vihari,0
142,H Viljoen,0
143,Kuldeep Yadav,0
144,L Livingstone,0
145,L Plunkett,0
146,M Ashwin,0
147,A Hales,0
148,M Markande,0
149,M Santner,0
150,M Ur Rahman,0
151,M Vijay,0
152,M Vohra,0
153,M Wood,0
154,MG Johnson,0
155,MJ Guptill,0
156,MJ McClenaghan,0
157,MK Tiwary,0
158,KH Pandya,0
159,KC Cariappa,0
160,K Rabada,0
161,J Denly,0
162,HV Patel,0
163,Harbhajan Singh,0
164,I Sharma,0
165,I Sodhi,0
166,Imran Tahir,0
167,J Archer,0
168,J Searles,0
169,K Paul,0
170,J Suchith,0
171,JD Unadkat,0
172,JJ Bumrah,0
173,JP Duminy,0
174,K Ahmed,0
175,K Gowtham,0
176,M Lomror,0
