,batsman,batsman_runs
0,KL Rahul,13
1,AB de Villiers,11
2,RR Pant,9
3,S Dhawan,9
4,DA Warner,9
5,CH Gayle,8
6,JC Buttler,8
7,KS Williamson,8
8,V Kohli,8
9,SR Watson,7
10,AD Russell,7
11,SK Raina,7
12,CA Lynn,7
13,MS Dhoni,6
14,SS Iyer,6
15,AS Yadav,6
16,MK Pandey,6
17,AT Rayudu,5
18,SV Samson,5
19,Q de Kock,5
20,E Lewis,4
21,N Rana,4
22,KD Karthik,4
23,P Shaw,4
24,S Gill,4
25,RG Sharma,4
26,J Bairstow,4
27,F du Plessis,3
28,SPD Smith,3
29,SP Narine,3
30,PA Patel,3
31,AM Rahane,3
32,M Ali,3
33,DA Miller,2
34,HH Pandya,2
35,RV Uthappa,2
36,Ishan Kishan,2
37,MA Agarwal,2
38,RA Tripathi,2
39,KA Pollard,2
40,S Curran,1
41,Gurkeerat Singh,1
42,S Hetmyer,1
43,G Gambhir,1
44,Yuvraj Singh,1
45,JJ Roy,1
46,KK Nair,1
47,V Shankar,1
48,DJ Bravo,1
49,R Parag,1
50,SN Khan,1
51,SW Billings,1
52,KM Jadhav,1
53,R Bhui,0
54,R Ashwin,0
55,Mohammad Nabi,0
56,Mohammed Shami,0
57,PP Chawla,0
58,Mohammed Siraj,0
59,Mustafizur Rahman,0
60,N Pooran,0
61,N Naik,0
62,PJ Sangwan,0
63,N Saini,0
64,NV Ojha,0
65,P Chopra,0
66,P Krishna,0
67,P Negi,0
68,P R Barman,0
69,P Raj,0
70,S Dube,0
71,R Salam,0
72,SN Thakur,0
73,YS Chahal,0
74,YK Pathan,0
75,Washington Sundar,0
76,WP Saha,0
77,VR Aaron,0
78,UT Yadav,0
79,TG Southee,0
80,TA Boult,0
81,T Curran,0
82,Shakib Al Hasan,0
83,Sandeep Sharma,0
84,STR Binny,0
85,SP Goswami,0
86,SD Lad,0
87,R Singh,0
88,S Singh,0
89,S Sharma,0
90,S Rutherford,0
91,S Nadeem,0
92,S Mavi,0
93,S Lamichhane,0
94,S Kaul,0
95,S Gopal,0
96,Rashid Khan,0
97,RD Chahar,0
98,RA Jadeja,0
99,R Vinay Kumar,0
100,R Tewatia,0
101,Mandeep Singh,0
102,A Dananjaya,0
103,MP Stoinis,0
104,BCJ Cutting,0
105,C Ingram,0
106,C Munro,0
107,C de Grandhomme,0
108,CH Morris,0
109,CJ Anderson,0
110,CR Brathwaite,0
111,CR Woakes,0
112,D Shorey,0
113,D Short,0
114,DJ Hooda,0
115,DL Chahar,0
116,DS Kulkarni,0
117,DT Christian,0
118,GJ Maxwell,0
119,H Brar,0
120,Basil Thampi,0
121,BB Sran,0
122,MM Sharma,0
123,BB McCullum,0
124,A Joseph,0
125,A Mishra,0
126,A Turner,0
127,AD Nath,0
128,AJ Finch,0
129,AJ Tye,0
130,AR Patel,0
131,AS Rajpoot,0
132,Ankit Sharma,0
133,Anureet Singh,0
134,Avesh Khan,0
135,B Kumar,0
136,B Laughlin,0
137,B Stanlake,0
138,BA Stokes,0
139,H Gurney,0
140,H Klaasen,0
141,H Vihari,0
142,H Viljoen,0
143,Kuldeep Yadav,0
144,L Livingstone,0
145,L Plunkett,0
146,M Ashwin,0
147,A Hales,0
148,M Markande,0
149,M Santner,0
150,M Ur Rahman,0
151,M Vijay,0
152,M Vohra,0
153,M Wood,0
154,MG Johnson,0
155,MJ Guptill,0
156,MJ McClenaghan,0
157,MK Tiwary,0
158,KH Pandya,0
159,KC Cariappa,0
160,K Rabada,0
161,J Denly,0
162,HV Patel,0
163,Harbhajan Singh,0
164,I Sharma,0
165,I Sodhi,0
166,Imran Tahir,0
167,J Archer,0
168,J Searles,0
169,K Paul,0
170,J Suchith,0
171,JD Unadkat,0
172,JJ Bumrah,0
173,JP Duminy,0
174,K Ahmed,0
175,K Gowtham,0
176,M Lomror,0
