,Rank,Name,Team,Position,Played,SnapsPlayed,SnapsPerGame,SnapsPlayedPercentage,RushSnapPercentage,TargetSnapPercentage,TouchSnapPercentage,IntendedTouchSnapPercentage,FantasyPoints,FantasyPointSnapPercentage
36,37,Darren McFadden,OAK,RB,10,336,33.6,32.4,33.9,7.4,39.29,41.7,81.34,24.2
37,38,Pierre Thomas,NO,RB,16,564,35.2,50.0,26.1,14.9,39.7,41.0,134.19,23.8
38,38,Daniel Thomas,MIA,RB,15,348,23.2,33.9,31.3,4.9,35.6,36.2,82.9,23.8
39,40,Frank Gore,SF,RB,16,744,46.5,75.09,37.1,3.5,39.2,40.6,174.9,23.5
40,41,Ben Tate,HOU,RB,14,481,34.4,48.3,37.6,10.19,44.7,47.8,111.1,23.1
41,42,Brandon Bolden,NE,RB,12,269,22.4,22.5,20.39,10.8,28.3,31.2,60.3,22.4
42,43,Maurice Jones-Drew,JAX,RB,15,647,43.1,61.2,36.2,9.3,43.0,45.6,144.02,22.3
43,44,Peyton Hillis,NYG,RB,7,202,28.9,26.4,36.1,10.4,42.6,46.5,44.3,21.9
44,45,Jacquizz Rodgers,ATL,RB,15,435,29.0,40.4,22.3,14.3,34.29,36.6,89.4,20.6
45,46,Andre Brown,NYG,RB,8,360,45.0,72.4,38.6,8.1,44.2,46.7,73.5,20.39
46,47,Willis McGahee,CLE,RB,12,264,22.0,27.3,52.3,4.2,55.3,56.4,49.7,18.8
47,48,Trent Richardson,IND,RB,16,593,37.1,54.8,31.7,8.8,37.6,40.5,109.9,18.5
48,48,Doug Martin,TB,RB,6,304,50.7,54.3,41.8,7.9,45.7,49.7,56.2,18.5
49,50,Ray Rice,BAL,RB,15,703,46.9,61.9,30.4,10.4,38.7,40.79,120.1,17.1
50,51,Bilal Powell,NYJ,RB,16,618,38.6,58.8,28.5,9.19,34.5,37.9,104.1,16.8
51,51,Da'Rel Scott,NYG,RB,5,140,28.0,45.5,14.3,13.6,22.1,27.9,23.5,16.8
52,53,Bernard Pierce,BAL,RB,16,398,24.9,35.0,38.2,6.3,43.2,44.5,66.0,16.6
53,53,Daryl Richardson,LAR,RB,8,203,25.4,20.2,34.0,8.9,40.9,42.9,33.6,16.6
54,55,Mike Tolbert,CAR,FB,16,599,37.4,58.2,16.89,5.5,21.4,22.4,96.5,16.1
55,56,Marcel Reece,OAK,FB,16,505,31.6,48.7,9.1,10.7,15.6,20.0,79.78,15.8
56,57,Lamar Miller,MIA,RB,16,623,38.9,60.7,28.4,5.6,32.6,34.0,97.9,15.7
57,57,David Wilson,NYG,RB,5,111,22.2,21.0,39.6,5.4,41.4,45.0,17.39,15.7
58,59,Vick Ballard,IND,RB,1,39,39.0,70.9,33.29,5.09,35.9,38.5,5.8,14.9
59,60,Roy Helu,WAS,RB,16,527,32.9,46.1,11.8,8.0,17.6,19.7,76.5,14.5
60,61,Chris Ogbonnaya,CLE,RB,16,521,32.6,47.1,9.19,14.4,18.39,23.6,66.2,12.7
61,62,Dexter McCluster,KC,RB,15,581,38.7,53.8,1.4,14.3,10.5,15.7,63.6,10.9
62,63,Stanley Havili,IND,FB,13,328,25.2,30.7,2.1,6.4,7.6,8.5,19.5,5.9
63,64,Anthony Sherman,KC,FB,16,386,24.1,35.79,0.5,6.2,5.2,6.7,19.8,5.09
64,65,Bruce Miller,SF,FB,14,519,37.1,59.3,1.3,6.9,6.2,8.3,25.6,4.9
65,65,John Kuhn,GB,FB,15,322,21.5,28.7,3.1,5.9,7.1,9.0,15.9,4.9
66,67,James Develin,NE,RB,16,322,20.1,26.9,1.2,1.2,2.5,2.5,13.2,4.09
67,68,Jed Collins,NO,FB,16,442,27.6,39.2,3.4,4.09,6.6,7.5,15.9,3.6
68,69,Tommy Bohanon,NYJ,FB,16,371,23.2,35.29,4.59,4.3,7.5,8.9,13.1,3.5
69,70,Erik Lorig,TB,FB,15,383,25.5,37.0,0.0,3.7,2.9,3.7,4.7,1.2
70,70,Jerome Felton,MIN,FB,13,301,23.2,35.7,0.0,2.7,2.0,2.7,3.7,1.2
71,70,Zach Line,MIN,FB,3,68,22.7,34.29,0.0,4.4,1.5,4.4,0.8,1.2
72,73,Greg Jones,HOU,RB,16,329,20.6,29.3,0.6,3.3,2.1,4.0,3.6,1.1
