,title
Debt Consolidation,78
Personal Loan,54
personal loan,38
Consolidation,35
Debt Consolidation Loan,31
debt consolidation,28
personal,28
Credit Card Consolidation,20
Personal,18
Home Improvement,18
Debt consolidation,17
Consolidate,13
consolidation,12
Consolidate Debt,11
Consolidation Loan,11
consolidate,11
Consolidate debt,10
Wedding,9
Wedding Loan,8
Home Improvement Loan,8
Working Capital,7
Credit Card Payoff,7
Education,7
Home improvement,7
Personal loan,6
Major Purchase,6
Credit Cards,6
Loan,6
loan,6
Credit Card Debt,5
home,5
DEBT CONSOLIDATION,5
Refinance,5
Credit Card Loan,5
consolidate debt,5
home improvement,5
Student Loan,5
Loan consolidation,5
Credit card consolidation,4
Small Business Loan,4
Engagement Ring,4
Debt,4
Car Repair,4
car,4
Business Loan,4
My Loan,4
Consolidation loan,4
Education Loan,4
Credit Card,4
payoff,4
Debt consolidation loan,4
credit card,4
CC Payoff,3
credit cards,3
credit card consolidation,3
Consolidate credit card debt,3
Consolidating debt,3
Car Loan,3
Debt Consolidation loan ,3
Refinancing Credit Cards,3
Business,3
Travel Resorts of America,3
bill consolidation,3
Paying Down Credit Cards,3
Bridge Loan,3
wedding loan,3
Getting Married,3
my loan,3
moving,3
home loan,3
Credit Card Refinance,3
Home Improvements,3
Ring,3
credit card pay off,3
Credit card payoff,3
Auto Loan,3
Pay off credit cards,3
Loan 1,3
business loan,3
Consolidating Credit Card Debt,2
Credit card debt,2
Debt Consolidate,2
Small business loan,2
Pay off high interest credit cards,2
Consolidate Credit Card Debt,2
new kitchen,2
Credit Debt,2
Getting back on track,2
refinance,2
Vacation,2
relief,2
Taxes,2
Consolidation ,2
New Travel Trailer,2
Home,2
Business loan,2
help,2
Debt Relief,2
car repair,2
Motorcycle Loan,2
My loan,2
Debt Consolodation,2
credit card debt,2
personnel loan,2
House,2
Home improvement project,2
One Payment,2
truck,2
Medical,2
other,2
debt consolidation loan,2
Business expansion,2
2010,2
Refinance credit card debt,2
Debit Consolidation,2
My Personal Loan,2
bills,2
Consolidate Credit Cards,2
Credit Card consolidation,2
CC Refi,2
Wedding Expenses,2
Credit Card loan,2
Lending Club,2
Home addition,2
Debt Consolidation.,2
home improvement loan,2
consolidation loan,2
Career Training Loan,2
Loan1,2
Pay Down Credit Cards,2
First Time Home Buyer,2
Medical Loan,2
Pay off Credit Cards,2
pay off credit cards,2
home improvements,2
Debt Consolidation ,2
Consolidating high interest debt,2
Kitchen Renovation,2
Refinancing Credit Card,2
Help,2
debt,2
pay off debts,2
Freedom Loan,2
auto loan,2
Credit Card Debt Consolidation,2
debtconsolidation,2
Debt Loan,2
Personal Loan ,2
Home Down Payment,2
Business Expansion,2
CREDIT CARD DEBT,2
me,2
Moving Forward,2
Bills,2
Down Payment,2
Personnel loan,2
Wedding Funds,2
Consolidating Credit Cards,2
PERSONAL LOAN,2
wedding,2
lending club,2
Investing,2
Pay off debt,2
moving loan,2
Bill Consolidation,2
Adoption Expenses,2
Paying off Credit Card balances,2
Lending Club Loan,2
On the path to debt free,2
Credit Consolidation,2
Need to Consolidate debt,1
one payment,1
Pay Off Credit Card / College Tution,1
Consolidating credit card debt.,1
 help my son in wedding,1
get rid of debt,1
Consolidate and Elinate Debt Forever,1
Personal Loan for Debt Consolidation,1
motorcycle purchase,1
derek,1
more lower  rate,1
a helping hand,1
Help Consolidate debt,1
DEBT RELIEF,1
Want to pay off high intrest cards,1
Improvements,1
Debt Repayment,1
Short Term Secured Loan,1
credit car payoff,1
Buiness Investor,1
Pet Sitting/Dog Walking,1
Taking the First Step by Consolidating,1
Ian ,1
Friend's Italian Wedding,1
Well,1
Managed Technology Provider Startup fund,1
You need to crawl before you can walk,1
Banker needs small personal loan,1
JFP Loan,1
Refinance Unexpected Expense,1
helping family,1
Pay credit card off,1
Cutting up Credit Cards,1
Time to Get on Track,1
landscape improvement,1
Armando Home Improvement,1
James,1
Dependable Income; debt consolidation,1
Schooling,1
lisadebtconsolidation,1
Sdolphin,1
Zach's Pre-Blis Loan,1
Cards and Loan,1
"Need a car, get rid of SUV",1
Lease-Option Condo Purchase,1
Get Out of Debt Faster!,1
jen's loan,1
no more credit cards,1
Student/Credit Card Loan Consolidation,1
lower monthly payments/interest,1
Loan Consolidation,1
No More Card Debt!,1
Steph Debt Consolidation,1
Consolidation of bills,1
Payoff Auto Loan so I can sell my car,1
good loan,1
Wishing To Remodel My New Condo,1
Refi Credit Card,1
401k Repayment,1
Home Improvement / Car,1
Reducing Credit Card at a better rate,1
relief loan,1
House Project,1
April's Loan,1
Need money to consolidate debt,1
putting in new kitchen,1
Helping to fight against child abuse ,1
money,1
School,1
more reasonable rate,1
Daughters wedding,1
Craig's Money,1
Dawn,1
To pay for my vacation to India,1
private,1
matts loan,1
"Looking for new home, Please help!",1
School loan,1
HomeLoan,1
jennifer,1
Air Conditioner Loan,1
Refinance High Interest Citifinancial ,1
Consolation Loan,1
Medical Professional Seeking to Consolidate High Interest Debt & Student Loans,1
Furnishing my first home!!,1
Adopting our first child from Vietnam,1
Got 35% CC's APR Help me cut it out 1/2,1
refinance-closing cost,1
New Car Fund,1
The Greek Tavern,1
Help me pay for a new roof on my house,1
credit cards & income property expences,1
Get out of Debt,1
consolidate my debt,1
Chase Credit card,1
Help with college expenses,1
Amy L,1
surgery loan,1
HSP ,1
6000 for pruchase,1
Refinance debt to 1 payment,1
wrap,1
quality customer,1
Prudent Refinancing and Education Loan,1
Help with Toxic Debt,1
Plastic Surgery Financing,1
Transfer Personal Loan,1
Refinancing,1
Payoff Credit Cards,1
Credit Card Consolidation Loan,1
Fiscally Responsible,1
Debt Consolidation Load,1
student loan,1
Business Loan to help grow business,1
Cash Tree,1
PayOff,1
Pay off personal loan and pay off CC ,1
2008 Tax Payment,1
tied up funds,1
landscape,1
RomyPJ Funds,1
Project 2,1
dodge,1
"Racked up the cards, making them go away",1
Moving to San Antonio,1
Getting rid of terrible intrest rate!,1
No more credit card bills,1
downpayment,1
Looking for Help With Misc. Needs,1
My Home Project,1
Personal Loan to Purchase a Truck,1
Wife-Master's Degree,1
"lower payments, home improvements, babies",1
No More Holiday Debt,1
Small Medical Practice ,1
Low Risk Liquidity Loan,1
Vestor,1
Apartment Complex,1
Pay off high interest Visa card,1
consolidate debt and fund hobby,1
purchase work pickup truck,1
Business Consulting Firm,1
Loft conversion for EXTRA rental INCOME,1
Freedom from debt loan,1
College Payments,1
buy a business,1
Marija's Personal Loan,1
August 2010,1
Seeking Loan of $5850,1
Law School Help,1
Pers Loan,1
Money for the perfect wedding,1
Great Credit,1
auto,1
Shastina's Loan,1
Laying a new driveway,1
Moving from Madison to Dener for new job,1
wedding ,1
paying credit cards and doctor bill.,1
Paying down credit card debt,1
Credit cards be GONE!!!,1
2400 Loan,1
Engineer seeks Environmental Training,1
College Fund,1
New Roof,1
Clean House,1
new deal,1
Chase Credit Card,1
Stop AmEx credit card abuse! Pay off bal,1
Need to Pay for Dog's Vet Bill,1
"Purchased new home - fence, blinds",1
Responsible Borrower,1
Wedding Exp.,1
Debt Be Gone! ,1
WEDDING DAY,1
BetterRateLoan,1
Investment Funds,1
drodo,1
"To buy a foreclosed home, fix it and flip it",1
New Home,1
money just waiting,1
Business bridge loan,1
Purchase,1
Laptop,1
KILLER CREDIT CARD INTEREST RATES!!!!!!,1
Consolidate!,1
Move,1
I need to consolidate,1
School Loan Payoff,1
Hoping to rid the Credit Card Madness!,1
payoff bills to start saving,1
buying a duplex at incredible low price,1
Help Appreciated in Paying off Some Debt,1
debt consolidation ,1
home improvement project,1
FIRST,1
Invest in forclosures,1
pay off,1
Refinancing credit card debt,1
Need funding for a wedding,1
food4babies,1
debt_consolidation,1
pre deployment consolodation,1
Debt Consolidation / Credit Card payoff,1
Loan to consolidate debt,1
vacation,1
"Out with the old, in with the new!!",1
nissan payoff,1
Bill Consolidation Loan,1
Newlywed Couple Trying To Pay Down Debt,1
Credit consolidation,1
Tort,1
Buying a painting,1
Finance Lending Club Loans,1
All purpose loan,1
Wood floors/ paint,1
medical,1
Hot Water Heater and Roof Repair,1
Excellent Credit History,1
backontrack2010,1
"Wanted: New Home for ""MY DEBT""",1
bill,1
Solidly employed seeks better rate.,1
Pay off high interest debt!,1
Small Business Owner Seeks Funds,1
Banks are becoming unbelieveable!,1
Consolidate and Educate,1
Going back to school for MBA,1
Inventory for Small Business in California,1
Credit card,1
netty,1
Loan for a Great Customer!,1
Means to Effect Positive Change,1
Worth-Debt-CC-Consolidation,1
The Final Hurdle,1
fix my teeth,1
Roof replacement for my home,1
Refinance of Timeshare,1
rhino loan,1
Computor Loan,1
ac bust out,1
All_debt_in_one_basket,1
Starting Over after Divorce,1
Ease my tooth pain; earn interest!,1
susuch,1
Tuition for Harvard Extension School,1
Shasta,1
CREDIT CARD LESSONS,1
payoff higher loans,1
Consolidate High Interest Debt - CC's,1
Wedding expense loan,1
Partner Buyout,1
Debt consolidation and home insulation,1
Consolidating loans with baby on the way,1
Trying to Avoid Paying PMI on New Home,1
Pay off student debt,1
Ratherpaypeoplebackthanbanks,1
Kimberly's Get Out of Debt,1
 Reliable borrower seeks to consolidate,1
Private Equity Consultant,1
Credit Card refinance,1
Negative Equity and Credit Cards,1
Dental Assistant,1
Credit card interest too high!!!,1
Debbie,1
Building for the future,1
Refinancing Motorcycle/ Purchase Vehicle,1
New Way of Life,1
Debt Consolidation and Rate Reduction,1
To pay off credit card,1
10k consolidation loan,1
"Solid Employment, Safe Opportunity",1
DCL  DEBT CONSOLIDATION LOAN,1
G-Man's Loan,1
Manageable Debt Consolidation,1
trickles,1
Comics for Kids,1
Short Term Loan,1
I finally got a surgery date....,1
Looking to eliminate high interest debt,1
High Interest Consolidation,1
Loan Consolidation at lower rate,1
Hate Credit Cards,1
Packleader's Dough,1
car payoff,1
Medical/Dental Bills,1
Student Loan and Debt Consolidation,1
Augmentation,1
Make one Payment and lower interest rate,1
Credit cards,1
Around the world,1
Partial Property Tax Loan Payoff,1
3 year loan for motorcycle,1
Home improvement and debt consolidation,1
Paying for my freedom,1
Shell's Goal,1
Debt free here I come!,1
Loan for Bathroom Redo,1
2004 Tahoe,1
IT Professional Education,1
Responsible individual consolidating,1
Funds to Purchase a 97' Mazda Miata,1
payy off the balance,1
Travel Resorts of America TNC23,1
Kitchen,1
Summer Vacation,1
Young Entrepreneur Needs Computer,1
Maternity,1
Household Reorganization ,1
Attempting to keep credit score high,1
Rebuild,1
Consolidate debt and be debt free in three years.,1
LC Loan,1
Just needing a bit of money,1
Debt Cosolidation,1
Home Mortgage Refinance,1
education  exp,1
Starving student needs means of living.,1
Elimination of Credit Card Debt,1
cell phone ,1
Green Business Start Up Expenses,1
Credit Card Coinsolidation,1
a consolidating debt loan,1
"Reduce high interest rates, consolidate",1
Refinance Credit Cards to better rates,1
Please help,1
Payoff high-rate CC Debt - No DQ/missed,1
"Refinancing Two Credit Cards, NO DQ's",1
65 Engine,1
Please Help Me Cut Out the Credit Card Cancer!,1
Capital for Business Venture,1
Single Father Securing Stability,1
Solid Credit Safe Opportunity,1
JAL Loan,1
Consolidation Loan-3200,1
persona loan,1
Credit Card Refinancing,1
furniture,1
payoff my bills,1
"Honest, seasoned self-employed boprrower",1
Improvment Loan,1
Main Loan,1
Consolidate Bills,1
continued education ,1
New beginning,1
Kangan,1
Interest Rate,1
baby loan,1
Consolidate and Home Improvement,1
Dieu Loan,1
Business Loan funds,1
Hawaii  toMaui,1
Credit card's intro APR ended,1
Credit card loan,1
Dr Bills,1
TL Personal Loan,1
dollars for debt,1
Building Permits,1
Help me make a transition,1
Cushion,1
Consolidate credit cards debts,1
Fence My Yard,1
Consolidate Hight Interest Credit Cards,1
Need surgery/ finish paying off debt,1
gabefm,1
Moving to Texas,1
Tim's Loan,1
pay off debt,1
A loan for a new beginning.,1
Don's Loan,1
Paying for Grad School,1
Used car loan for a Health Prof student,1
Firstime Homebuyer getting a tax credit soon,1
Less than $5 group,1
Consolidating High Interest Credit Cards,1
Consolidate my debts into one payment,1
First Home Closing costs!,1
Small Business Growth,1
paying off 3 credit cards,1
DJ,1
Bill Payments,1
paybills,1
We are paying for our wedding,1
Back in Black 2011,1
medical expenses,1
Be a Hero! Save me from 30% interest rates!!!,1
paying off high interest credit cards,1
Consolidate debt for a better rate,1
Help Me Get Back On Track,1
Pay off old debt,1
Custody Case,1
Wedding ,1
Opportunity to Succeed,1
Marini a r,1
Pay off higher interest rate credit card,1
Care Credit Consolidation,1
Credit Card ,1
consolidate ,1
Rags to Riches,1
Fresh Start 2010,1
Wedding site deposit,1
Struggling to stay afloat,1
They showed me the boot so get my loot,1
ExcellentBorrower,1
first home loan,1
Jbvilla's Loan,1
Film Production Company,1
Lisa Wedding Ring,1
loan for a used carpet cleaning machine ,1
Dreaming of swimming in our OWN POOL!,1
Looking to payoff high interest credit cards!,1
Vend business,1
Dream House,1
help us,1
2003 Ford Taurus,1
Oil & Gas Investment,1
Working hard in life pays off. ,1
Dirt Bike,1
Reduce Credit Card Debt,1
Bills payoff,1
starting over,1
debt refi,1
Help me pay for school,1
Manhattan Move,1
MsTex14,1
Ameri-lite,1
Cheerleading Fees and Debt Consolidation,1
BUYING FORECLOSURES - HUGE RENTAL INCOME,1
Getting it Right,1
Refinancing Prosper loan...,1
Adopt-a-Schmuck,1
business upgrade,1
"Improving credit, pay off last CC",1
Want to see the light again,1
Engineering Grad Must Refinance Card,1
baaz,1
Debt  Consolidation,1
Need money to purchase car.,1
Got to go Green,1
Help student lower interest rate,1
debt help,1
I am expanding my business.,1
Bank of America- Blah!,1
home fix,1
Loan for Car Payoff,1
PAYING OFF CREDIT CARDS BALANCE,1
Research On Global Warming,1
Pay high interest credit cards & loan,1
Recent college grad needs to get around,1
Debt Consolidation Needed,1
jamiroquai,1
Outrageous Credit Card Rate,1
Help Me Get Back on My Feet,1
Minor Home Loan,1
CPA Exam & Review,1
Consolidate at a better rate,1
Wedding credit card debt,1
Chase Refinance Loan,1
relocation expenses,1
getting free,1
Paying off a high interest consumer loan,1
Start up business fund,1
Upgrade,1
John needs a loan,1
Credit Card Insanity,1
Going to the chapel,1
Merry Holiday Home Reconstruction,1
home improve,1
A Modest Proposal - Credit Card Help!,1
college grad moving to first apartment,1
wedding and vacation,1
Back to School,1
Transitional Housing,1
Sure Thing,1
Saving Gary,1
Help Me Buy a Beachfront Cafe in Florida,1
New Bike,1
Finally Over,1
Credit Card Loan Repayment,1
Retiring credit card debt,1
Various,1
Pay off Tax Bill,1
Eliminate unsecured debt,1
money for engagement ring,1
help me lower my high interest loan!,1
Credit Card Eradication,1
Home improvement/Debt Consolidation Loan,1
need money for college tuition,1
investing in education,1
Personal Debt Consolidation,1
Need a change of residence ASAP,1
pay back,1
home makeover,1
Consolidating CC's with high Interest ,1
Credit Card Rates are ridiculous,1
New House - Big and Empty,1
Home Basement Completion Expense,1
Strong Web Business Seeks Fundraising,1
Consolidating Credit cards,1
Medical/Vacation Tim,1
Need to fix my car,1
Working on Administrative Degree,1
Car repairs/Debt consolidation,1
Paying my taxes,1
Working Capitol & Equipment Funding,1
Get Better rate than B of A,1
baby consolidation loan,1
State Schools Wrath Strikes Again,1
Request,1
retirement,1
Pay off credit card,1
Small Business Funding,1
Pay Credit Card Balance,1
Consolidating Higher Rate Loans,1
Consolidation: Lower Interest Rates,1
Payoff prosper loan,1
Loan to buy a car,1
Bike,1
Pay off my credit cards!,1
Transition loan due to divorce,1
Purchase of Apartment Building,1
Clean up credit card debt,1
Darren's Consolidation ,1
Want to Pay Off College Debt,1
Getting away from Washington Mutual,1
Need to pay less for my gas each week,1
Robert's Loan Request,1
Shop Tools,1
dj loan,1
Paying off high interest credit card,1
Adding Inventory,1
Pay down my debt,1
Investment,1
consolidate bills,1
Consoldating debt,1
Jared's Debt Consolidation,1
Chase closed my credit card account,1
Finances New Beginning  ,1
flash,1
Debt Consolidation - 0 missed payments,1
Daughter's mission trip,1
E-Z Mini Mart,1
New Business & Transition Expenses,1
Worldmark the (Steal Your Money) Club,1
Help with my high interest payments,1
REFINANCE DEBT @ LOWER INTEREST RATE,1
helping family out,1
CC Pay off,1
Lending Club personal,1
Clean credit - needs consolidation until investments pan out,1
Needed Car repairs,1
home Improvment,1
Debt Consolidation - Want a lower rate!,1
Social Worker with Impeccable History,1
Lending club is a great service!!!,1
Buying out my stock options!!,1
The Fix,1
Tax Payment Loan,1
payback high interest credit card,1
I have an opportunity of a lifetime,1
"""Good Loan""",1
Pay Off Bank of America Card,1
Refinancing high interest loan,1
Student Loan - need help,1
bathroom remodeling,1
Just got promoted,1
My credit card interest rate is too high,1
I need $6000 for 3 Years,1
Moon Loan,1
Paying off my credit cards,1
You make money while I save on interest,1
Roof Replacement,1
Home Remodel,1
Relisted-Working Capital For Family Business,1
Pay off Purchased Merchandise,1
Wedding Finance Loan,1
bobs loan,1
Family consolidation & edu,1
consolidate credit card debts,1
ebn loan,1
Business Third Party Lending,1
Cinatasxyw,1
always on time,1
Business 10 Yrs in biz - happyballs.com,1
Refinancing 2 high-interest credit cards,1
three-year,1
Short Term (60 day) business loan,1
other consolidation,1
Phils Loan,1
Getting ENGAGED,1
One Debt,1
vacation to fiji,1
Travel Trailer,1
"Bob""s bill",1
Personel Loan,1
Refi credit card-great payment record,1
Loan Request,1
Giving back to investors to save on high bank rates,1
Engagement/Wedding Expenses,1
Debt consolidation loan to save interest,1
Employed CPA wants to consolidate debt,1
PURCHASE OF RENTAL PROPERTY IN INDY,1
Consolidating debt & personal loan refi,1
for a new apt,1
New Year Debt Consolidation,1
Loan for Auto and Credit Repair Needed,1
Loan for Debt Consolidation,1
Getting a better Rate,1
apartment,1
This loan is to pay all my credit cards,1
Home Renovation Loan ,1
Sailboat Financing,1
Bathroom Remodel,1
Doris F. Eash,1
Triple thread business loan,1
PR Home,1
Debt Monkey of My Back,1
2008 resolution,1
Debt Consolidation Loan to lower interest rates,1
Extra Money for HouseHold furnitre,1
..and a Pony,1
jeremys handyman service,1
Dawn's debt consolidation,1
Give a Girl a Break!,1
Ian Personal Loan,1
Tracy&Andrew,1
Debt consolidation and new baby loan,1
Consolidate Bills/ Home Improvement ,1
Refinance & Conquer,1
repair,1
expenses,1
Mother of 2 debt free with your help,1
School expenses,1
Personnel,1
Roof,1
Europe,1
Expanding professional practice,1
CAPITAL ONE CC,1
Partnership Bridge Loan,1
"Infusion Group,LLC",1
better rate than credit card,1
Consolidating and minimizing debt spread,1
Loan Investment,1
payment,1
Need capital for business startup,1
Ashleys loan to consolidate my debts.,1
Lowering interest rate,1
Beat My Debt,1
Fast and easy pay,1
brads loan,1
"$10,000 Loan",1
EDUCATION,1
Investing in Education,1
Credit Card Re-Fi,1
Scooter,1
CC DEBT CONSOLODATION,1
Business/Personal Investments,1
Moving Expenses,1
High Interest Credit Cards Suck,1
Million Dollar Baby,1
Credit Card Debt Loan,1
Death To My Credit Cards,1
Business Loan For New E Commerce Site,1
Social Entrepreneur,1
ADN-RN to RN-BSN loan :-),1
Unforeseen Expenses,1
Business Purchase,1
Property Worth Investing In,1
Debt Consolidation. Starting IT Business,1
Camper,1
Debt Consolidation to improve credit ,1
Need Loan for Business Startup,1
Mango Tango,1
Melodies Loan,1
consolidate the rest of my debt,1
Eliminate Debt,1
Rudy and Trantte,1
Brandon,1
making things better,1
Window and Siding - Front,1
post weight loss surgery,1
Elderly Homecare Start-Up Loan,1
House down payment,1
X Loan,1
trip overseas,1
Eliminating Credit Card Debt,1
Real Estate Investor Loan,1
Looking to purchase a Motorcycle,1
Xelamed ,1
Pay Manageable Monthly Payment,1
udi,1
I WOULD LIKE TO FURNISH MY APARTMENT,1
Motorcycle loan,1
Citicard Payoff,1
Backyard improvements,1
Pay off personal debt ,1
personal loean,1
Dental expense,1
MBNA Refinance,1
Debt Consoldiation & Purchase Inventory,1
Move In Purchase,1
Pay off Credit card,1
Paying off debt,1
high interest rate is killing me,1
Arborist Needing Truck - thanks.,1
Need extra funds for wedding expenses,1
loan1,1
Trying to Afford the Dream,1
Help Me Get Debt Free in 5 Years,1
Travel Resorts of America TNC30,1
grandkids move in,1
Revamp Income Generating Website,1
Help to pay off high interest cards,1
To get out from under ...,1
20% Down Payment on foreclosure home,1
Debt reduction,1
Moving to Cali,1
to payoff and consilidate bills,1
Assist Family Members,1
Divorce / College Help Loan,1
2 cc,1
Erradicate my DEBT !!!,1
Going Green!  Installing Energy Efficient Windows in My Home,1
Looking for Loan For Lower Interest Rate,1
College living expenses and Roth,1
Debt cosolidation,1
Retirement prep,1
no credit cards for me,1
business,1
Tracy and Andrew,1
Upgrade Apt,1
Vivid,1
boat loan,1
Please help!,1
Need capital to make adjustments,1
Kimmie,1
Investing in a SOLID business!,1
Road to Peace,1
Help a Dynamic Small Business Grow,1
Personal Line of Credit,1
Make my life easier!,1
Purchase new Snowmobile,1
kitchen,1
Norm,1
Refinance/consolidate 2 Credit Cards,1
Small Investment Needed to Carry Through,1
Consolidating store cards,1
Wheels to Work,1
Hoping to pay off high interest credit,1
house reconstruction,1
Pay off debt and fix truck,1
Pay Off Credit Cards and Personal Loans,1
Looking to consolidate credit cards,1
the lending club,1
Pay off higher rate credit cards/Home ,1
The Shoe Loan,1
cutrate,1
Need 3k to pay off Credit cards,1
Consolidate Debts,1
Add to Credit Mix?,1
Debt Payoff,1
Engagement Ring!,1
CreditCardPayoff,1
Spa Purchase,1
Reducing my Credit Card APR,1
"Out With Old, In With New Lower Interest",1
MY LOAN,1
5 Year,1
Didi67,1
first rental investment,1
FUTURE INVESTMENT,1
Payoff last of Student Credit Card Debt,1
Debt Free In The City,1
Geoff's Car Loan,1
Renovate property for rent-to-own buyers,1
Borrowing to Invest,1
homeimprovement,1
Getting it together,1
Improvements On Home,1
First_LC_Loan,1
For Love Always,1
help with debt consolidation,1
cleangreenamerican,1
Need a little help to pay of credit card,1
Small business loan for developing ecommerce online store,1
growing professional business,1
Having a Baby and consolidating Debt,1
Wedding expenses,1
Education Investment,1
Jon's Loan,1
loan pay,1
Refinance Debt,1
Discover better rate,1
Bathroom ReModel,1
INVESTMENT LOAN,1
Rare motorcycle purchase,1
Debt consolidation for faster payoff.,1
Wilson,1
Expansion on business venture,1
Credit Cards and Pest,1
Shogun,1
Surgery,1
Matt's Loan,1
Stonesrule,1
High Income Professional needs quick loan to consolidate debt,1
Freedom from Credit Cards,1
adding 4th unit to 3 unit home,1
homehealth,1
House Completion Loan,1
Excelerator Productions loan request,1
Buy into Franchise,1
Financial Freedom,1
House needs repair,1
Pay off higher rate cards & personal,1
Small Business Boost,1
debt free,1
Art Dealer on Ebay,1
Loan Needed for Home Improvement,1
Law School,1
Adopt a math student!,1
Consolidate debt from divorce,1
Carina's Loan,1
retirement help,1
Loan to Purchase Sensible 4 Door Sedan,1
Business Consolidation Loan,1
My Aid,1
New Furnaces,1
refi,1
Need to refinance my car,1
need money to cosolidate,1
Debt consolidation - bms,1
Long Island Resident to Refinance CC ,1
Short Term needs,1
Consolidating my credit cards,1
Card loan,1
Credit Card Rate Refi,1
Real Estate Taxes,1
bee business expanding,1
Moving loan ,1
consolidate debt ,1
I need a little help,1
Help me get back on my feet after Layoff,1
Life in order,1
Paying off credit cards ,1
Ready to Run Race Truck,1
much appreciated,1
Jeep Financing,1
Aaron's Moving Cushion,1
re-model bathroom,1
Loan for a transportation vehicle,1
floors,1
Loan needed for business expansion,1
Our Kitchen Remodel,1
Pay down home equity loan,1
Bundle Payments,1
Getting Rid of High Interest Credit Card,1
education,1
Merging 2 Accounts into one to save $$,1
After School Debt,1
Imagination Creations,1
Refinancing Credit Card Debt,1
want to say goodbye to credit cards,1
jack,1
Loan for home improvements,1
Pay off Chase credit card,1
to invest in Education,1
Daddy pays down Debt,1
Financing the Computer Connection,1
High Interest CC,1
Feuker Debt Consolidation,1
to pay for surgery,1
Helping Hand,1
"Consolidate debt, bigger IRA/401(k)!",1
A No Risk Loan,1
REFI,1
House Improvement,1
Investing in Medical School,1
Silkysmooth,1
pay of high interest credit cards,1
Unexpected legal expense,1
Better habits and New Start for 2008,1
Credit Card rates are too high!,1
Used Car Dealership,1
Buy automobile,1
Debt under one umbrella,1
Fund me you wont regret it!,1
pay off bills,1
Pittsburgh Move,1
new life awaits,1
Real Estate Investment,1
Summer 2010,1
second loan,1
PG Loan,1
Debt Consolidation Loan Request,1
Pay off Wedding,1
House Help,1
Lawn sprinkler system,1
Payday,1
Paying off Bad Debt!,1
marketing,1
Tori's First Home Improvement,1
Income Tax + Debt Consolidation Loan,1
Arbitrage,1
Tax Loan,1
debt free in 3 years,1
Motocycle,1
VACATION & PAY OFF DEBT,1
Scooter loan,1
HVAC,1
Wanting To Consolidate Debt,1
MBA Loan Consolidation,1
Bye Credit Cards,1
Christa's loan,1
credit,1
clear and free,1
pay off high interest loans,1
lexicondevil75@gmail.com,1
Freedom from every day,1
Ready to get married- wedding loan,1
Credit Card Balances,1
payoffloan,1
Business expansion/equipment,1
Remodel jarvis,1
Consolidating credit card debt,1
Reduce APR to Fully PAY OFF,1
jkbaseball,1
Lowering Car Rate and Moving,1
cschamberger,1
College grad looking for better rate,1
Luke's Debt,1
"3,000 application",1
investing in residential Land,1
Bathroom loan,1
Home Lona Down Payment,1
"Graphic designer with great credit, paying down debt",1
Lower interest rate to reduce payments,1
Need new car for work,1
NEED MONEY TO BUY FORECLOSURE DEALS!,1
Great Business Opportunity,1
Promote music Album,1
Expanding my growing Business,1
$15k to consolidate debt,1
Auto loan,1
Debt killer,1
medical and other,1
to pay off high interest credit cards,1
trying to buy an engagement ring.  ,1
Greatest time to close my education loan,1
Financing the dream,1
ROI guaranteed,1
Steps To Success,1
my own business,1
refinancing credit cards,1
Home Improvement (Electrician),1
Debt consolidation - short term,1
The Mark Loan,1
Add-ons,1
Scott,1
FRESH START MOVING EXPENSES,1
Bridge loan,1
electronics,1
Geothermal,1
Loan for Summer Course,1
2002 Jayco Pop up camper,1
Jennifer's medical bills,1
Investment property down-payment/rehab,1
Weatherization and Renewable Energy Loan,1
Payoff high interest credit card debt,1
Getting a head start,1
My Interest Rates Are Too High! ,1
Small business working capital,1
Adoption Loan,1
AC LOAN,1
Payoff some debt,1
Business Needs To Move Forward,1
Home improvements,1
Reducing interest pmnts on high APR CCs,1
Consolidate and Medical Loan,1
Painting project,1
Wedding and debt consolidation,1
Opportunity,1
Personal  Loan 2000,1
Teacher Consolidating Debt,1
Home repair,1
What's up with Credit Card Interest Rate,1
In Hope of Life Changing Makeover,1
Womens Boutique,1
Jack,1
"Wife is pregant, must lower APR!",1
Consolidate for 2008,1
10K for Amex,1
Fencing and Gutters,1
end 'express consolidation' plan,1
Credit Card Elimination,1
New Home Buyer,1
TacoNaco,1
NEED HELP!!,1
Pay off my credit card,1
Consolidation at a better rate,1
My Credit Card Loan,1
Eliminate CashCall + high rate cards,1
ESW,1
Personal Business,1
I'm too smart to keep paying high rates,1
loan and bike,1
florida,1
SUCCESS IN OK,1
Career Training Loan ,1
Negative Equity Finance,1
Ben's Debt Consolidation,1
Ebay Business Expansion,1
Credit Debt Consolidation,1
Student Loan SJSU,1
cris,1
2010 PLAN,1
Investing in Lending Club Notes,1
BEAUTY SCHOOL,1
Four week loan term!,1
Jane's Room,1
Consolidate Credit Card Debt...,1
CC Consolidate,1
credit card elimintion refinance,1
TaxRelief,1
CC Debt - Rather Have You Get Interest,1
Invest in Zensah Inventory,1
Paying off car,1
Homeimprovement,1
Expanding Horse Boarding Operation,1
Making this the best year ever,1
"16,000",1
New kitchen,1
Need to Consolidate Debt for Dental Work,1
Refinance my personal ,1
free and clear from credit card balances,1
Mishas boo boo,1
Expand Delivery Capability,1
HARTLEY,1
Buying high-profit apartment building,1
unexpected expenses,1
Consolidate and lower rate,1
Kill My Credit Card Debt,1
Finance an escrow deficit.,1
First time home buyer,1
Purchasing a Vacant Lot near Disney,1
Need to pay a bill,1
vanguard payoff,1
Always pay my bills.,1
Funds needed during JD Program,1
Engagement Loan,1
Time to Eliminate Credit Cards,1
family medical bills,1
Please help fund my wedding loan,1
CC Refinance,1
Chocolate Impressions Website  Build,1
Home Improvment Loan From San Jose CA,1
Rick King - business loan,1
Down Payment Assistance,1
Kina's Loan,1
10K,1
fulsher,1
Ericks Loan,1
W650,1
House updates,1
nicki's loan,1
CC Eliminator,1
important move to texas,1
Loan for paying off school debt ,1
Raley Law Firm Business Loan,1
Consolidating for better cash flow,1
Getting Married!,1
JAKE'S DEBT CONSOLIDATION,1
Terri's Debt Consolidation,1
Consolidating Credit Card debt,1
Pay off Credit Card,1
Let's Pay off The Cards at a Better Rate,1
Business Bridging Loan,1
TO PAY OFF CREDIT CARDS,1
otis,1
SPORTS STUFF,1
Graduate Education Payment,1
Property Purchase & Rehab,1
Credit Card Debt!,1
Beneficial Payoff,1
Goodbye Credit Cards,1
Car and Credit Debt Consolidation,1
peterspencervalimont,1
Attorney Stole $50k - Trying to fix it! ,1
Refinance credit card,1
income property,1
Dog Whisperer Destroyer,1
expanding my construction company,1
Refinance College Debt,1
Stupid credit cards!,1
Payoff Credit cards,1
Refinance my High interest credit cards ,1
Improvement,1
Lawyer refinancing higher rate debt ,1
Establishing Photo Studio in New Area,1
Want to cut up high rate credit cards,1
Consolitation Loan,1
credit consolidate,1
Pay off credit card and Medical Expenses,1
Casey,1
ranger,1
Consultant Investments,1
Equipment purchase for business,1
motorcyle,1
For Car,1
reinvest,1
Credit Consolidation Sept 2010,1
Hello,1
Debt consolidation and engagement ring,1
NEED A LOAN,1
quick loan for re-finance,1
personal/business,1
Web Design Business Expansion Loan,1
New homeowners need appliances!,1
Paying off Debt,1
Hope is a Mainstay,1
Our Wedding,1
tracey loan,1
Closing Costs for Dream Home,1
KarenS,1
mustang,1
Din,1
Debt Restructuring,1
My APR is killing me,1
Kathy,1
Home Improvement - Just Purchased,1
Cherokee,1
"More Cash Flow, One Easy Payment ",1
Refinance B of A CC,1
Paying down school loan debt,1
Bad Car Loan Payoff,1
IRS Bill,1
Payoff,1
Pay of my credit cards,1
Hurricane Katrina GoZone Renewal,1
Expansion of New Collection Company,1
for better home,1
Motorcycle,1
Car improvements,1
briansnyder00,1
HIGH INTEREST CONSOLIDATION,1
AmyL,1
Expansion Capitol,1
consolidate cc debt and a few other bill,1
Recent College Grad with New Job,1
Refinancing Loan and Credit at a better ,1
Credit Card Payoff Loan,1
Recycling Plant in East Africa,1
Pay off credit cards *credit score 712*,1
First Time Home Purchase,1
Refinance exiting home loan.,1
Final Legal Fees,1
Reduce credit cards and intrest ,1
Looking to paying off credit cards.,1
Business Financing for Custom Winery,1
Peon in west virginia,1
jclarke5878,1
Van Loan Refinance,1
Daniel Debt Consolidation,1
DES Loan Request,1
Temporary Financing,1
consolidating credit card debt,1
Funding web design project,1
Consolidate high interest credit cards,1
DavidYuLoan,1
lending club experience,1
I need a car,1
DEBT CONSOLIDATION LOAN,1
My Catch up Loan,1
Help me get out of debt,1
over the hump,1
loan for responsible attorney ,1
New House,1
Goodjobdesiretodothesmartthing,1
1976 Airstream,1
THANKS!,1
Dept Conso,1
Refinancing Credit Card at a better rate,1
Splash40,1
electrical repairs loan,1
Personal Loan Request,1
Jennifers Loan,1
Pay off loan,1
consoldate ,1
Credit Card / Loan Consolidation,1
Heat Pump Payoff,1
Refinancing Mastercard,1
Ambitious start-up ready to grow,1
wedding/vacation,1
Engine Loan,1
Melinda Holster,1
Family,1
Loan Lending,1
Mobile Dynamics,1
IRA contribution,1
PAY OFF CARDS,1
Consolidating credit cards,1
CEO Refinancing Credit Card Debt,1
MINE,1
Breaking Up with Bank of America ,1
401k LOAN REPAYMENT,1
PAY OFF MY MOTORCYCLE,1
Credit Repair,1
Interest Rates are killing me...Help!!!,1
Re-Lending to others,1
Need money to fix my car,1
Tarrick,1
Car Refinance,1
Just trying to tie up loose ends,1
Major Car Repair,1
Candy123,1
Pay off the IRS and Outstanding Debt,1
Lower Rates,1
Consolidate my credit cards!,1
ME,1
Investment Loan,1
Home Sweet Home,1
Yankees,1
Coder Medical,1
QUICK REHAB LOAN,1
Need a loan!,1
For car repairs and vacation,1
Well Established Physician,1
Need to pay high rate credit cards,1
Purchase of a business,1
Help for a injured Vet.,1
credit cards are the devil,1
TiNi,1
Consolidated,1
to better my life,1
t's payoff,1
New Custom Painting Business ,1
Closing costs & furnishings of 1st home,1
A Good Investment...,1
Nursing,1
Get outta debt!!!,1
Family Personal Loan,1
Medical expenses on my credit cards,1
Consolidate credit card debt.,1
Ryan Loan,1
Looking to Consolidate Debt,1
A new direction,1
Consolidate small debts,1
Closing costs for my first home ,1
Citi Rate,1
Help consolidate and eliminate debt,1
Debt reducer,1
MyLoan,1
Adin,1
Consolidating some credit card debt,1
rged,1
"pay off all debt, one monthly payment",1
PerLoan,1
Karen's loan,1
Last funds needed for engagement ring and to help build credit,1
Getting rid of high interest rate,1
Jake,1
getting straight,1
Major Purchase Loan,1
Educational Pay Off,1
Previous Debt Repayment,1
Chicago Home Purchase,1
Summer Classes,1
Investing in Personal Education,1
school,1
pd.bubba,1
pay off credit card debt,1
To help further my education,1
Help in buying my first home,1
Consolidation and Special Purchase,1
life over,1
Surgery Loan,1
fisrt one,1
"Payoff 2 credit cards totaling $10,000.0",1
GETOUTOFJAIL,1
Kyle Frederick,1
6k Loan,1
Eliminating High Rate Cards,1
Pipes burst,1
improvement,1
Loan for future medical expenses,1
Refi Credit Cards,1
Hown down payement - LendingClub,1
2010 consolidation,1
Consolidation of Credit Cards.,1
Patriot,1
small personal loan,1
throwmeabone,1
more reasonable rates II,1
"IMPROVEMENTS IN MY HOME IN FONTANA, CA",1
Kyle Fuller,1
Recovering after Divorce,1
My Debt Reduction Loan,1
Consolidate debt & wedding expenses,1
2000 Honda Civic Loan,1
Finish Residency,1
Trying to give my Fiance' a nice wedding and need a little help.,1
DTR,1
Short-term loan to finish home project,1
Single Mom,1
personal Loan,1
Personal Loan to help with Medical bills,1
Getting out of credit card debt,1
Apartment,1
Help me Help Myself Loan,1
Used vehicle,1
Credt Card Pay Off,1
Home improvment,1
I need to breathe,1
 The ONE,1
VETERAN CREDIT CARD RELIEF,1
Pay off Rate-Hiked Cards,1
repair several vehicles,1
Payoff high interest credit cards,1
Septic Loan,1
Mutual Benefit ,1
dasichai,1
Small Business Venture AZ,1
Baby is coming,1
Physician Loan,1
Improvements to our private Retreat,1
LendingClub Loan,1
chrisalcott,1
Aug11,1
Debt cosilidation,1
Starting a long term investment,1
Consolidate all CC debts,1
Yes,1
Assistance with Down Payment,1
HELP A LADY OUT,1
SCHOOL,1
Expanding Business,1
travel processing wedding over seas,1
oodis,1
Wanting out of Credit card debt,1
Luigi,1
Auto Repair,1
To buy the perfect franchise for us.,1
Cards,1
To pay off a credit card ,1
bye bye you bad cards,1
Pay off my debt,1
Credit Cards & Student Loans,1
Finish Home Construction,1
Pay off High Rate Finances,1
Medical ,1
Debt Consolidation on Back Taxes,1
Get out of debt,1
37 year old INTJ seeks cheap capital,1
Corporate Lawyer's Wedding expenses ,1
Couple trying to start a new life,1
ebay bike,1
Renovations to Rental Property,1
Mobile home purchase,1
convertible_bmw,1
Ram's Loan,1
Joined Army Res. want to consolidation,1
loan required to finish a house purchase,1
"Yay, Debt Consolidation!",1
Debit Loan,1
Travel Resorts of America TNC17,1
Wedding 7/17/10,1
Todd Brittingham Loan,1
klf,1
Seeking small business start-up funds.,1
Be Unique Gifts....by Brandy,1
Convert a credit-card balance to a loan,1
ms,1
Starting over,1
collene's loan,1
Eliminate high interest accounts,1
property rehab,1
Jani-King Franchise Loan,1
House Loan,1
Rad tech man,1
nurse loan,1
Hunter-Jumper-equestrian,1
The big event,1
Home improvement loan one.,1
investment & debt consolidation,1
Disney world,1
Liquidity,1
Payoff high Interest rate CC,1
Consolodate Debt,1
GET OF DEBT LOAN,1
Get repaid by a lawyer quickly for once!,1
First Car,1
Payoffs,1
clean up,1
Fence,1
Truck Loan,1
Starting a local business,1
Paying off debt & Summer school,1
Debt Help,1
Small Business Partnership Loan,1
Pick me!  Pick me!  Pick me!,1
dsojedi,1
Getting Back On My Feet,1
December,1
Pay Off Credit,1
Tired of Credit Cards,1
weight loss surgery,1
Marry My Lady,1
Need some walls...,1
WANT TO BORROW MONEY TO GROW BUSINESS,1
Debt cleanup,1
Investment 1,1
Paying off summer tuition,1
Paying off Credit Card Debt,1
Getting back on Track,1
Pay off my Debt,1
Credit Card consolidation loan,1
Seeking a loan for Wedding Expenses,1
Would rather have 1 monthly payment ,1
small business credit consolidation,1
Veazey,1
Pay off medical bill,1
trailer,1
Not so new car,1
I want to get my Sister a car for work.,1
Educational Loan,1
Pay off Credit Cards and Auto Loan,1
Consolidation - Prosper Loan/Credit Card,1
Striving for a fresh start,1
pay off some medical bills,1
Grandkids to Disney,1
payoff expenses,1
Ian,1
House Hunting,1
Boat Purchase,1
Want to Consolidate credit card debt,1
abc,1
cred card debt,1
Lower APR needed on debt,1
College Bound,1
Restarting College Education,1
First,1
Always pays on time,1
"Debt Consolidation Loan $9,500.00",1
Personal Loan DQ,1
Books/Car,1
Kitchen remodel,1
"Paying people, not banks",1
Hardworking Victim,1
Pay off small debts,1
Vacation Money,1
Credit Card debt Cosolidation.,1
finishing PhD & refinancing credit card,1
FreedomFromDebt,1
"Updating website, increasing inventory",1
Cosolidate debt,1
Apt renovation loan,1
reliable,1
Reduce the interest rates on credit card,1
Investment in insurance agency,1
bobby's consolidation,1
"Fit financially, now fit physically",1
Education for the future,1
consolidation personal finances,1
1979 Harley Davidson Shovelhead,1
Rentals 4 list of housing applicants,1
Debt consolidation Exc Borrower,1
Discover Card Cut My Limit in 1/2,1
Home Improvment 1,1
CCR: Credit Card Wee-vival,1
"Erase My Debt, Clear My Mind!",1
New House Becomes a Home,1
paying of bills,1
She got it all.,1
Personal Consolidation Loan,1
school debt,1
Would like to refinance a 14.9% APR debt,1
Payoff credit cards 2008,1
HomeImprovement,1
credit card refinance,1
After college credit card pay down,1
KYP,1
Credit Card Consolidation/Rate Reduction,1
Short Term Loan needed ,1
chiroboy02,1
freedom 09,1
Laura,1
debit consolidation,1
down with credit cards,1
CC PAYOFF,1
Income too high for down payment grant,1
Relocation Expenses,1
Car financing,1
Make Home Wheelchair Accessible,1
Float/Survival Loan,1
FOXBORO,1
Debt relief!,1
Freedom loan,1
company ,1
startup business,1
Pay Credit Cards with High Interest Rate,1
need to eliminate high interest loan,1
honing my skills,1
For agency serving disabled adults,1
Apartment Loan,1
Fixer Upper,1
Help Me Finish My Degree,1
Install new fence in yard,1
Used Car Loan,1
Jenn's Loan,1
Paying off Mum's surgery,1
Debt Consolidation - 2010,1
"Payoff student loan, purchase laptop",1
credit card debit,1
Business is Booming!!!!,1
Pay Off Items,1
Marte's Money loan,1
CONSOLDATE & FINISH BASMENT,1
Credit Card debt,1
want to get out of debt,1
Getting Out Of Debt,1
Home purchase,1
New Store Opening Soon,1
Home improv,1
Purchase of plow,1
Investing in my son's future!,1
payoffsears,1
my wedding,1
A's2Zee's,1
Artist Needing to Consolidate Debt,1
Consolidate Car Loans and Credit Cards,1
a better life,1
Patti's loan,1
Wedding Expenses / Debt Consolidation,1
Busienei,1
Gary's Loan,1
SAVED,1
Home Furnishings,1
Dental Expense Loan,1
Wanna be debt free,1
Loan for our new Website,1
Short-Term Cash Issues,1
Consolidate Credit Card Deb,1
Medical and Credit Debt,1
Reduce monthly payments,1
Metalending,1
dt consolo,1
Established Residency and Employment,1
repay home improvement,1
scott credit refi,1
Patio/Landscaping/Fence,1
New Homeowner,1
Debt Consolidating,1
Joe's,1
New Heat Pump,1
Sales executive seeking home improvment funds,1
marriage loan,1
Scholarship Fund,1
chase relief funds,1
LOAN,1
Paying Off Credit Cards For Better Rate,1
Get rid of these cards,1
Home re-model,1
Pay off and close my credit card account,1
Trying to clear my debt with lower %,1
Moving Loan,1
Say Goodbye To Credit Counseling Debt,1
Guaranteed repayment,1
The first loan,1
Repayment of Credit Card Debt,1
Cons. Loan,1
Investment properties,1
Pay friends who helped mother's funeral,1
Pam Spittler,1
Denture Payment,1
eliminate credit cards debt,1
Loan for engagement ring purchase.,1
New Years Resolution....,1
loan 2010,1
krj,1
Debt Consolidator,1
HCFCU and CARD,1
Replace old roof,1
Audra Hargrove,1
ccard,1
home_improvement,1
Kitchen Remodel,1
Same Job 27 Years_Good Borrower,1
350 Rich. Terrace,1
Business expansion loan,1
P2P Investments,1
"Responsible, Never Late, Trustworthy",1
CREDIT CARD PAY OFF,1
Moving Expense Loan,1
Used car trade ins,1
Potter Consolidation,1
Help me get into the home of my dreams!,1
business fulfillment,1
Finish Basement,1
robert martinez loan,1
Toward's college tuition,1
buy low sell high,1
Hot Item,1
debt pay off,1
6067 moonstone,1
Pay off 2 High Credit Cards,1
On my own,1
Personal Loan~Pay off high interest cc's,1
Debt Consolidation & Home Improvement,1
PAY OFF BILLS,1
kiwidebtconsol,1
LW Med Loan,1
Consolodate High Interest Credit,1
buying a new computer,1
Elaine27376,1
Summer Improvements,1
Small Business Loan / Full Time Employed ($80k) year,1
Paying off higher interest credit cards,1
RV,1
Need to buy one piece of equipment to increase profit of my small business:,1
Need help to reach the American Dream,1
I hate plastic!,1
Repayment of Medical Cost,1
Help Get Rid Of High Credit Card Debt,1
New transmission for truck.,1
June CC Refinance,1
25k at 10+%,1
Home remodeling,1
Low risk  (New Dentist),1
Loan to consolidate credit card debt,1
Travel Resorts of America TNC15,1
This is to make my life happy,1
Counseling Student Loan,1
NEED A QUICK LOAN / CAR + MOVING EXPENSE,1
Payoff Credit Card,1
School Assistance,1
Lower Credit Card Rate,1
"Debt reduction, home value increase",1
Renting Apartment: Need security deposit,1
engagement ring,1
Consolidation Request,1
Short Term Loan Requested,1
Emergency fund,1
Consolidate Credit,1
Get free!,1
Help pay for sons' education,1
New Personal Loan,1
Prosper? No! Lending Club? Yes!,1
Wedding Reception,1
paying creditcard and dental partials ,1
drake loan 1,1
pay off 2 bills,1
debt and medical,1
Citibank rate increase from 4% to 16%,1
Consolidate High Interest Rate Cards,1
Help a good man out.,1
good credit,1
Operation Freedom From Debt,1
Debt Consolidation / Credit Cards,1
Debt Consolidation from College,1
Pay my debt,1
PAY OFF DEBT,1
TWR,1
Fort Lauterdale,1
Sensible Woman Seeks Alternative,1
Pay off my 30%apr credit card,1
Hard Working Single Mom Debt Consolidation,1
personal ,1
Marketing Expansion,1
Paralegal's Debt Consolidation Loan,1
pay bills ,1
Repay Citibank Credit Line Debt,1
Help me2help my mom,1
just want to make one monthly payment,1
Business Growth - Weight Loss Franchise,1
Building Apartments,1
Small Debt Consolidation to Save Credit,1
Mazda Loan,1
Juan Diego tuition,1
Lowering my credit card interest rate,1
Just to get through the month,1
Downpayment Help for Dream Vacation Spot,1
Paying off high interest student loan.,1
Inground pool install,1
Secure Future consolidation,1
personal unsecured loan,1
Credit Card needs refinancing,1
Financing for business,1
medloan1,1
Responsible investor,1
pay it all off,1
FS,1
Pay off debt and start buisness,1
Consolidating,1
Home Basement Construction,1
Credit Card Balance Payment,1
Relocation Loan,1
Refinance Credit Card,1
Law Practice Working Capital,1
Credit Card refinancing ,1
Moving out,1
Consolidation 2010,1
DVD Rental Machine Purchase,1
christmas,1
Denise,1
Funding my growing business!,1
Bobbie,1
Bill Buster,1
Relocated to NYC for Career,1
Consolidation of Credit Cards,1
Travel Resorts of America TNC27,1
Roofdeck for my new NYC apartment,1
Lower my bills,1
Debt Cons,1
Pay off high interest Credit Card,1
Mel's Loan,1
Need short term loan to pay bills,1
Replacing an aging truck,1
New flooring,1
Home Depot Payoff,1
loan to lower my credit card rate,1
It's not my money!,1
Debt consolidation Loan,1
Credit Card Cut Up,1
college,1
HelpingHands,1
Refurnishing Basement,1
Consolidate high interest loans ,1
Stop Look Loan,1
For paying final 2 semester tuition fees,1
Medical Pay,1
debt consol,1
PA Improve,1
pay off cards,1
Retiring my Capital One Credit Card,1
Suranie Debt Consolidation,1
Wedding Ring,1
Jason's Loan,1
jump starting advertising and marketing!,1
Generator,1
AC and insulation upgrade,1
College Tuition,1
Moon Flooring,1
High Profile new business loan,1
consolidate credit cards and car debt,1
Home improvement investment,1
Loan for 2nd Vehicle,1
BamaGal,1
Finally making my house a home!!!,1
Dream Loan,1
Debt Freedom,1
Summing it up,1
Rid the budget of 'Prosper',1
Purchases,1
car purchase from auto auction.,1
Consolidation/Car Repairs/Personal Use,1
Pay off my Bills,1
ReFinance/consolidate,1
"Need help with BOA cards, refinance",1
30 Year Roof Needs Replacing After 40,1
Edu...,1
Payoff CapOne High Interest Loan,1
credit card debt consolidation,1
Debt Reduction Plan,1
Fidelis Fire Protection,1
Shannon's Loan,1
Wagon or X Series,1
New Apartment,1
natasha's loan,1
cowdollar@hotmail.com,1
rainydayhascome,1
Paying off my dental bill,1
pay off small debts & make home improve.,1
AMANDA,1
Eliminate high rate credit cards,1
Good,1
Loan to a Physician,1
Captial Financing,1
IRS ,1
Consol,1
Pay Off High Interest Credit Card,1
Empty Home,1
house renovation,1
To pay off debts,1
ktt,1
Fix Up Investment Property,1
High Interest Credit Consolidation,1
lending club loan 1,1
Debt Consolidation Lower Interest Rate,1
Hurricane Shutters,1
Future,1
personal loan ,1
For me,1
Refinance for better rate,1
R6 Loan,1
Financing for New Business,1
Recent college grad buying 1st car!,1
Amici's Loan,1
Dan Loan,1
Financing for car,1
A1 Purchase,1
Credit Card Pay Off Loan,1
MOVING EXPENSES,1
the loan,1
Renovation of apartment in two family,1
My GREEN PROJECT IN HOME,1
Expansion of side consulting business,1
Engineer Needs Loan to Start Consulting ,1
Professional wants to lower mo. pmts,1
Responsible Borrower Seeking to Simplify,1
Buying IPODs for my Store in Miami Beach,1
Help Me Consolodate To 1 Monthly Payment,1
Wedding Expenses/Home Improvement Loan,1
Help Fund My Home Web Business,1
10 Months of School! ,1
refinancing,1
Consolidated Debt,1
Need help with high-interest balance!,1
loan to pay off high interest card,1
Walter's loan,1
My Credit History Speaks For Itself. Need Loan for 50% of Wedding Expenses.,1
Tito5000,1
my friends,1
P's Family Credit Loan,1
Refinance current Personal Loan,1
getting ahead,1
For a 01 BMW X5 waaay under book,1
kmy007@hotmail.com,1
Lemon Lane roof,1
Jamie CC Loan,1
"Credit card refinancing, home projects",1
Purchase wood flooring for my home.,1
Reunion Trip,1
Aaron's Loan,1
Consolidation of CC & Auto Loan,1
"Consolidating debt, and cushion",1
Personal advancement,1
Debt Consolidation + Funeral Expenses,1
Great Loan for Great Borrower,1
Inventory,1
Adam Loan 1,1
Consolidate Loan,1
SIMPLIFY THINGS,1
I PAY MY DEBTS!,1
Vacation 2009,1
HELP ME!!!,1
Elizabeth's Personal Loan,1
Funding for Eco women's clothing line,1
Master Jonathan,1
Baby Bills,1
Pay 4 credit cards with high interest,1
Credit Card Refi,1
Loan Number One,1
Getting rid of credit card debt for good,1
Purchase candy vending route,1
Paying off high rate credit cards,1
Home Improvement/ Investment ,1
Hard Worker - NEVER LATE - Fresh Start,1
Work Truck,1
need to buy a piece of land ,1
Debt Refinancing,1
Jim 's Consolidation loan,1
Home Improvment,1
Adoption & Home Improvement Consolidation,1
driving 4 the future,1
betty's freedom,1
home improvment loan,1
Appliances for Newly Built Home,1
Excellent candidate with perfect on time,1
Debt Consolidation and Student Loan,1
Rental moving expenses,1
Paying off High Interest Debt,1
AROD3009,1
CC Consolidation,1
Want a Loan For Vacation,1
Would rather pay you my interest!,1
small business loan (art cafe),1
fresh start one bill,1
trigg loan,1
Final debt consolidation,1
Creating a Credit History!,1
auto repairs,1
surgery needed asap,1
"Year 1 $250,000",1
Paying off a high interest credit card,1
veterinary clinic,1
Continuing to build my credit!,1
Jason H Collins,1
Family Affair,1
Monkey Off My Back,1
Motorcyle Purchase,1
I need to buy Furniture for my room!,1
Help me with credit card debt,1
Surgery Procedure,1
debt consolidation/large purchase,1
Our family needs your help!,1
Moving - Need some money,1
Personal loans,1
Luisa's Consolidated Loan,1
Expansion of Established Web Business,1
pay down credit cards,1
Seeking attractive rate debt refinance while maintaining the equity in my home.,1
Property Rehab Loan,1
Debt Consolidation - Good Credit,1
Loan Refinancing and Moving Expenses,1
John Business Loan,1
Stuck with High Interest Credit Cards,1
School Stuff,1
Paying off high interest CC debt,1
Michael,1
Supplies for Start-Up Business,1
3K Personal Loan,1
My New Life,1
Credit cards & 1099-misc,1
Multiple Loan Payoff,1
Timber Investment,1
Looking to improve,1
Rebooting my debt,1
Help start up my business,1
Need this loan for even on 24 mth term,1
Small Business Expanding,1
Home Loan,1
Would like lower monthly payment,1
kitchen remodel,1
American Investor,1
Nursing Education Loan,1
Ruth Clark Loan,1
6000,1
Have Only Mortgage in Inside Two Years,1
QuickCash,1
remodelin my kitchen,1
Working Capital for Business growth,1
improvements,1
Divorce Loan,1
kee debt consolidation,1
Personal Loan for school and consolidate,1
loan for allan,1
Credit card interest rate skyrocketing!,1
Paying off tuition and books ,1
Small business loan for Inventory,1
education & purchase a car,1
education/personal loan,1
Main Street,1
Debt Free,1
Paying off credit cards,1
deployment,1
Unexpected Medical Expenses,1
small business loan,1
Lower My Credit Card Rates,1
Debt Consolidadtion,1
growing person,1
LUCK,1
Supporting My Education,1
Loan Consolidation & Spouse's graduation,1
pay off AT&T,1
paying off higher interest card,1
Debt Management,1
Helping move,1
Melynda's Consolidation,1
K.B.F. Personal Loan,1
consolidating debt,1
Love my new bathroom,1
Interest rate too high on credit card,1
Used car loan,1
Had 720 Fico- Bought Condo- Benz Repair,1
moving to nyc,1
go on vacation in 08,1
Angela Kay Myrick,1
012910,1
paul's debt loan,1
Financially Stable Borrower,1
Cheshire,1
"Revolving Debt Consolidation, high income, stable industry",1
need to get debt paid off quickly,1
Transferring from credit card due to significant APR increase,1
debt help loan,1
Lower Interest Rate,1
Julie's 30th Birthday Get Things In Order Personal Loan,1
Loan for Continuing Education,1
Joey's & Courtney's Wedding,1
Aftra Membership,1
Home care during recovery from surgery,1
Strong Finanical Direction,1
Hair Stylist Expanding Business,1
Helping my son,1
Reinvest as a lender,1
Paying Down Debts,1
PLEASE HELP WHEN IT'S NEEDED THE MOST!!!,1
young adult establishing loan credit,1
Card refinancing,1
mdloan,1
Kitchen and Bathroom Remodel,1
Eliminate high interest,1
"IMPROVEMENTS IN MY HOME IN HOLLYWOOD, CA",1
Card Consolidation,1
responsible person looking to consolidate debt,1
Carnival of Credit Card Consoldiation,1
interest,1
Car repairs,1
176 Citrus Ave.,1
Build-credit/helping friend/trip/bike,1
Drum set loan,1
Increase my FICO score,1
school loan,1
PHEV Conversion Loan,1
Loan to consolidate dept to one payment,1
Attorney,1
ex payoff loan,1
Pats Loan,1
One Step Closer To Buying a Home,1
High Interest Debt Consolidation,1
Short-term Loan - Guaranteed Payment -760 credit score,1
Credit Cards and Medical Bills,1
Good Bye Credit Card Debt!,1
Five Cards; One Payment,1
Pay Off My 401K Savings Plan Loan,1
Credit Cards payoff,1
"Finishing college, starting a new consulting gig in the big city!",1
Consolidation CC,1
Looking to start an Internet Business...,1
spasha,1
XMAS Dreams,1
Flawless payment history + high salary!  I just want out of credit cards!,1
Loan 1 A,1
Personal Loan for College Educatio,1
Home Based Bakery,1
Need load to consolidate credit card deb,1
Loan Tony,1
November 08,1
Please help me become debt & worry free,1
Single Loan,1
Master bath remodel,1
Finishing Off a Student Loan,1
Heat Pump,1
Consolidate Debt to become debt free,1
Educational Expenses,1
tax refund advance,1
Women Owned Small Business Loan,1
Short Term Business Loan,1
Personal Moving Loan,1
Buying my first car,1
Finish Land Improvements - Well needed,1
Greatstuff4cheap,1
parsonal,1
Need to pay off motorcycle loan,1
Credit Card Debt-Free,1
Consolidating Date for Home Purchase,1
Pay off all credit Cards,1
Pay for Brothers Wedding,1
Freedom to live,1
VW Beetle,1
Private School Help,1
"home improvement project, stone patio",1
2010 Consolidation,1
Consolidate at a better interest rate,1
Great Credit Lower Interest,1
bill payment,1
consolidate high interest cards,1
Mortgage Pre-Payment,1
Only one Payment,1
2nd LendingClub loan - finishing CC debt,1
Bathroom addition,1
Clean up debts,1
biz loan,1
medical help....,1
Consolidation for Employed Student ,1
October Loan,1
December Loan,1
Capital Equipment - Business Start Up,1
Defeating the Tax Man!,1
clearview mech. inc.,1
$5000 car loan to be paid back in 6mo,1
PersonalLoan,1
A little Debt Consolidation,1
seeking to expand my painting business.,1
New Bathroom,1
Quality Home improvement systems,1
high credit card ,1
general purpose,1
Alfred's Consolidated Loan,1
Stable Employment & Secure Income,1
Escape from ridiculous interest,1
JC,1
High Interest Credit Card Consolidation,1
Miniature Horse Barn,1
Michael's  Loan,1
dvd vending machine,1
peace of my for a new mom,1
wedding ceremonies in different cities,1
Just trying to get things on track....,1
credit payment,1
Loan for up coming Medical,1
Short-term loan for engagement/wedding.,1
Business Financing Aug 2007,1
High Interest Credit Card Refinancing,1
Melissa,1
SafeWithMe900,1
Get id of high interest cards,1
"Consolidate debt, freedom from plastic",1
bill's,1
Need to put in new countertops.,1
Consolidate my debt!,1
Amy's Loan,1
huereca2,1
Consolidation & Emergency Repairs,1
Pay for grad school,1
Need financing for used car,1
help father's medical bills,1
Domestic Adoption Expenses,1
Getting rid of c.card debt for good,1
Debt payoff,1
Payoff my Lease,1
Reorganizing my finances to buy a house,1
Refinance Credit Cards,1
Big Move,1
Consolidating Debt ,1
Established Gov. Supplier Seeks Capitol ,1
Money for down payment on wedding venue,1
Educational/Business Debt Consolidation ,1
