,title
Debt Consolidation Loan,311
Debt Consolidation,204
Credit Card Loan,105
Consolidation,66
debt consolidation,56
Debt consolidation,42
Credit Card Consolidation,37
Personal Loan,34
Small Business Loan,33
Credit Card,31
Other Loan,30
Personal,23
Home Improvement Loan,22
Credit Card Payoff,22
Car Loan,21
Credit Card Refinance,21
personal loan,19
Home Improvement,18
consolidation,18
debt_consolidation,17
payoff,14
credit card consolidation,13
Other,12
Consolidation Loan,12
Consolidate,12
Medical,11
Major Purchase Loan,11
Loan,10
Wedding Loan,10
Business Loan,10
Vacation,9
consolidation loan,9
Credit Cards,9
Credit Consolidation,9
Debt Loan,9
personal,9
Credit Card Consolidation Loan,8
credit cards,8
Freedom,8
Moving Loan,8
Small_Business Loan,7
Bill Consolidation,7
home improvement,7
credit_card,7
Wedding,7
freedom,6
consolidate,6
credit card,6
Debt consolidation loan,6
credit card payoff,6
Bills,6
CC Refinance,5
Refinance,5
CC Consolidation,5
my loan,5
debt,5
Credit card payoff,5
Debt Consolidation ,5
My Loan,5
loan,5
new start,5
Credit Card Payoff Loan,5
Loan 1,5
Lending Club,4
CREDIT CARD PAYOFF,4
credit card refinance,4
Personal loan,4
My loan,4
credit card refinance loan,4
Home Improvements,4
debt consolidation loan,4
Credit Card Debt Consolidation,4
Home_Improvement Loan,4
Debt Free,4
House Loan,4
Cards,3
debt free,3
Debt Consolidate,3
Debit Consolidation,3
pay off credit cards,3
personal ,3
Credit Card Pay Off,3
Vacation Loan,3
pay credit cards,3
Personal ,3
christmas,3
Payoff,3
loan 1,3
Credit Card Debt,3
LC Loan,3
Home improvement,3
DEBT CONSOLIDATION,3
Ring,3
credit_card Loan,3
medical,3
Auto Loan,3
Small Business,3
Credit Card Refi,3
Pay off,3
Consolidation loan,3
Credit card consolidation,3
Moving,3
CC loan,2
Debt Reduction,2
bill consolidation,2
debt relief,2
credit debt,2
credit card payment,2
Back Yard,2
The Blessing Loan,2
moving,2
Lending Club Loan,2
Moving Expenses,2
Debt loan,2
DebtConsol,2
debit consolidation,2
Payoff Loan,2
Financial Freedom,2
Credit Card Freedom,2
Pay off credit card,2
Conso Loan,2
Boat Loan,2
Card Refinance,2
Consolidate Credit Card Debt,2
Motorcycle,2
major purchase,2
Pay Bills,2
Credit card refinance,2
debt consolidation ,2
safety net,2
Jeep,2
Credit card refinance loan,2
Credit Card Repayment,2
Refinance Loan,2
Debt Payment,2
HOME IMPROVEMENT,2
DEBT FREE,2
Credit Card payoff,2
Credit Card Consolidation ,2
other,2
Card Consolidation,2
credit loan,2
Pay off Debt,2
Freedom Loan,2
refinance,2
Business,2
Get out of Debt,2
Pay Off Credit Card,2
Major Purchase,2
credit card loan,2
No more credit cards,2
home,2
Pay Off,2
Breathing Room,2
Car,2
bill pay,2
Pool,2
CC Payoff,2
debt payoff,2
Free at last,2
Pay off Credit Cards,2
business,2
Purchase,2
Credit card debt,2
card payoff,2
Credit Card Payment,2
Debt ,2
credit,2
consolidate bills,2
Home improvement loan,2
Home,2
Car Repair,2
Pay Down Debt,2
Consolidated,2
CCConsolidation,2
debt loan,2
personel,2
credit card debt,2
Pay off loan,2
cc loan,2
2011 Consolidation,2
Business Start Up,2
CC Debt,2
refi,2
2011 Debt Consolidation,2
Debt Payoff,2
Refi,2
Consolidation Loan ,2
Family Loan,2
bills,2
Truck Loan,2
PAYOFF,2
Pay off credit cards,2
Money,2
bike,2
CONSOLIDATION,2
Holiday,2
Debt Cons,2
Loan Consolidation,2
Roof,2
pay off cards,2
get out of debt,2
pay off,2
FREEDOM,2
Myloan,2
personal loan ,2
2011 loan,2
Operation Credit Card Drop,1
Consolidation Nov 2011,1
Personal 2,1
The last and only one,1
Finish off the Debt,1
Debt Consolidation loan ,1
Debt payoff,1
CC/Car,1
Dallas moving,1
New Personal Business Initiative ,1
jeeploan2002,1
Last chance consolidation,1
Main,1
Helping me loan,1
401k pay off,1
Start Over,1
Mike's Personal Loan,1
bebt consolidation,1
CREDIT CARD DEBT,1
The light,1
WEDDING LOAN,1
12/2011 loan,1
Unepected expense,1
Debt Reliever,1
November Loan ,1
get out of jam,1
December relief,1
debt down con't,1
lowpay,1
Past due bills and tires,1
Pay off Credit cards loan,1
fund for finance,1
Debt At One Place,1
shred those cards,1
New Kitchen,1
Floor,1
Stratos,1
Debt Consolidation - Dec 2011,1
Alabama Consolidation Loan,1
Everything Paid,1
Excellent Payment History Borrower,1
Short-Term Business Loan,1
Family Emergency Funds,1
NewKnee,1
the pay back,1
Pay off credit cards!,1
Forever Gold,1
Lending Loan,1
Road To Debt Freedom!!!,1
Get out of debt,1
Master Bath,1
Personal consolidation,1
nodebt,1
Recent College Grad Consolidating Debt,1
student loan debt consolidation,1
Want to pay off my 2 CCs @ 25% APR,1
Credit Card Refinance - Excellent Credit,1
Medical and Debt Consolidation,1
Ranger Loan,1
HOME REMODEL,1
Card's,1
Solar panel loan,1
pay my credit,1
Consolidate Credit Card,1
buying houses,1
Consolidating Debt into One Monthly,1
Emergency,1
Unexpected Expenses,1
Medical Emergency,1
Installment Loan,1
debit consolidation ,1
Smart Budgeting,1
Car Downpayment,1
Credit payoff,1
Moving expenses on high interest cc,1
 winter loan,1
LOAN CONSOLIDATION,1
toy,1
Car Restoration Loan,1
mustang,1
Debt Repayment Loan,1
Superior,1
credit card and home improvement debt,1
main,1
My_Loan,1
Medical Leave - Household Expenses,1
Credit Card Consolidation (27% to 10%),1
Loan to pay  high interest Credit Cards,1
credit payment,1
credit payoff,1
Salt Spreader,1
To pay off the credit card loan,1
Credit Card Refi 2011,1
Bank of America Pay-Off Loan,1
property taxes and debt consolidation,1
Famleisure,1
horse trailer,1
card refi,1
Combine 2 credit cards into fixed loan,1
CC refi,1
Toolbox,1
Patent Purchase,1
floridahome,1
small_business Loan,1
Stress relief,1
Last Loan,1
2012 New Beginnings,1
Loan for all debt consolidation,1
Travel,1
pay off debt loan,1
CHRISTMAS,1
credit consolidation,1
Credit Card Payoffs,1
Refinance high interest credit card,1
Refinancing Loan,1
Relocation Assistance,1
Helping out my wallet,1
New start,1
top up,1
keywest,1
Debt pay off,1
"Consolidation, Lower Interest",1
Fresh Start,1
Short term,1
home improvment loan,1
Erase my debt!,1
loan payoff,1
Loan Refi,1
debt cosolidate,1
Vaction loan,1
No More Debt,1
1995 Holiday Rambler,1
Foundation Repair,1
Take Control of Finances,1
amex and cap off,1
Necessary Money,1
Debt Cons 11,1
BILLS DONE,1
fix up the house,1
DebtConsolidate,1
Credit cards payment,1
Paying off high rate credit cards,1
Final Consolidation,1
REA-Debt,1
paydude13,1
Debts,1
Last Loan ,1
Debt / Credit Cards,1
For new business,1
Debt Clearing Commitment Plan,1
Home Improvement/Debt Consolidation,1
Bill loan,1
Credit Debt Consolidation,1
Credit/ loans payoff,1
payoff credit card,1
Credit refinance,1
Payment,1
get out of credit card debt,1
VWLOAN,1
music production loan,1
Debt consolidate five year term,1
Debt Consilidation,1
Credit Refinance,1
Patio,1
Debt Consolitation ,1
cerdit card & debt loan,1
Medical Bill Nightmare,1
Replace Credit Card,1
Opps,1
Peace of Mind,1
Debt Free Consolidation,1
PURCHASING ESTABLISHED PAWN SHOP,1
Home imp,1
5th Wheel Purchase,1
Loan Payoff and Home Improvement,1
Debt reduction,1
credit refinancing,1
Help,1
BILLS,1
Medical Loan,1
My End to Bad Spending Habits Plan,1
pay of credit card,1
4 Debt payoff,1
Credit Cards Pay Off,1
debt freedom,1
Ditch the Cards,1
debtaway,1
Pay off card,1
Apartment ,1
DEBT CONSOLIDATION ,1
my resturant,1
credit loan consolidation,1
Business loan ,1
Help me get ahead,1
DEBT PAYOFF LOAN,1
Debt Management,1
dads,1
Foreclosure Investment,1
We've Never Missed a Payment,1
payments due,1
DC Loan,1
For a Dream Wedding,1
Help me low my interest rate,1
My First Loan,1
goodbye ccs,1
Helpme369,1
Credit Debt,1
no debt loan,1
BUSINESS STARTUP,1
Credit Consolidate,1
Car loan,1
Mypayoff 2011,1
Happy,1
Christmas Loan,1
finacial freedom loan,1
Pay off revolving debt,1
67 camaro,1
New Home,1
Pay of Credit Card Debt,1
followthrough,1
NeverLate,1
MyLoan 2011,1
credit cards and vacation,1
auto loan,1
CREDIT CARD ELIMINATION,1
Credit Card PayOff,1
port,1
Chase Bank Elimination,1
House,1
Wedding bills,1
save the day loan,1
Used Auto,1
Ridding toxic assets!,1
ConsolidateNOW,1
debt restructuring,1
"Boa, citi and chase ",1
Trucking,1
2011 Consolidate Loan,1
Consolidation Facility,1
Smart Choice,1
Debt Free 36,1
Down Payment on Rental Property,1
finish,1
came here for lower interest rate ,1
CC Consolidate - Home Improve,1
payoff ,1
HOME IMPROVMENT,1
Debt Consolidation 2011,1
used car,1
Payoff my Credit Card Debit in 36 Months,1
Debt Consolidatoin,1
pay off high intrest credit cards,1
High interest credit card,1
auto repair,1
heat and air,1
Personal Consid,1
Debt Consolidation for a better life,1
Credit Card Refinance Loan,1
Consolidating Debt from Home Repair,1
person to person,1
no more bills,1
vacation loan,1
Meat Market,1
Pay High Interest CC,1
Pay off Chase,1
No more debt,1
lowerratemeanseasiertogetoutofdebt!,1
Raw Land Purchase,1
Reline pool and fix steeps,1
final go,1
pay bills,1
consolidated credit cards balances,1
Debt Consolidation - 1 Payment for Debt,1
Pay Off Credit Cards,1
PAYOFF TSP,1
Advertising for growing business,1
Inventory/Cash Flow,1
Personal Investment Loan,1
Seed money for educational foundation,1
Business loan,1
BA Chase USAA,1
Swimming Pool,1
Renewable Energy,1
love and life,1
Credit Cards & Laptop,1
US Bank Full,1
rent money,1
Renovation loan,1
payback,1
Debt Consoladation,1
creditcardspayoff,1
CREDIT LINE,1
Credit Refinancing,1
Ninja,1
"Avoid CCs,Various Seasonal and Other Exp",1
Loan to Fix Carpet,1
myroad2freedom,1
CC ,1
Funds for new Apt. (moving),1
Kitchen Loan,1
Pay Off Debt,1
debt consolidation now,1
Refinance your credit debt into one,1
Card free,1
Pay it off,1
loan1,1
wedds,1
moving loan,1
Credit Card Refi Loan,1
Misc. Expenses,1
Cc,1
relieffreedom,1
Debt Con,1
DEBT CON,1
freedom loan,1
New Garage,1
Pay off bills,1
House Down Payment,1
Dept Consolidation,1
Chase,1
Air,1
help,1
PERSONAL LOAN,1
Clean Up,1
Vacation Trip,1
 Debt Consolidation Loan,1
Harley loan,1
Easy payment loan,1
Debt Consolidation loan,1
consolidate loan payment,1
PAY OFF CREDIT CARDS,1
pay off other creditcaard,1
motorcycle not wedding,1
Happiness is ,1
mine,1
November 2011,1
Liberty,1
53 CC Debt Consolidation Loan,1
Debt-Consolidation ,1
Winter Home Improvements,1
Viking Pool ,1
Debt con,1
auto payoff,1
Credit Card Payment Loan,1
My personal loan,1
Debt/Credit Card Consolidation,1
Business start-up,1
Debt/High Intrest Consolidation,1
zipcar,1
Consolidated Debt,1
Pay off my bills!,1
Consolidation Loan December 2011,1
Emergency Expense,1
allen,1
The Last Stand,1
Debit Free,1
Consolidating Credit Card Debt,1
My debt consolidation,1
Farm Buggy,1
Condo,1
Loan 12142011,1
Debt Cleanup,1
Pay off debt,1
DebtConsolidation,1
Debts paid,1
Car repair & debt consolidation,1
Bill Pay off,1
Loan90,1
Consolidate Cards,1
End of year loan,1
Personal Business Loan,1
Debt Relief Loan,1
Barclay Credit Card Loan,1
home improvements,1
personal loan.,1
mortgage,1
Debt Relief,1
Auto repairs,1
Bye bye high interest,1
loan #1,1
Repayment Plan,1
Credit Card Consolodation Loan,1
Debt Consolidation / Lower CC Rate,1
payoff CAPITAL ONE!,1
xmas,1
CC Loan,1
Debt consolodation,1
pay it off,1
Coledon's Club Loan,1
organize,1
marines,1
Extra credit loan,1
debtfreein36,1
12-7-11 DEBT AND MEDICAL CONSOLIDATE,1
medpayment,1
high interest credit card payoff ,1
PAY OFF MY CARDS!!,1
Camper,1
Repairs,1
Manage Money,1
11/19/11,1
Credit Card Payoff/Closeout,1
SAVE ME. IM DROWNING,1
Consoladation,1
CCPayoff,1
Lower Bills,1
PAYING OFF BILLS,1
Debt Free in 3 months,1
Personal events,1
Debt Consolidation Loan Needed!,1
A fresh new year with less CC debts,1
Come Out,1
Major Expense,1
citicard fund,1
Consolidate Debt,1
loan4me,1
LendingClub Debt Consolidation Loan ,1
Refinance Debt at a Lower Rate,1
pay off my debt,1
DECEMBER 2011 LOAN,1
Home Improvement/Christmas,1
Trip Loan,1
PERSONAL,1
Moving to New Place,1
second,1
F350 Loan,1
debt consolidation.. ,1
Debt Freedom Plan,1
Credit Card Debt Freedom,1
Bye Bye Credit Cards,1
farm loan,1
 Home Improvement,1
pay off credit card,1
Tax Dollars At Work,1
Investment Property,1
CC debt,1
Improvements,1
no more CC,1
Pay Personal Loans,1
PersonalP,1
free at last,1
Consolidate me 2011,1
Chase bank pay off,1
Loan20,1
pay cards,1
Credit cards Payment ,1
personnel,1
End 2011 Credit Card Debt Free!,1
One Monthly Payment,1
do over,1
Basement,1
credit cars conso,1
Computer,1
Titanium loan,1
Love Me Do,1
Trading business,1
Expand Business & Buy Debt Portfolio,1
payoff loan,1
DEBTCON,1
Roof Loan,1
Rod Family Finance ,1
CC consolidation,1
A little help from the Universe,1
credit refinancing loan,1
Consol,1
CHASE Credit Card Payments,1
CC,1
mikes loan,1
loan 9,1
Auto,1
Silverado,1
debt  console,1
loan2011,1
To pay of all debt,1
Remodel,1
Faith,1
Home water filtration system,1
person loan ,1
Credit card consolidation loan,1
Moving Expense,1
Last Time Loan,1
American,1
Unexpected Expense,1
MAKE ON PAYMENT,1
Cycle,1
GET FREE OF DEBT,1
car repair and home improvement,1
Refiance,1
Debt consoladation,1
Security Deposit Loan,1
Thanks!,1
DEBT Consolidation,1
Install Truck,1
Reflective,1
High intrest Consolidation,1
Debt-down,1
Crush Capital One Cards,1
Debt Elimination Program,1
Home Improvement / Garage Loan,1
travel trailer,1
Dept consolidation,1
C.C. Payoff,1
line of credit,1
prosperity loan,1
smart,1
lendingclub loan,1
credit card pay off ,1
Credit card help,1
anto cc,1
brighter future,1
Better rate,1
Kitchen/Bathroom ,1
Truck repair,1
All Debt Consolidate,1
Consolidate CCs and pay back family ,1
Getting It Done,1
Lending Club Refinance,1
crf450,1
growing,1
small bill,1
Bathroom Repairs,1
RELIEF,1
Debt Consolidation 1,1
10000,1
Escape BofA ,1
Moto,1
Discover payoff,1
LOAN,1
Let's Change This,1
CREDIT CARD PAYOFF LOAN,1
CC Assist,1
Start Fresh 2012,1
Let's work together to drop my rate,1
Expansion of profitable business,1
Capital to fund Business,1
Post College Credit Card Refinance,1
Clearing out Credit Card Debt,1
one monthly payment,1
Wedding1,1
Invisalign Loan,1
Wedding 8/12/12,1
Lending Club refi,1
Credit,1
CC Debt Consolidation,1
business loan,1
ROLL CONSOLIDATION,1
paid off credit cards,1
comsolidate credit,1
High interest credit card consolidation,1
Start Up,1
Repay Cards,1
RE-DO LOAN,1
Debt relief ,1
honda pilot,1
Car from copart,1
Wiping off 6 ccards in 1 lower rate ,1
No More High Interest Credit Cards,1
debit free,1
36 Months to Freedom,1
Redemption,1
ultimate,1
HOME IMPROVEMENT ,1
Enjoyment,1
Biz Inventory and Acquisition Funding,1
Paying off my credit cards,1
my loan ,1
Killing those big bank cards,1
Credit Card for home improvement ,1
Honda refinancing,1
swimming pool for medical reasons,1
1941 Chevrolet 3100,1
consulidate,1
Bills and Credit,1
get rid of the debt,1
Personal Debt Consolidation,1
Creating More Space,1
Brown Eyes Loan,1
Start Up Business Loans,1
Medical Expenses,1
CCC colsolidate,1
refinance loan,1
84 Post ,1
Get out of DEBT!,1
get rid of some bills,1
last loan,1
On Top,1
debt pay off ,1
Smart loan,1
Property Investment Loan,1
person loan,1
Plastic,1
Credit Card/Loan Consolidation,1
Credit ,1
Debt free ,1
credit balance,1
Debt,1
Get rid of credit card debt forever!!,1
Short Term,1
Sick of high interest rates!,1
credit card reduction loan,1
Fix My Life,1
Refinance CC,1
CCdebt,1
Personal Growth,1
Credit Card refinance,1
Card Closer,1
Building my credit history.,1
Getting Out Of Debt,1
Generator Project,1
cc payoff loan,1
Card Consolidation Loan,1
savings2012,1
Dedt Consolidation ,1
Aid for Credit Card Debt Loan,1
debt for debt,1
CREDIT CARDS PAYOFF,1
Debt Consildate CC,1
E LOAN,1
Credit card payment,1
Fixin my apartment,1
1948 Chev,1
My personl loan,1
pertsonal loan,1
5 Years to Financial Freedom,1
Club Loan,1
Blank Backyard Canvas; Need Resources,1
COSMETIC,1
auto loan with copart,1
Freddom from credit card,1
Get-Out-Of-Debt Loan,1
Our Wedding,1
CleanUpCC,1
quick loan,1
FREEDOM debt,1
house renovations,1
Credit Card Payoff loan,1
DebtFix,1
Credit card loan,1
debt free in 36!,1
Debt Consolidation 2012,1
Christmas,1
Credit Cards Paid,1
Paying off Credit Cards,1
Unsecured Debt Rollup & Refinance,1
Personnel Loan,1
DEBT  CONSOLIDATION,1
florida bound,1
Total Debt Consolidation,1
Complete Home Improvement,1
Credit cards & tuition paid in full!,1
credit card pay off,1
Fresh Start Loan,1
dental care,1
Deb Consolidation loan,1
Consolidate debt,1
Pay all debts,1
Emergency Loan,1
Credit Card Refinancing,1
Pay bills,1
Credit Cards - Pay off Debts,1
Pay off the cards!,1
Business Expenses,1
The 20K Credit,1
New Business,1
LC Loan 11/22/11,1
 Bill pay of,1
Legal assistance,1
Credit card payoff ,1
Small Business Enthusiast,1
Amex,1
Rental Property Refi,1
Credit Card Payments,1
Hope/relief,1
Camper pay off,1
plan b,1
Credit Card REFI,1
Student loan and credit card consolidati,1
Credit Cards Suck,1
2012 Debt Consolidation,1
Car loan and pay off my family,1
Trial Loan,1
relief efforts!,1
Help me get rid of high interest rates!,1
credit cards pay-off,1
Debt Pay Off ,1
Discover,1
consilidation,1
payoff credit cards,1
God's Gift,1
A New Beginning,1
CC payoffs,1
Buying A Modest Home + Small Business,1
Solar Panels,1
florida,1
Debt Free Forever!!!,1
regroup,1
Bailout 2012,1
Lower Rate Debt Consolidation,1
shovelhead,1
Debt payoff loan,1
Help Me Get Back on My Feet,1
Future,1
Major purchase,1
Credit Cards Consolidation Loan,1
get out of debt loan,1
Refinance loan,1
Garage door replacement loan,1
Personal needs,1
Wedding Expenses,1
05' Hyundai Sonata ,1
Loan #1,1
Card payments,1
payoff bills,1
3 Year Debt Plan,1
DEBT CONSOLODATION,1
auto,1
Salon Loan,1
put mine together,1
Debt consol,1
CODEREZEREO,1
blessings,1
april 2012,1
Getting out of debt,1
free from debt,1
cards pay off,1
ccpay,1
Get out of debt loan,1
Credit Card Debt from Years as a Student,1
Dedt Consolidation,1
paid off,1
Payoff plan,1
Get Rid of Debt,1
Pay it down,1
Investment ,1
out of debt?,1
medical procedure,1
Refinance time,1
Little Guy 6 Wide Sport,1
house,1
Organizing finances,1
kitchen ,1
"Heating, Ventilation, and Cooling (HVAC)",1
Credit Card refinancing,1
Debt refinance,1
credit card refince,1
Savethedyloan,1
credit card and vehicle loan,1
Credit cards,1
Medical Bills and Urgent Appliance Probs,1
Pay off debts,1
Pay em off!,1
New life,1
Help Loan,1
Patent and manufacturing.,1
FUNERAL COSTS,1
Ring Loan,1
Back on Track,1
Consolidating Credit Card,1
purchase,1
truck repairs,1
c.c,1
loan needed,1
Personal Property Loan,1
Bill Pay,1
credit card &to pay loan,1
Major purchases,1
personal dental expense,1
CC Payoff Loan,1
Debt Consolidation Load,1
Help me out,1
PREVAILING,1
winter bills,1
8 thousand,1
move,1
Card Reduction,1
solid,1
credit card free,1
Pulling it Together,1
Credit Relief,1
xmass,1
Debt Saving,1
Consolidate this debt!,1
Credit Card Refinance Loan 1,1
debtfree,1
Fiscal Responsibility,1
home loan,1
Loan Payments,1
pay off one main ,1
Makingchanges2012,1
2011,1
life changing,1
choice atlantic,1
improvement,1
flair,1
Faster Debt Reduction Loan,1
consalitdating loan,1
PAYOFF DEBT,1
pay off credit bills,1
Clean it up,1
Getting Rid of Debt in 2012,1
relief,1
LetsGetOuttaDebtFaster,1
Credit Refinance Loan,1
add limousine to company,1
Credit car payoff,1
payoff existing loan&debt consoilidation,1
PAY OFF,1
daughters wedding,1
New Home Improvements,1
My Plan,1
Hot tub,1
credit card consolidating,1
Home purchase,1
CC Pay Down,1
car,1
living smart,1
vacation,1
Debt Consolidatioin,1
smaller loan,1
Home Projects,1
Return Customer - 1st Loan Paid In Full,1
Bill Consolidation Loan,1
happier loan consolidation,1
new garage and dept consolidation.,1
New Beginning,1
Loan-all credit cards,1
medical bills ,1
LESS PAYMENTS,1
Rework,1
"70%Attached room,30%cc-loanconsolidation",1
Initial Loan,1
pay credit card,1
Consolidation 11/11,1
Consolidate Closed Credit Accounts,1
Motorhome,1
Medical ,1
Toy Car,1
bail me out loan,1
No Risk Loan,1
CCDebt,1
Pay off my Credit Cards,1
first loan,1
"Pay off credit card, refinance house",1
deep breath,1
Presents and vocation,1
Major loan,1
Debt Solution,1
Pay off High Interest Credit Cards,1
Insurance Asset Purchase,1
Debt go away!,1
Car payment loan,1
502countdown,1
Short Term Loan,1
Stop paying interest to Chase,1
Debt condolidation,1
After Great Experience I am Back Again,1
5 Year debt consol loan,1
2011 Loan,1
Wedding/Vacation,1
pay off credit cards.,1
Final Debt Consolidation,1
HSBC/Citi1,1
Credit Card Refinancing & Consolidation,1
Military Officer to Consolidate Debt,1
new beginnings,1
Credit card repayment loan,1
Percolation Test and Excavation,1
MedicalConsolidation,1
Freedom Day 2014,1
4x4,1
Credit Card refinance ,1
Bill Consolidation -Debt free by 2015!!!,1
Home Improvement - New Pipes,1
amex payoff - macys/costco,1
Wedding planning loan,1
Pay off CC debt,1
Credit card re-fi,1
I pay my all credit,1
Pay Off Credit Cards Reduce Debt,1
DEBT CONSOLIDATION STRATEGY,1
Miscellaneous,1
 Debt Consolidation for recent Grad.,1
Start My Life,1
Cut the credit cards Loan,1
Citicard,1
PayOff,1
Go Steelers,1
cc paydown ,1
Pay Back,1
Pay off 20K at 18%,1
betterrate,1
Start up Loan,1
Used Auto Loan,1
New Start,1
Credit Card refinance Loan,1
debt consoladation,1
GoodLuck2011,1
All in One,1
Snowmobile Purchase,1
persona,1
pay credit cards off and truck,1
LendingClub,1
Prosper,1
Get Better,1
lower interest,1
Paydown CC Loan,1
0809healthbills,1
My wedding loan I promise to pay back,1
Cadillac Loan,1
DebtConslidation,1
cards,1
NO MORE CC,1
personal expenses,1
Credi Card Payment,1
Credit card ,1
Credit Card Balance Payoff,1
"Used car,debt consolidation loan",1
Promised Pay,1
Pool Loan,1
Tax Payoff,1
CLEAR UP,1
bill pay off ,1
Pay Off Credit Cards and Loan,1
Property Tax,1
out of debt loan,1
Credit Payoff,1
One and Only ,1
No more credit card debt!,1
investments,1
Credit card Refi,1
The consolidator,1
My Lending Club loan,1
Moving loan,1
Budget Helper,1
creditcard payoff,1
Wells/Chase ReFi,1
Need a car for onsite work with a client,1
Loan for credit card Refinance,1
Refinancing,1
PayCC,1
Heidi,1
CC Refi Loan,1
acreage purchase,1
New Beginnings,1
Credit Card loan,1
Credit card pay off,1
Own Apartment,1
REFINANCE,1
New business start-up,1
Pay Off Credit Cards Loan,1
credit card refinancing,1
Moving / Consolidation,1
My Way Back to Freedom,1
Cheaper Interest,1
CC REFI,1
Year End Cleanup,1
Consolidate and Build,1
Consolidation ,1
Loan to pay off Credit cards,1
Debt Consol - 2012,1
Moving to better job; help a veteran!,1
Capitol One Refinance,1
FREEDOM LOAN,1
restore classic car,1
pay consumer debt,1
catch up,1
Credit Card Paydown,1
Debit consolidation,1
second chance,1
Car payoff,1
Home and car repair,1
My Debt Consolidation,1
Hopeful Loan,1
Freedom from Plastic,1
Breathing room,1
Credit Pay Off,1
Need to fix properties,1
Good bye Credit Cards,1
Debt Consolidation 2,1
Personal  Credit Refinance,1
bills loan,1
Debt Free Forever,1
Clean Accounts,1
Consolidate 1,1
Paying off CC,1
Freedom ,1
REFI,1
MONEY TREE,1
consolidate loan,1
My Credit card consolidation,1
Say goodbye to the rip-off banks,1
"Debt-Paying, Wife-Helping",1
cash,1
get it together,1
Debt cosolidation,1
leave mistakes behind,1
payoff credit card debt & home improveme,1
HIGH INTEREST CARDS,1
Zero Balance Project,1
payoff BofA and discover,1
Garage,1
debt free in 3,1
Home Repair,1
Consolidate after home purchase & repair,1
Freedom Consolidation,1
bye bye credit cards,1
Pay off high interest credit cards,1
Repay Loans,1
my dad,1
silverloan,1
Housing ,1
Recon2012,1
real estate business,1
hardwood flooring business,1
Citi Card,1
Household needs,1
Home loan,1
Livestock Purchase,1
payoffs,1
Wedding & Debt Consolidation,1
chase,1
godsent,1
Cash money!,1
Relief 2011,1
Lower My Overall Interest Rate ,1
Pay off Credit Card,1
Debt Consolidation Primary,1
Wedding loan,1
Becoming Debt free,1
MedicalExpense,1
LendingClubLoan,1
My CC consolidation loan,1
Virginia Move,1
CREDIT CARD CONSOLIDATION,1
No more debt!!!,1
Water Heater & new pipes,1
MYcreditcards,1
Debt Refinance,1
Debt reducer,1
Get It Done,1
Personal Loan ,1
2400,1
card repayment,1
Moved to California,1
Credit Card Consolo,1
Credit Card repay,1
credit cards payment loan,1
Credit card payment loans ,1
bye bye debt,1
business growth loan,1
Needed Loan,1
Loan consolidation,1
soccerplayer,1
December 2011 Credit Card Loan,1
stress relief,1
lovely,1
bailout loan,1
One main loan ,1
bathroom reno,1
Balance transfer AT & T,1
consolidating/closing CC accnts.,1
Konsolidation,1
taxes,1
Myreduction,1
Auto Trans,1
Consolidate Citibank and Chase ODP,1
CC Pay-Off,1
goal,1
Credit Card payoff ,1
WeddingExpenses,1
Freedom From Credit Cards,1
Bye-bye high interest rates!,1
Unsecured Personal Loan,1
Card Refi,1
Credit Refinancing to Lower Rate,1
wedding,1
My Path to Debt Freedom,1
roof,1
Consolidate Bills,1
Credit Card and Bill Loan,1
pa off bills,1
extra cash for vacation,1
One Bill A Month,1
12/1/11 Loan,1
no postage necessary,1
Getting On Track,1
fix the debt loan,1
Hello,1
2011 CC Pay-Off,1
Credit Card Debt Free,1
Trouble,1
First Loan,1
1st step to fredom,1
5000,1
Debit Elimination Plan,1
Home Improvement (New roof),1
DEBT PAYOFF,1
Bill Payoff,1
Relief,1
My Freedom loan,1
Credit card refinancing 101!!,1
Credit card,1
2012 Pay Off,1
clearcredit2011,1
remodel,1
fix debt,1
New car,1
Dept consolidations,1
it is really a good loan rate,1
Fix debt 2011,1
Credit Cards are Demons,1
Credit Refi,1
paynow,1
3 years,1
Pay Medical Bills,1
bill help,1
goodbyedebt,1
2nd Mortgage Payoff,1
Credit Card Interest Rates No More!!!,1
Debt/Wedding,1
my plan,1
consolihappydaytion,1
Pay off high interest cards for good,1
High rate credit cards & Dental work,1
Loan2011,1
refinance personal loan,1
One Day Debt,1
out of debt,1
My Smart loan,1
getting it together,1
Credit Card Re-Financing,1
For My Vacation,1
pay off ,1
dac&dis,1
DEBT CONSOLIDATION LOAN,1
Better Interest Rate,1
billspayoff,1
Dad's care,1
paybackcards,1
Loan - Home Improvement,1
Lower My Payments,1
Credit Cards Payoff,1
Shop,1
Cards Gone,1
financial freedom,1
GetoutofDebt,1
Credit Card debt,1
want to get trailer from auction,1
Credit card paid off,1
My Own Mistake,1
HOME REPAIR AND IMPROVEMENTS,1
refinance debt,1
Relief Refi,1
Surgery,1
Debt Crusher,1
New Engine,1
help with house hold and medical,1
Home improvement and car loan pay-off,1
Major Purchase Personal Loan ,1
Loan to put property in rental service,1
Black Hole,1
consolidation ,1
debt be gone,1
I want to cut up my credit cards!,1
cards b gone,1
Consolidation Crunch (Now with almonds!),1
Finish Basement,1
Debt Consalidation,1
PAY CREDIT CARDS,1
C/C Consolidation Loan,1
personal needs-repair home,1
No more credit card!,1
bailout,1
America Express,1
Pay credit cards 2011,1
Computer Equipment,1
Debt consolidation ,1
Nissan Car Loan,1
paybackanew,1
Consolidating Big Bank Debt,1
Pool loan,1
CC Pay Off,1
Death to CCs,1
life saver,1
Credit cards bills,1
outofdebt,1
Saab 9-3 loan,1
outta debt soon,1
TC's,1
Credit Card Re finance,1
home improve,1
home_improvement,1
unique,1
Consolidate Me,1
Credit Payoff 14400,1
Pay off Credit,1
Home improvements (bathrooms & kitchen),1
My Personal Loan,1
lower rate,1
