,ARPU
0,626.94
1,591.27
2,618.93
3,463.2
4,510.39
5,499.13
6,284.22
7,612.41
8,641.14
9,465.49
10,438.27
11,440.14
12,607.22
13,733.53
14,705.6
15,1055.57
16,613.28
17,192.59
18,671.83
19,402.59
20,954.99
21,495.9
22,555.81
23,444.56
24,671.14
25,545.53
26,457.99
27,555.55
28,537.33
29,591.14
30,709.21
31,1081.74
32,1018.06
33,574.12
34,206.46
35,274.28
36,243.13
37,644.01
38,275.5
39,703.77
40,944.9
41,648.43
42,558.14
43,892.09
44,612.89
45,659.31
46,560.54
47,546.49
48,187.17
49,523.62
50,703.22
51,538.94
52,1106.43
53,621.55
54,543.9
55,580.06
56,740.5
57,735.61
58,732.16
59,401.02
60,505.6
61,792.75
62,380.17
63,716.67
64,143.08
65,592.36
66,495.97
67,381.33
68,500.62
69,592.81
70,591.37
71,648.17
72,389.29
73,254.34
74,671.63
75,613.63
76,446.67
77,777.32
78,469.37
79,632.01
80,590.26
81,632.76
82,600.06
83,773.11
84,418.12
85,259.31
86,434.83
87,506.74
88,342.74
89,282.06
90,442.3
91,343.92
92,398.94
93,572.58
94,1036.7
95,752.65
96,622.31
97,555.06
98,480.98
99,550.1
100,266.68
101,743.16
102,309.64
103,717.19
104,313.95
105,523.11
106,604.51
107,555.11
108,614.36
109,487.29
110,759.21
111,572.35
112,510.9
113,335.11
114,303.32
115,259.11
116,375.23
117,466.11
118,288.49
119,581.56
120,733.45
121,307.01
122,644.99
123,342.5
124,892.87
125,606.33
126,194.4
127,461.53
128,379.33
129,860.12
130,825.2
131,396.17
132,580.66
133,439.83
134,471.0
135,429.13
136,529.56
137,440.61
138,458.22
139,416.79
140,1209.77
141,256.31
142,478.51
143,529.56
144,609.04
145,1157.95
146,489.41
147,1004.62
148,582.42
149,447.36
150,233.02
151,562.87
152,968.52
153,340.84
154,718.07
155,634.93
156,592.26
157,161.49
158,691.22
159,554.78
160,662.29
161,628.66
162,585.96
163,427.22
164,854.76
165,690.01
166,500.37
167,395.21
168,714.91
169,234.78
170,776.51
171,249.13
172,248.39
173,633.84
174,719.98
175,475.02
176,427.9
177,442.61
178,490.11
179,427.8
180,412.94
181,21.75
182,341.29
183,262.17
184,604.16
185,340.04
186,426.68
187,733.52
188,506.42
189,1026.0
190,647.67
191,653.38
192,518.66
193,350.67
194,466.13
195,732.57
196,444.61
197,329.15
198,510.51
199,922.36
200,472.16
201,571.89
202,275.34
203,621.57
204,440.92
205,603.17
206,508.63
207,230.31
208,1034.0
209,232.44
210,646.71
211,230.31
212,397.01
213,951.37
214,477.67
215,517.7
216,565.1
217,318.8
218,392.46
219,760.33
220,895.34
221,611.49
222,732.52
223,433.14
224,436.66
225,870.58
226,615.55
227,712.79
228,611.52
229,439.53
230,163.63
231,843.41
232,741.44
233,532.85
234,454.3
235,474.76
236,556.61
237,577.56
238,578.72
239,867.37
240,326.42
241,559.33
242,533.14
243,495.13
244,459.89
245,1028.8
246,703.52
247,866.33
248,265.98
249,477.72
250,594.26
251,176.39
252,693.83
253,822.5
254,193.0
255,948.03
256,651.95
257,171.39
258,820.63
259,983.52
260,616.22
261,711.4
262,490.28
263,563.17
264,1278.48
265,569.39
266,271.64
267,496.62
268,876.31
269,806.35
270,822.24
271,813.19
272,528.89
273,419.2
274,603.13
275,1038.0
276,467.91
277,568.11
278,827.6
279,194.31
280,477.79
281,420.64
282,801.36
283,565.44
284,594.03
285,307.08
286,409.99
287,614.34
288,177.42
289,440.17
290,981.11
291,538.31
292,449.77
293,394.38
294,1006.84
295,742.65
296,400.24
297,586.94
298,572.19
299,266.69
300,559.56
301,810.79
302,817.93
303,553.01
304,596.92
305,631.59
306,461.83
307,601.06
308,275.26
309,187.17
310,1330.66
311,580.67
312,295.2
313,950.73
314,827.59
315,546.48
316,550.24
317,668.75
318,361.18
319,879.73
320,485.94
321,596.77
322,584.31
323,342.91
324,121.57
325,1010.2
326,847.79
327,577.57
328,865.49
329,808.6
330,296.44
331,509.26
332,470.22
333,850.69
334,415.23
335,531.53
336,577.49
337,1124.86
338,267.77
339,388.53
340,455.72
341,1007.07
342,656.08
343,630.46
344,244.74
345,574.62
346,540.95
347,534.04
348,439.75
349,473.81
350,936.12
351,813.03
352,659.75
353,448.18
354,279.26
355,663.72
356,531.83
357,437.29
358,566.84
359,264.31
360,420.29
361,716.53
362,95.51
363,332.19
364,344.41
365,365.72
366,346.78
367,533.51
368,232.44
369,689.89
370,855.8
371,490.99
372,502.02
373,573.57
374,830.53
375,254.62
376,692.85
377,804.32
378,262.61
379,950.17
380,737.51
381,549.13
382,791.42
383,501.78
384,855.33
385,398.46
386,112674.74
387,575.02
388,373.5
389,528.51
390,534.97
391,224.67
392,404.15
393,626.06
394,342.08
395,777.24
396,660.7
397,881.87
398,590.43
399,425.34
400,754.37
401,882.14
402,438.69
403,1193.46
404,829.46
405,340.94
406,224.22
407,995.61
408,751.06
409,590.11
410,588.93
411,245.4
412,586.28
413,605.65
414,520.87
415,417.21
416,270.67
417,519.08
418,669.09
419,439.8
420,657.04
421,476.51
422,546.57
423,429.17
424,204.31
425,1097.59
426,477.04
427,493.16
428,1533.5
429,169.11
430,424.36
431,916.44
432,669.48
433,371.68
434,228.29
435,282.2
436,468.29
437,541.78
438,524.59
439,884.62
440,314.45
441,301.35
442,508.09
443,1046.45
444,417.71
445,850.88
446,660.57
447,865.76
448,244.11
449,487.84
450,222.39
451,596.63
452,346.34
453,558.17
454,224.43
455,1065.01
456,528.02
457,612.26
458,896.99
459,592.5
460,968.8
461,387.85
462,817.5
463,325.75
464,588.41
465,378.43
466,631.78
467,592.77
468,251.78
469,589.17
470,466.0
471,910.8
472,597.0
473,745.61
474,1008.54
475,656.72
476,1222.19
477,741.35
478,599.52
479,730.52
480,711.55
481,440.07
482,719.63
483,463.83
484,400.77
485,424.84
486,407.77
487,435.39
488,840.6
489,297.33
490,439.94
491,497.47
492,494.72
493,764.0
494,525.92
495,526.18
496,210.02
497,571.18
498,525.69
499,393.79
500,514.27
501,411.83
502,1550.66
503,602.97
504,329.44
505,440.67
506,444.02
507,705.84
508,537.37
509,600.9
510,651.57
511,713.08
512,637.85
513,253.72
514,535.67
515,799.33
516,421.21
517,480.18
518,550.48
519,668.36
520,491.15
521,715.64
522,625.17
523,764.02
524,239.94
525,594.2
526,807.07
527,800.21
528,572.86
529,713.55
530,214.33
531,732.51
532,238.38
533,308.0
534,570.55
535,586.64
536,393.98
537,331.22
538,884.48
539,425.23
540,805.89
541,591.83
542,453.19
543,776.22
544,771.55
545,645.78
546,460.11
547,263.57
548,480.37
549,811.74
550,130.07
551,995.76
552,404.12
553,623.7
554,524.79
555,622.51
556,449.43
557,948.64
558,527.83
559,473.13
560,502.51
561,409.86
562,329.28
563,694.44
564,557.7
565,952.8
566,452.4
567,271.92
568,630.61
569,631.84
570,631.74
571,382.86
572,703.67
573,235.22
574,509.85
575,368.18
576,529.63
577,611.53
578,253.72
579,414.3
580,606.56
581,602.12
582,448.41
583,481.56
584,672.71
585,224.54
586,859.53
587,459.77
588,415.64
589,358.7
590,187.17
591,649.13
592,221.23
593,482.87
594,411.45
595,421.87
596,245.69
597,1103.11
598,566.17
599,541.55
600,633.08
601,223.53
602,535.39
603,478.48
604,371.39
605,478.68
606,586.48
607,757.27
608,791.16
609,368.17
610,371.55
611,693.96
612,631.43
613,532.04
614,546.0
615,452.47
616,662.52
617,341.03
618,300.04
619,645.01
620,526.95
621,856.4
622,358.05
623,454.33
624,425.07
625,603.38
626,345.39
627,194.31
628,434.83
629,285.43
630,509.56
631,557.57
632,527.61
633,481.91
634,518.85
635,663.1
636,540.91
637,498.56
638,579.98
639,823.71
640,316.94
641,454.67
642,655.93
643,638.32
644,435.39
645,529.3
646,511.0
647,578.23
648,607.46
649,419.23
650,357.13
651,686.58
652,336.18
653,418.2
654,521.78
655,1172.99
656,221.56
657,524.77
658,693.49
659,587.17
660,604.56
661,527.89
662,360.88
663,674.88
664,437.44
665,365.65
666,523.72
667,590.57
668,519.78
669,523.72
670,1063.33
671,385.67
672,573.45
673,832.6
674,442.79
675,325.56
676,474.28
677,361.6
678,600.22
679,646.46
680,817.81
681,315.78
682,442.86
683,299.46
684,228.89
685,604.85
686,564.79
687,551.76
688,525.5
689,478.58
690,583.07
691,898.4
692,576.22
693,449.5
694,489.83
695,337.4
696,521.85
697,410.6
698,589.74
699,514.05
700,524.41
701,824.9
702,305.44
703,467.98
704,342.28
705,696.5
706,595.88
707,650.98
708,701.28
709,615.93
710,693.89
711,445.9
712,732.39
713,441.65
714,236.93
715,361.5
716,190.3
717,792.28
718,496.41
719,696.07
720,368.77
721,584.99
722,448.89
723,479.39
724,559.07
725,700.89
726,327.04
727,434.32
728,550.8
729,506.79
730,656.31
731,831.8
732,786.63
733,477.67
734,290.67
735,544.3
736,421.31
737,402.61
738,531.65
739,428.5
740,630.29
741,1174.41
742,460.79
743,362.31
744,525.81
745,381.79
746,612.19
747,527.61
748,421.27
749,556.57
750,718.36
751,522.31
752,250.05
753,666.62
754,573.39
755,568.31
756,571.02
757,1019.5
758,442.3
759,734.24
760,774.51
761,524.28
762,710.73
763,522.95
764,483.7
765,579.85
766,817.37
767,578.19
768,506.78
769,245.65
770,364.25
771,583.37
772,274.68
773,264.24
774,449.54
775,716.22
776,286.53
777,881.73
778,771.54
779,266.5
780,581.12
781,552.25
782,235.38
783,251.78
784,477.47
785,559.26
786,824.63
787,408.38
788,571.54
789,452.27
790,609.14
791,493.92
792,311.5
793,468.37
794,461.14
795,202.72
796,915.38
797,646.93
798,685.45
799,463.18
800,616.24
801,472.33
802,398.99
803,277.7
804,405.26
805,371.56
806,809.94
807,493.64
808,461.46
809,803.33
810,402.72
811,365.72
812,723.5
813,583.43
814,325.6
815,615.34
816,434.83
817,931.51
818,882.44
819,800.39
820,312.79
821,493.13
822,623.78
823,446.99
824,263.81
825,546.83
826,540.41
827,1017.27
828,780.31
829,290.6
830,741.26
831,183.28
832,750.82
833,648.9
834,612.67
835,463.14
836,420.67
837,422.98
838,288.67
839,525.8
840,804.78
841,417.41
842,522.39
843,410.04
844,408.99
845,410.59
846,389.05
847,504.86
848,515.63
849,456.76
850,620.36
851,287.83
852,579.31
853,511.29
854,264.56
855,401.92
856,605.69
857,627.85
858,381.07
859,412.26
860,852.93
861,590.49
862,688.73
863,668.06
864,274.38
865,84.78
866,471.76
867,743.02
868,479.34
869,768.91
870,457.96
871,235.03
872,421.79
873,612.14
874,706.79
875,314.16
876,1039.2
877,550.11
878,523.5
879,930.12
880,524.54
881,634.48
882,687.07
883,876.5
884,561.06
885,629.1
886,371.11
887,162.08
888,260.11
889,482.06
890,476.09
891,412.79
892,610.28
893,537.56
894,324.35
895,377.21
896,367.67
897,637.9
898,449.23
899,614.51
900,351.18
901,781.52
902,703.11
903,365.29
904,545.67
905,478.83
906,495.84
907,417.01
908,656.65
909,499.59
910,727.18
911,284.83
912,917.35
913,510.51
914,450.24
915,424.58
916,345.33
917,517.49
918,864.68
919,849.53
920,524.35
921,369.24
922,483.44
923,619.57
924,595.64
925,667.93
926,1432.39
927,582.32
928,473.41
929,522.84
930,473.72
931,676.59
932,432.9
933,553.11
934,399.67
935,883.54
936,455.05
937,406.18
938,962.25
939,230.3
940,604.2
941,522.1
942,633.94
943,405.17
944,589.69
945,658.71
946,882.47
947,658.61
948,317.29
949,648.81
950,452.68
951,704.87
952,637.58
953,955.8
954,316.12
955,545.29
956,746.63
957,1017.33
958,431.89
959,580.94
960,478.31
961,360.93
962,179.8
963,222.28
964,613.13
965,273.44
966,763.49
967,688.42
968,579.57
969,382.77
970,540.97
971,797.94
972,270.63
973,588.04
974,424.59
975,436.78
976,1227.39
977,413.43
978,957.03
979,874.76
980,454.17
981,260.67
982,677.34
983,513.21
984,260.3
985,958.42
986,783.49
987,428.05
988,631.64
989,673.42
990,871.39
991,530.1
992,480.37
993,524.86
994,864.45
995,512.78
996,252.98
997,563.73
998,312.67
999,468.36
1000,392.74
1001,530.67
1002,608.99
1003,334.22
1004,571.54
1005,515.35
1006,540.47
1007,331.22
1008,651.47
1009,585.47
1010,555.39
1011,713.3
1012,236.33
1013,525.67
1014,566.76
1015,253.72
1016,659.73
1017,951.72
1018,469.96
1019,576.36
1020,873.96
1021,421.0
1022,572.18
1023,619.55
1024,718.28
1025,610.65
1026,510.77
1027,436.78
1028,462.68
1029,207.44
1030,636.84
1031,228.45
1032,1250.89
1033,500.72
1034,306.72
1035,1058.12
1036,582.54
1037,539.28
1038,629.68
1039,610.76
1040,454.7
1041,392.46
1042,762.88
1043,183.28
1044,739.33
1045,401.81
1046,529.77
1047,319.33
1048,485.86
1049,544.17
1050,895.32
1051,584.49
1052,449.84
1053,554.28
1054,401.29
1055,542.51
1056,672.19
1057,420.42
1058,926.7
1059,636.74
1060,780.56
1061,583.4
1062,739.06
1063,229.49
1064,1033.1
1065,746.17
1066,785.46
1067,526.36
1068,587.62
1069,187.17
1070,402.43
1071,249.97
1072,1033.04
1073,849.01
1074,699.81
1075,556.78
1076,571.54
1077,640.39
1078,645.63
1079,784.23
1080,457.01
1081,607.52
1082,541.5
1083,415.26
1084,772.51
1085,604.28
1086,656.92
1087,482.97
1088,329.28
1089,883.27
1090,88.37
1091,387.11
1092,459.18
1093,430.94
1094,402.45
1095,701.88
1096,402.96
1097,538.34
1098,527.82
1099,429.95
1100,527.11
1101,566.79
1102,566.62
1103,253.72
1104,692.12
1105,517.32
1106,686.5
1107,517.92
1108,668.44
1109,395.43
1110,996.29
1111,401.95
1112,574.69
1113,547.83
1114,503.54
1115,601.44
1116,335.54
1117,827.86
1118,357.21
1119,513.44
1120,636.84
1121,368.95
1122,460.11
1123,372.82
1124,327.36
1125,865.01
1126,542.11
1127,558.37
1128,362.52
1129,782.26
1130,527.61
1131,489.38
1132,1060.92
1133,584.75
1134,737.2
1135,447.38
1136,556.75
1137,580.01
1138,688.87
1139,620.13
1140,476.56
1141,411.9
1142,593.56
1143,371.6
1144,1075.09
1145,704.26
1146,379.09
1147,241.11
1148,1049.34
1149,319.31
1150,572.31
1151,833.21
1152,920.53
1153,970.56
1154,460.59
1155,601.73
1156,764.39
1157,563.35
1158,667.48
1159,493.41
1160,487.96
1161,449.48
1162,800.77
1163,864.14
1164,551.13
1165,432.56
1166,253.95
1167,646.37
1168,490.11
1169,845.57
1170,598.53
1171,275.46
1172,285.23
1173,317.27
1174,903.29
1175,422.23
1176,604.52
1177,372.87
1178,629.43
1179,417.9
1180,686.8
1181,377.39
1182,532.91
1183,543.71
1184,890.89
1185,1129.93
1186,318.05
1187,592.82
1188,304.02
1189,773.03
1190,757.92
1191,604.85
1192,876.6
1193,221.21
1194,652.95
1195,781.83
1196,735.9
1197,756.59
1198,662.31
1199,768.16
1200,512.04
1201,421.31
1202,574.55
1203,655.34
1204,663.94
1205,622.99
1206,582.6
1207,596.42
1208,422.72
1209,565.35
1210,353.03
1211,529.97
1212,492.2
1213,549.65
1214,570.82
1215,816.22
1216,520.14
1217,601.99
1218,257.61
1219,591.16
1220,762.51
1221,476.22
1222,560.84
1223,805.12
1224,629.72
1225,606.39
1226,526.4
1227,513.58
1228,443.4
1229,379.31
1230,856.35
1231,750.44
1232,1531.66
1233,318.24
1234,548.97
1235,321.83
1236,596.32
1237,990.99
1238,652.34
1239,527.3
1240,584.92
1241,185.22
1242,344.71
1243,627.73
1244,449.89
1245,524.18
1246,855.77
1247,987.11
1248,571.42
1249,460.73
1250,618.07
1251,684.06
1252,656.49
1253,265.89
1254,824.48
1255,337.06
1256,515.04
1257,336.85
1258,533.44
1259,222.72
1260,624.67
1261,797.57
1262,1163.6
1263,401.8
1264,715.21
1265,387.06
1266,1268.73
1267,534.03
1268,738.7
1269,498.1
1270,577.8
1271,534.96
1272,422.9
1273,284.53
1274,541.56
1275,507.99
1276,467.79
1277,648.62
1278,449.83
1279,448.16
1280,274.68
1281,562.78
1282,329.28
1283,601.58
1284,213.14
1285,464.54
1286,64.11
1287,224.8
1288,1428.26
1289,547.33
1290,560.0
1291,316.72
1292,848.01
1293,473.8
1294,492.44
1295,369.61
1296,376.13
1297,1144.4
1298,789.63
1299,305.0
1300,657.51
1301,224.67
1302,979.95
1303,545.17
1304,652.79
1305,519.84
1306,322.62
1307,646.88
1308,642.29
1309,566.26
1310,457.69
1311,610.97
1312,771.09
1313,658.72
1314,181.17
1315,983.88
1316,335.21
1317,660.94
1318,410.53
1319,384.8
1320,551.94
1321,789.67
1322,523.35
1323,790.91
1324,640.45
1325,490.1
1326,800.43
1327,421.43
1328,613.61
1329,416.05
1330,734.16
1331,353.3
1332,503.32
1333,986.65
1334,747.7
1335,650.15
1336,597.78
1337,581.64
1338,588.03
1339,619.71
1340,595.67
1341,737.38
1342,677.14
1343,788.54
1344,524.68
1345,611.14
1346,848.12
1347,409.53
1348,469.92
1349,590.92
1350,599.58
1351,577.73
1352,946.53
1353,615.62
1354,548.47
1355,636.68
1356,906.66
1357,640.91
1358,574.34
1359,548.45
1360,465.45
1361,390.48
1362,467.11
1363,790.07
1364,441.52
1365,515.83
1366,465.54
1367,1057.02
1368,674.02
1369,613.05
1370,755.76
1371,604.59
1372,821.21
1373,512.98
1374,338.66
1375,667.52
1376,336.82
1377,691.45
1378,436.44
1379,435.02
1380,189.73
1381,727.11
1382,632.74
1383,615.82
1384,623.89
1385,599.26
1386,783.2
1387,631.12
1388,535.86
1389,371.35
1390,392.21
1391,853.47
1392,696.42
1393,403.79
1394,344.42
1395,492.19
1396,602.93
1397,577.8
1398,859.21
1399,598.95
1400,1073.55
1401,678.94
1402,588.19
1403,752.63
1404,496.05
1405,588.67
1406,411.78
1407,424.81
1408,454.23
1409,751.55
1410,550.37
1411,623.51
1412,868.87
1413,411.03
1414,1334.2
1415,904.07
1416,684.88
1417,749.32
1418,414.58
1419,966.87
1420,820.82
1421,406.13
1422,565.27
1423,702.13
1424,157.62
1425,570.68
1426,484.59
1427,430.28
1428,792.35
1429,688.13
1430,591.28
1431,459.1
1432,575.37
1433,929.15
1434,568.66
1435,874.78
1436,430.68
1437,433.39
1438,461.09
1439,416.75
1440,460.7
1441,272.0
1442,408.81
1443,842.2
1444,917.78
1445,906.81
1446,434.84
1447,446.15
1448,531.24
1449,562.19
1450,422.12
1451,540.39
1452,852.81
1453,568.4
1454,198.89
1455,728.29
1456,436.11
1457,480.23
1458,666.0
1459,829.91
1460,416.57
1461,349.28
1462,665.69
1463,650.4
1464,606.29
1465,380.45
1466,458.3
1467,416.61
1468,848.11
1469,410.03
1470,415.72
1471,658.39
1472,430.15
1473,571.16
1474,910.4
1475,482.07
1476,643.58
1477,417.17
1478,387.09
1479,612.2
1480,903.2
1481,619.87
1482,390.5
1483,613.22
1484,716.57
1485,444.2
1486,1430.57
1487,701.77
1488,999.16
1489,523.12
1490,556.44
1491,637.18
1492,484.62
1493,514.82
1494,804.98
1495,776.34
1496,682.15
1497,460.92
1498,934.56
1499,593.84
1500,406.09
1501,386.73
1502,804.79
1503,583.64
1504,692.21
1505,714.27
1506,409.6
1507,1028.96
1508,1233.69
1509,488.76
1510,430.16
1511,568.03
1512,692.99
1513,403.08
1514,962.75
1515,602.89
1516,417.8
1517,587.34
1518,473.22
1519,478.03
1520,463.96
1521,919.38
1522,434.31
1523,936.68
1524,849.35
1525,414.03
1526,582.14
1527,186.5
1528,779.64
1529,761.8
1530,375.31
1531,416.79
1532,489.84
1533,794.21
1534,410.19
1535,403.37
1536,411.99
1537,410.2
1538,649.1
1539,870.05
1540,919.25
1541,653.87
1542,779.13
1543,305.34
1544,584.62
1545,900.8
1546,313.45
1547,595.55
1548,631.54
1549,707.71
1550,777.29
1551,570.63
1552,395.4
1553,452.58
1554,778.58
1555,634.54
1556,476.52
1557,661.8
1558,623.33
1559,409.83
1560,566.76
1561,518.49
1562,593.82
1563,427.78
1564,750.0
1565,659.51
1566,201.48
1567,701.28
1568,431.26
1569,429.0
1570,636.16
1571,908.05
1572,529.41
1573,500.93
1574,551.24
1575,760.76
1576,416.63
1577,443.61
1578,452.26
1579,422.5
1580,746.45
1581,604.7
1582,603.46
1583,570.38
1584,748.88
1585,797.31
1586,952.44
1587,435.93
1588,592.81
1589,506.73
1590,528.58
1591,791.88
1592,509.6
1593,896.59
1594,411.03
1595,467.4
1596,723.29
1597,904.17
1598,511.37
1599,860.57
1600,909.74
1601,484.93
1602,375.87
1603,423.41
1604,568.47
1605,743.2
1606,707.32
1607,410.88
1608,679.63
1609,717.02
1610,938.77
1611,661.14
1612,546.48
1613,357.35
1614,685.64
1615,644.16
1616,438.16
1617,777.17
1618,1010.24
1619,275.3
1620,659.06
1621,209.26
1622,427.95
1623,591.6
1624,426.28
1625,459.03
1626,574.08
1627,405.7
1628,296.51
1629,265.89
1630,591.27
1631,209.33
1632,493.1
1633,599.79
1634,613.59
1635,706.5
1636,364.0
1637,326.5
1638,626.81
1639,604.41
1640,425.96
1641,1016.64
1642,778.36
1643,605.03
1644,433.52
1645,436.17
1646,720.88
1647,640.1
1648,658.11
1649,619.71
1650,401.42
1651,467.65
1652,390.0
1653,512.68
1654,962.83
1655,714.43
1656,611.26
1657,418.95
1658,584.81
1659,515.6
1660,607.93
1661,733.34
1662,612.31
1663,1213.07
1664,282.9
1665,308.97
1666,433.52
1667,630.75
1668,423.55
1669,373.2
1670,331.78
1671,256.62
1672,450.46
1673,433.32
1674,612.09
1675,593.73
1676,622.39
1677,474.95
1678,243.21
1679,513.79
1680,182.21
1681,228.06
1682,1341.97
1683,271.98
1684,300.06
1685,647.55
1686,549.97
1687,636.47
1688,395.36
1689,573.69
1690,686.55
1691,647.59
1692,1033.57
1693,559.97
1694,542.57
1695,591.65
1696,908.72
1697,337.24
1698,707.85
1699,312.57
1700,781.32
1701,334.36
1702,234.1
1703,707.86
1704,856.34
1705,645.97
1706,610.07
1707,438.92
1708,431.17
1709,526.21
1710,567.88
1711,435.33
1712,440.87
1713,138.42
1714,624.37
1715,412.24
1716,595.63
1717,185.12
1718,505.8
1719,768.54
1720,426.47
1721,409.95
1722,450.21
1723,225.76
1724,556.17
1725,481.36
1726,540.95
1727,385.34
1728,448.88
1729,543.07
1730,599.72
1731,1144.38
1732,418.02
1733,396.28
1734,418.08
1735,609.05
1736,789.24
1737,487.14
1738,923.57
1739,494.64
1740,632.79
1741,422.24
1742,449.31
1743,406.35
1744,371.2
1745,615.86
1746,899.6
1747,948.43
1748,246.84
1749,1287.35
1750,894.06
1751,435.89
1752,514.52
1753,418.19
1754,671.17
1755,637.45
1756,556.68
1757,421.65
1758,559.58
1759,581.91
1760,418.49
1761,629.0
1762,817.38
1763,411.17
1764,584.94
1765,553.81
1766,1096.47
1767,201.34
1768,644.79
1769,433.2
1770,832.37
1771,432.72
1772,379.22
1773,419.62
1774,353.48
1775,569.12
1776,235.24
1777,628.07
1778,618.46
1779,579.16
1780,431.62
1781,471.46
1782,614.66
1783,425.11
1784,812.75
1785,748.64
1786,627.66
1787,742.83
1788,674.19
1789,421.92
1790,375.67
1791,637.66
1792,587.29
1793,598.7
1794,616.9
1795,465.22
1796,415.01
1797,672.77
1798,620.16
1799,709.41
1800,638.59
1801,734.36
1802,488.51
1803,576.62
1804,633.93
1805,553.79
1806,184.66
1807,676.94
1808,821.44
1809,545.13
1810,417.37
1811,680.0
1812,225.82
1813,546.27
1814,626.47
1815,609.48
1816,456.92
1817,219.29
1818,595.92
1819,570.76
1820,762.98
1821,452.56
1822,622.24
1823,418.6
1824,438.26
1825,617.04
1826,766.86
1827,569.89
1828,212.83
1829,961.13
1830,823.22
1831,617.64
1832,1636.62
1833,880.04
1834,1043.48
1835,596.77
1836,417.37
1837,425.21
1838,437.12
1839,724.42
1840,374.41
1841,304.04
1842,588.4
1843,702.14
1844,422.72
1845,448.48
1846,605.71
1847,721.68
1848,476.0
1849,511.96
1850,658.86
1851,955.11
1852,559.37
1853,517.41
1854,424.85
1855,489.27
1856,431.49
1857,731.71
1858,554.63
1859,587.76
1860,506.71
1861,459.85
1862,531.36
1863,442.36
1864,409.39
1865,521.67
1866,740.17
1867,654.36
1868,593.99
1869,766.43
1870,401.75
1871,690.64
1872,330.39
1873,704.17
1874,1270.85
1875,875.61
1876,590.43
1877,406.27
1878,678.82
1879,1161.62
1880,680.1
1881,316.44
1882,887.44
1883,344.49
1884,422.54
1885,731.96
1886,694.61
1887,952.45
1888,743.54
1889,247.94
1890,568.64
1891,423.7
1892,436.77
1893,378.51
1894,227.84
1895,418.63
1896,562.59
1897,209.34
1898,588.69
1899,607.93
1900,560.74
1901,576.31
1902,534.33
1903,578.97
1904,492.05
1905,405.96
1906,562.52
1907,659.87
1908,295.88
1909,577.56
1910,633.22
1911,203.96
1912,620.41
1913,601.01
1914,673.49
1915,570.11
1916,941.49
1917,834.99
1918,408.43
1919,609.35
1920,670.01
1921,447.03
1922,1137.71
1923,752.8
1924,538.42
1925,1104.35
1926,1891.92
1927,910.97
1928,575.33
1929,635.55
1930,541.38
1931,415.36
1932,622.33
1933,573.99
1934,315.1
1935,711.13
1936,462.31
1937,791.96
1938,412.46
1939,402.79
1940,420.57
1941,969.98
1942,739.28
1943,611.27
1944,428.69
1945,412.18
1946,670.96
1947,588.15
1948,599.71
1949,577.16
1950,692.86
1951,637.67
1952,799.58
1953,187.63
1954,554.74
1955,757.75
1956,627.52
1957,440.44
1958,602.13
1959,546.5
1960,701.82
1961,949.98
1962,624.88
1963,440.44
1964,428.07
1965,470.68
1966,428.22
1967,1069.95
1968,537.81
1969,429.36
1970,416.38
1971,440.38
1972,620.42
1973,617.82
1974,416.38
1975,417.75
1976,739.92
1977,511.67
1978,457.96
1979,575.33
1980,928.03
1981,536.31
1982,462.72
1983,661.03
1984,603.32
1985,236.75
1986,729.83
1987,311.12
1988,667.21
1989,669.62
1990,908.01
1991,467.63
1992,311.62
1993,702.59
1994,449.43
1995,653.97
1996,844.81
1997,637.58
1998,267.33
1999,409.96
2000,900.3
2001,410.07
2002,415.91
2003,569.91
2004,265.67
2005,520.14
2006,697.88
2007,413.55
2008,563.7
2009,1064.32
2010,546.8
2011,634.03
2012,946.87
2013,493.42
2014,422.1
2015,1044.39
2016,410.36
2017,628.76
2018,548.32
2019,533.26
2020,631.77
2021,520.41
2022,437.92
2023,477.21
2024,590.26
2025,431.5
2026,311.67
2027,281.61
2028,606.85
2029,666.45
2030,190.53
2031,267.97
2032,655.21
2033,547.93
2034,489.09
2035,614.37
2036,828.84
2037,807.83
2038,218.98
2039,419.99
2040,600.17
2041,642.95
2042,1174.32
2043,442.09
2044,580.67
2045,575.86
2046,262.64
2047,277.66
2048,727.17
2049,410.49
2050,584.93
2051,557.52
2052,377.43
2053,429.96
2054,283.54
2055,621.08
2056,665.2
2057,420.38
2058,995.5
2059,582.01
2060,625.13
2061,352.76
2062,487.72
2063,414.24
2064,594.4
2065,308.95
2066,749.25
2067,580.71
2068,417.5
2069,954.79
2070,600.41
2071,748.4
2072,607.39
2073,1009.95
2074,480.99
2075,311.27
2076,201.19
2077,722.48
2078,429.22
2079,364.57
2080,322.81
2081,310.88
2082,777.14
2083,547.37
2084,665.38
2085,292.34
2086,410.36
2087,422.7
2088,466.14
2089,606.58
2090,1014.11
2091,456.83
2092,190.25
2093,413.7
2094,414.83
2095,676.89
2096,448.09
2097,239.26
2098,589.79
2099,731.16
2100,682.22
2101,312.91
2102,599.17
2103,884.86
2104,261.43
2105,308.94
2106,327.13
2107,431.74
2108,618.01
2109,326.13
2110,935.05
2111,430.47
2112,563.66
2113,406.2
2114,640.6
2115,660.0
2116,457.15
2117,310.4
2118,390.97
2119,823.44
2120,474.94
2121,765.34
2122,363.94
2123,584.91
2124,668.34
2125,573.28
2126,890.49
2127,395.41
2128,416.57
2129,433.35
2130,375.58
2131,790.26
2132,1100.73
2133,617.98
2134,480.45
2135,439.73
2136,415.91
2137,652.88
2138,645.12
2139,569.34
2140,427.58
2141,399.21
2142,567.63
2143,413.01
2144,444.75
2145,441.99
2146,431.96
2147,471.75
2148,695.33
2149,593.03
2150,619.43
2151,456.11
2152,601.61
2153,487.92
2154,685.28
2155,425.35
2156,240.23
2157,435.73
2158,543.57
2159,647.44
2160,413.14
2161,917.27
2162,655.77
2163,590.15
2164,633.25
2165,610.63
2166,650.83
2167,277.29
2168,743.45
2169,367.15
2170,629.37
2171,420.26
2172,1066.68
2173,614.28
2174,478.23
2175,210.97
2176,407.54
2177,425.37
2178,387.02
2179,591.23
2180,555.4
2181,614.87
2182,416.12
2183,468.85
2184,409.82
2185,356.02
2186,251.03
2187,632.58
2188,615.37
2189,583.22
2190,489.83
2191,1013.5
2192,339.59
2193,456.93
2194,427.1
2195,413.59
2196,468.8
2197,470.2
2198,558.75
2199,571.45
2200,185.91
2201,600.22
2202,421.65
2203,573.05
2204,317.92
2205,637.99
2206,692.18
2207,549.66
2208,208.26
2209,802.99
2210,649.17
2211,661.48
2212,765.11
2213,606.24
2214,675.35
2215,481.32
2216,317.48
2217,629.18
2218,352.33
2219,862.28
2220,669.79
2221,437.58
2222,587.82
2223,416.64
2224,631.68
2225,454.32
2226,194.12
2227,628.39
2228,580.49
2229,568.37
2230,627.54
2231,413.01
2232,442.93
2233,685.94
2234,353.6
2235,624.0
2236,630.93
2237,432.72
2238,671.13
2239,1310.03
2240,702.05
2241,432.02
2242,744.84
2243,477.03
2244,450.46
2245,412.42
2246,876.12
2247,699.88
2248,672.73
2249,418.6
2250,619.25
2251,588.96
2252,470.9
2253,571.84
2254,331.42
2255,867.31
2256,462.5
2257,395.74
2258,647.02
2259,442.75
2260,455.68
2261,729.28
2262,234.96
2263,329.22
2264,587.92
2265,413.69
2266,412.51
2267,389.19
2268,642.66
2269,586.33
2270,412.35
2271,615.87
2272,442.21
2273,444.64
2274,673.91
2275,652.23
2276,405.18
2277,411.47
2278,315.81
2279,628.78
2280,537.92
2281,766.38
2282,184.06
2283,858.24
2284,569.79
2285,455.08
2286,585.7
2287,415.23
2288,578.58
2289,411.56
2290,443.34
2291,430.3
2292,312.8
2293,694.1
2294,437.22
2295,413.07
2296,186.21
2297,662.17
2298,516.05
2299,833.03
2300,478.28
2301,469.7
2302,430.65
2303,573.71
2304,655.77
2305,792.53
2306,724.42
2307,1011.94
2308,453.88
2309,658.2
2310,756.03
2311,419.72
2312,327.95
2313,278.92
2314,569.62
2315,532.56
2316,600.3
2317,631.92
2318,514.95
2319,414.78
2320,406.03
2321,965.88
2322,488.17
2323,575.4
2324,558.3
2325,747.34
2326,631.11
2327,650.11
2328,429.97
2329,522.84
2330,623.72
2331,692.18
2332,611.23
2333,464.17
2334,404.65
2335,445.75
2336,401.51
2337,480.23
2338,768.39
2339,583.38
2340,619.82
2341,458.31
2342,1039.6
2343,418.14
2344,1220.88
2345,702.61
2346,444.8
2347,599.85
2348,228.7
2349,425.0
2350,368.69
2351,366.57
2352,723.58
2353,754.15
2354,481.49
2355,641.58
2356,582.42
2357,210.77
2358,399.06
2359,613.74
2360,445.4
2361,423.1
2362,233.25
2363,413.64
2364,598.04
2365,551.18
2366,730.29
2367,274.93
2368,807.47
2369,586.31
2370,858.19
2371,831.39
2372,576.51
2373,784.63
2374,351.19
2375,616.72
2376,592.08
2377,339.84
2378,589.64
2379,343.82
2380,723.48
2381,861.73
2382,484.25
2383,427.06
2384,412.37
2385,413.58
2386,417.22
2387,409.26
2388,323.81
2389,536.04
2390,618.43
2391,626.67
2392,428.23
2393,322.26
2394,432.84
2395,639.51
2396,386.8
2397,425.25
2398,327.23
2399,514.87
2400,595.91
2401,813.21
2402,512.29
2403,414.75
2404,682.3
2405,600.96
2406,616.44
2407,212.45
2408,626.66
2409,617.07
2410,585.3
2411,507.7
2412,788.79
2413,439.57
2414,584.06
2415,918.22
2416,597.65
2417,599.97
2418,411.86
2419,415.0
2420,653.6
2421,419.68
2422,594.82
2423,261.29
2424,437.88
2425,670.68
2426,319.65
2427,397.67
2428,913.74
2429,636.49
2430,679.82
2431,568.21
2432,653.46
2433,940.51
2434,838.17
2435,580.66
2436,410.03
2437,649.38
2438,232.32
2439,412.59
2440,487.52
2441,575.86
2442,541.55
2443,531.14
2444,297.35
2445,416.76
2446,385.49
2447,340.68
2448,377.76
2449,574.14
2450,155.84
2451,592.25
2452,358.29
2453,598.6
2454,570.23
2455,411.45
2456,660.52
2457,697.21
2458,369.34
2459,382.63
2460,227.06
2461,404.42
2462,374.75
2463,565.26
2464,347.82
2465,173.92
2466,301.17
2467,219.12
2468,599.03
2469,603.68
2470,401.01
2471,549.51
2472,399.54
2473,450.61
2474,149.2
2475,379.51
2476,386.2
2477,393.17
2478,889.27
2479,604.84
2480,322.51
2481,267.42
2482,755.95
2483,653.47
2484,631.2
2485,402.58
2486,522.1
2487,407.47
2488,201.36
2489,219.13
2490,472.53
2491,698.23
2492,278.69
2493,578.17
2494,627.85
2495,465.24
2496,108.76
2497,233.94
2498,733.66
2499,352.61
2500,318.67
2501,369.84
2502,403.6
2503,594.07
2504,385.3
2505,370.91
2506,930.06
2507,532.66
2508,126.68
2509,411.45
2510,671.65
2511,381.64
2512,774.09
2513,533.22
2514,696.93
2515,526.5
2516,522.0
2517,468.62
2518,441.68
2519,890.51
2520,429.98
2521,226.93
2522,532.33
2523,570.17
2524,624.19
2525,296.32
2526,640.01
2527,493.52
2528,610.4
2529,539.15
2530,575.34
2531,424.97
2532,365.81
2533,313.86
2534,418.32
2535,876.02
2536,386.77
2537,419.53
2538,190.16
2539,430.39
2540,177.56
2541,365.03
2542,400.01
2543,570.02
2544,515.34
2545,365.08
2546,178.38
2547,396.8
2548,220.17
2549,408.51
2550,284.91
2551,405.66
2552,536.9
2553,402.73
2554,316.9
2555,615.5
2556,591.48
2557,540.12
2558,529.25
2559,509.78
2560,619.98
2561,170.55
2562,438.8
2563,442.62
2564,1062.0
2565,625.0
2566,640.0
2567,470.0
2568,890.0
2569,875.0
2570,470.0
2571,815.0
2572,335.0
2573,620.0
2574,636.0
2575,653.0
2576,550.0
2577,470.0
2578,390.0
2579,519.0
2580,580.0
2581,858.0
2582,375.0
2583,378.0
2584,665.0
2585,1044.23
2586,620.0
2587,166.0
2588,416.0
2589,744.0
2590,650.0
2591,323.0
2592,493.0
2593,845.0
2594,1060.2
2595,446.5
2596,550.0
2597,301.0
2598,815.0
2599,610.0
2600,1165.81
2601,666.0
2602,581.0
2603,239.67
2604,448.0
2605,693.32
2606,393.0
2607,470.0
2608,149.0
2609,416.0
2610,249.0
2611,888.0
2612,629.0
2613,475.0
2614,550.0
2615,380.0
2616,139.44
2617,166.0
2618,179.0
2619,625.0
2620,620.0
2621,581.0
2622,499.0
2623,1267.0
2624,860.0
2625,859.0
2626,1068.0
2627,695.0
2628,655.0
2629,620.0
2630,620.0
2631,655.0
2632,591.0
2633,390.0
2634,581.0
2635,860.0
2636,695.0
2637,645.14
2638,876.0
2639,768.14
2640,616.0
2641,833.0
2642,739.0
2643,400.0
2644,537.67
2645,435.0
2646,470.0
2647,470.0
2648,403.0
2649,700.0
2650,231.0
2651,403.2
2652,620.0
2653,213.0
2654,400.0
2655,888.0
2656,790.0
2657,131.89
2658,631.0
2659,896.0
2660,495.0
2661,455.0
2662,858.0
2663,329.0
2664,600.0
2665,670.0
2666,858.0
2667,256.0
2668,805.0
2669,728.0
2670,798.0
2671,546.0
2672,534.0
2673,470.0
2674,620.0
2675,888.0
2676,478.0
2677,905.0
2678,860.0
2679,382.0
2680,899.63
2681,1085.0
2682,620.0
2683,355.0
2684,716.0
2685,499.0
2686,616.0
2687,655.0
2688,406.0
2689,459.0
2690,301.0
2691,448.0
2692,403.0
2693,891.03
2694,546.0
2695,382.0
2696,425.0
2697,256.0
2698,389.0
2699,581.0
2700,676.39
2701,650.0
2702,4.07
2703,1247.0
2704,561.0
2705,493.0
2706,690.0
2707,890.0
2708,470.0
2709,674.0
2710,440.0
2711,470.0
2712,179.0
2713,300.0
2714,400.0
2715,695.0
2716,1500.0
2717,1075.34
2718,858.0
2719,111.12
2720,810.0
2721,256.0
2722,739.0
2723,610.0
2724,470.0
2725,978.0
2726,948.0
2727,115.0
2728,297.67
2729,491.0
2730,585.0
2731,168.01
2732,499.0
2733,416.0
2734,459.0
2735,665.0
2736,1349.0
2737,595.0
2738,339.0
2739,269.0
2740,585.0
2741,186.0
2742,807.83
2743,1158.0
2744,1197.0
2745,719.0
2746,393.0
2747,186.0
2748,756.0
2749,2224.7
2750,888.0
2751,534.0
2752,378.0
2753,249.0
2754,591.0
2755,798.0
2756,329.0
2757,600.0
2758,867.56
2759,609.0
2760,259.0
2761,445.27
2762,592.0
2763,933.0
2764,581.0
2765,581.0
2766,670.41
2767,823.0
2768,625.0
2769,773.65
2770,323.0
2771,314.0
2772,33.07
2773,861.0
2774,660.0
2775,625.0
2776,249.0
2777,561.0
2778,540.0
2779,695.0
2780,32.57
2781,179.0
2782,805.0
2783,166.0
2784,770.0
2785,625.0
2786,416.0
2787,235.0
2788,470.0
2789,610.0
2790,921.0
2791,683.0
2792,744.0
2793,253.97
2794,823.0
2795,784.0
2796,780.0
2797,470.0
2798,530.0
2799,746.0
2800,329.0
2801,616.0
2802,486.0
2803,620.0
2804,620.0
2805,788.0
2806,508.0
2807,710.0
2808,470.0
2809,887.0
2810,792.0
2811,271.55
2812,964.54
2813,400.0
2814,45.0
2815,418.0
2816,256.0
2817,489.68
2818,915.0
2819,567.0
2820,752.0
2821,448.0
2822,382.0
2823,620.0
2824,339.0
2825,355.0
2826,470.0
2827,231.0
2828,520.0
2829,681.0
2830,231.0
2831,455.0
2832,470.0
2833,513.0
2834,550.0
2835,476.0
2836,638.0
2837,860.0
2838,68.22
2839,51.35
2840,1308.04
2841,665.0
2842,423.0
2843,256.0
2844,665.0
2845,540.0
2846,179.0
2847,978.0
2848,518.23
2849,425.0
2850,1122.0
2851,493.0
2852,858.0
2853,805.0
2854,581.0
2855,802.0
2856,669.34
2857,1197.38
2858,346.0
2859,620.0
2860,425.0
2861,655.0
2862,950.91
2863,899.0
2864,392.0
2865,339.0
2866,10.77
2867,499.0
2868,276.0
2869,856.0
2870,690.0
2871,530.0
2872,764.0
2873,695.0
2874,655.0
2875,415.0
2876,301.0
2877,476.0
2878,665.0
2879,525.0
2880,470.0
2881,177.45
2882,620.0
2883,1180.0
2884,465.0
2885,301.0
2886,581.0
2887,581.0
2888,610.0
2889,390.0
2890,459.0
2891,1095.0
2892,365.02
2893,486.0
2894,256.0
2895,294.0
2896,630.0
2897,888.23
2898,546.0
2899,249.0
2900,670.0
2901,944.0
2902,276.0
2903,625.0
2904,294.0
2905,990.0
2906,300.0
2907,823.0
2908,620.0
2909,620.0
2910,256.0
2911,393.0
2912,355.0
2913,498.61
2914,839.03
2915,474.0
2916,1005.0
2917,1599.9
2918,312.0
2919,692.0
2920,285.0
2921,45.0
2922,1120.0
2923,606.0
2924,1073.0
2925,610.0
2926,481.0
2927,695.0
2928,516.0
2929,379.67
2930,33.46
2931,684.0
2932,486.0
2933,823.0
2934,620.0
2935,578.0
2936,370.0
2937,382.0
2938,823.0
2939,309.0
2940,470.0
2941,535.48
2942,425.0
2943,301.0
2944,460.0
2945,798.0
2946,600.0
2947,231.0
2948,681.73
2949,616.0
2950,620.0
2951,620.0
2952,585.0
2953,665.0
2954,710.0
2955,379.0
2956,546.0
2957,186.0
2958,814.0
2959,470.0
2960,166.0
2961,610.0
2962,651.0
2963,249.0
2964,71.65
2965,740.0
2966,755.16
2967,753.55
2968,292.19
2969,1037.0
2970,486.0
2971,369.0
2972,499.0
2973,665.0
2974,333.0
2975,459.0
2976,16.67
2977,930.0
2978,620.0
2979,301.0
2980,620.0
2981,437.0
2982,276.0
2983,301.0
2984,1259.0
2985,565.0
2986,655.0
2987,166.0
2988,516.0
2989,947.0
2990,470.0
2991,861.17
2992,534.0
2993,731.0
2994,919.0
2995,740.0
2996,102.13
2997,280.16
2998,246.1
2999,655.0
3000,967.0
3001,769.0
3002,739.0
3003,699.68
3004,1186.0
3005,565.0
3006,823.0
3007,294.0
3008,7.17
3009,355.0
3010,630.0
3011,524.0
3012,610.0
3013,1120.0
3014,550.0
3015,611.0
3016,690.0
3017,540.0
3018,581.0
3019,630.0
3020,550.0
3021,425.0
3022,580.0
3023,115.21
3024,858.9
3025,322.0
3026,620.0
3027,900.09
3028,947.0
3029,665.0
3030,534.0
3031,289.0
3032,370.0
3033,608.0
3034,382.0
3035,400.0
3036,510.67
3037,284.0
3038,930.0
3039,1297.65
3040,166.0
3041,486.0
3042,893.0
3043,665.0
3044,38.8
3045,1092.0
3046,620.0
3047,249.0
3048,135.26
3049,690.0
3050,166.0
3051,823.0
3052,658.07
3053,166.0
3054,728.0
3055,585.0
3056,620.0
3057,76.13
3058,140.0
3059,604.0
3060,620.0
3061,525.0
3062,423.0
3063,755.0
3064,699.0
3065,511.0
3066,823.0
3067,620.0
3068,858.0
3069,724.0
3070,1193.0
3071,550.0
3072,412.0
3073,630.0
3074,695.0
3075,546.0
3076,701.0
3077,231.0
3078,978.0
3079,534.0
3080,249.0
3081,459.0
3082,884.42
3083,470.0
3084,76.64
3085,958.0
3086,1015.0
3087,486.0
3088,902.0
3089,1361.81
3090,425.0
3091,486.0
3092,655.0
3093,780.0
3094,620.0
3095,655.0
3096,1473.0
3097,534.0
3098,728.0
3099,591.0
3100,695.0
3101,792.0
3102,770.0
3103,620.0
3104,301.0
3105,219.18
3106,186.0
3107,249.0
3108,329.0
3109,887.0
3110,1007.0
3111,470.0
3112,699.0
3113,797.0
3114,625.0
3115,390.0
3116,403.99
3117,470.0
3118,655.0
3119,383.59
3120,486.0
3121,486.0
3122,695.0
3123,798.0
3124,32.25
3125,616.0
3126,312.0
3127,540.0
3128,41.4
3129,724.0
3130,665.0
3131,610.0
3132,566.0
3133,249.0
3134,1159.0
3135,448.0
3136,655.0
3137,780.0
3138,887.0
3139,728.0
3140,516.0
3141,365.0
3142,470.0
3143,470.0
3144,460.0
3145,546.0
3146,625.0
3147,224.0
3148,685.0
3149,625.0
3150,379.0
3151,539.0
3152,650.0
3153,390.0
3154,1029.0
3155,1015.0
3156,511.0
3157,339.0
3158,740.0
3159,724.88
3160,958.0
3161,470.0
3162,640.0
3163,580.0
3164,448.0
3165,180.0
3166,382.0
3167,431.52
3168,205.92
3169,511.0
3170,591.0
3171,294.0
3172,370.0
3173,423.0
3174,917.9
3175,224.0
3176,493.0
3177,785.0
3178,329.0
3179,655.0
3180,843.0
3181,378.0
3182,620.0
3183,486.0
3184,20.83
3185,488.0
3186,694.0
3187,493.0
3188,499.0
3189,544.0
3190,538.0
3191,446.0
3192,249.0
3193,610.0
3194,581.0
3195,256.0
3196,624.0
3197,695.0
3198,435.0
3199,516.0
3200,470.0
3201,249.0
3202,169.53
3203,355.0
3204,681.0
3205,301.0
3206,486.0
3207,620.0
3208,493.0
3209,595.0
3210,382.0
3211,425.0
3212,748.1
3213,753.0
3214,585.0
3215,499.0
3216,546.0
3217,26.45
3218,1190.0
3219,975.0
3220,339.0
3221,769.0
3222,610.0
3223,620.0
3224,355.0
3225,45.0
3226,695.0
3227,480.0
3228,992.0
3229,339.0
3230,470.0
3231,897.0
3232,149.0
3233,581.0
3234,608.0
3235,474.0
3236,674.0
3237,960.0
3238,491.0
3239,179.0
3240,1500.0
3241,665.0
3242,6.94
3243,445.0
3244,823.0
3245,944.0
3246,583.0
3247,539.33
3248,814.0
3249,382.0
3250,384.0
3251,516.0
3252,486.0
3253,655.0
3254,890.0
3255,400.0
3256,818.0
3257,416.0
3258,922.0
3259,580.0
3260,625.0
3261,470.0
3262,700.0
3263,753.0
3264,565.0
3265,470.0
3266,935.0
3267,400.0
3268,470.0
3269,300.0
3270,416.0
3271,550.0
3272,416.0
3273,1249.59
3274,858.0
3275,256.0
3276,416.0
3277,400.0
3278,550.0
3279,665.0
3280,400.0
3281,568.86
3282,312.0
3283,400.0
3284,470.0
3285,1354.0
3286,683.39
3287,835.0
3288,400.0
3289,665.0
3290,650.0
3291,312.0
3292,650.0
3293,400.0
3294,944.0
3295,715.0
3296,700.0
3297,470.0
3298,630.0
3299,1023.0
3300,877.17
3301,843.0
3302,448.0
3303,650.0
3304,823.0
3305,249.0
3306,342.56
3307,899.0
3308,416.0
3309,650.0
3310,550.0
3311,186.0
3312,403.33
3313,800.0
3314,735.0
3315,382.0
3316,293.34
3317,620.0
3318,166.0
3319,158.5
3320,370.0
3321,695.0
3322,364.0
3323,655.0
3324,400.0
3325,835.0
3326,179.0
3327,890.0
3328,416.0
3329,735.0
3330,470.0
3331,800.0
3332,902.0
3333,301.0
3334,409.0
3335,550.0
3336,620.0
3337,416.0
3338,654.0
3339,890.0
3340,665.0
3341,665.0
3342,1037.0
3343,664.0
3344,715.0
3345,346.0
3346,256.0
3347,650.0
3348,665.0
3349,943.06
3350,486.0
3351,580.0
3352,620.0
3353,625.0
3354,486.0
3355,620.0
3356,382.0
3357,699.0
3358,382.0
3359,715.0
3360,670.0
3361,281.81
3362,595.0
3363,382.0
3364,470.0
3365,905.0
3366,580.0
3367,620.0
3368,470.0
3369,728.0
3370,870.0
3371,625.0
3372,370.0
3373,400.0
3374,695.0
3375,818.0
3376,888.0
3377,370.0
3378,550.0
3379,400.0
3380,520.0
3381,470.0
3382,464.8
3383,640.0
3384,580.0
3385,980.0
3386,620.0
3387,179.0
3388,595.0
3389,1016.13
3390,670.0
3391,304.0
3392,382.0
3393,625.0
3394,382.0
3395,416.0
3396,301.0
3397,565.0
3398,580.0
3399,400.0
3400,922.0
3401,625.0
3402,997.26
3403,400.0
3404,695.0
3405,724.0
3406,382.0
3407,382.0
3408,301.0
3409,312.0
3410,590.0
3411,620.0
3412,845.0
3413,294.0
3414,161.03
3415,695.0
3416,39.0
3417,550.0
3418,486.0
3419,416.0
3420,231.0
3421,370.0
3422,256.0
3423,37.42
3424,258.05
3425,312.0
3426,249.0
3427,486.0
3428,470.0
3429,650.0
3430,670.0
3431,843.0
3432,625.0
3433,695.0
3434,769.0
3435,322.0
3436,696.0
3437,597.87
3438,915.0
3439,256.0
3440,695.0
3441,470.0
3442,1005.0
3443,890.0
3444,670.0
3445,620.0
3446,550.0
3447,312.0
3448,580.0
3449,470.0
3450,601.97
3451,416.0
3452,625.0
3453,249.0
3454,214.0
3455,230.63
3456,486.0
3457,312.0
3458,650.0
3459,367.0
3460,224.0
3461,416.0
3462,301.0
3463,580.0
3464,319.0
3465,550.0
3466,103.23
3467,370.0
3468,312.0
3469,650.0
3470,528.0
3471,186.0
3472,695.0
3473,665.0
3474,655.0
3475,276.0
3476,595.0
3477,550.0
3478,416.0
3479,695.0
3480,224.0
3481,695.0
3482,710.0
3483,416.0
3484,319.0
3485,370.0
3486,304.0
3487,294.0
3488,465.16
3489,486.0
3490,312.0
3491,486.0
3492,400.0
3493,550.0
3494,370.0
3495,580.0
3496,595.0
3497,256.0
3498,470.0
3499,482.0
3500,238.45
3501,35.5
3502,610.0
3503,960.0
3504,546.0
3505,655.0
3506,284.0
3507,256.0
3508,556.0
3509,556.0
3510,149.0
3511,893.0
3512,585.11
3513,135.0
3514,470.0
3515,393.0
3516,449.97
3517,516.0
3518,610.0
3519,962.39
3520,249.0
3521,740.0
3522,690.0
3523,690.0
3524,823.0
3525,769.0
3526,166.0
3527,743.8
3528,665.0
3529,546.0
3530,546.0
3531,887.0
3532,534.0
3533,606.0
3534,508.0
3535,777.0
3536,305.0
3537,698.0
3538,638.0
3539,710.0
3540,470.0
3541,249.0
3542,488.0
3543,166.0
3544,695.0
3545,659.0
3546,486.0
3547,994.0
3548,364.0
3549,470.0
3550,620.0
3551,650.0
3552,470.0
3553,166.0
3554,695.0
3555,620.0
3556,166.0
3557,1018.0
3558,620.0
3559,470.0
3560,620.0
3561,1005.0
3562,470.0
3563,394.4
3564,620.0
3565,486.0
3566,620.0
3567,620.0
3568,870.0
3569,620.0
3570,620.0
3571,470.0
3572,620.0
3573,486.0
3574,695.0
3575,570.0
3576,470.0
3577,469.0
3578,486.0
3579,486.0
3580,470.0
3581,665.0
3582,470.0
3583,166.0
3584,486.0
3585,655.0
3586,382.0
3587,695.0
3588,470.0
3589,620.0
3590,620.0
3591,620.0
3592,328.07
3593,740.0
3594,659.28
3595,1001.0
3596,770.0
3597,470.0
3598,620.0
3599,725.0
3600,620.0
3601,650.0
3602,470.0
3603,620.0
3604,470.0
3605,470.0
3606,470.0
3607,665.0
3608,620.0
3609,620.0
3610,695.0
3611,770.0
3612,470.0
3613,486.0
3614,620.0
3615,690.0
3616,690.0
3617,1460.0
3618,884.0
3619,695.0
3620,699.0
3621,805.0
3622,470.0
3623,884.0
3624,725.0
3625,620.0
3626,984.0
3627,620.0
3628,815.0
3629,699.5
3630,620.0
3631,665.0
3632,486.0
3633,770.0
3634,785.0
3635,905.0
3636,370.0
3637,249.0
3638,620.0
3639,620.0
3640,665.0
3641,166.0
3642,620.0
3643,620.0
3644,620.0
3645,650.0
3646,655.0
3647,650.0
3648,620.0
3649,470.0
3650,655.0
3651,695.0
3652,655.0
3653,486.0
3654,665.0
3655,695.0
3656,650.0
3657,650.0
3658,284.0
3659,486.0
3660,620.0
3661,620.0
3662,665.0
3663,710.0
3664,470.0
3665,486.0
3666,470.0
3667,319.0
3668,470.0
3669,695.0
3670,655.0
3671,470.0
3672,665.0
3673,620.0
3674,620.0
3675,620.0
3676,249.0
3677,655.0
3678,470.0
3679,470.0
3680,769.0
3681,470.0
3682,470.0
3683,620.0
3684,486.0
3685,256.0
3686,486.0
3687,166.0
3688,470.0
3689,755.0
3690,695.0
3691,71.19
3692,486.0
3693,655.0
3694,620.0
3695,655.0
3696,620.0
3697,734.0
3698,370.0
3699,469.0
3700,699.0
3701,470.0
3702,470.0
3703,470.0
3704,695.0
3705,249.0
3706,650.0
3707,166.0
3708,166.0
3709,620.0
3710,620.0
3711,744.0
3712,798.0
3713,650.0
3714,1127.0
3715,724.0
3716,620.0
3717,470.0
3718,655.0
3719,470.0
3720,620.0
3721,166.0
3722,256.0
3723,665.0
3724,470.0
3725,319.0
3726,620.0
3727,249.0
3728,665.0
3729,166.0
3730,486.0
3731,740.0
3732,695.0
3733,650.0
3734,620.0
3735,370.0
3736,655.0
3737,620.0
3738,470.0
3739,620.0
3740,293.33
3741,650.0
3742,620.0
3743,339.0
3744,620.0
3745,486.0
3746,166.0
3747,758.71
3748,301.0
3749,620.0
3750,620.0
3751,810.0
3752,695.0
3753,486.0
3754,695.0
3755,798.0
3756,256.0
3757,650.0
3758,166.0
3759,650.0
3760,486.0
3761,620.0
3762,620.0
3763,620.0
3764,470.0
3765,470.0
3766,166.0
3767,470.0
3768,620.0
3769,620.0
3770,166.0
3771,770.0
3772,620.0
3773,620.0
3774,301.0
3775,166.0
3776,620.0
3777,620.0
3778,835.0
3779,740.0
3780,470.0
3781,470.0
3782,425.0
3783,470.0
3784,166.0
3785,620.0
3786,470.0
3787,620.0
3788,470.0
3789,166.0
3790,470.0
3791,611.3
3792,665.0
3793,470.0
3794,470.0
3795,486.0
3796,486.0
3797,620.0
3798,620.0
3799,470.0
3800,470.0
3801,470.0
3802,364.0
3803,470.0
3804,486.0
3805,650.0
3806,620.0
3807,620.0
3808,665.0
3809,470.0
3810,675.48
3811,382.0
3812,695.0
3813,301.0
3814,470.0
3815,166.0
3816,620.0
3817,620.0
3818,650.0
3819,166.0
3820,650.0
3821,710.0
3822,149.0
3823,620.0
3824,665.0
3825,620.0
3826,470.0
3827,166.0
3828,650.0
3829,650.0
3830,540.0
3831,301.0
3832,470.0
3833,486.0
3834,650.0
3835,620.0
3836,620.0
3837,655.0
3838,166.0
3839,470.0
3840,470.0
3841,620.0
3842,655.0
3843,655.0
3844,805.0
3845,770.0
3846,638.04
3847,650.0
3848,884.0
3849,884.0
3850,486.0
3851,370.0
3852,470.0
3853,905.0
3854,470.0
3855,620.0
3856,470.0
3857,470.0
3858,665.0
3859,665.0
3860,256.0
3861,470.0
3862,860.0
3863,690.0
3864,695.0
3865,888.0
3866,930.0
3867,301.0
3868,665.0
3869,166.0
3870,470.0
3871,620.0
3872,620.0
3873,294.1
3874,555.65
3875,329.0
3876,470.0
3877,655.0
3878,699.0
3879,620.0
3880,620.0
3881,655.0
3882,176.67
3883,655.0
3884,947.0
3885,470.0
3886,486.0
3887,470.0
3888,166.0
3889,665.0
3890,650.0
3891,764.91
3892,256.0
3893,695.0
3894,655.0
3895,710.0
3896,620.0
3897,620.0
3898,665.0
3899,556.0
3900,650.0
3901,665.0
3902,650.0
3903,620.0
3904,620.0
3905,620.0
3906,620.0
3907,655.0
3908,486.0
3909,319.0
3910,658.0
3911,740.0
3912,620.0
3913,710.0
3914,620.0
3915,249.0
3916,650.0
3917,370.0
3918,740.0
3919,294.0
3920,620.0
3921,249.0
3922,249.0
3923,915.0
3924,620.0
3925,486.0
3926,905.0
3927,284.0
3928,620.0
3929,650.0
3930,166.0
3931,620.0
3932,620.0
3933,620.0
3934,620.0
3935,695.0
3936,665.0
3937,665.0
3938,620.0
3939,695.0
3940,655.0
3941,486.0
3942,695.0
3943,256.0
3944,539.0
3945,256.0
3946,470.0
3947,665.0
3948,655.0
3949,769.0
3950,620.0
3951,620.0
3952,843.0
3953,470.0
3954,43.16
3955,470.0
3956,948.58
3957,665.0
3958,249.0
3959,145.0
3960,650.0
3961,620.0
3962,665.0
3963,620.0
3964,443.0
3965,740.0
3966,663.55
3967,765.17
3968,744.0
3969,470.0
3970,486.0
3971,695.0
3972,470.0
3973,543.03
3974,294.0
3975,1037.0
3976,249.0
3977,354.0
3978,665.0
3979,459.0
3980,650.0
3981,486.0
3982,710.0
3983,620.0
3984,620.0
3985,390.0
3986,740.0
3987,655.0
3988,960.0
3989,744.0
3990,655.0
3991,166.0
3992,486.0
3993,470.0
3994,665.0
3995,620.0
3996,470.0
3997,470.0
3998,655.0
3999,620.0
4000,755.0
4001,470.0
4002,620.0
4003,620.0
4004,620.0
4005,695.0
4006,486.0
4007,470.0
4008,620.0
4009,486.0
4010,695.0
4011,695.0
4012,710.0
4013,470.0
4014,620.0
4015,620.0
4016,620.0
4017,655.0
4018,470.0
4019,665.0
4020,724.0
4021,620.0
4022,652.08
4023,470.0
4024,665.0
4025,665.0
4026,695.0
4027,695.0
4028,695.0
4029,665.0
4030,249.0
4031,470.0
4032,665.0
4033,470.0
4034,1312.0
4035,486.0
4036,620.0
4037,665.0
4038,695.0
4039,308.67
4040,570.0
4041,470.0
4042,30.0
4043,30.0
4044,740.0
4045,486.0
4046,650.0
4047,695.0
4048,301.0
4049,301.0
4050,665.0
4051,311.93
4052,319.0
4053,665.0
4054,470.0
4055,620.2
4056,470.0
4057,486.0
4058,665.0
4059,665.0
4060,860.0
4061,470.0
4062,249.0
4063,470.0
4064,486.0
4065,486.0
4066,699.0
4067,256.0
4068,470.0
4069,655.0
4070,740.0
4071,650.0
4072,470.0
4073,650.0
4074,665.0
4075,149.0
4076,470.0
4077,620.0
4078,294.0
4079,710.0
4080,940.0
4081,940.0
4082,650.0
4083,650.0
4084,301.0
4085,486.0
4086,744.0
4087,650.0
4088,301.0
4089,470.0
4090,620.0
4091,470.0
4092,620.0
4093,650.0
4094,695.0
4095,499.0
4096,301.0
4097,650.0
4098,650.0
4099,382.0
4100,470.0
4101,294.0
4102,620.0
4103,470.0
4104,690.0
4105,710.0
4106,665.0
4107,470.0
4108,249.0
4109,620.0
4110,470.0
4111,655.0
4112,655.0
4113,486.0
4114,620.0
4115,249.0
4116,665.0
4117,470.0
4118,665.0
4119,294.0
4120,620.0
4121,470.0
4122,620.0
4123,370.0
4124,13.41
4125,695.0
4126,486.0
4127,470.0
4128,486.0
4129,665.0
4130,724.62
4131,620.0
4132,319.0
4133,370.0
4134,470.0
4135,650.0
4136,695.0
4137,695.0
4138,249.0
4139,470.0
4140,620.0
4141,695.0
4142,620.0
4143,620.0
4144,620.0
4145,655.0
4146,747.11
4147,470.0
4148,665.0
4149,486.0
4150,284.0
4151,665.0
4152,470.0
4153,665.0
4154,160.0
4155,665.0
4156,655.0
4157,665.0
4158,710.0
4159,665.0
4160,256.0
