,Timepoint,Capomulin,Ceftamin,Infubinol,Ketapril,Naftisol,Placebo,Propriva,Ramicane,Stelasyn,Zoniferol
0,0,25,25.0,25,25.0,25.0,25,26,25.0,26.0,25
1,5,25,21.0,25,23.0,23.0,24,25,25.0,25.0,24
2,10,25,20.0,21,22.0,21.0,24,23,24.0,23.0,22
3,15,24,19.0,21,19.0,21.0,20,17,24.0,23.0,21
4,20,5,,8,,,4,10,,,1
