,revol_util
0%,86
40.7%,9
0.2%,9
38%,9
64.8%,8
62.5%,8
22%,8
62.6%,8
51.4%,8
75.5%,8
71.1%,8
36.1%,8
48.2%,8
75.6%,7
80.6%,7
58.4%,7
80.2%,7
28.4%,7
76.7%,7
22.6%,7
26.2%,7
29.4%,7
49.8%,7
43.7%,7
52.4%,7
50.4%,7
15.4%,7
55.8%,7
15.7%,7
31.2%,7
99.9%,7
26.9%,7
49.7%,7
79.1%,7
69.8%,7
65.9%,6
44.5%,6
71.9%,6
54.7%,6
85.2%,6
33.8%,6
61.6%,6
98.6%,6
41.2%,6
52%,6
54.6%,6
39.9%,6
37%,6
31.6%,6
87.1%,6
14.4%,6
58.1%,6
39.1%,6
68.8%,6
47.2%,6
37.7%,6
29.1%,6
81.6%,6
34.2%,6
83.5%,6
35%,6
10%,6
89.3%,6
55.2%,6
90.7%,6
45.3%,6
27.7%,6
84.8%,6
34.7%,6
80.5%,6
42.5%,6
46.3%,6
49.6%,6
88.9%,6
46.7%,6
7.4%,6
69.3%,6
52.3%,6
70.4%,6
26.7%,6
46.2%,6
20.3%,5
92.9%,5
69.7%,5
78.2%,5
21.9%,5
33.4%,5
5.7%,5
57.5%,5
39.2%,5
72.9%,5
36%,5
1.4%,5
36.7%,5
9.7%,5
79.3%,5
8.3%,5
87.2%,5
31%,5
88.3%,5
90.4%,5
75.3%,5
58.7%,5
74%,5
74.5%,5
72.1%,5
51%,5
54%,5
11.8%,5
48.7%,5
46%,5
86.7%,5
49.9%,5
35.9%,5
24.3%,5
32.3%,5
9.5%,5
92.7%,5
52.5%,5
87.4%,5
22.8%,5
20%,5
46.6%,5
56.5%,5
36.5%,5
88.6%,5
42%,5
38.3%,5
61%,5
79.6%,5
37.2%,5
46.4%,5
46.9%,5
38.2%,5
70.5%,5
45.4%,5
83.3%,5
77.9%,5
80.7%,5
70.8%,5
93.6%,5
40.8%,5
33.3%,5
32.6%,5
65.6%,5
33.6%,5
81.9%,5
23.8%,5
12.9%,5
36.4%,5
73.6%,5
25.4%,5
42.8%,5
68.7%,5
82%,5
95.5%,5
67.5%,5
43.8%,5
83.6%,5
62.4%,5
11.9%,5
18.3%,5
56.9%,5
81%,5
43.3%,5
26%,5
14.6%,5
44.7%,5
34.8%,4
87.6%,4
6.7%,4
55.1%,4
81.5%,4
81.1%,4
7.7%,4
55.4%,4
64.9%,4
37.5%,4
33.9%,4
32.1%,4
98.7%,4
98.5%,4
22.7%,4
71.3%,4
72.7%,4
78.3%,4
64.1%,4
51.8%,4
93%,4
63.4%,4
71.7%,4
74.8%,4
9.9%,4
18.6%,4
26.3%,4
27.3%,4
69%,4
57.3%,4
8.7%,4
53.1%,4
67.8%,4
23.5%,4
88%,4
46.8%,4
37.8%,4
0.1%,4
38.7%,4
44.8%,4
82.3%,4
64.6%,4
84.7%,4
63.2%,4
91.3%,4
17.9%,4
86.8%,4
90.2%,4
47.8%,4
45%,4
60.2%,4
97.3%,4
56.2%,4
69.9%,4
52.1%,4
65.5%,4
10.8%,4
97.7%,4
19.2%,4
79%,4
68%,4
31.1%,4
85.7%,4
57.4%,4
13.9%,4
8.1%,4
12%,4
21.3%,4
57.6%,4
24%,4
74.7%,4
59.2%,4
97.2%,4
2.5%,4
27.8%,4
19%,4
9.4%,4
22.3%,4
54.5%,4
24.4%,4
33.1%,4
18.5%,4
98.1%,4
63.9%,4
74.4%,4
62.1%,4
92.6%,4
94.3%,4
54.3%,4
47.7%,4
39.5%,4
43.6%,4
19.8%,4
48%,4
51.6%,4
77.2%,4
18.4%,4
24.6%,4
79.9%,4
73.8%,4
46.5%,4
38.5%,4
94.5%,4
78.1%,4
40.1%,4
58.3%,4
47.6%,4
96%,4
43.4%,4
55.7%,4
40.2%,4
54.8%,4
90.3%,4
83%,4
32%,4
86.3%,4
58.5%,4
58.2%,4
65.2%,4
43.1%,4
10.1%,4
8%,4
11.6%,4
65.1%,4
14.7%,4
81.7%,4
71.6%,4
28.8%,4
82.8%,4
55%,4
61.8%,4
23%,4
56%,4
65.4%,4
18.7%,4
67.4%,4
60.9%,4
57.9%,4
7%,4
92.2%,4
6.4%,4
86.5%,4
76.6%,4
49.1%,4
97.6%,4
76.9%,4
79.4%,4
26.6%,4
44.4%,4
66%,4
94.6%,4
50%,4
30.1%,4
27.6%,4
61.1%,4
27.1%,4
73.9%,4
22.1%,4
92.5%,4
24.9%,4
12.6%,4
91.8%,3
93.1%,3
2.4%,3
87.7%,3
12.8%,3
35.1%,3
34.4%,3
39.3%,3
5.5%,3
85.3%,3
36.8%,3
95.3%,3
79.7%,3
17.3%,3
92.8%,3
47.5%,3
66.1%,3
92%,3
41.1%,3
99.6%,3
23.6%,3
43.5%,3
40.3%,3
11%,3
84.2%,3
49%,3
56.3%,3
60.7%,3
25.8%,3
98.4%,3
95.8%,3
26.4%,3
91.5%,3
97%,3
50.5%,3
49.5%,3
80.4%,3
79.2%,3
28.7%,3
41.4%,3
66.3%,3
29.3%,3
31.4%,3
10.4%,3
77.4%,3
52.2%,3
50.6%,3
94.7%,3
76.8%,3
9.3%,3
96.7%,3
13.8%,3
87.3%,3
76%,3
24.7%,3
60.1%,3
93.2%,3
23.9%,3
39.4%,3
1.9%,3
59.3%,3
14.1%,3
17.4%,3
25.7%,3
64.7%,3
4.2%,3
35.5%,3
36.6%,3
5.3%,3
64.4%,3
95.4%,3
80.9%,3
19.5%,3
71.4%,3
35.3%,3
59%,3
79.8%,3
16.4%,3
21.4%,3
80.1%,3
76.1%,3
45.1%,3
25.5%,3
15.5%,3
30.6%,3
38.9%,3
53.2%,3
84.3%,3
32.7%,3
12.4%,3
24.5%,3
85.1%,3
55.5%,3
47.3%,3
37.3%,3
45.2%,3
89.7%,3
53.4%,3
20.6%,3
7.1%,3
40.5%,3
49.4%,3
75.9%,3
41.9%,3
41.6%,3
8.2%,3
70.2%,3
93.5%,3
70%,3
61.2%,3
51.2%,3
4.1%,3
82.7%,3
69.6%,3
63.3%,3
51.5%,3
22.9%,3
5.2%,3
99.3%,3
8.5%,3
44.2%,3
75%,3
44.1%,3
79.5%,3
47.1%,3
11.5%,3
49.3%,3
2.2%,3
15%,3
40.4%,3
6.6%,3
84.6%,3
61.3%,3
42.2%,3
78.8%,3
38.6%,3
62.8%,3
67.6%,3
80%,3
28.9%,3
83.9%,3
89.6%,3
27.2%,3
32.2%,3
17.5%,3
55.6%,3
78.5%,3
15.1%,3
60%,3
51.3%,3
0.4%,3
95.6%,3
54.1%,3
34%,3
16.9%,3
8.4%,3
60.6%,3
97.8%,3
74.9%,3
78%,3
58.8%,3
33%,3
94%,3
47.4%,3
90.9%,3
77.8%,3
85.8%,3
4.5%,3
52.9%,3
97.1%,3
86.2%,3
62.7%,3
57.2%,3
41.8%,3
12.7%,3
48.6%,3
73.4%,3
7.6%,3
82.9%,3
21.1%,3
37.1%,3
51.7%,3
11.4%,3
2.8%,3
4.3%,3
15.8%,3
75.2%,3
74.2%,3
42.9%,3
12.3%,3
88.7%,3
13.6%,3
94.9%,3
57.8%,3
9.8%,3
16.3%,3
41%,3
89.4%,3
24.2%,3
77.5%,3
54.4%,3
56.4%,3
27.4%,3
93.7%,3
57.1%,3
27%,3
42.4%,3
63.8%,3
23.7%,3
59.9%,3
4.4%,3
97.9%,3
66.8%,3
61.4%,3
25.2%,3
37.4%,3
17%,3
3.1%,3
35.8%,3
53.5%,3
44%,3
39%,3
62.9%,3
50.2%,3
76.2%,3
57.7%,3
5.8%,3
93.3%,3
45.6%,2
82.4%,2
23.3%,2
71.2%,2
26.8%,2
87.8%,2
93.4%,2
17.8%,2
73.2%,2
2.9%,2
90.1%,2
48.5%,2
80.8%,2
77%,2
67.3%,2
10.9%,2
61.7%,2
54.9%,2
83.7%,2
92.3%,2
3.8%,2
48.9%,2
42.3%,2
78.4%,2
66.5%,2
0.7%,2
17.7%,2
48.3%,2
86.4%,2
34.5%,2
72.2%,2
32.9%,2
49.2%,2
86.6%,2
60.3%,2
5.4%,2
20.5%,2
32.5%,2
30.9%,2
36.9%,2
26.5%,2
58.6%,2
25.1%,2
59.1%,2
99.8%,2
73.3%,2
83.2%,2
44.3%,2
96.5%,2
29%,2
80.3%,2
28.6%,2
17.6%,2
75.1%,2
55.9%,2
77.1%,2
19.6%,2
31.7%,2
21.5%,2
30.7%,2
72.6%,2
32.8%,2
68.2%,2
90.8%,2
0.8%,2
47.9%,2
94.8%,2
41.7%,2
93.9%,2
58.9%,2
96.3%,2
68.3%,2
14.2%,2
33.7%,2
9%,2
1%,2
74.1%,2
96.8%,2
8.6%,2
91.4%,2
3.5%,2
1.8%,2
48.8%,2
5%,2
58%,2
69.2%,2
3.2%,2
2.1%,2
29.8%,2
17.2%,2
97.4%,2
92.4%,2
51.1%,2
13.5%,2
89%,2
20.7%,2
53.7%,2
73.1%,2
91.9%,2
28%,2
56.6%,2
99.5%,2
68.5%,2
53.9%,2
6%,2
4.6%,2
35.7%,2
3%,2
42.1%,2
67.9%,2
36.3%,2
65.3%,2
25.6%,2
99.7%,2
70.9%,2
30.5%,2
9.1%,2
64.2%,2
55.3%,2
2%,2
29.5%,2
83.4%,2
76.3%,2
91.7%,2
22.2%,2
62.3%,2
61.5%,2
10.2%,2
18.8%,2
28.1%,2
81.3%,2
66.7%,2
12.2%,2
13.1%,2
3.4%,2
51.9%,2
16.7%,2
96.1%,2
20.2%,2
93.8%,2
16.8%,2
68.6%,2
20.8%,2
70.3%,2
30.2%,2
91.6%,2
66.6%,2
11.3%,2
67.7%,2
2.7%,2
63%,2
48.1%,2
13.3%,2
67%,2
15.2%,2
11.1%,2
60.8%,2
65.7%,2
16.2%,2
94.4%,2
69.5%,2
31.9%,2
82.2%,2
16.1%,2
56.1%,2
7.8%,2
25.3%,2
33.5%,2
89.9%,2
30.8%,2
98.8%,2
36.2%,2
77.6%,2
44.6%,2
21%,2
84.1%,2
13%,2
34.3%,2
17.1%,2
99%,2
16.5%,2
13.2%,2
38.1%,2
12.5%,2
38.4%,2
7.5%,2
76.4%,2
53.8%,2
59.4%,2
71.8%,2
87%,2
74.3%,2
40.6%,2
52.7%,2
53%,2
52.8%,2
85.6%,2
89.1%,2
41.3%,2
72.3%,2
1.5%,2
34.1%,2
14.8%,2
24.1%,2
26.1%,2
6.8%,2
88.5%,2
21.7%,2
16.6%,2
23.4%,2
66.2%,2
22.5%,2
90%,2
90.6%,2
3.6%,2
10.3%,2
18%,2
29.6%,2
33.2%,2
40.9%,2
73.5%,2
84.4%,2
72.5%,2
25%,2
53.6%,2
4.7%,2
11.2%,1
96.9%,1
44.9%,1
83.1%,1
86.1%,1
14.5%,1
43.2%,1
63.1%,1
56.7%,1
47%,1
3.9%,1
72%,1
36.88%,1
65.8%,1
85%,1
35.6%,1
45.7%,1
39.6%,1
57%,1
77.3%,1
23.2%,1
92.1%,1
38.77%,1
75.7%,1
39.8%,1
1.1%,1
45.5%,1
60.5%,1
14.3%,1
64.5%,1
95.1%,1
46.1%,1
91.2%,1
13.4%,1
75.4%,1
50.3%,1
4%,1
95.9%,1
5.1%,1
97.5%,1
31.8%,1
61.9%,1
59.6%,1
30.4%,1
66.9%,1
85.5%,1
96.6%,1
66.4%,1
31.3%,1
10.17%,1
17.71%,1
6.9%,1
41.5%,1
19.7%,1
7.3%,1
95.2%,1
75.8%,1
59.7%,1
89.5%,1
2.3%,1
99.4%,1
56.26%,1
95.7%,1
65%,1
7.9%,1
63.5%,1
10.6%,1
62.2%,1
85.9%,1
4.8%,1
9.6%,1
81.8%,1
70.1%,1
88.8%,1
98%,1
23.1%,1
67.1%,1
89.8%,1
8.8%,1
6.3%,1
50.8%,1
68.1%,1
45.8%,1
96.4%,1
5.79%,1
87.5%,1
78.7%,1
78.9%,1
64.3%,1
19.4%,1
19.3%,1
35.2%,1
29.7%,1
99.1%,1
28.3%,1
0.6%,1
10.7%,1
76.5%,1
82.5%,1
21.6%,1
54.22%,1
14%,1
4.85%,1
19.1%,1
15.3%,1
0.5%,1
82.6%,1
43.9%,1
59.8%,1
18.1%,1
84.5%,1
9.2%,1
53.3%,1
88.2%,1
86%,1
34.6%,1
84.9%,1
42.7%,1
37.9%,1
0.3%,1
16%,1
31.5%,1
71.5%,1
39.7%,1
7.2%,1
63.7%,1
74.6%,1
10.5%,1
48.4%,1
84%,1
87.9%,1
38.8%,1
0.9%,1
73.7%,1
69.98%,1
3.3%,1
18.82%,1
18.9%,1
81.2%,1
27.81%,1
25.9%,1
67.2%,1
18.2%,1
5.9%,1
52.6%,1
68.4%,1
19.9%,1
20.9%,1
82.1%,1
96.2%,1
14.9%,1
40%,1
88.4%,1
20.4%,1
43%,1
81.4%,1
21.8%,1
30.3%,1
70.6%,1
45.9%,1
98.2%,1
83.8%,1
71%,1
85.4%,1
98.3%,1
29.2%,1
42.6%,1
50.7%,1
15.6%,1
