,revol_util
0%,37
63.5%,3
83%,3
55.2%,3
51.7%,3
72.4%,3
82.9%,3
75.2%,3
80.7%,3
84.8%,3
60.7%,3
77.5%,3
64.5%,3
78%,2
18.2%,2
77.4%,2
29.8%,2
101.4%,2
6%,2
96.2%,2
74%,2
79.3%,2
44%,2
61.3%,2
56.8%,2
98.1%,2
66%,2
79.8%,2
72.5%,2
80.4%,2
97.9%,2
14.6%,2
58.8%,2
2.6%,2
59.2%,2
21.8%,2
64.1%,2
72.6%,2
79.6%,2
25.6%,2
75.1%,2
45.4%,2
32.6%,2
50.1%,2
37%,2
80.9%,2
76.7%,2
27.7%,2
47.6%,2
88.5%,2
64.6%,2
33.2%,2
4.2%,2
56.9%,2
34.4%,2
89.8%,2
31.6%,2
55.6%,2
55.8%,2
51.3%,2
11%,2
85%,2
100.7%,2
32.9%,2
53.3%,2
83.7%,2
26.5%,2
37.5%,2
73.7%,2
71.7%,2
46.1%,2
1.6%,2
25.8%,2
39.7%,2
18.1%,2
53.1%,2
87.4%,2
76.6%,2
84.3%,1
86.7%,1
17%,1
94.3%,1
24.8%,1
94.6%,1
62.8%,1
20.7%,1
46.3%,1
22%,1
71.4%,1
98.5%,1
27.4%,1
79%,1
95.7%,1
59.3%,1
84.4%,1
61.9%,1
23.9%,1
102.7%,1
79.1%,1
97.3%,1
18.6%,1
0.4%,1
86.3%,1
83.1%,1
67.9%,1
35.1%,1
63.1%,1
10.3%,1
62.6%,1
9.4%,1
68.2%,1
32.8%,1
43.2%,1
4.6%,1
30.8%,1
53%,1
37.7%,1
46.6%,1
88.2%,1
25.3%,1
49%,1
16.9%,1
78.5%,1
0.1%,1
14.4%,1
105.7%,1
57.8%,1
50.8%,1
49.2%,1
37.6%,1
90%,1
66.3%,1
58.7%,1
19%,1
14%,1
76.8%,1
57.2%,1
30.9%,1
59.1%,1
75.4%,1
92.3%,1
7.3%,1
33.6%,1
31.1%,1
93.2%,1
94%,1
5.4%,1
119%,1
65.5%,1
46.9%,1
27.6%,1
59.5%,1
72.3%,1
81.6%,1
97.1%,1
42.8%,1
28.9%,1
29.9%,1
78.4%,1
12.6%,1
66.5%,1
105.3%,1
88.9%,1
81.9%,1
35.2%,1
35%,1
90.7%,1
99.9%,1
58.9%,1
93.7%,1
66.8%,1
105.2%,1
7.2%,1
83.3%,1
61.8%,1
34.1%,1
82.7%,1
98.4%,1
88.7%,1
79.9%,1
36.2%,1
106.5%,1
87.7%,1
95.4%,1
36.3%,1
1.3%,1
61.7%,1
103.5%,1
24.7%,1
22.3%,1
54.6%,1
28.7%,1
92.2%,1
94.5%,1
19.1%,1
59.9%,1
6.9%,1
96.6%,1
65.4%,1
40.3%,1
103.1%,1
47.3%,1
83.5%,1
95.8%,1
10.4%,1
84.5%,1
87.2%,1
98%,1
79.5%,1
28.8%,1
34.7%,1
56%,1
92.9%,1
86.1%,1
25.9%,1
41.5%,1
101.8%,1
34.8%,1
51.1%,1
28.4%,1
70.9%,1
11.8%,1
79.7%,1
35.4%,1
18.9%,1
63.4%,1
86%,1
2.5%,1
96.8%,1
100.6%,1
93%,1
70.4%,1
27.9%,1
72.7%,1
60.8%,1
77.9%,1
101.5%,1
41.7%,1
36.7%,1
20.8%,1
73.8%,1
7%,1
93.8%,1
80.6%,1
16.8%,1
81.1%,1
16.7%,1
19.2%,1
73.4%,1
60.6%,1
41%,1
81.8%,1
54.2%,1
84.1%,1
42.7%,1
90.1%,1
21%,1
51.8%,1
57%,1
99.6%,1
9.8%,1
1.1%,1
29.7%,1
46%,1
99.2%,1
74.5%,1
30.5%,1
86.6%,1
87.3%,1
1.5%,1
60.5%,1
103.2%,1
77.1%,1
45.6%,1
43.8%,1
18.3%,1
35.5%,1
100%,1
93.1%,1
97%,1
89.5%,1
54.4%,1
67%,1
11.6%,1
17.9%,1
78.6%,1
71.8%,1
50.7%,1
98.7%,1
68.1%,1
53.2%,1
20.2%,1
43.5%,1
77%,1
52.4%,1
82.4%,1
60%,1
57.4%,1
45.9%,1
56.1%,1
51.9%,1
66.9%,1
66.4%,1
28%,1
82.3%,1
49.1%,1
46.5%,1
74.7%,1
99.3%,1
63%,1
92%,1
78.1%,1
89.2%,1
80%,1
69.1%,1
49.7%,1
31.8%,1
51%,1
74.2%,1
68.4%,1
96.5%,1
96.7%,1
60.3%,1
15.4%,1
89.4%,1
70.1%,1
15.1%,1
51.5%,1
19.3%,1
78.3%,1
65.2%,1
14.9%,1
38.1%,1
92.5%,1
32.7%,1
95%,1
53.8%,1
49.3%,1
39.1%,1
22.9%,1
56.7%,1
50.2%,1
71.9%,1
73.5%,1
61.5%,1
52%,1
9.2%,1
60.2%,1
75.6%,1
57.6%,1
49.9%,1
34.2%,1
91.6%,1
52.8%,1
59.6%,1
89.6%,1
78.7%,1
76.2%,1
42.1%,1
57.3%,1
71.5%,1
43.3%,1
2.2%,1
46.8%,1
11.7%,1
9.1%,1
22.6%,1
55%,1
5.9%,1
96%,1
23.1%,1
48.1%,1
48.7%,1
15.2%,1
54.1%,1
63.2%,1
97.5%,1
85.1%,1
73.3%,1
