,naics,fips_code,unions_count
0,813930,1001,5
1,813930,1003,1
2,813930,1009,2
3,813930,1013,1
4,813930,1015,7
5,813930,1019,1
6,813930,1021,1
7,813930,1023,4
8,813930,1025,2
9,813930,1033,14
10,813930,1043,1
11,813930,1045,4
12,813930,1047,3
13,813930,1049,3
14,813930,1051,2
15,813930,1053,1
16,813930,1055,11
17,813930,1057,2
18,813930,1059,1
19,813930,1067,1
20,813930,1069,5
21,813930,1071,4
22,813930,1073,52
23,813930,1075,1
24,813930,1077,6
25,813930,1079,3
26,813930,1081,2
27,813930,1083,1
28,813930,1089,12
29,813930,1091,3
30,813930,1093,2
31,813930,1095,1
32,813930,1097,36
33,813930,1101,14
34,813930,1103,6
35,813930,1107,1
36,813930,1113,3
37,813930,1115,2
38,813930,1117,5
39,813930,1121,4
40,813930,1125,11
41,813930,1127,3
42,813930,1129,2
43,813930,1131,2
44,813930,2016,2
45,813930,2020,36
46,813930,2090,9
47,813930,2110,6
48,813930,2122,2
49,813930,2150,1
50,813930,4005,4
51,813930,4007,2
52,813930,4013,65
53,813930,4017,3
54,813930,4019,22
55,813930,4021,3
56,813930,4025,1
57,813930,4027,2
58,813930,5003,5
59,813930,5011,1
60,813930,5019,2
61,813930,5027,2
62,813930,5031,4
63,813930,5033,3
64,813930,5041,1
65,813930,5043,1
66,813930,5045,1
67,813930,5051,4
68,813930,5053,2
69,813930,5059,4
70,813930,5069,12
71,813930,5081,2
72,813930,5085,3
73,813930,5091,1
74,813930,5099,1
75,813930,5103,1
76,813930,5115,3
77,813930,5119,32
78,813930,5123,1
79,813930,5125,3
80,813930,5131,11
81,813930,5133,1
82,813930,5139,7
83,813930,5143,2
84,813930,5145,1
85,813930,6001,99
86,813930,6007,4
87,813930,6013,34
88,813930,6017,2
89,813930,6019,34
90,813930,6023,3
91,813930,6025,1
92,813930,6029,20
93,813930,6035,1
94,813930,6037,279
95,813930,6039,1
96,813930,6041,10
97,813930,6045,1
98,813930,6053,17
99,813930,6055,3
100,813930,6059,61
101,813930,6061,10
102,813930,6063,1
103,813930,6065,24
104,813930,6067,76
105,813930,6071,56
106,813930,6073,71
107,813930,6075,61
108,813930,6077,23
109,813930,6079,8
110,813930,6081,30
111,813930,6083,14
112,813930,6085,47
113,813930,6087,6
114,813930,6089,8
115,813930,6093,2
116,813930,6095,13
117,813930,6097,16
118,813930,6099,15
119,813930,6101,2
120,813930,6103,1
121,813930,6107,7
122,813930,6111,26
123,813930,6113,5
124,813930,6115,1
125,813930,8001,18
126,813930,8003,1
127,813930,8005,19
128,813930,8013,3
129,813930,8031,39
130,813930,8035,3
131,813930,8041,17
132,813930,8043,1
133,813930,8051,1
134,813930,8059,15
135,813930,8067,1
136,813930,8069,7
137,813930,8071,4
138,813930,8075,1
139,813930,8077,9
140,813930,8089,1
141,813930,8101,10
142,813930,8103,1
143,813930,8117,1
144,813930,8123,1
145,813930,9001,52
146,813930,9003,91
147,813930,9005,9
148,813930,9007,11
149,813930,9009,77
150,813930,9011,23
151,813930,9013,7
152,813930,9015,6
153,813930,10001,18
154,813930,10003,46
155,813930,10005,5
156,813930,11001,132
157,813930,12001,13
158,813930,12003,1
159,813930,12005,9
160,813930,12007,1
161,813930,12009,22
162,813930,12011,41
163,813930,12015,1
164,813930,12017,5
165,813930,12019,3
166,813930,12021,1
167,813930,12027,1
168,813930,12031,56
169,813930,12033,16
170,813930,12039,1
171,813930,12047,1
172,813930,12049,1
173,813930,12051,1
174,813930,12053,3
175,813930,12057,41
176,813930,12061,3
177,813930,12069,3
178,813930,12071,8
179,813930,12073,16
180,813930,12081,5
181,813930,12083,3
182,813930,12085,3
183,813930,12086,52
184,813930,12087,3
185,813930,12089,6
186,813930,12091,2
187,813930,12093,1
188,813930,12095,35
189,813930,12097,1
190,813930,12099,20
191,813930,12101,3
192,813930,12103,17
193,813930,12105,6
194,813930,12107,5
195,813930,12109,3
196,813930,12111,6
197,813930,12113,5
198,813930,12115,11
199,813930,12117,7
200,813930,12119,1
201,813930,12123,1
202,813930,12127,15
203,813930,12133,2
204,813930,13009,1
205,813930,13013,1
206,813930,13015,1
207,813930,13017,1
208,813930,13021,10
209,813930,13033,2
210,813930,13039,7
211,813930,13047,2
212,813930,13051,20
213,813930,13059,4
214,813930,13063,5
215,813930,13067,13
216,813930,13069,1
217,813930,13073,3
218,813930,13077,1
219,813930,13087,1
220,813930,13089,14
221,813930,13091,1
222,813930,13095,8
223,813930,13097,2
224,813930,13099,2
225,813930,13103,1
226,813930,13113,2
227,813930,13115,4
228,813930,13121,42
229,813930,13127,6
230,813930,13135,5
231,813930,13139,2
232,813930,13151,3
233,813930,13153,2
234,813930,13155,1
235,813930,13157,1
236,813930,13159,1
237,813930,13169,1
238,813930,13171,1
239,813930,13179,5
240,813930,13183,1
241,813930,13185,5
242,813930,13215,5
243,813930,13217,2
244,813930,13223,2
245,813930,13229,2
246,813930,13233,3
247,813930,13245,14
248,813930,13249,1
249,813930,13255,1
250,813930,13261,1
251,813930,13275,1
252,813930,13281,1
253,813930,13295,1
254,813930,13299,3
255,813930,13303,1
256,813930,13305,1
257,813930,13313,1
258,813930,13319,1
259,813930,15001,9
260,813930,15003,61
261,813930,15007,5
262,813930,15009,7
263,813930,16001,22
264,813930,16005,14
265,813930,16011,1
266,813930,16019,7
267,813930,16027,4
268,813930,16047,1
269,813930,16051,1
270,813930,16055,5
271,813930,16069,4
272,813930,16075,1
273,813930,16079,1
274,813930,16083,2
275,813930,17001,9
276,813930,17003,2
277,813930,17005,1
278,813930,17007,4
279,813930,17009,1
280,813930,17011,4
281,813930,17015,2
282,813930,17017,1
283,813930,17019,21
284,813930,17021,2
285,813930,17023,1
286,813930,17027,4
287,813930,17029,4
288,813930,17031,261
289,813930,17033,3
290,813930,17037,3
291,813930,17043,69
292,813930,17045,1
293,813930,17049,1
294,813930,17051,1
295,813930,17055,5
296,813930,17057,4
297,813930,17059,1
298,813930,17065,2
299,813930,17067,2
300,813930,17077,5
301,813930,17079,1
302,813930,17081,4
303,813930,17085,2
304,813930,17087,2
305,813930,17089,36
306,813930,17091,13
307,813930,17095,9
308,813930,17097,18
309,813930,17099,13
310,813930,17101,1
311,813930,17103,6
312,813930,17105,4
313,813930,17107,3
314,813930,17111,7
315,813930,17113,15
316,813930,17115,24
317,813930,17117,4
318,813930,17119,46
319,813930,17121,5
320,813930,17127,4
321,813930,17133,2
322,813930,17135,3
323,813930,17137,4
324,813930,17141,6
325,813930,17143,29
326,813930,17145,6
327,813930,17155,3
328,813930,17157,3
329,813930,17161,31
330,813930,17163,37
331,813930,17165,3
332,813930,17167,53
333,813930,17169,1
334,813930,17177,2
335,813930,17179,14
336,813930,17181,1
337,813930,17183,14
338,813930,17191,1
339,813930,17193,1
340,813930,17197,36
341,813930,17199,8
342,813930,17201,28
343,813930,17203,1
344,813930,18001,1
345,813930,18003,38
346,813930,18005,8
347,813930,18009,1
348,813930,18015,1
349,813930,18017,2
350,813930,18019,4
351,813930,18021,2
352,813930,18023,1
353,813930,18029,6
354,813930,18033,6
355,813930,18035,15
356,813930,18037,2
357,813930,18039,14
358,813930,18041,3
359,813930,18043,4
360,813930,18047,1
361,813930,18049,1
362,813930,18051,1
363,813930,18053,6
364,813930,18055,1
365,813930,18057,6
366,813930,18059,4
367,813930,18061,1
368,813930,18063,1
369,813930,18065,2
370,813930,18067,11
371,813930,18069,5
372,813930,18071,1
373,813930,18073,3
374,813930,18075,3
375,813930,18077,1
376,813930,18081,4
377,813930,18083,2
378,813930,18085,4
379,813930,18087,1
380,813930,18089,55
381,813930,18091,16
382,813930,18093,4
383,813930,18095,10
384,813930,18097,63
385,813930,18099,2
386,813930,18101,1
387,813930,18103,6
388,813930,18105,10
389,813930,18107,3
390,813930,18113,5
391,813930,18125,1
392,813930,18127,10
393,813930,18131,1
394,813930,18133,2
395,813930,18135,2
396,813930,18137,2
397,813930,18139,2
398,813930,18141,26
399,813930,18145,2
400,813930,18147,1
401,813930,18151,3
402,813930,18153,1
403,813930,18157,14
404,813930,18163,24
405,813930,18167,22
406,813930,18169,4
407,813930,18173,4
408,813930,18177,8
409,813930,18179,3
410,813930,18183,2
411,813930,19011,1
412,813930,19013,12
413,813930,19015,2
414,813930,19017,1
415,813930,19031,1
416,813930,19033,3
417,813930,19035,1
418,813930,19039,1
419,813930,19043,2
420,813930,19045,6
421,813930,19047,1
422,813930,19057,9
423,813930,19059,1
424,813930,19061,10
425,813930,19067,1
426,813930,19073,1
427,813930,19085,2
428,813930,19089,1
429,813930,19099,2
430,813930,19101,1
431,813930,19103,8
432,813930,19105,2
433,813930,19111,5
434,813930,19113,27
435,813930,19123,2
436,813930,19125,1
437,813930,19127,4
438,813930,19139,2
439,813930,19151,1
440,813930,19153,52
441,813930,19155,4
442,813930,19161,1
443,813930,19163,16
444,813930,19169,1
445,813930,19171,1
446,813930,19175,1
447,813930,19177,1
448,813930,19179,6
449,813930,19181,1
450,813930,19187,5
451,813930,19193,13
452,813930,19197,1
453,813930,20005,2
454,813930,20009,1
455,813930,20015,2
456,813930,20029,1
457,813930,20031,1
458,813930,20035,2
459,813930,20037,1
460,813930,20041,2
461,813930,20045,3
462,813930,20053,1
463,813930,20061,1
464,813930,20079,1
465,813930,20091,10
466,813930,20099,3
467,813930,20107,1
468,813930,20111,2
469,813930,20113,2
470,813930,20117,1
471,813930,20125,3
472,813930,20147,1
473,813930,20151,1
474,813930,20155,6
475,813930,20161,3
476,813930,20169,2
477,813930,20173,33
478,813930,20175,1
479,813930,20177,21
480,813930,20191,1
481,813930,20193,1
482,813930,20205,2
483,813930,20209,11
484,813930,21005,1
485,813930,21007,1
486,813930,21009,1
487,813930,21013,1
488,813930,21015,9
489,813930,21019,13
490,813930,21021,2
491,813930,21025,1
492,813930,21029,1
493,813930,21033,1
494,813930,21035,1
495,813930,21037,5
496,813930,21047,3
497,813930,21049,3
498,813930,21059,12
499,813930,21067,15
500,813930,21071,4
501,813930,21073,6
502,813930,21075,1
503,813930,21081,1
504,813930,21085,1
505,813930,21089,7
506,813930,21091,1
507,813930,21093,9
508,813930,21095,2
509,813930,21101,4
510,813930,21107,6
511,813930,21111,51
512,813930,21115,1
513,813930,21117,8
514,813930,21121,1
515,813930,21123,1
516,813930,21125,2
517,813930,21133,1
518,813930,21135,1
519,813930,21139,1
520,813930,21141,2
521,813930,21143,1
522,813930,21145,19
523,813930,21151,1
524,813930,21155,2
525,813930,21157,7
526,813930,21161,2
527,813930,21167,2
528,813930,21173,1
529,813930,21175,1
530,813930,21177,2
531,813930,21179,2
532,813930,21183,3
533,813930,21185,1
534,813930,21193,1
535,813930,21195,5
536,813930,21201,2
537,813930,21211,2
538,813930,21217,1
539,813930,21225,4
540,813930,21227,4
541,813930,21235,2
542,813930,22005,2
543,813930,22011,2
544,813930,22015,1
545,813930,22017,24
546,813930,22019,20
547,813930,22023,1
548,813930,22031,1
549,813930,22033,36
550,813930,22039,1
551,813930,22045,5
552,813930,22049,2
553,813930,22051,21
554,813930,22055,4
555,813930,22057,1
556,813930,22061,1
557,813930,22065,2
558,813930,22067,1
559,813930,22069,1
560,813930,22071,27
561,813930,22073,10
562,813930,22075,1
563,813930,22077,3
564,813930,22079,7
565,813930,22087,4
566,813930,22089,1
567,813930,22093,1
568,813930,22095,1
569,813930,22101,1
570,813930,22103,8
571,813930,22105,3
572,813930,22109,2
573,813930,22113,1
574,813930,22117,3
575,813930,22119,1
576,813930,22121,1
577,813930,23001,6
578,813930,23003,4
579,813930,23005,15
580,813930,23009,5
581,813930,23011,16
582,813930,23017,1
583,813930,23019,9
584,813930,23023,1
585,813930,23025,7
586,813930,23029,1
587,813930,23031,2
588,813930,24001,14
589,813930,24003,26
590,813930,24005,38
591,813930,24009,3
592,813930,24013,2
593,813930,24015,2
594,813930,24017,1
595,813930,24019,1
596,813930,24021,2
597,813930,24023,1
598,813930,24025,5
599,813930,24027,5
600,813930,24031,20
601,813930,24033,52
602,813930,24037,3
603,813930,24043,9
604,813930,24045,6
605,813930,24510,45
606,813930,25001,8
607,813930,25003,6
608,813930,25005,40
609,813930,25009,44
610,813930,25011,3
611,813930,25013,47
612,813930,25015,7
613,813930,25017,79
614,813930,25019,1
615,813930,25021,47
616,813930,25023,18
617,813930,25025,90
618,813930,25027,51
619,813930,26003,2
620,813930,26005,2
621,813930,26007,9
622,813930,26011,2
623,813930,26013,1
624,813930,26015,8
625,813930,26017,14
626,813930,26021,12
627,813930,26023,3
628,813930,26025,15
629,813930,26027,1
630,813930,26029,1
631,813930,26031,1
632,813930,26033,7
633,813930,26037,2
634,813930,26039,1
635,813930,26041,7
636,813930,26043,7
637,813930,26045,7
638,813930,26047,3
639,813930,26049,34
640,813930,26051,1
641,813930,26053,2
642,813930,26055,9
643,813930,26057,4
644,813930,26059,1
645,813930,26061,5
646,813930,26063,2
647,813930,26065,57
648,813930,26067,4
649,813930,26069,1
650,813930,26071,1
651,813930,26073,3
652,813930,26075,12
653,813930,26077,30
654,813930,26079,2
655,813930,26081,31
656,813930,26087,1
657,813930,26091,7
658,813930,26093,3
659,813930,26095,1
660,813930,26097,1
661,813930,26099,64
662,813930,26101,6
663,813930,26103,12
664,813930,26105,6
665,813930,26107,4
666,813930,26109,3
667,813930,26111,6
668,813930,26115,9
669,813930,26117,4
670,813930,26121,11
671,813930,26123,5
672,813930,26125,61
673,813930,26127,1
674,813930,26129,2
675,813930,26131,1
676,813930,26133,2
677,813930,26137,2
678,813930,26139,15
679,813930,26141,4
680,813930,26143,2
681,813930,26145,28
682,813930,26147,10
683,813930,26149,5
684,813930,26151,5
685,813930,26153,1
686,813930,26155,6
687,813930,26157,2
688,813930,26159,4
689,813930,26161,32
690,813930,26163,135
691,813930,26165,2
692,813930,27001,1
693,813930,27003,10
694,813930,27005,1
695,813930,27007,1
696,813930,27009,1
697,813930,27013,3
698,813930,27017,2
699,813930,27021,2
700,813930,27027,2
701,813930,27033,2
702,813930,27035,2
703,813930,27037,16
704,813930,27043,1
705,813930,27047,6
706,813930,27049,2
707,813930,27053,74
708,813930,27061,3
709,813930,27067,5
710,813930,27071,4
711,813930,27079,2
712,813930,27091,1
713,813930,27097,1
714,813930,27099,4
715,813930,27103,2
716,813930,27105,1
717,813930,27109,17
718,813930,27119,1
719,813930,27123,69
720,813930,27129,2
721,813930,27131,2
722,813930,27137,44
723,813930,27139,5
724,813930,27141,2
725,813930,27145,16
726,813930,27147,1
727,813930,27157,1
728,813930,27163,3
729,813930,27169,4
730,813930,28001,2
731,813930,28003,2
732,813930,28011,1
733,813930,28017,1
734,813930,28025,1
735,813930,28027,1
736,813930,28033,2
737,813930,28035,4
738,813930,28047,10
739,813930,28049,18
740,813930,28057,1
741,813930,28059,10
742,813930,28067,2
743,813930,28075,5
744,813930,28077,3
745,813930,28081,3
746,813930,28083,1
747,813930,28085,1
748,813930,28087,6
749,813930,28089,1
750,813930,28095,2
751,813930,28113,1
752,813930,28115,1
753,813930,28121,3
754,813930,28137,2
755,813930,28139,2
756,813930,28143,1
757,813930,28149,2
758,813930,28159,1
759,813930,29007,3
760,813930,29019,6
761,813930,29021,15
762,813930,29027,1
763,813930,29031,11
764,813930,29037,3
765,813930,29047,15
766,813930,29049,1
767,813930,29051,10
768,813930,29071,4
769,813930,29077,18
770,813930,29079,1
771,813930,29083,1
772,813930,29091,1
773,813930,29093,1
774,813930,29095,71
775,813930,29097,6
776,813930,29099,6
777,813930,29101,2
778,813930,29107,1
779,813930,29115,1
780,813930,29117,1
781,813930,29121,1
782,813930,29123,1
783,813930,29125,1
784,813930,29127,5
785,813930,29129,1
786,813930,29131,1
787,813930,29133,1
788,813930,29137,1
789,813930,29139,1
790,813930,29143,2
791,813930,29145,6
792,813930,29149,1
793,813930,29151,1
794,813930,29159,2
795,813930,29161,3
796,813930,29163,2
797,813930,29165,4
798,813930,29169,1
799,813930,29175,3
800,813930,29183,12
801,813930,29186,4
802,813930,29187,4
803,813930,29189,46
804,813930,29201,1
805,813930,29207,2
806,813930,29217,1
807,813930,29219,1
808,813930,29510,73
809,813930,30013,9
810,813930,30021,2
811,813930,30029,5
812,813930,30031,1
813,813930,30035,1
814,813930,30041,1
815,813930,30049,12
816,813930,30063,10
817,813930,30087,3
818,813930,30093,7
819,813930,30095,2
820,813930,30105,1
821,813930,30111,14
822,813930,31001,3
823,813930,31013,4
824,813930,31019,2
825,813930,31025,1
826,813930,31043,1
827,813930,31047,1
828,813930,31053,3
829,813930,31055,46
830,813930,31063,1
831,813930,31079,4
832,813930,31081,1
833,813930,31109,25
834,813930,31111,8
835,813930,31119,1
836,813930,31153,3
837,813930,31157,2
838,813930,31159,1
839,813930,32003,60
840,813930,32007,3
841,813930,32023,1
842,813930,32031,25
843,813930,32510,1
844,813930,33001,2
845,813930,33003,1
846,813930,33007,2
847,813930,33009,2
848,813930,33011,22
849,813930,33013,14
850,813930,33015,12
851,813930,33017,7
852,813930,34001,28
853,813930,34003,64
854,813930,34005,37
855,813930,34007,37
856,813930,34009,8
857,813930,34011,9
858,813930,34013,58
859,813930,34015,28
860,813930,34017,34
861,813930,34019,9
862,813930,34021,41
863,813930,34023,70
864,813930,34025,33
865,813930,34027,28
866,813930,34029,20
867,813930,34031,35
868,813930,34033,7
869,813930,34035,23
870,813930,34037,9
871,813930,34039,48
872,813930,34041,7
873,813930,35001,45
874,813930,35007,1
875,813930,35013,4
876,813930,35015,5
877,813930,35028,1
878,813930,35031,3
879,813930,35035,1
880,813930,35041,1
881,813930,35043,1
882,813930,35045,1
883,813930,35049,4
884,813930,35055,1
885,813930,35061,2
886,813930,36001,50
887,813930,36003,2
888,813930,36005,15
889,813930,36007,16
890,813930,36009,6
891,813930,36011,5
892,813930,36013,11
893,813930,36015,15
894,813930,36017,1
895,813930,36019,8
896,813930,36021,1
897,813930,36023,2
898,813930,36025,3
899,813930,36027,12
900,813930,36029,110
901,813930,36031,3
902,813930,36035,1
903,813930,36037,3
904,813930,36039,1
905,813930,36043,4
906,813930,36045,7
907,813930,36047,39
908,813930,36049,3
909,813930,36051,2
910,813930,36053,2
911,813930,36055,50
912,813930,36057,1
913,813930,36059,86
914,813930,36061,221
915,813930,36063,29
916,813930,36065,17
917,813930,36067,54
918,813930,36071,16
919,813930,36075,5
920,813930,36077,2
921,813930,36079,4
922,813930,36081,82
923,813930,36083,5
924,813930,36085,13
925,813930,36087,7
926,813930,36089,14
927,813930,36091,9
928,813930,36093,11
929,813930,36099,3
930,813930,36101,5
931,813930,36103,91
932,813930,36105,3
933,813930,36107,1
934,813930,36109,7
935,813930,36111,3
936,813930,36113,2
937,813930,36115,4
938,813930,36117,4
939,813930,36119,60
940,813930,36121,1
941,813930,36123,1
942,813930,37001,1
943,813930,37019,2
944,813930,37021,10
945,813930,37023,2
946,813930,37025,3
947,813930,37027,1
948,813930,37031,1
949,813930,37035,3
950,813930,37037,2
951,813930,37045,1
952,813930,37047,2
953,813930,37049,6
954,813930,37051,8
955,813930,37057,3
956,813930,37063,10
957,813930,37065,1
958,813930,37067,9
959,813930,37071,6
960,813930,37077,1
961,813930,37081,10
962,813930,37083,1
963,813930,37087,1
964,813930,37097,1
965,813930,37099,1
966,813930,37113,1
967,813930,37119,19
968,813930,37127,2
969,813930,37129,9
970,813930,37133,2
971,813930,37135,2
972,813930,37139,3
973,813930,37141,1
974,813930,37147,1
975,813930,37151,3
976,813930,37153,2
977,813930,37155,2
978,813930,37157,1
979,813930,37159,5
980,813930,37165,2
981,813930,37167,1
982,813930,37169,1
983,813930,37171,1
984,813930,37179,1
985,813930,37181,1
986,813930,37183,8
987,813930,37187,3
988,813930,37191,2
989,813930,37193,1
990,813930,37195,1
991,813930,37197,1
992,813930,38015,8
993,813930,38017,7
994,813930,38035,5
995,813930,38057,3
996,813930,38059,7
997,813930,38071,1
998,813930,38073,1
999,813930,38077,1
1000,813930,38093,1
1001,813930,38097,1
1002,813930,38099,1
1003,813930,38101,4
1004,813930,38103,1
1005,813930,38105,1
1006,813930,39003,20
1007,813930,39005,4
1008,813930,39007,11
1009,813930,39009,6
1010,813930,39011,5
1011,813930,39013,8
1012,813930,39017,14
1013,813930,39019,3
1014,813930,39021,1
1015,813930,39023,7
1016,813930,39025,4
1017,813930,39027,1
1018,813930,39029,5
1019,813930,39031,3
1020,813930,39033,2
1021,813930,39035,133
1022,813930,39037,2
1023,813930,39039,4
1024,813930,39041,2
1025,813930,39043,9
1026,813930,39045,11
1027,813930,39047,1
1028,813930,39049,74
1029,813930,39051,4
1030,813930,39053,3
1031,813930,39055,1
1032,813930,39057,4
1033,813930,39059,5
1034,813930,39061,66
1035,813930,39063,3
1036,813930,39065,1
1037,813930,39067,1
1038,813930,39069,2
1039,813930,39071,2
1040,813930,39073,2
1041,813930,39077,9
1042,813930,39079,1
1043,813930,39081,19
1044,813930,39083,5
1045,813930,39085,11
1046,813930,39087,1
1047,813930,39089,6
1048,813930,39091,2
1049,813930,39093,22
1050,813930,39095,49
1051,813930,39099,36
1052,813930,39101,5
1053,813930,39103,3
1054,813930,39105,2
1055,813930,39107,1
1056,813930,39109,3
1057,813930,39111,1
1058,813930,39113,48
1059,813930,39117,2
1060,813930,39119,15
1061,813930,39121,2
1062,813930,39123,4
1063,813930,39127,4
1064,813930,39129,2
1065,813930,39131,3
1066,813930,39133,7
1067,813930,39135,1
1068,813930,39139,12
1069,813930,39141,7
1070,813930,39143,4
1071,813930,39145,12
1072,813930,39147,3
1073,813930,39149,2
1074,813930,39151,36
1075,813930,39153,49
1076,813930,39155,26
1077,813930,39157,11
1078,813930,39159,4
1079,813930,39161,5
1080,813930,39165,5
1081,813930,39167,5
1082,813930,39169,9
1083,813930,39171,5
1084,813930,39173,17
1085,813930,39175,3
1086,813930,40019,1
1087,813930,40027,5
1088,813930,40031,2
1089,813930,40037,1
1090,813930,40047,5
1091,813930,40065,1
1092,813930,40071,3
1093,813930,40083,1
1094,813930,40085,1
1095,813930,40087,2
1096,813930,40089,1
1097,813930,40097,3
1098,813930,40101,4
1099,813930,40109,36
1100,813930,40111,2
1101,813930,40113,1
1102,813930,40115,1
1103,813930,40121,1
1104,813930,40123,1
1105,813930,40125,1
1106,813930,40131,1
1107,813930,40143,34
1108,813930,40145,1
1109,813930,40147,1
1110,813930,41001,2
1111,813930,41003,5
1112,813930,41005,19
1113,813930,41007,3
1114,813930,41009,2
1115,813930,41011,5
1116,813930,41017,7
1117,813930,41019,3
1118,813930,41027,1
1119,813930,41029,12
1120,813930,41033,2
1121,813930,41035,3
1122,813930,41039,24
1123,813930,41041,1
1124,813930,41043,8
1125,813930,41045,2
1126,813930,41047,24
1127,813930,41051,82
1128,813930,41059,4
1129,813930,41061,7
1130,813930,41065,1
1131,813930,41067,15
1132,813930,41071,3
1133,813930,42001,2
1134,813930,42003,137
1135,813930,42005,9
1136,813930,42007,25
1137,813930,42011,24
1138,813930,42013,18
1139,813930,42017,21
1140,813930,42019,10
1141,813930,42021,17
1142,813930,42025,4
1143,813930,42027,5
1144,813930,42029,6
1145,813930,42031,2
1146,813930,42033,2
1147,813930,42037,2
1148,813930,42039,2
1149,813930,42041,9
1150,813930,42043,42
1151,813930,42045,29
1152,813930,42047,4
1153,813930,42049,19
1154,813930,42051,9
1155,813930,42055,4
1156,813930,42059,4
1157,813930,42061,2
1158,813930,42063,7
1159,813930,42065,3
1160,813930,42069,18
1161,813930,42071,16
1162,813930,42073,11
1163,813930,42075,1
1164,813930,42077,19
1165,813930,42079,33
1166,813930,42081,7
1167,813930,42083,8
1168,813930,42085,4
1169,813930,42087,2
1170,813930,42089,2
1171,813930,42091,35
1172,813930,42093,2
1173,813930,42095,14
1174,813930,42097,6
1175,813930,42101,123
1176,813930,42107,10
1177,813930,42109,1
1178,813930,42111,2
1179,813930,42117,3
1180,813930,42121,4
1181,813930,42123,2
1182,813930,42125,21
1183,813930,42129,25
1184,813930,42133,17
1185,813930,44001,1
1186,813930,44003,14
1187,813930,44005,6
1188,813930,44007,86
1189,813930,44009,6
1190,813930,45001,1
1191,813930,45003,4
1192,813930,45007,2
1193,813930,45013,2
1194,813930,45015,4
1195,813930,45019,18
1196,813930,45035,1
1197,813930,45041,9
1198,813930,45043,2
1199,813930,45045,4
1200,813930,45047,1
1201,813930,45051,2
1202,813930,45057,1
1203,813930,45061,1
1204,813930,45063,6
1205,813930,45067,2
1206,813930,45075,1
1207,813930,45079,3
1208,813930,45083,2
1209,813930,45085,1
1210,813930,45087,1
1211,813930,45091,6
1212,813930,46005,1
1213,813930,46013,3
1214,813930,46019,1
1215,813930,46029,3
1216,813930,46047,1
1217,813930,46065,3
1218,813930,46099,17
1219,813930,46103,8
1220,813930,46117,1
1221,813930,46127,1
1222,813930,47001,12
1223,813930,47003,1
1224,813930,47009,2
1225,813930,47011,1
1226,813930,47013,1
1227,813930,47017,1
1228,813930,47019,1
1229,813930,47029,2
1230,813930,47031,2
1231,813930,47035,2
1232,813930,47037,47
1233,813930,47051,2
1234,813930,47053,3
1235,813930,47059,1
1236,813930,47063,3
1237,813930,47065,27
1238,813930,47071,3
1239,813930,47073,1
1240,813930,47079,1
1241,813930,47083,1
1242,813930,47085,2
1243,813930,47093,30
1244,813930,47103,1
1245,813930,47105,3
1246,813930,47107,3
1247,813930,47113,5
1248,813930,47119,3
1249,813930,47123,1
1250,813930,47125,6
1251,813930,47131,1
1252,813930,47141,2
1253,813930,47145,3
1254,813930,47147,1
1255,813930,47149,3
1256,813930,47151,1
1257,813930,47155,1
1258,813930,47157,46
1259,813930,47159,1
1260,813930,47163,8
1261,813930,47165,3
1262,813930,47171,2
1263,813930,47179,6
1264,813930,47183,1
1265,813930,47187,1
1266,813930,47189,4
1267,813930,48001,1
1268,813930,48005,5
1269,813930,48009,1
1270,813930,48021,1
1271,813930,48027,6
1272,813930,48029,32
1273,813930,48037,6
1274,813930,48039,5
1275,813930,48041,2
1276,813930,48057,1
1277,813930,48061,5
1278,813930,48067,2
1279,813930,48085,3
1280,813930,48091,2
1281,813930,48099,1
1282,813930,48111,1
1283,813930,48113,49
1284,813930,48121,5
1285,813930,48135,1
1286,813930,48141,17
1287,813930,48147,2
1288,813930,48157,1
1289,813930,48161,2
1290,813930,48163,1
1291,813930,48167,12
1292,813930,48181,1
1293,813930,48183,1
1294,813930,48187,1
1295,813930,48197,1
1296,813930,48199,2
1297,813930,48201,82
1298,813930,48203,6
1299,813930,48209,1
1300,813930,48215,8
1301,813930,48227,2
1302,813930,48231,2
1303,813930,48233,1
1304,813930,48241,2
1305,813930,48245,18
1306,813930,48251,3
1307,813930,48257,1
1308,813930,48273,1
1309,813930,48277,2
1310,813930,48291,1
1311,813930,48293,1
1312,813930,48303,7
1313,813930,48309,7
1314,813930,48323,1
1315,813930,48329,3
1316,813930,48331,2
1317,813930,48339,8
1318,813930,48341,1
1319,813930,48343,1
1320,813930,48347,1
1321,813930,48353,1
1322,813930,48355,14
1323,813930,48361,3
1324,813930,48363,2
1325,813930,48367,3
1326,813930,48375,11
1327,813930,48381,2
1328,813930,48395,1
1329,813930,48401,1
1330,813930,48407,1
1331,813930,48423,11
1332,813930,48439,59
1333,813930,48441,4
1334,813930,48451,4
1335,813930,48453,34
1336,813930,48465,1
1337,813930,48467,2
1338,813930,48469,1
1339,813930,48471,1
1340,813930,48479,6
1341,813930,48485,5
1342,813930,48491,3
1343,813930,48493,1
1344,813930,48499,1
1345,813930,49001,1
1346,813930,49005,1
1347,813930,49007,1
1348,813930,49011,3
1349,813930,49015,2
1350,813930,49027,1
1351,813930,49035,52
1352,813930,49041,1
1353,813930,49045,2
1354,813930,49049,6
1355,813930,49053,1
1356,813930,49057,7
1357,813930,50005,2
1358,813930,50007,10
1359,813930,50011,3
1360,813930,50015,1
1361,813930,50017,1
1362,813930,50019,2
1363,813930,50021,2
1364,813930,50023,6
1365,813930,50025,2
1366,813930,50027,2
1367,813930,51001,2
1368,813930,51005,4
1369,813930,51013,2
1370,813930,51015,3
1371,813930,51019,2
1372,813930,51023,1
1373,813930,51027,2
1374,813930,51035,1
1375,813930,51041,3
1376,813930,51051,1
1377,813930,51053,1
1378,813930,51059,17
1379,813930,51067,1
1380,813930,51069,1
1381,813930,51081,1
1382,813930,51087,17
1383,813930,51089,1
1384,813930,51093,1
1385,813930,51095,1
1386,813930,51121,3
1387,813930,51133,2
1388,813930,51143,1
1389,813930,51145,1
1390,813930,51153,4
1391,813930,51155,5
1392,813930,51161,9
1393,813930,51163,2
1394,813930,51165,1
1395,813930,51167,5
1396,813930,51171,2
1397,813930,51173,3
1398,813930,51175,2
1399,813930,51177,1
1400,813930,51179,1
1401,813930,51183,1
1402,813930,51185,3
1403,813930,51187,5
1404,813930,51191,2
1405,813930,51195,2
1406,813930,51510,7
1407,813930,51520,1
1408,813930,51530,1
1409,813930,51540,4
1410,813930,51550,6
1411,813930,51570,1
1412,813930,51580,3
1413,813930,51590,4
1414,813930,51600,3
1415,813930,51610,1
1416,813930,51630,1
1417,813930,51650,5
1418,813930,51660,1
1419,813930,51670,5
1420,813930,51680,5
1421,813930,51700,6
1422,813930,51710,26
1423,813930,51720,1
1424,813930,51740,3
1425,813930,51760,19
1426,813930,51770,7
1427,813930,51775,7
1428,813930,51790,2
1429,813930,51800,1
1430,813930,51810,9
1431,813930,51840,3
1432,813930,53001,1
1433,813930,53005,17
1434,813930,53007,2
1435,813930,53009,2
1436,813930,53011,23
1437,813930,53015,11
1438,813930,53017,6
1439,813930,53021,7
1440,813930,53025,1
1441,813930,53027,3
1442,813930,53029,1
1443,813930,53031,1
1444,813930,53033,134
1445,813930,53035,12
1446,813930,53041,1
1447,813930,53045,1
1448,813930,53049,1
1449,813930,53051,1
1450,813930,53053,51
1451,813930,53057,4
1452,813930,53061,40
1453,813930,53063,44
1454,813930,53067,21
1455,813930,53071,5
1456,813930,53073,11
1457,813930,53077,8
1458,813930,53999,1
1459,813930,54003,1
1460,813930,54005,3
1461,813930,54009,3
1462,813930,54011,13
1463,813930,54019,3
1464,813930,54025,2
1465,813930,54027,1
1466,813930,54029,5
1467,813930,54031,1
1468,813930,54033,14
1469,813930,54035,2
1470,813930,54037,1
1471,813930,54039,43
1472,813930,54041,2
1473,813930,54043,3
1474,813930,54045,4
1475,813930,54047,2
1476,813930,54049,12
1477,813930,54051,6
1478,813930,54053,7
1479,813930,54055,7
1480,813930,54059,2
1481,813930,54061,9
1482,813930,54063,1
1483,813930,54065,1
1484,813930,54067,1
1485,813930,54069,19
1486,813930,54073,1
1487,813930,54077,1
1488,813930,54079,3
1489,813930,54081,10
1490,813930,54085,1
1491,813930,54089,2
1492,813930,54095,1
1493,813930,54097,2
1494,813930,54099,3
1495,813930,54103,3
1496,813930,54107,17
1497,813930,54109,3
1498,813930,55001,1
1499,813930,55003,2
1500,813930,55005,2
1501,813930,55007,1
1502,813930,55009,24
1503,813930,55015,4
1504,813930,55017,6
1505,813930,55019,2
1506,813930,55021,2
1507,813930,55025,63
1508,813930,55027,11
1509,813930,55029,1
1510,813930,55031,9
1511,813930,55033,2
1512,813930,55035,18
1513,813930,55039,15
1514,813930,55043,3
1515,813930,55053,1
1516,813930,55055,5
1517,813930,55057,2
1518,813930,55059,9
1519,813930,55061,3
1520,813930,55063,16
1521,813930,55067,3
1522,813930,55069,6
1523,813930,55071,11
1524,813930,55073,25
1525,813930,55075,9
1526,813930,55079,106
1527,813930,55081,3
1528,813930,55083,1
1529,813930,55085,2
1530,813930,55087,27
1531,813930,55089,2
1532,813930,55091,1
1533,813930,55093,2
1534,813930,55095,2
1535,813930,55097,13
1536,813930,55099,2
1537,813930,55101,15
1538,813930,55105,15
1539,813930,55107,1
1540,813930,55109,2
1541,813930,55111,4
1542,813930,55113,1
1543,813930,55115,1
1544,813930,55117,19
1545,813930,55121,1
1546,813930,55123,1
1547,813930,55127,3
1548,813930,55129,1
1549,813930,55131,5
1550,813930,55133,50
1551,813930,55135,6
1552,813930,55137,2
1553,813930,55139,38
1554,813930,55141,16
1555,813930,56003,1
1556,813930,56005,2
1557,813930,56007,2
1558,813930,56009,1
1559,813930,56015,2
1560,813930,56017,1
1561,813930,56021,17
1562,813930,56023,1
1563,813930,56025,6
1564,813930,56031,2
1565,813930,56033,2
1566,813930,56037,7
1567,813930,56039,1
1568,813930,56041,1
1569,813930,56043,1
1570,813930,56045,1
