,County/City,Barack Obama,John McCain,Ralph Nader,Bob Barr,Chuck Baldwin,Cynthia McKinney,All Others,Total Votes Cast
68,King William County,"3,344","4,966",23,23,12,3,17,"8,388"
69,Lancaster County,"3,235","3,647",17,15,13,4,7,"6,938"
70,Lee County,"3,219","5,825",72,27,49,16,19,"9,227"
71,Lexington City,"1,543",914,4,11,2,0,5,"2,479"
72,Loudoun County,"74,845","63,336",338,383,187,56,314,"139,459"
73,Louisa County,"6,978","8,182",56,50,38,17,32,"15,353"
74,Lunenburg County,"2,703","2,900",15,17,8,3,4,"5,650"
75,Lynchburg City,"16,269","17,638",78,146,157,8,45,"34,341"
76,Madison County,"2,862","3,758",31,20,21,5,2,"6,699"
77,Manassas City,"7,518","5,975",30,41,32,10,21,"13,627"
78,Manassas Park City,"2,463","1,634",13,10,13,1,6,"4,140"
79,Martinsville City,"4,139","2,311",21,13,26,3,7,"6,520"
80,Mathews County,"1,934","3,456",9,14,17,6,4,"5,440"
81,Mecklenburg County,"7,127","7,817",39,39,41,15,4,"15,082"
82,Middlesex County,"2,391","3,545",20,27,13,3,7,"6,006"
83,Montgomery County,"21,031","19,028",148,215,102,36,93,"40,653"
84,Nelson County,"4,391","3,647",32,23,15,6,19,"8,133"
85,New Kent County,"3,493","6,385",36,28,19,16,14,"9,991"
86,Newport News City,"51,972","28,667",187,171,137,44,117,"81,295"
87,Norfolk City,"62,819","24,814",209,271,147,45,141,"88,446"
88,Northampton County,"3,800","2,713",21,22,16,4,10,"6,586"
89,Northumberland County,"3,312","4,041",19,15,6,1,12,"7,406"
90,Norton City,743,744,16,1,2,1,5,"1,512"
91,Nottoway County,"3,413","3,499",25,25,19,4,3,"6,988"
92,Orange County,"7,107","8,506",68,47,41,10,22,"15,801"
93,Page County,"4,235","6,041",54,14,25,3,17,"10,389"
94,Patrick County,"2,879","5,491",66,39,34,9,13,"8,531"
95,Petersburg City,"13,774","1,583",68,28,39,35,13,"15,540"
96,Pittsylvania County,"11,415","18,730",96,76,62,25,29,"30,433"
97,Poquoson City,"1,748","5,229",27,32,10,5,14,"7,065"
98,Portsmouth City,"32,327","13,984",90,113,68,12,71,"46,665"
99,Powhatan County,"4,237","10,088",36,37,23,14,21,"14,456"
100,Prince Edward County,"5,101","4,174",33,38,26,10,6,"9,388"
101,Prince George County,"7,130","8,752",47,23,27,11,16,"16,006"
102,Prince William County,"93,435","67,621",422,362,291,73,242,"162,446"
103,Pulaski County,"5,918","8,857",102,69,52,29,23,"15,050"
104,Radford City,"2,930","2,418",29,22,21,5,4,"5,429"
105,Rappahannock County,"2,105","2,227",32,13,13,4,11,"4,405"
106,Richmond County,"1,618","2,092",11,5,13,4,2,"3,745"
107,Richmond City,"73,623","18,649",223,296,107,74,113,"93,085"
108,Roanoke County,"19,812","30,571",167,166,133,41,85,"50,975"
109,Roanoke City,"24,934","15,394",138,135,91,21,59,"40,772"
110,Rockbridge County,"4,347","5,732",26,32,25,11,22,"10,195"
111,Rockingham County,"10,453","22,468",147,110,64,27,65,"33,334"
112,Russell County,"4,932","6,389",82,22,35,7,27,"11,494"
113,Salem City,"5,164","7,088",35,48,39,9,23,"12,406"
114,Scott County,"2,725","6,980",48,33,52,9,28,"9,875"
115,Shenandoah County,"6,912","12,005",89,79,63,20,55,"19,223"
116,Smyth County,"4,239","7,817",84,38,72,15,37,"12,302"
117,Southampton County,"4,402","4,583",23,17,31,5,6,"9,067"
118,Spotsylvania County,"24,897","28,610",206,121,118,36,81,"54,069"
119,Stafford County,"25,716","29,221",160,137,85,19,117,"55,455"
120,Staunton City,"5,569","5,330",39,31,24,4,18,"11,015"
121,Suffolk City,"22,446","17,165",57,105,71,19,45,"39,908"
122,Surry County,"2,626","1,663",8,8,14,6,0,"4,325"
123,Sussex County,"3,301","2,026",9,6,13,6,2,"5,363"
124,Tazewell County,"5,596","11,201",92,32,72,20,48,"17,061"
125,Virginia Beach City,"98,885","100,319",542,635,394,114,360,"201,249"
126,Warren County,"6,997","8,879",64,50,86,13,37,"16,126"
127,Washington County,"8,063","16,077",112,84,96,20,48,"24,500"
128,Waynesboro City,"3,906","4,815",41,44,36,5,13,"8,860"
129,Westmoreland County,"4,577","3,719",29,16,22,7,7,"8,377"
130,Williamsburg City,"4,328","2,353",22,41,14,4,25,"6,787"
131,Winchester City,"5,268","4,725",54,22,30,13,14,"10,126"
132,Wise County,"4,995","8,914",95,28,54,11,41,"14,138"
133,Wythe County,"4,107","8,207",70,30,42,7,28,"12,491"
134,York County,"13,700","19,833",111,124,65,14,50,"33,897"
135,TOTALS,"1,959,532","1,725,005","11,483","11,067","7,474","2,344","6,355","3,723,260"
