,Id,SalePrice
0,1461,117072.06187251447
1,1462,153884.00535008186
2,1463,186418.30986252736
3,1464,198805.3414133496
4,1465,200394.05142478927
5,1466,173914.46492322485
6,1467,179264.77966393446
7,1468,161935.1998094888
8,1469,195571.26616649012
9,1470,119665.62856664305
10,1471,184685.3979415521
11,1472,98433.82172437383
12,1473,95934.083466133
13,1474,143401.53371063102
14,1475,103764.32337149233
15,1476,363801.44582272094
16,1477,246605.52957356078
17,1478,296806.42561010533
18,1479,302170.8739081431
19,1480,468363.0415285159
20,1481,333558.52249922906
21,1482,213133.99927570505
22,1483,186433.90632074905
23,1484,161746.95771571732
24,1485,187978.48871034887
25,1486,196830.330897337
26,1487,338871.6134485241
27,1488,237217.55916927962
28,1489,194551.78653100703
29,1490,250554.30382866805
30,1491,198173.44931568863
31,1492,94527.26816442497
32,1493,190384.07442390427
33,1494,298488.79411446827
34,1495,289861.7294629219
35,1496,238602.47147770907
36,1497,181529.25094721987
37,1498,171915.9985747301
38,1499,161680.57084173075
39,1500,159278.65478741002
40,1501,179803.5159201991
41,1502,145658.38305229903
42,1503,276349.04257108434
43,1504,239959.26697020905
44,1505,229443.61631705193
45,1506,189871.99682626093
46,1507,247771.23791117602
47,1508,203500.75600891234
48,1509,162367.01100533534
49,1510,145063.55998573208
50,1511,155032.02744325073
51,1512,178911.62507487772
52,1513,145558.41699722677
53,1514,153298.74399064865
54,1515,203770.69325543247
55,1516,156254.50078856674
56,1517,174731.67111529113
57,1518,133253.65712634218
58,1519,210901.7451905495
59,1520,125908.80170142515
60,1521,132059.51002292545
61,1522,182439.9086937201
62,1523,113086.4237714536
63,1524,125023.36320594096
64,1525,120837.38233802175
65,1526,110552.9224200632
66,1527,110103.37318735065
67,1528,137750.57092378414
68,1529,153768.5618361568
69,1530,186106.38394143942
70,1531,108620.06262676996
71,1532,98829.21734804472
72,1533,154772.0860401983
73,1534,128306.56746783473
74,1535,151314.31697891268
75,1536,109946.12076154516
76,1537,56720.259052350986
77,1538,143237.24062300858
78,1539,184614.85867793698
79,1540,98750.95233635053
80,1541,137889.52497229597
81,1542,147671.68311714134
82,1543,183180.9389191258
83,1544,90372.82110527018
84,1545,113672.27269298914
85,1546,139719.22718483026
86,1547,131814.66213056893
87,1548,140172.68901810158
88,1549,121750.94981234949
89,1550,139144.95753905785
90,1551,107450.08651984329
91,1552,136512.6579922424
92,1553,148679.3323922187
93,1554,118619.16102354407
94,1555,159143.2298068794
95,1556,83111.18144661299
96,1557,110584.53416358947
97,1558,103184.30159428233
98,1559,59604.38345363581
99,1560,135245.55729151992
100,1561,126749.18074568456
101,1562,131656.77113180098
102,1563,119647.81228123033
103,1564,156692.43779799054
104,1565,156456.97920168506
105,1566,236359.18495382398
106,1567,79532.49871457522
107,1568,233905.3876780308
108,1569,132453.08638935498
109,1570,133559.2449646714
110,1571,125477.45976366359
111,1572,141312.9258061701
112,1573,234632.8283044261
113,1574,124019.81026422115
114,1575,238721.75616313177
115,1576,255507.5664267813
116,1577,179718.47514082954
117,1578,145516.86176873438
118,1579,150472.19136455568
119,1580,195428.62855088513
120,1581,156106.13102316752
121,1582,124796.39744473525
122,1583,275764.2036365965
123,1584,217923.43388102914
124,1585,136667.46942486693
125,1586,63496.120446146466
126,1587,101545.17349279637
127,1588,153141.02912560097
128,1589,98097.57353686314
129,1590,133812.56165304224
130,1591,91399.52731491234
131,1592,125430.34276803529
132,1593,126484.19376895892
133,1594,128702.90887124768
134,1595,104027.37464332342
135,1596,221470.01096490328
136,1597,198655.67177202203
137,1598,224288.40786866087
138,1599,163510.01277297686
139,1600,157654.79144839628
140,1601,64068.63109585099
141,1602,116969.61649879992
142,1603,72173.78793397236
143,1604,266375.2701680205
144,1605,234754.16939939657
145,1606,169799.87345487278
146,1607,174680.9852684001
147,1608,221158.37579148827
148,1609,182279.48327627528
149,1610,152529.86674156212
150,1611,140369.86657069472
151,1612,177813.4954346699
152,1613,167715.01357615626
153,1614,132897.29249256436
154,1615,94976.89555950012
155,1616,80378.78532464357
156,1617,95408.02431058268
157,1618,125584.18199076725
158,1619,137591.71293734366
159,1620,141083.33683419693
160,1621,142645.12763452413
161,1622,143467.60518752027
162,1623,260758.68373979477
163,1624,216499.6602483836
164,1625,113736.39445053673
165,1626,174603.18458538712
166,1627,196270.31240328465
167,1628,278911.1807808044
168,1629,177898.6172015336
169,1630,338850.76424760564
170,1631,231550.92683779195
171,1632,243302.75206064922
172,1633,171588.8320371568
173,1634,188771.39420241344
174,1635,173989.07275499293
175,1636,154972.74147113983
176,1637,207085.99748432415
177,1638,175008.2964348789
178,1639,194440.96434215046
179,1640,245499.0221440768
180,1641,184803.00689939217
181,1642,253035.2180138052
182,1643,213344.64679575607
183,1644,237041.69912514547
184,1645,198851.91411809638
185,1646,160817.45611715814
186,1647,161011.50905598284
187,1648,130516.94459500693
188,1649,138822.27314765946
189,1650,112226.7851993151
190,1651,123587.79011328671
191,1652,97069.91850822892
192,1653,100122.41211506462
193,1654,142101.18700446698
194,1655,132336.5156446891
195,1656,139098.68734552342
196,1657,146467.84967435757
197,1658,145582.32067593338
198,1659,110993.73055155556
199,1660,159805.76794805028
200,1661,413936.6936270386
201,1662,385072.32834079716
202,1663,374831.9000210215
203,1664,468004.58021432214
204,1665,312644.92941869353
205,1666,332728.4261798365
206,1667,384810.7267140855
207,1668,354593.43219754123
208,1669,311758.8618840386
209,1670,351245.1825430612
210,1671,265730.5444179214
211,1672,397397.4028067241
212,1673,283534.9408163102
213,1674,239706.09697130023
214,1675,205228.6512204597
215,1676,201569.80667612774
216,1677,220884.78647156246
217,1678,428911.38290593243
218,1679,394492.6221624927
219,1680,325806.7289057517
220,1681,252001.3413424573
221,1682,322193.3328293093
222,1683,190145.26013832795
223,1684,176301.57859783486
224,1685,179799.2082621333
225,1686,170054.98072763
226,1687,171657.85732898835
227,1688,191982.31166549656
228,1689,196501.45441946946
229,1690,195693.8698014269
230,1691,187229.1735398948
231,1692,259887.09361684855
232,1693,165224.1575779678
233,1694,183079.41224689825
234,1695,161617.12495243576
235,1696,263580.6201265889
236,1697,165540.96260820187
237,1698,336401.5896612004
238,1699,311083.1824330289
239,1700,257892.40146834648
240,1701,270711.73698594735
241,1702,234835.92681002212
242,1703,234908.3512827637
243,1704,268849.09640718205
244,1705,242351.34816239038
245,1706,412989.4239859377
246,1707,217771.8575942356
247,1708,204069.42253660376
248,1709,254187.88864126266
249,1710,217809.9126874135
250,1711,275784.7302843178
251,1712,253058.5306450909
252,1713,284106.2517209403
253,1714,224060.44280253016
254,1715,209932.81482162554
255,1716,182799.9797368136
256,1717,177233.08356728306
257,1718,138078.47332403786
258,1719,215195.96444715987
259,1720,239048.1742049729
260,1721,160719.42762080472
261,1722,126197.41669299481
262,1723,155767.23167819608
263,1724,204324.98742869246
264,1725,235846.3706907624
265,1726,192904.67463616625
266,1727,154783.9680144706
267,1728,177959.6873214823
268,1729,168603.30746044073
269,1730,158562.30650604595
270,1731,124610.96364915965
271,1732,123552.77207849182
272,1733,111121.1512103251
273,1734,123712.94646399187
274,1735,125219.8199624594
275,1736,109030.56585595533
276,1737,273625.2305756505
277,1738,258808.5181590234
278,1739,235131.77919955392
279,1740,212373.81487075952
280,1741,186265.68870270922
281,1742,177098.5791246053
282,1743,179468.44061640042
283,1744,308729.18119754
284,1745,219486.05693673415
285,1746,181781.53876896246
286,1747,206763.53167592068
287,1748,218853.84714612132
288,1749,148778.02554533663
289,1750,125480.40954698842
290,1751,250481.79485237045
291,1752,115212.40527827994
292,1753,154978.74558598286
293,1754,195173.6890145571
294,1755,171072.55168829337
295,1756,125287.17955881373
296,1757,118918.48594184901
297,1758,147393.43132611562
298,1759,159533.50760895535
299,1760,168093.3982233131
300,1761,152160.0495006043
301,1762,180644.51614207443
302,1763,194604.17315965923
303,1764,114582.711863495
304,1765,174735.8386350429
305,1766,194434.9547496581
306,1767,225641.76335220173
307,1768,140951.73181600458
308,1769,169309.4751778791
309,1770,151942.56066780773
310,1771,126895.28668125338
311,1772,138898.3315498638
312,1773,126493.88814438494
313,1774,143822.04621718868
314,1775,138888.43369370565
315,1776,129064.49049508305
316,1777,108629.46780314148
317,1778,141224.50470799487
318,1779,117158.85434499074
319,1780,180663.86636835441
320,1781,128931.94074201114
321,1782,85481.97290051187
322,1783,145858.9531071474
323,1784,109484.06944031242
324,1785,131925.36483640224
325,1786,143367.35827384162
326,1787,164496.40869676232
327,1788,59939.11542320535
328,1789,99055.60168621378
329,1790,80251.18862966442
330,1791,175918.19046585148
331,1792,162481.29539052054
332,1793,124887.40348855464
333,1794,155224.1088301068
334,1795,135747.3259584473
335,1796,125623.94429476981
336,1797,115061.25329973506
337,1798,122321.08972262625
338,1799,107794.57562328417
339,1800,130824.81613799836
340,1801,128749.66994636375
341,1802,144833.70237559403
342,1803,149281.29457600435
343,1804,135349.85382114563
344,1805,135156.50148451418
345,1806,125473.80737173908
346,1807,137495.63394649106
347,1808,122340.42887353606
348,1809,127610.8704927486
349,1810,138751.37367587755
350,1811,97722.21196895026
351,1812,101956.8828376918
352,1813,124908.2051942884
353,1814,97972.25822042297
354,1815,52754.68198131543
355,1816,99743.89320251273
356,1817,109726.73176843986
357,1818,149277.50240377994
358,1819,130430.38856091215
359,1820,53192.25600514048
360,1821,122136.87062001484
361,1822,151479.03708667288
362,1823,42629.5786352867
363,1824,130812.3120068415
364,1825,138921.50153525514
365,1826,105292.95614311953
366,1827,103286.0530784759
367,1828,137918.62853124898
368,1829,133453.14516772554
369,1830,139263.54035161194
370,1831,141176.49270022465
371,1832,67611.9703276839
372,1833,138038.23996545124
373,1834,117539.77588492105
374,1835,119949.27750105465
375,1836,125970.44191806935
376,1837,85110.29644460043
377,1838,123417.0330934239
378,1839,99686.10664508828
379,1840,137927.18099252612
380,1841,133280.46558912407
381,1842,92601.24080999584
382,1843,125559.67778422617
383,1844,145394.8089356664
384,1845,146225.31782398946
385,1846,162453.86677756268
386,1847,168156.89594598705
387,1848,47569.351541396296
388,1849,110138.91009999275
389,1850,117206.21392765193
390,1851,150752.28826059692
391,1852,125254.21771312234
392,1853,122541.84696803086
393,1854,162559.31905664242
394,1855,153048.41854511262
395,1856,227313.0233631724
396,1857,143654.49223283472
397,1858,141509.03105109808
398,1859,120391.87444152152
399,1860,142730.51701438767
400,1861,119516.57815833492
401,1862,299304.3169811562
402,1863,279347.1044821456
403,1864,279433.91339823033
404,1865,336570.4933920597
405,1866,330609.2694511241
406,1867,221233.34798476845
407,1868,282089.1638686674
408,1869,202502.25671778218
409,1870,220400.75855875216
410,1871,258115.3378866693
411,1872,180590.3694308023
412,1873,236722.0168067192
413,1874,156204.12329910928
414,1875,197401.59570844992
415,1876,203736.0798401096
416,1877,210244.47228074892
417,1878,207750.7467654333
418,1879,128060.17769539922
419,1880,127812.8736893683
420,1881,241683.6564894067
421,1882,239028.8986179977
422,1883,187834.43234176707
423,1884,206770.720722874
424,1885,237613.64408159227
425,1886,284401.88681035186
426,1887,218660.69354089652
427,1888,261710.1724798177
428,1889,177454.98779762714
429,1890,111514.24660108633
430,1891,133729.33719260732
431,1892,95623.31953813773
432,1893,127470.7392646011
433,1894,122147.14290196035
434,1895,130010.13152071949
435,1896,127154.61219407982
436,1897,114960.8825954313
437,1898,111228.1100474181
438,1899,164922.24712072036
439,1900,151795.43815157938
440,1901,173158.46929269738
441,1902,161189.5475978646
442,1903,210138.25532088813
443,1904,147710.29687383052
444,1905,208696.1530417814
445,1906,158188.86302764592
446,1907,217791.0325295753
447,1908,107855.29187675484
448,1909,131155.7942020577
449,1910,118093.61510028035
450,1911,227113.6374284489
451,1912,335926.16289242194
452,1913,147719.87609764587
453,1914,57164.09984197435
454,1915,311135.9434744091
455,1916,66067.5092411148
456,1917,235873.34231182587
457,1918,139701.86315553426
458,1919,182346.4066430676
459,1920,163118.19445857927
460,1921,369819.4399508725
461,1922,314090.1788562201
462,1923,239462.59700095566
463,1924,215170.60722398234
464,1925,196193.2443189881
465,1926,359330.37474416214
466,1927,129694.31185365785
467,1928,163917.2778975782
468,1929,123746.2884092048
469,1930,132211.59603282926
470,1931,142658.71834822194
471,1932,142271.1027396305
472,1933,187160.01522073813
473,1934,184241.89615815502
474,1935,172072.37406214868
475,1936,199047.8598565903
476,1937,190439.65435165606
477,1938,175649.8741096656
478,1939,242761.6387937616
479,1940,193604.29056344
480,1941,170576.19162998
481,1942,184190.43090183625
482,1943,219510.58672609102
483,1944,385263.214123442
484,1945,407025.5319513243
485,1946,126253.73522655599
486,1947,323662.37328046665
487,1948,162877.24537626051
488,1949,259222.58017947825
489,1950,186163.08800500922
490,1951,237435.85508355754
491,1952,208700.00523340685
492,1953,163632.17763678648
493,1954,180044.82585658872
494,1955,136738.0575437424
495,1956,294777.9438288262
496,1957,157603.59268575368
497,1958,278605.011526512
498,1959,144852.58171136267
499,1960,117411.56137592225
500,1961,120452.72959490851
501,1962,99561.73286614656
502,1963,106241.47821987828
503,1964,106753.17115156603
504,1965,137510.10135400356
505,1966,132481.65682581355
506,1967,290712.6146675565
507,1968,414638.85351730284
508,1969,385791.6761932807
509,1970,395135.64318701305
510,1971,456900.8149197576
511,1972,361628.1786161253
512,1973,276015.7229322269
513,1974,337929.8652880559
514,1975,528719.6089057642
515,1976,271643.5597912509
516,1977,345469.74761176505
517,1978,351464.17967951053
518,1979,317843.7518626634
519,1980,209625.0770932366
520,1981,335031.6589267648
521,1982,214547.8743438297
522,1983,203267.58461387284
523,1984,172969.86524045066
524,1985,228085.04741107262
525,1986,205310.06947019184
526,1987,188727.1204685104
527,1988,176488.3775294355
528,1989,194071.91769764
529,1990,207395.98841208642
530,1991,231111.7833858808
531,1992,217562.57488473825
532,1993,169628.94766075088
533,1994,228130.47347989047
534,1995,181239.7286392634
535,1996,245973.23545425732
536,1997,321147.5712882257
537,1998,303691.7509080218
538,1999,283957.2486045664
539,2000,313690.68836316536
540,2001,285727.28463174787
541,2002,242659.62559257945
542,2003,255309.4099843305
543,2004,276937.97442164354
544,2005,229414.57303626923
545,2006,219815.3961444385
546,2007,252822.24090619077
547,2008,211853.41560371188
548,2009,203024.08326646712
549,2010,195791.7264608054
550,2011,142700.00301086664
551,2012,175484.32647821575
552,2013,180494.77206445
553,2014,190857.34870176413
554,2015,209482.26229388997
555,2016,192249.25210497552
556,2017,196023.26973672817
557,2018,117262.45822279176
558,2019,132570.1963773918
559,2020,103293.75570429776
560,2021,98548.53409036936
561,2022,188139.19340483923
562,2023,153931.2480455973
563,2024,283496.74907247984
564,2025,342939.2926627966
565,2026,174783.0147953136
566,2027,160967.1998520432
567,2028,152676.0229511964
568,2029,167392.18453860757
569,2030,260415.7798480518
570,2031,223964.01271095144
571,2032,248829.48853514125
572,2033,248204.30906866989
573,2034,173131.94850014016
574,2035,223089.3502050664
575,2036,197733.489506664
576,2037,207919.03277257984
577,2038,324902.9993587677
578,2039,229553.2707508316
579,2040,252352.72934470378
580,2041,297501.84496290376
581,2042,214609.24441271805
582,2043,180726.08692493587
583,2044,180027.8771662906
584,2045,203157.8040708768
585,2046,151181.8325649589
586,2047,149174.36483283987
587,2048,143555.9507839225
588,2049,146141.47616350508
589,2050,170515.91200262847
590,2051,101343.04403287874
591,2052,123658.08112313414
592,2053,150885.17388990964
593,2054,91981.2818575616
594,2055,161423.24645595092
595,2056,146439.89528358995
596,2057,113128.36888866538
597,2058,217514.2426494966
598,2059,131794.05069138046
599,2060,173084.86508499118
600,2061,176229.79366904948
601,2062,127886.49136242256
602,2063,117884.2789569684
603,2064,136960.04748950983
604,2065,119566.71080372123
605,2066,163381.19486030994
606,2067,114925.78507188088
607,2068,151139.65421090525
608,2069,85650.8192467888
609,2070,116336.40990176855
610,2071,98682.56401432797
611,2072,141259.7671955098
612,2073,136154.78751950635
613,2074,183398.0209028736
614,2075,152032.97428619687
615,2076,114261.82551544947
616,2077,154009.0092175716
617,2078,124343.40610077619
618,2079,136902.24975403177
619,2080,117259.6730630492
620,2081,128152.16061702721
621,2082,121867.4878911804
622,2083,149334.20911148813
623,2084,105848.29313479373
624,2085,114853.38521103688
625,2086,110228.89815658002
626,2087,124555.1546038138
627,2088,98699.86579057436
628,2089,78475.75111286051
629,2090,121595.38036838848
630,2091,110947.58218722283
631,2092,123865.98391674015
632,2093,122628.038731445
633,2094,113415.97551958667
634,2095,146615.78859152136
635,2096,83996.05081900326
636,2097,98670.35792006564
637,2098,154610.87306270574
638,2099,49467.10768816372
639,2100,67815.52340966063
640,2101,118146.06433524733
641,2102,123675.56331873745
642,2103,103898.24830029676
643,2104,145665.09465425345
644,2105,131470.42066240325
645,2106,60013.090076104025
646,2107,179321.70060051285
647,2108,119621.84722286533
648,2109,111717.35606970238
649,2110,132707.64544297953
650,2111,130224.80538389704
651,2112,143053.43787109086
652,2113,123706.33246282124
653,2114,122154.9146954776
654,2115,164763.68037435936
655,2116,117919.90721720074
656,2117,151512.73073903145
657,2118,129758.23360737627
658,2119,113875.63973779851
659,2120,111695.73486002236
660,2121,114258.83191108945
661,2122,119084.29070968197
662,2123,80552.05334430836
663,2124,155409.6293655705
664,2125,130013.62873639615
665,2126,149181.72482946087
666,2127,165501.7370075641
667,2128,123583.03143564244
668,2129,91627.9827352058
669,2130,133510.03929554723
670,2131,143120.23329105572
671,2132,112865.50288973926
672,2133,124368.2760914344
673,2134,120560.03706101955
674,2135,93103.11847836245
675,2136,79804.35721659969
676,2137,107030.23475328396
677,2138,135872.22160677705
678,2139,152836.6760406157
679,2140,140248.24243633865
680,2141,165932.87630234135
681,2142,128076.33087860992
682,2143,154704.31252711677
683,2144,124291.34916451685
684,2145,136982.3646521496
685,2146,170042.4286430056
686,2147,142937.89832591946
687,2148,134013.90266161688
688,2149,149804.0980633521
689,2150,226388.3215757357
690,2151,112307.83069900343
691,2152,178773.37522760316
692,2153,162280.96053931315
693,2154,101352.65341815336
694,2155,141798.64185009664
695,2156,267270.1397160315
696,2157,224939.98963775806
697,2158,239451.03265240398
698,2159,216614.17899625495
699,2160,185094.98515671925
700,2161,232230.19935197945
701,2162,357910.3041573139
702,2163,330509.7876034874
703,2164,251309.35800535374
704,2165,205449.63638263388
705,2166,161477.88544585728
706,2167,218893.72000439727
707,2168,192082.52821229387
708,2169,196951.57494622676
709,2170,215015.49778853433
710,2171,159257.77628650813
711,2172,132633.33406370366
712,2173,174615.97370634053
713,2174,223342.48852531446
714,2175,278603.74700075696
715,2176,308333.37803379854
716,2177,233775.0845898768
717,2178,211365.58321904746
718,2179,136864.64253959627
719,2180,206757.30132111863
720,2181,197805.61506112324
721,2182,229109.21923908926
722,2183,192343.62891185522
723,2184,118585.04481953614
724,2185,129412.56203100152
725,2186,146351.93198872177
726,2187,150121.947018343
727,2188,154025.9384922021
728,2189,275760.0133087743
729,2190,78241.8488745114
730,2191,78887.37968884139
731,2192,87338.88555378738
732,2193,113766.20784510314
733,2194,97468.90272274637
734,2195,103895.50322617214
735,2196,101254.93146425416
736,2197,119663.38805210721
737,2198,151110.48688904702
738,2199,167038.37304170275
739,2200,154214.88036914682
740,2201,149706.25381769927
741,2202,216115.08850156987
742,2203,134078.30871679104
743,2204,180318.68780327565
744,2205,124718.62337697795
745,2206,146271.26350257476
746,2207,204187.48650205345
747,2208,263076.3148907573
748,2209,254564.73377687746
749,2210,118539.57962495794
750,2211,116175.7299399641
751,2212,119682.11823591955
752,2213,105096.41738209971
753,2214,138075.76428875947
754,2215,98468.80576378686
755,2216,149310.47242878785
756,2217,57064.30783631713
757,2218,69005.62101306405
758,2219,66659.90628737662
759,2220,62718.761778167645
760,2221,311043.3984107277
761,2222,293851.67852141487
762,2223,280503.4867024748
763,2224,206453.64291490996
764,2225,121391.09227870901
765,2226,184706.3374693317
766,2227,188634.615472824
767,2228,262441.37912166194
768,2229,246721.43938279
769,2230,151961.89029184508
770,2231,212596.7597714068
771,2232,181151.8331436448
772,2233,184794.50092062878
773,2234,240291.7072041522
774,2235,226690.40014257646
775,2236,248677.80902022892
776,2237,292961.6342215581
777,2238,191597.78075758077
778,2239,110986.90005234687
779,2240,154229.1541659098
780,2241,158570.49866244255
781,2242,122221.23672801352
782,2243,133181.86541784462
783,2244,105761.68100284143
784,2245,101789.84353969565
785,2246,143281.43351687575
786,2247,115238.12496188705
787,2248,120724.346022995
788,2249,115014.9925870594
789,2250,126119.12228104404
790,2251,95770.61608061443
791,2252,184203.11940435265
792,2253,150544.3299863756
793,2254,182546.24400967336
794,2255,183429.86241854602
795,2256,175549.49430848606
796,2257,210034.07280111988
797,2258,156385.21785231482
798,2259,175755.0519952538
799,2260,155568.59678103833
800,2261,195635.06682023106
801,2262,211925.56579979378
802,2263,385365.7986362112
803,2264,472731.8574023724
804,2265,170413.96454295644
805,2266,310414.3455335804
806,2267,361892.3667240348
807,2268,426561.55106627423
808,2269,152298.65621847953
809,2270,201959.66678864424
810,2271,205272.95913284144
811,2272,191987.58879279273
812,2273,161248.88916551633
813,2274,184403.11067985906
814,2275,153977.07325796105
815,2276,191362.26104408302
816,2277,181186.46276600505
817,2278,148761.13460017854
818,2279,131350.8623444094
819,2280,117845.24136945115
820,2281,169617.3363723066
821,2282,185989.6680268898
822,2283,107934.79845409967
823,2284,115454.75616302641
824,2285,132787.91430040484
825,2286,123453.37080959749
826,2287,377054.4992300037
827,2288,276244.05338928703
828,2289,357390.56371425104
829,2290,444570.5169506638
830,2291,340448.91483481374
831,2292,433945.39111211896
832,2293,471563.6340333853
833,2294,402240.7419192586
834,2295,448453.13565209584
835,2296,280153.8867346633
836,2297,365624.86545831827
837,2298,353923.0631484008
838,2299,348658.8534622051
839,2300,331912.5664995632
840,2301,322496.9011863889
841,2302,254293.321644356
842,2303,247271.5400731911
843,2304,251191.40642937052
844,2305,202916.17083821824
845,2306,196838.36470833272
846,2307,208230.21419661312
847,2308,229208.4539104704
848,2309,286024.76206504257
849,2310,208693.31952947556
850,2311,204613.27606903872
851,2312,177293.68347381492
852,2313,175444.35188832352
853,2314,173335.40288107385
854,2315,184603.2197760248
855,2316,203819.01988537863
856,2317,193706.61522965046
857,2318,184211.03904063356
858,2319,184335.2393375056
859,2320,184389.12032044094
860,2321,231750.9507651997
861,2322,184274.2732485461
862,2323,196682.8300378353
863,2324,179038.64178581774
864,2325,215977.31620680046
865,2326,175684.16793424546
866,2327,200869.06118736972
867,2328,220400.25373657327
868,2329,193682.0914219839
869,2330,183343.5411015448
870,2331,333054.1838239546
871,2332,386236.2622391313
872,2333,314101.34236089385
873,2334,263939.039598934
874,2335,287984.9682161266
875,2336,298381.4520766529
876,2337,198912.41358352234
877,2338,255813.33822603355
878,2339,219753.01928843587
879,2340,373278.83954649273
880,2341,212732.98522317692
881,2342,234199.5010396091
882,2343,231685.32350385768
883,2344,220426.6596572736
884,2345,229869.0381852117
885,2346,211921.2858106611
886,2347,200740.18327427394
887,2348,242767.8711715087
888,2349,191576.9393819279
889,2350,318737.205272666
890,2351,264908.05361105216
891,2352,257840.2261524784
892,2353,243168.26673188878
893,2354,139976.98451858235
894,2355,145816.620599193
895,2356,153889.66945807586
896,2357,187902.53109089207
897,2358,204006.92078735863
898,2359,132085.18775531516
899,2360,115950.33427202895
900,2361,145491.06915147402
901,2362,258572.00751668052
902,2363,140035.59083677243
903,2364,152160.2017171949
904,2365,211734.2394131017
905,2366,185257.38498059422
906,2367,215233.81060526532
907,2368,215269.15537726853
908,2369,208978.73120670754
909,2370,167838.04923014354
910,2371,171453.14625252906
911,2372,195390.44407754892
912,2373,282104.4569439116
913,2374,313485.11056561256
914,2375,245157.4317528488
915,2376,270557.47305807605
916,2377,320638.986199398
917,2378,144641.76877057095
918,2379,199031.36104741128
919,2380,151646.4080522913
920,2381,170884.8304886137
921,2382,204783.72866378768
922,2383,203729.70170447996
923,2384,243735.48151750836
924,2385,160207.34555504625
925,2386,130771.2884833156
926,2387,134121.702697636
927,2388,105792.100294769
928,2389,115135.65608866767
929,2390,148439.459260652
930,2391,143347.34936841822
931,2392,110717.75689789756
932,2393,171016.5129730512
933,2394,145095.73148134266
934,2395,212594.76987243892
935,2396,143532.52537912168
936,2397,222825.08310152177
937,2398,131377.57439170702
938,2399,70277.97195816878
939,2400,67834.06980382238
940,2401,122889.1940005916
941,2402,138053.5689033464
942,2403,148581.58764742286
943,2404,159139.94571485036
944,2405,158368.9584010748
945,2406,134819.4290784787
946,2407,123142.10075130285
947,2408,150445.0171803136
948,2409,117676.7864416517
949,2410,167624.7070679383
950,2411,114094.70819600756
951,2412,158404.87585863628
952,2413,130268.55314161608
953,2414,159377.33135202722
954,2415,135044.97186364868
955,2416,125615.43269617794
956,2417,133167.33773707243
957,2418,134429.6965740805
958,2419,130167.36521606476
959,2420,122067.16194153453
960,2421,153181.49369344086
961,2422,104484.57162535768
962,2423,120362.86843368161
963,2424,172066.01085351908
964,2425,180497.53043744454
965,2426,131040.94885652926
966,2427,130774.25373446726
967,2428,185067.6348617521
968,2429,111614.61380519763
969,2430,133300.08826859007
970,2431,105339.88909397817
971,2432,148190.84856590693
972,2433,148885.2165666351
973,2434,138840.85810405554
974,2435,153123.70120280163
975,2436,102262.47950972588
976,2437,101267.42798621359
977,2438,121835.41550461938
978,2439,103718.92636674466
979,2440,123973.47156755984
980,2441,96583.90079890864
981,2442,98527.77007711775
982,2443,125853.185512115
983,2444,133923.72035374757
984,2445,94084.67790740072
985,2446,136642.28807554222
986,2447,169147.1861427532
987,2448,124959.93211628613
988,2449,110821.90003798806
989,2450,158794.6612088306
990,2451,120253.20897213405
991,2452,185479.16790449046
992,2453,91165.37561826516
993,2454,122127.04473131767
994,2455,121865.81809831405
995,2456,139590.62643109492
996,2457,141381.99875150705
997,2458,133983.66837767645
998,2459,108508.17172522387
999,2460,143594.7852784532
1000,2461,129055.13622820818
1001,2462,136628.85539291808
1002,2463,127888.03240546305
1003,2464,170279.13308061342
1004,2465,139982.862471315
1005,2466,117873.85846420767
1006,2467,130125.6278382189
1007,2468,84056.19545886187
1008,2469,84104.77887661848
1009,2470,194120.82424925856
1010,2471,207876.8057016847
1011,2472,161316.41081452186
1012,2473,116215.9965175352
1013,2474,69567.40451888267
1014,2475,204713.6627195316
1015,2476,114914.83818927164
1016,2477,126517.82054024555
1017,2478,158236.20781780966
1018,2479,106337.4331523556
1019,2480,163889.58184605895
1020,2481,121235.87865925221
1021,2482,123709.62022543795
1022,2483,109389.97039777902
1023,2484,122747.37212065836
1024,2485,123809.65079517658
1025,2486,154361.05114787642
1026,2487,164110.71511103126
1027,2488,159743.41656762242
1028,2489,154970.33746515668
1029,2490,149118.53454630743
1030,2491,92096.57059081012
1031,2492,200397.1030204453
1032,2493,155693.37729275486
1033,2494,147940.79111464517
1034,2495,86395.52298080937
1035,2496,229558.9066300295
1036,2497,150251.1883781234
1037,2498,105338.5253952757
1038,2499,83773.21964177433
1039,2500,122876.19921347074
1040,2501,137187.6821235517
1041,2502,149803.44632351716
1042,2503,100136.52289081736
1043,2504,186300.55793826442
1044,2505,228708.9168933743
1045,2506,244542.5865384984
1046,2507,269423.75797884434
1047,2508,244787.8055412515
1048,2509,220702.38783696288
1049,2510,214402.63761861046
1050,2511,173978.21512158422
1051,2512,211833.00015717105
1052,2513,226965.13249243327
1053,2514,254926.9438970637
1054,2515,150433.37528527292
1055,2516,176516.30848033246
1056,2517,148749.52591672126
1057,2518,157784.46123016792
1058,2519,241291.347833455
1059,2520,219507.12142466425
1060,2521,187197.9944336618
1061,2522,224593.756364298
1062,2523,116781.3739387804
1063,2524,140273.79929565106
1064,2525,149340.2716552446
1065,2526,137764.00274334062
1066,2527,119528.55352358626
1067,2528,127713.27543996333
1068,2529,140475.94614473055
1069,2530,122727.1910612092
1070,2531,257935.9075061678
1071,2532,223096.93594455614
1072,2533,193694.83457957077
1073,2534,234951.8128463747
1074,2535,283854.7994691539
1075,2536,230371.1588443043
1076,2537,242127.19284598532
1077,2538,181839.48215145105
1078,2539,187822.99582005385
1079,2540,185521.32513263536
1080,2541,181194.69419576038
1081,2542,169553.93436622064
1082,2543,121739.9602943057
1083,2544,122345.38181559368
1084,2545,136633.68155450668
1085,2546,118505.50253017545
1086,2547,134446.55255737845
1087,2548,154752.88808447935
1088,2549,155329.01549173568
1089,2550,639320.4341282829
1090,2551,137282.56864676927
1091,2552,130875.0892662476
1092,2553,73512.05332660522
1093,2554,92164.55641175591
1094,2555,114458.37871400607
1095,2556,95342.345113226
1096,2557,103816.80319763928
1097,2558,138402.01116283648
1098,2559,147820.66886402364
1099,2560,156991.64466627035
1100,2561,143326.628539078
1101,2562,142567.24406958558
1102,2563,150558.7130801699
1103,2564,198586.94073909684
1104,2565,135372.66418107983
1105,2566,163284.39425945413
1106,2567,145423.87363402554
1107,2568,206519.54209680832
1108,2569,239515.32890752592
1109,2570,115167.3704151062
1110,2571,200049.01544774754
1111,2572,144539.6985574741
1112,2573,232915.19332154762
1113,2574,306534.6590786901
1114,2575,128684.44337082164
1115,2576,120250.49447571144
1116,2577,155282.7868033431
1117,2578,81071.74650841526
1118,2579,60432.97016210305
1119,2580,88477.16366693945
1120,2581,94977.31468312633
1121,2582,102380.25313513367
1122,2583,281904.8436613831
1123,2584,181696.41374004656
1124,2585,195785.57245254848
1125,2586,221676.53981689503
1126,2587,196023.03374715356
1127,2588,134732.41881724456
1128,2589,149182.81264968205
1129,2590,196898.39051861648
1130,2591,222441.2184874708
1131,2592,213734.63799514266
1132,2593,257845.8792236932
1133,2594,179021.09207299742
1134,2595,204567.23997933703
1135,2596,279452.83298582584
1136,2597,192123.71338959495
1137,2598,280488.09088027786
1138,2599,334603.144932261
1139,2600,160000.2657594375
1140,2601,145434.850320214
1141,2602,85664.86428182547
1142,2603,93921.75285414552
1143,2604,91446.67418647604
1144,2605,83947.00779843157
1145,2606,145088.70379240165
1146,2607,201819.41935007353
1147,2608,189325.02673915908
1148,2609,173342.86699749233
1149,2610,109936.05139453911
1150,2611,119591.12210953492
1151,2612,165657.77203525213
1152,2613,124691.66260579233
1153,2614,121440.98378822248
1154,2615,151510.85046109775
1155,2616,142428.83552580528
1156,2617,183915.17774881012
1157,2618,200267.49056381738
1158,2619,197764.14202586762
1159,2620,185928.65321290406
1160,2621,173619.50686784615
1161,2622,178828.02611124222
1162,2623,232722.66507491414
1163,2624,302542.52365845104
1164,2625,291023.35091658623
1165,2626,175378.5038798587
1166,2627,161358.5820689929
1167,2628,470058.5693854495
1168,2629,503281.42251058534
1169,2630,380423.9497104603
1170,2631,468979.8432080306
1171,2632,412823.08988547453
1172,2633,305335.1104812741
1173,2634,440477.2668080597
1174,2635,159965.63016457835
1175,2636,170639.98364518705
1176,2637,181343.5063892455
1177,2638,259287.981129384
1178,2639,188154.48736265968
1179,2640,150444.21624282302
1180,2641,107932.13641243844
1181,2642,189962.76389772235
1182,2643,102635.26131699758
1183,2644,115842.26900679866
1184,2645,107540.43566153408
1185,2646,93178.18373274754
1186,2647,103330.96672618855
1187,2648,138485.75166575937
1188,2649,152590.99048620748
1189,2650,125189.62836095615
1190,2651,137318.92638263732
1191,2652,386124.56725496025
1192,2653,253191.5143497778
1193,2654,265492.07900473464
1194,2655,404553.1862116013
1195,2656,321035.6552327183
1196,2657,357439.6127269503
1197,2658,315174.04208757787
1198,2659,309108.68169862987
1199,2660,370115.9301226264
1200,2661,351169.8125446925
1201,2662,373896.6374783683
1202,2663,287610.45295594854
1203,2664,278989.9562787965
1204,2665,317075.3537976101
1205,2666,278179.86394484533
1206,2667,173815.4465469364
1207,2668,176466.59555127317
1208,2669,187906.4792406663
1209,2670,268289.9616899647
1210,2671,185696.13760026536
1211,2672,193114.37585648624
1212,2673,196977.841973953
1213,2674,190981.92215306975
1214,2675,172129.57166812045
1215,2676,194678.56138201585
1216,2677,199516.84607595962
1217,2678,244002.1563214333
1218,2679,274551.5898780769
1219,2680,288294.5513472922
1220,2681,388669.7888269418
1221,2682,313540.212530798
1222,2683,490846.6211954483
1223,2684,310354.94955330424
1224,2685,325377.71972196514
1225,2686,237489.88371320328
1226,2687,292147.328498099
1227,2688,214655.00259229983
1228,2689,206342.43922384016
1229,2690,392299.118410739
1230,2691,194902.8695063936
1231,2692,143730.52201570012
1232,2693,204429.20291474808
1233,2694,137733.92498281508
1234,2695,192976.3963831257
1235,2696,184650.2125456185
1236,2697,184296.69238949308
1237,2698,195948.05345037876
1238,2699,171343.76992634393
1239,2700,155035.1791499233
1240,2701,149285.3456419634
1241,2702,112371.44735116573
1242,2703,126743.96704347705
1243,2704,137127.40950706098
1244,2705,113103.41601281994
1245,2706,107755.9990481475
1246,2707,121181.8916428141
1247,2708,130626.75786518212
1248,2709,103461.22629994962
1249,2710,125376.44274826297
1250,2711,278339.13169842993
1251,2712,375727.9467405079
1252,2713,165279.68056170494
1253,2714,152476.52455757358
1254,2715,174289.73833357688
1255,2716,144498.64946568193
1256,2717,195948.43391722496
1257,2718,212983.26890801874
1258,2719,151561.78331668384
1259,2720,169031.3439938327
1260,2721,129923.82615217555
1261,2722,161487.01313158948
1262,2723,139757.9634478394
1263,2724,125519.86475527991
1264,2725,127575.29228048197
1265,2726,146256.62110416315
1266,2727,166533.40263752468
1267,2728,185954.09917714135
1268,2729,148821.97657428528
1269,2730,147532.32722486727
1270,2731,128364.94960797274
1271,2732,134516.0399152508
1272,2733,156434.58393321192
1273,2734,140036.19163771474
1274,2735,133929.005447214
1275,2736,134385.2794929727
1276,2737,118852.13683826163
1277,2738,138116.80028863833
1278,2739,156335.86495879802
1279,2740,132285.7241217205
1280,2741,147634.35753338327
1281,2742,155691.43176663847
1282,2743,161710.06648164312
1283,2744,162361.98704432318
1284,2745,136892.25254652867
1285,2746,138823.9212018766
1286,2747,141964.07168393064
1287,2748,120439.38911649732
1288,2749,128211.49925553096
1289,2750,128990.09308786072
1290,2751,134874.92899144426
1291,2752,191844.34580622788
1292,2753,140473.07472614796
1293,2754,196869.08317390038
1294,2755,135635.63570018823
1295,2756,93037.06346411881
1296,2757,73044.79717215379
1297,2758,86245.19823569432
1298,2759,161111.3526357544
1299,2760,121932.0264794485
1300,2761,141618.23297856768
1301,2762,140240.40806606883
1302,2763,184616.62985354976
1303,2764,147502.38218659046
1304,2765,277850.69635703275
1305,2766,128652.10586235803
1306,2767,86103.63454348613
1307,2768,128739.42922211332
1308,2769,130922.88163153373
1309,2770,135819.26481534206
1310,2771,105121.863661837
1311,2772,108427.2871764588
1312,2773,168021.26071849125
1313,2774,148536.51668326242
1314,2775,117360.29680374092
1315,2776,146330.85817414898
1316,2777,143632.73939070824
1317,2778,101400.2728154748
1318,2779,126790.97089422116
1319,2780,97633.62385809056
1320,2781,94120.00821849727
1321,2782,96054.40374282449
1322,2783,98916.03126950144
1323,2784,119320.33844699373
1324,2785,136888.2821780236
1325,2786,65849.93453549946
1326,2787,125262.75858137324
1327,2788,75078.79780539522
1328,2789,164623.3937183849
1329,2790,93957.38085028363
1330,2791,110567.07424168989
1331,2792,57491.996362328806
1332,2793,155323.7139169008
1333,2794,101455.14734931619
1334,2795,119919.49823952207
1335,2796,96522.22486061428
1336,2797,204236.87244678425
1337,2798,104669.61506550523
1338,2799,114115.47669718119
1339,2800,70071.94049979481
1340,2801,110829.2559338825
1341,2802,129574.89382051212
1342,2803,168332.52399510128
1343,2804,125519.11612323749
1344,2805,95772.72654909019
1345,2806,82917.48917954275
1346,2807,160057.51185343505
1347,2808,146504.08894879368
1348,2809,129932.88076171654
1349,2810,123170.97156995905
1350,2811,162334.48320543757
1351,2812,171260.29801820323
1352,2813,156668.35573598044
1353,2814,161004.71433681247
1354,2815,96129.36162189514
1355,2816,221463.6459701908
1356,2817,155185.87213048726
1357,2818,129275.12361573605
1358,2819,163940.39043900766
1359,2820,136800.3879597518
1360,2821,105296.0394217832
1361,2822,189021.8844078433
1362,2823,300458.78193493845
1363,2824,173900.1061209563
1364,2825,146368.15319101792
1365,2826,130759.10447717285
1366,2827,134958.97359827047
1367,2828,226136.5466015077
1368,2829,218346.7800519747
1369,2830,226717.7667971416
1370,2831,172477.22251192539
1371,2832,244306.82488018315
1372,2833,306216.5559892631
1373,2834,226357.73165012745
1374,2835,231334.91336871698
1375,2836,190739.8763563623
1376,2837,156983.89909490643
1377,2838,151702.24662392243
1378,2839,173691.29888068757
1379,2840,200967.50678660203
1380,2841,203103.12624052263
1381,2842,233132.4802481154
1382,2843,148443.12421311162
1383,2844,179318.67397606975
1384,2845,124905.29998730311
1385,2846,207523.25263399692
1386,2847,211704.93205931768
1387,2848,215216.1759440348
1388,2849,196228.49709917442
1389,2850,268862.48018441885
1390,2851,213092.42975009867
1391,2852,241498.07255751328
1392,2853,234717.67692029843
1393,2854,136592.6533472496
1394,2855,199538.10221506198
1395,2856,200307.59081752494
1396,2857,190259.26933351625
1397,2858,207366.7635910364
1398,2859,108584.65566591526
1399,2860,124603.26432839096
1400,2861,124215.29589222431
1401,2862,185271.14872913875
1402,2863,127710.19015131508
1403,2864,243812.52285480997
1404,2865,140580.26656427793
1405,2866,143356.66732793677
1406,2867,97419.53310621581
1407,2868,94869.71721408336
1408,2869,91681.4317993549
1409,2870,119768.27739483194
1410,2871,85718.5423123581
1411,2872,48235.370641603484
1412,2873,95189.65875374488
1413,2874,139535.62054502754
1414,2875,113910.07353184557
1415,2876,156198.05566274663
1416,2877,142623.8871821428
1417,2878,154094.0952970961
1418,2879,139541.1807702689
1419,2880,105969.63073107378
1420,2881,140969.25615261614
1421,2882,179832.74116072856
1422,2883,199706.64066505202
1423,2884,200096.573307172
1424,2885,182695.88118837532
1425,2886,233356.64878148105
1426,2887,101337.53027869663
1427,2888,142666.77609633515
1428,2889,58699.587198423586
1429,2890,79460.14512838934
1430,2891,137631.05088219553
1431,2892,41677.5122276565
1432,2893,70634.99786468432
1433,2894,53855.779548245686
1434,2895,344492.061370825
1435,2896,282612.4054651008
1436,2897,215065.2680735325
1437,2898,148772.19132147072
1438,2899,207221.2555166804
1439,2900,157284.89645357194
1440,2901,210883.27059047727
1441,2902,185709.20306021572
1442,2903,317192.773036852
1443,2904,337774.3146102567
1444,2905,77260.11781007437
1445,2906,189415.0880156276
1446,2907,111746.2677816198
1447,2908,126555.87620527676
1448,2909,155125.70968233715
1449,2910,75807.32162529866
1450,2911,82802.74091479613
1451,2912,150065.37405594208
1452,2913,83200.55869080439
1453,2914,80332.9717441737
1454,2915,87675.17625835999
1455,2916,84565.95827484055
1456,2917,167275.5056470615
1457,2918,120259.73522229613
1458,2919,226291.45312663316
