,Baker,Signature,Technical,Showstopper,episode_number,episode_theme,season
0,Alice,Gingerbread Fruit Cake Wreath,5th,Like a Child in a Sweetshop Cake,1,_Cake,10
1,Amelia,Christmas Cake,4th,Carousel Birthday Cake,1,_Cake,10
2,David,Squishy Squashy Fruit Cake,10th,Snakey Birthday Cakey,1,_Cake,10
3,Dan,Jamaican Rum Cake,9th,Pirate Island Cake,1,_Cake,10
4,Helena,Fruit Bat Cake,12th,Away with the Fairies Cake,1,_Cake,10
5,Henry,Wood Street Cake,1st,Secret Woodland Cake,1,_Cake,10
6,Jamie,Easter Simnel Cake,13th,Salted Caramel Schnauzer Birthday Cake,1,_Cake,10
7,Michael,Cup of Chai Cake,11th,Treasure Chest Cake,1,_Cake,10
8,Michelle,Bara Brith Teulu Ni (Our Family's Bara Brith),6th,Tŷ Tylwyth Teg (Fairy House Cake),1,_Cake,10
9,Phil,Spiced Fruit Cake with Rum Glaze,8th,Retro Rocket Cake,1,_Cake,10
10,Priya,Sunshine Fruit Cake,7th,Once Upon a Time Cake,1,_Cake,10
11,Rosie,Spicy Chai Loaf,2nd,Magical Jungle Cake,1,_Cake,10
12,Steph,Great Grandma's Fruit Cake,3rd,A Sundae on the Beach Cake,1,_Cake,10
13,Alice,Honeycomb Peanut Mallow Bars,1st,Chocolate and Coconut New Zealand Lamb,2,_Biscuits,10
14,Amelia,"Pistachio, Almond & Raisin Nougat Biscuit Bars",9th,Swimming with Dolphins,2,_Biscuits,10
15,David,Coco-nutty Chocolate Bars,2nd,Wedding Spray,2,_Biscuits,10
16,Helena,Wicked Witch Fingers,12th,Caught in a Spider's Web,2,_Biscuits,10
17,Henry,"Coffee, Cardamom & Hazelnut Bars",6th,Chapel Organ,2,_Biscuits,10
18,Jamie,Cherry Caramel Shortbread Biscuit Bars,11th,Biscuit Guitar,2,_Biscuits,10
19,Michael,Lemon & Rosemary Biscuit Bars,4th,Hamish the Highland Cow,2,_Biscuits,10
20,Michelle,Bakewell Bars,8th,Dewi y Ddraig Gymraeg (Dewi the Welsh Dragon),2,_Biscuits,10
21,Phil,"Orange, Cranberry & White Chocolate Fudge Bars",3rd,Tina the Tortoise,2,_Biscuits,10
22,Priya,Ruby Barfi Biscuit Bars,7th,The Beast of Rocky Mountain,2,_Biscuits,10
23,Rosie,Virgin Mojito Biscuit Bars,5th,My Favourite Chicken - A Celebration of Legs,2,_Biscuits,10
24,Steph,"Chocolate, Caramel Macchiato Biscuit Bars",10th,Ginger the Cat,2,_Biscuits,10
25,Alice,Baklava Tear & Share,7th,Global Bread,3,_Bread,10
26,Amelia,Chorizo Brunch Tear & Share,11th,Caterpillar Transformation,3,_Bread,10
27,David,Cinnamon Swirl Tear & Share,2nd,Trio of African Masks,3,_Bread,10
28,Helena,Frosted Cinnamon and Pecan Tear & Share,8th,Every Bread is Halloween,3,_Bread,10
29,Henry,Chicken and Pesto Tear & Share,1st,Herb Garden,3,_Bread,10
30,Michael,Keralan Star Bread Tear & Share,6th,Mediterranean Camp Fire,3,_Bread,10
31,Michelle,Noson Gaws (Cheese Night) Tear & Share,5th,Gardd Ni (Our Garden),3,_Bread,10
32,Phil,Pancetta and Cheese Focaccia Tear & Share,10th,Winner's Wreath,3,_Bread,10
33,Priya,Smokey Jalapeño Tear & Share,4th,Bird Boules,3,_Bread,10
34,Rosie,Chilli and Manchego Tear & Share,9th,Bread Safari,3,_Bread,10
35,Steph,Sun-Dried Tomato and Pesto Star Tear & Share,3rd,Hand-Tied Bouquet of Flowers,3,_Bread,10
36,Alice,Leafy Yoghurt Cake,8th,Afternoon Tea,4,_Dairy,10
37,David,A Kick of Limoncello Cake,2nd,Flavours of India Mishti,4,_Dairy,10
38,Helena,Ghost Cake,9th,Ye Olde English Sweet Shoppe Mishti,4,_Dairy,10
39,Henry,Ode to a German Breakfast Cake,3rd,Seaside Mishti,4,_Dairy,10
40,Michael,Cheesecake Surprise,7th,Flag of India Mishti,4,_Dairy,10
41,Michelle,Homely Rhubarb Cake,5th,Home Comforts Mishti,4,_Dairy,10
42,Phil,Trucking Lovely Rose Cake,6th,A Corner of My Garden Mishti,4,_Dairy,10
43,Priya,Choc-chip Banana Cake,10th,Flavours of My Childhood Mishti,4,_Dairy,10
44,Rosie,A Good Dose of Limoncello Cake,4th,Cocktails & Canapés Mishti,4,_Dairy,10
45,Steph,Answer to Everything Cake,1st,Pink and Pretty Mishti,4,_Dairy,10
46,Alice,Chocolate & Orange Custard Pies,6th,Piña Colada Cake,5,_The_Roaring_Twenties,10
47,David,Fancy Custards,9th,Amaretto Sour Cake,5,_The_Roaring_Twenties,10
48,Helena,Lemon and Lavender Pies,1st,Vampire's Kiss Raspberry Vodka Cake,5,_The_Roaring_Twenties,10
49,Henry,1920's Pies,3rd,White Russian Cake,5,_The_Roaring_Twenties,10
50,Michael,"Mango, Lime & Ginger Pies",8th,Brambling Cake,5,_The_Roaring_Twenties,10
51,Michelle,Blueberry & White Chocolate Crème Brûlée Pies,7th,My Little Sister the Dancing Queen's Piña Colada Cake,5,_The_Roaring_Twenties,10
52,Priya,Lemon & Raspberry Ripple Pies,2nd,Meena Colada Cake,5,_The_Roaring_Twenties,10
53,Rosie,Little Blackberry Pies,5th,White Russian Cake,5,_The_Roaring_Twenties,10
54,Steph,Zesty Citrus Custard Pies,4th,Sour Lime Piña Colada Cake,5,_The_Roaring_Twenties,10
55,Alice,Black Forest Meringue,1st,Tiramisu Bombe,6,_Desserts,10
56,David,Spiced Meringue Surprise,2nd,Delightful Bombe,6,_Desserts,10
57,Henry,Towering Meringue Cake,4th,Bonfire Bombe,6,_Desserts,10
58,Michael,Dark Chocolate Meringue Cake,6th,Black Forest Bombe,6,_Desserts,10
59,Priya,Family Favourite,7th,Summer Fruit Bombe,6,_Desserts,10
60,Rosie,Layers of Lime and Raspberry,5th,Ruby Bombe,6,_Desserts,10
61,Steph,Eton Mess,3rd,Mirror Bombe,6,_Desserts,10
62,Alice,"Lemon, Blueberry & Almond Hot Cross Buns",6th,"Chocolate, Orange and Salted Caramel Kaleidoscope Sarawak Style Layered Cake",7,_Festivals,10
63,David,Kozunak Plaits,2nd,Sarawak Style Layer Cake Sculpture,7,_Festivals,10
64,Henry,Chocolate Kardemummabullar,3rd,Elegant Present Box,7,_Festivals,10
65,Michael,Figgy Pudding Hot Cross Buns,5th,Jamaican Mule Sarawak Style Layer Cake,7,_Festivals,10
66,Rosie,Mardi Gras Finnish Semlor Peacock Festival Buns,1st,Rainbow Sarawak Style Layer Cake,7,_Festivals,10
67,Steph,Zest and Spice Hot Cross Buns,4th,Orange and Chai Spiced Revitalise Cake,7,_Festivals,10
