,2012-12-05,0.0179
26,2017-05-26,0.00866
21,2016-07-24,0.020928
20,2016-06-04,0.001835
22,2016-09-18,0.04548
33,2018-06-07,0.002905
28,2017-08-15,0.05530499999999999
24,2017-03-14,0.025330000000000002
15,2015-07-27,0.03748
4,2013-09-17,0.0373
19,2016-04-28,0.058535000000000004
3,2013-08-23,0.0243
27,2017-07-03,0.188686
36,2019-02-15,0.002813
25,2017-04-23,0.00295
31,2018-03-15,0.037418
14,2015-06-16,0.002875
0,2013-01-08,0.0203
16,2015-09-13,0.030933999999999996
18,2016-03-05,0.016863
30,2018-02-11,0.026406
7,2014-03-25,0.004
17,2015-10-29,0.027964999999999997
2,2013-06-28,0.032
1,2013-03-15,0.0346
6,2014-02-26,0.016
34,2018-10-25,0.03646
9,2014-06-25,0.028999999999999998
23,2016-11-07,0.015819
29,2017-10-09,0.0175
32,2018-04-24,0.004143
11,2014-09-28,0.03
8,2014-05-13,0.005
10,2014-08-12,0.039
12,2015-03-21,0.0412
5,2013-10-26,0.037000000000000005
13,2015-05-15,0.023611
35,2018-12-19,0.021230000000000002
