,0
company_permalink,0
company_name,0
company_category_code,10
company_country_code,0
company_state_code,29
company_region,0
company_city,45
investor_permalink,0
investor_name,0
investor_category_code,2870
investor_country_code,2870
investor_state_code,2870
investor_region,0
investor_city,2870
funding_round_type,0
funded_at,0
funded_month,0
funded_quarter,0
funded_year,0
raised_amount_usd,290
