,State Name,Year,Month,Cocaine (T40.5),Heroin (T40.1),Methadone (T40.3),Natural & semi-synthetic opioids (T40.2),Number of Deaths,Number of Drug Overdose Deaths,"Opioids (T40.0-T40.4,T40.6)",Psychostimulants with abuse potential (T43.6),"Synthetic opioids, excl. methadone (T40.4)"
0,Alabama,2015,December,,,,,50870,720,,,
1,Alabama,2016,December,,,,,51431,740,,,
2,Alaska,2015,December,,,,,4193,121,,,
3,Alaska,2016,December,,,,,4355,129,,,
4,Arizona,2015,December,,,,,54853,1267,,,
5,Arizona,2016,December,,,,,57215,1393,,,
6,Arkansas,2015,December,,,,,30986,381,,,
7,Arkansas,2016,December,,,,,31028,386,,,
8,California,2015,December,,,,,260172,4762,,,
9,California,2016,December,,,,,263199,4755,,,
10,Colorado,2015,December,,,,,36993,913,,,
11,Colorado,2016,December,,,,,38151,965,,,
12,Connecticut,2015,December,168.0,394.0,73.0,182.0,30600,799,686.0,23.0,214.0
13,Connecticut,2016,December,237.0,459.0,71.0,214.0,30641,974,869.0,22.0,508.0
14,Delaware,2015,December,,,,,8591,195,,,
15,Delaware,2016,December,,,,,8980,285,,,
16,District of Columbia,2015,December,37.0,83.0,9.0,21.0,5706,144,112.0,5.0,28.0
17,District of Columbia,2016,December,99.0,146.0,21.0,42.0,6055,300,230.0,5.0,147.0
18,Florida,2015,December,,,,,194297,3352,,,
19,Florida,2016,December,,,,,199964,4996,,,
20,Georgia,2015,December,,,,,80541,1308,,,
21,Georgia,2016,December,,,,,81783,1370,,,
22,Hawaii,2015,December,,,,,11208,171,,,
23,Hawaii,2016,December,,,,,11041,199,,,
24,Idaho,2015,December,,,,,12987,214,,,
25,Idaho,2016,December,,,,,13297,228,,,
26,Illinois,2015,December,,,,,103953,1864,,,
27,Illinois,2016,December,,,,,104091,2427,,,
28,Indiana,2015,December,,,,,63255,1232,,,
29,Indiana,2016,December,,,,,64051,1506,,,
30,Iowa,2015,December,,,,,29291,300,,,
31,Iowa,2016,December,,,,,29318,314,,,
32,Kansas,2015,December,,,,,25863,323,,,
33,Kansas,2016,December,,,,,25489,313,,,
34,Kentucky,2015,December,,,,,46195,1248,,,
35,Kentucky,2016,December,,,,,47606,1437,,,
36,Louisiana,2015,December,,,,,43914,875,,,
37,Louisiana,2016,December,,,,,44411,1004,,,
38,Maine,2015,December,32.0,53.0,37.0,105.0,14324,267,235.0,22.0,110.0
39,Maine,2016,December,59.0,54.0,39.0,132.0,14069,357,306.0,31.0,204.0
40,Maryland,2015,December,145.0,422.0,188.0,408.0,47162,1320,1130.0,25.0,373.0
41,Maryland,2016,December,316.0,656.0,194.0,694.0,48668,2074,1866.0,46.0,1122.0
42,Massachusetts,2015,December,,,,,58761,1723,,,
43,Massachusetts,2016,December,,,,,57861,2198,,,
44,Michigan,2015,December,,,,,93920,1973,,,
45,Michigan,2016,December,,,,,94840,2342,,,
46,Minnesota,2015,December,,,,,42713,592,,,
47,Minnesota,2016,December,,,,,43134,664,,,
48,Mississippi,2015,December,,,,,31006,333,,,
49,Mississippi,2016,December,,,,,31016,332,,,
50,Missouri,2015,December,,,,,61995,1087,,,
51,Missouri,2016,December,,,,,61888,1386,,,
52,Montana,2015,December,,,,,9901,131,,,
53,Montana,2016,December,,,,,9941,114,,,
54,Nebraska,2015,December,,,,,16957,123,,,
55,Nebraska,2016,December,,,,,16400,113,,,
56,New Hampshire,2015,December,44.0,79.0,23.0,63.0,11724,415,378.0,6.0,285.0
57,New Hampshire,2016,December,53.0,26.0,28.0,68.0,11909,458,415.0,12.0,347.0
58,New Jersey,2015,December,,,,,71109,1423,,,
59,New Jersey,2016,December,,,,,72082,1971,,,
60,New Mexico,2015,December,50.0,153.0,34.0,168.0,17062,496,353.0,118.0,
61,New Mexico,2016,December,56.0,164.0,44.0,158.0,17768,494,356.0,135.0,
62,North Carolina,2015,December,313.0,381.0,106.0,555.0,90025,1537,1159.0,62.0,301.0
63,North Carolina,2016,December,496.0,547.0,117.0,597.0,91350,1931,1497.0,113.0,591.0
64,North Dakota,2015,December,,,,,6876,66,,,
65,North Dakota,2016,December,,,,,6806,80,,,
