,last_pymnt_d
Mar-2014,381
Feb-2014,309
Mar-2016,118
Apr-2014,117
Jan-2014,87
Feb-2016,85
Jul-2013,71
Jan-2013,67
Mar-2013,66
Jul-2012,65
Feb-2013,64
Sep-2013,61
Aug-2013,55
May-2013,55
Apr-2013,55
May-2012,54
Oct-2012,52
Dec-2013,50
Apr-2012,50
Feb-2012,50
Mar-2012,50
Oct-2011,47
Aug-2012,45
Dec-2012,45
Nov-2012,45
Sep-2012,43
Jun-2012,43
Oct-2013,40
Sep-2011,39
Nov-2013,38
Aug-2011,37
Jun-2013,36
Jan-2012,34
Dec-2011,33
Nov-2011,33
Jul-2011,30
Apr-2016,27
Jun-2011,27
May-2011,26
Apr-2011,25
Mar-2011,22
Mar-2015,20
Jan-2016,20
Jan-2015,20
May-2014,19
May-2015,19
Oct-2014,19
Jun-2014,18
Sep-2015,17
Jul-2014,16
Nov-2015,15
Jun-2015,15
Nov-2014,14
Sep-2014,13
Aug-2015,13
Feb-2015,13
Dec-2015,12
Jul-2015,12
Dec-2014,12
Oct-2015,10
Aug-2014,10
Apr-2015,9
Jun-2016,2
Feb-2011,1
