,last_pymnt_d
Dec-2010,48
Feb-2011,46
Nov-2010,29
Jan-2011,28
Oct-2010,25
Jul-2010,23
Aug-2010,23
Feb-2009,20
Oct-2008,17
Jun-2010,16
Nov-2008,15
Sep-2008,14
Sep-2010,14
Mar-2008,13
Mar-2009,13
Jan-2009,12
May-2008,11
May-2010,11
Apr-2009,11
Aug-2008,11
Jul-2008,11
Mar-2010,10
Feb-2010,9
Jan-2010,8
Apr-2010,8
May-2009,8
Apr-2008,7
Jan-2008,7
Jun-2009,7
Feb-2008,7
Jul-2009,6
Oct-2009,6
Dec-2008,6
Sep-2009,5
Jun-2008,5
Aug-2009,5
Dec-2009,4
Nov-2009,4
Mar-2011,4
Apr-2011,3
Dec-2007,2
Aug-2011,1
Mar-2013,1
Jul-2011,1
Jun-2011,1
