,movie_display_name,movie_production_year,movie_genre_display_name,movie_financial_summary_production_budget,movie_financial_summary_international_box_office,movie_annual_summary_tickets_sold,movie_video_summary_domestic_dvd_units,movie_acting_role_display_name,movie_theatrical_release_release_date,movie_creative_type_display_name,movie_production_method_display_name,movie_source_display_name,movie_running_time,movie_technical_role_display_name,movie_production_company_display_name,movie_sequel
0,Jurassic World,2015,Action,215000000,1016966151,77920909.0,1109651.0,Chris Pratt,2015-06-12,Science Fiction,Live Action,Based on Fiction Book/Short Story,124.0,Colin Trevorow,Universal Pictures,1
1,Ant-Man,2015,Action,130000000,338400000,21522460.0,,Paul Rudd,2015-07-17,Super Hero,Live Action,Based on Comic/Graphic Novel,117.0,Peyton Reed,Marvel Studios,0
2,The Age of Adaline,2015,Drama,30000000,17703764,5093163.0,264813.0,Blake Lively,2015-04-24,Fantasy,Live Action,Original Screenplay,112.0,Lee Toland Krieger,Sidney Kimmel Entertianment,0
3,Nie yin niang,2015,Drama,15000000,6200000,71129.0,,Zhou Yun,2015-08-27,Historical Fiction,Live Action,Remake,107.0,Hou Hsiao-hsien,SpotFilms,0
4,Mad Max: Fury Road,2015,Action,150000000,219500000,18355597.0,830010.0,Tom Hardy,2015-05-15,Science Fiction,Live Action,Original Screenplay,120.0,George Miller,Kennedy Miller Mitchell Productions,1
5,Entourage,2015,Comedy,30000000,13861922,3866595.0,60108.0,Kevin Connolly,2015-06-03,Contemporary Fiction,Live Action,Based on TV,104.0,Doug Ellin,Closest to the Hole,0
6,The Hunger Games: Mockingjay - Part 2,2015,Thriller/Suspense,160000000,296800000,27541916.0,,Jennifer Lawrence,2015-11-20,Science Fiction,Live Action,Based on Fiction Book/Short Story,136.0,Francis Lawrence,Lionsgate,1
7,The Avengers: Age of Ultron,2015,Action,250000000,945700000,54839410.0,1102604.0,Claudia Kim,2015-05-01,Super Hero,Live Action,Based on Comic/Graphic Novel,141.0,Joss Whedon,Marvel Studios,1
8,The Peanuts Movie,2015,Comedy,99000000,13200000,14564203.0,,Noah Schnapp,2015-11-06,Kids Fiction,,Based on Comic/Graphic Novel,89.0,Steve Martino,Blue Sky Studios,0
9,Hotel Transylvania 2,2015,Comedy,80000000,274100000,19999372.0,,Adam Sandler,2015-09-25,Kids Fiction,Digital Animation,Original Screenplay,89.0,Genndy Tartakovsky,Sony Pictures Animation,1
10,Fantastic Four,2015,Action,120000000,111000000,6704605.0,,Miles Teller,2015-08-07,Super Hero,Live Action,Based on Comic/Graphic Novel,100.0,Miguel Lopez-Castillo,Marv Films,0
11,The Longest Ride,2015,Drama,34000000,23700000,4473849.0,948579.0,Britt Robertson,2015-04-10,Contemporary Fiction,Live Action,Based on Fiction Book/Short Story,128.0,Nicholas Sparks,Fox 2000 Pictures,0
12,Self/Less,2015,Thriller/Suspense,26000000,15238333,1467107.0,,Ryan Reynolds,2015-07-10,Science Fiction,Live Action,Original Screenplay,117.0,Tarsem Singh,Ram Bergman Productions,0
13,Inside Out,2015,Adventure,175000000,496268061,42587140.0,0.0,Lewis Black,2015-06-19,Kids Fiction,Digital Animation,Original Screenplay,95.0,Pete Docter,Disney-Pixar,0
14,Terminator: Genisys,2015,Action,155000000,350400000,10724128.0,,Arnold Schwarzenegger,2015-07-01,Science Fiction,Live Action,Original Screenplay,126.0,Alan Taylor,Skydance Productions,1
15,Spectre,2015,Action,300000000,607500000,22191763.0,,Daniel Craig,2015-11-06,Contemporary Fiction,Live Action,Based on Fiction Book/Short Story,148.0,Sam Mendes,Eon Productions,1
16,Ted 2,2015,Comedy,0,134387223,9711449.0,,Mark Wahlberg,2015-06-26,Fantasy,Live Action,Original Screenplay,115.0,Seth MacFarlane,Fuzzy Door,1
17,Chappie,2015,Action,49000000,73432788,3771716.0,399934.0,Hugh Jackman,2015-03-06,Science Fiction,Live Action,Original Screenplay,120.0,Neill Blomkamp,Columbia Pictures,0
18,Crimson Peak,2015,Horror,0,42957902,3714494.0,,Tom Hiddleston,2015-10-16,Fantasy,Live Action,Original Screenplay,118.0,Guillermo Del Toro,Legendary Pictures,0
19,Spy!,2015,Comedy,65000000,122300000,13240825.0,533202.0,Melissa McCarthy,2015-06-05,Contemporary Fiction,Live Action,Original Screenplay,115.0,Paul Feig,Chernin Entertainment,0
20,Mission: Impossible - Rogue Nation,2015,Action,150000000,505825986,23302554.0,,Tom Cruise,2015-07-30,Contemporary Fiction,Live Action,Based on TV,131.0,Christopher McQuarrie,Bad Robot,1
21,Insidious Chapter 3,2015,Horror,10000000,68459886,6238776.0,98470.0,Dermot Mulroney,2015-06-05,Fantasy,Live Action,Original Screenplay,97.0,Leigh Whannell,Entertainment One,0
0,Accidental Love,2014,Comedy,26000000,135436,,,Jessica Biel,2015-03-18,Contemporary Fiction,Live Action,Original Screenplay,81.0,David O. Russell,K Jam Media,0
1,Big Eyes,2014,Drama,10000000,1393287,1214690.0,124825.0,Christoph Waltz,2014-12-25,Dramatization,Live Action,Based on Real Life Events,106.0,Tim Burton,Tim Burton,0
2,Poltergeist,2014,Horror,35000000,48400000,5666084.0,122204.0,Sam Rockwell,2015-05-22,Fantasy,Live Action,Remake,93.0,Gil Kenan,Ghost House Pictures,0
3,Blended,2014,Romantic Comedy,45000000,81700000,5665941.0,759013.0,Drew Barrymore,2014-05-23,Contemporary Fiction,Live Action,Original Screenplay,117.0,Frank Coraci,Gulfstream Pictures,0
4,Boulevard,2014,Drama,0,86346,15071.0,44532.0,Robin Williams,2015-07-10,Contemporary Fiction,Live Action,Original Screenplay,88.0,Dito Montiel,Camellia Entertainment,0
5,Chef,2014,Comedy,0,15405305,3846267.0,359536.0,Jon Favreau,2014-05-09,Contemporary Fiction,Live Action,Original Screenplay,115.0,Jon Favreau,Fairview Entertainment,0
6,Dracula Untold,2014,Action,70000000,160830062,6853351.0,553448.0,Luke Evans,2014-10-10,Fantasy,Live Action,Based on Fiction Book/Short Story,92.0,Gary Shore,Legendary Pictures,0
7,St. Vincent,2014,Comedy,13000000,10699522,5321694.0,355380.0,Bill Murray,2014-10-24,Contemporary Fiction,Live Action,Original Screenplay,102.0,Theodore Melfi,Chernin Entertainment,0
8,A Walk in the Woods,2014,Adventure,0,5093057,3521671.0,,Robert Redford,2015-09-02,Dramatization,Live Action,Based on Factual Book/Article,104.0,Ken Kwapis,Route One,0
9,Selma,2014,Drama,20000000,14700000,253176.0,277090.0,David Oyelowo,2014-12-25,Dramatization,Live Action,Based on Real Life Events,123.0,Ava Duvernay,Plan B Entertainment,0
10,In the Heart of the Sea,2014,Adventure,0,17100000,,,Chris Hemsworth,2015-12-11,Dramatization,Live Action,Based on Real Life Events,121.0,Ron Howard,Warner Bros.,0
11,If I Stay,2014,Drama,11000000,28400000,6178071.0,627194.0,Chloë Grace Moretz,2014-08-22,Contemporary Fiction,Live Action,Based on Fiction Book/Short Story,106.0,Alison Greenspan,Di Novi Pictures,0
12,Interstellar,2014,Adventure,165000000,477400000,22374797.0,806499.0,Matthew McConaughey,2014-11-07,Science Fiction,Live Action,Original Screenplay,165.0,Christopher Nolan,Syncopy,0
13,Pawn Sacrifice,2014,Drama,0,604009,290661.0,,Tobey Maguire,2015-09-16,Dramatization,Live Action,Based on Real Life Events,116.0,Edward Zwick,Bleecker Street ,0
14,Good People,2014,Drama,0,378106,,3003.0,James Franco,2014-09-26,Contemporary Fiction,Live Action,Based on Fiction Book/Short Story,90.0,Henrik Ruben Genz,Millennium Films,0
15,Ouija,2014,Horror,5000000,52617999,6224725.0,312637.0,Olivia Cooke,2014-10-24,Fantasy,Live Action,Based on Game,89.0,Stiles White,Platinum Dunes,0
16,The Boxtrolls,2014,Adventure,60000000,58447728,6195675.0,506765.0,Isaac Hempstead-Wright,2014-09-26,Kids Fiction,Stop-Motion Animation,Based on Fiction Book/Short Story,96.0,Anthony Stacchi,Laika,0
17,Seventh Son,2014,Adventure,95000000,93400000,2057737.0,250080.0,Jeff Bridges,2015-02-06,Fantasy,Live Action,Based on Fiction Book/Short Story,102.0,Sergey Bodrov,Legendary Pictures,0
18,Guardians of the Galaxy,2014,Adventure,170000000,438000000,40765637.0,2915990.0,Chris Pratt,2014-08-01,Super Hero,Live Action,Based on Comic/Graphic Novel,121.0,James Gunn,Marvel Studios,0
19,The Good Dinosaur,2014,Adventure,187500000,55400000,9267878.0,,A.J. Buckley,2015-11-25,Kids Fiction,Digital Animation,Original Screenplay,92.0,Peter Sohn,Disney-Pixar,0
20,Transformers: Age of Extinction,2014,Action,210000000,858600000,30041502.0,1726866.0,Mark Wahlberg,2014-06-27,Science Fiction,Animation/Live Action,Based on TV,165.0,Michael Bay,di Bonaventura Pictures,1
21,The SpongeBob Movie: Sponge Out of Water,2014,Comedy,74000000,148600000,19473600.0,753025.0,Bill Fagerbakke,2015-02-06,Kids Fiction,Animation/Live Action,Based on TV,93.0,Paul Tibbitt,United Plankton Pictures,0
22,Captain America: The Winter Soldier,2014,Action,170000000,454100000,31792773.0,1534136.0,Chris Evans,2014-04-04,Science Fiction,Live Action,Based on Comic/Graphic Novel,135.0,Anthony Russo,Marvel Studios,1
23,Noah,2014,Drama,130000000,251631021,12386786.0,713692.0,Russell Crowe,2014-03-28,Historical Fiction,Live Action,Based on Religious Text,137.0,Darren Aronofsky,Protozoa,0
24,Dawn of the Planet of the Apes,2014,Adventure,170000000,495000000,25525775.0,1546729.0,Andy Serkis,2014-07-11,Science Fiction,Animation/Live Action,Remake,130.0,Matt Reeves,Chernin Entertainment,1
25,X-Men: Days of Future Past,2014,Action,200000000,514200000,28631766.0,1693249.0,Hugh Jackman,2014-05-23,Science Fiction,Live Action,Based on Comic/Graphic Novel,131.0,Bryan Singer,Bad Hat Harry Productions,1
26,The Hunger Games: Mockingjay - Part 1,2014,Thriller/Suspense,125000000,372500000,39624786.0,1883434.0,Jennifer Lawrence,2014-11-21,Science Fiction,Live Action,Based on Fiction Book/Short Story,123.0,Francis Lawrence,Lionsgate,1
27,Need for Speed,2014,Action,66000000,150601112,5332742.0,344763.0,Aaron Paul,2014-03-14,Contemporary Fiction,Live Action,Based on Game,130.0,Scott Waugh,Electronic Arts,0
28,The Hobbit: The Battle of the Five Armies,2014,Adventure,250000000,700000000,27001470.0,1559991.0,Martin Freeman,2014-12-26,Fantasy,Live Action,Based on Fiction Book/Short Story,144.0,Peter Jackson,New Line Cinema,1
29,Home,2014,Adventure,130000000,208688443,21194445.0,1656260.0,Jim Parsons,2015-03-27,Kids Fiction,Digital Animation,Based on Fiction Book/Short Story,94.0,Tim Johnson,DreamWorks Animation,0
30,Divergent,2014,Adventure,85000000,125067070,18475874.0,2303342.0,Shailene Woodley,2014-03-21,Science Fiction,Live Action,Based on Fiction Book/Short Story,140.0,Veronica Roth,Red Wagon Entertainment,0
31,Minions,2014,Comedy,74000000,826355166,40138316.0,,Jennifer Saunders,2015-06-26,Kids Fiction,Digital Animation,Spin-Off,91.0,Kyle Balda,Universal Pictures,0
32,Penguins of Madagascar,2014,Comedy,132000000,284300000,9561417.0,657333.0,Benedict Cumberbatch,2014-11-26,Kids Fiction,Digital Animation,Spin-Off,92.0,Simon J. Smith,DreamWorks Animation,0
33,Godzilla,2014,Action,160000000,328400000,24562079.0,998382.0,Elizabeth Olsen,2014-05-16,Science Fiction,Live Action,Remake,123.0,Gareth Edwards,Legendary Pictures,0
34,Bears,2014,Documentary,0,371552,2176278.0,,John C. Reilly,2014-04-18,Factual,Live Action,Based on Real Life Events,77.0,Alastair Fothergill,Disney Nature,0
35,Knight of Cups,2014,Drama,0,420363,,,Christian Bale,2016-03-04,Contemporary Fiction,Live Action,Original Screenplay,0.0,Terrence Malick,,0
36,The Book of Life,2014,Adventure,50000000,47500000,6066601.0,729657.0,Diego Luna,2014-10-17,Fantasy,Digital Animation,Original Screenplay,95.0,Jorge R. Gutierrez,Guillermo del Toro,0
37,About Last Night,2014,Romantic Comedy,13000000,1808176,5953204.0,281200.0,Michael Ealy,2014-02-14,Contemporary Fiction,Live Action,Based on Play,100.0,Steve Pink,Rainforest Films,0
38,Tomorrowland,2014,Adventure,170000000,111900000,11163240.0,222396.0,George Clooney,2015-05-22,Science Fiction,Live Action,Original Screenplay,129.0,Brad Bird,A113 ,0
39,Jessabelle,2014,Horror,0,470754,,4373.0,Sarah Snook,2014-11-07,Fantasy,Live Action,Original Screenplay,90.0,Kevin Greutert,Blumhouse,0
40,The Maze Runner,2014,Thriller/Suspense,34000000,243100000,12514322.0,1368605.0,Dylan O'Brien,2014-09-19,Science Fiction,Live Action,Based on Fiction Book/Short Story,113.0,Wes Ball,Gotham Group,0
41,Night at the Museum: Secret of the Tomb,2014,Adventure,127000000,242800000,10997206.0,1004514.0,Ben Stiller,2014-12-19,Fantasy,Live Action,Original Screenplay,97.0,Shawn Levy,21 Laps Entertainment,1
42,Rio 2,2014,Adventure,130000000,362200000,16100175.0,1795891.0,Jesse Eisenberg,2014-04-11,Kids Fiction,Digital Animation,Original Screenplay,101.0,Carlos Saldanha,20th Century Fox Animation,1
43,Teenage Mutant Ninja Turtles,2014,Adventure,125000000,293800000,23403274.0,2294665.0,Megan Fox,2014-08-08,Super Hero,Animation/Live Action,Based on Comic/Graphic Novel,101.0,Jonathan Liebesman,Platinum Dunes,0
44,Grace of Monaco,2014,Drama,30000000,25199891,,,Nicole Kidman,2015-08-28,Dramatization,Live Action,Based on Real Life Events,0.0,Oliver Dahan,Stone Angels,0
0,RoboCop,2013,Action,120000000,184374792,7173440.0,442503.0,Joel Kinnaman,2014-02-12,Science Fiction,Live Action,Remake,116.0,Jose Padilha,Strike Entertainment,0
1,We're the Millers,2013,Comedy,37000000,117422157,18498661.0,2163494.0,Will Poulter,2013-08-07,Contemporary Fiction,Live Action,Original Screenplay,100.0,Rawson Thurber,New Line Cinema,0
2,The Hobbit: The Desolation of Smaug,2013,Adventure,250000000,702000000,28174617.0,2866572.0,Martin Freeman,2013-12-13,Fantasy,Animation/Live Action,Based on Fiction Book/Short Story,201.0,Peter Jackson,Wingnut Films,1
3,The Lone Ranger,2013,Western,275000000,170700000,9770832.0,1451770.0,Johnny Depp,2013-07-02,Historical Fiction,Live Action,Based on TV,149.0,Gore Verbinski,Walt Disney Pictures,0
4,47 Ronin,2013,Action,175000000,113296587,4020624.0,437437.0,Hiroyuki Sanada,2013-12-25,Fantasy,Live Action,Original Screenplay,127.0,Carl Rinsch,Relativity Media,0
5,Dallas Buyers Club,2013,Drama,5000000,28939760,2005023.0,378524.0,Matthew McConaughey,2013-11-01,Dramatization,Live Action,Based on Real Life Events,117.0,Jean-Marc Vallee,Focus Features,0
6,Legends of Oz: Dorothy’s Return,2013,Adventure,70000000,11645586,1035782.0,119235.0,Lea Michele,2014-05-09,Kids Fiction,Digital Animation,Based on Fiction Book/Short Story,88.0,Will Finn,Summertime Entertainment,0
7,Maleficent,2013,Adventure,180000000,517000000,29548020.0,2152681.0,Angelina Jolie,2014-05-30,Fantasy,Live Action,Spin-Off,97.0,Robert Stromberg,Roth Films,0
8,How to Train Your Dragon 2,2013,Adventure,145000000,439100000,21664984.0,2307540.0,Jay Baruchel,2014-06-13,Fantasy,Digital Animation,Original Screenplay,102.0,Dean DeBlois,DreamWorks Animation,1
9,Kick-Ass 2,2013,Action,28000000,34333924,3541941.0,513894.0,Aaron Johnson,2013-08-16,Contemporary Fiction,Live Action,Based on Comic/Graphic Novel,103.0,Jeff Wadlow,Universal Pictures,0
10,Mr. Peabody & Sherman,2013,Adventure,145000000,158300000,13648277.0,1298798.0,Ty Burrell,2014-03-07,Kids Fiction,Digital Animation,Based on TV,91.0,Rob Minkoff,PDI,0
11,Tarzan,2013,Adventure,0,20200000,,1358.0,Kellan Lutz,,Kids Fiction,Digital Animation,Based on Fiction Book/Short Story,0.0,Reinhard Klooss,,0
12,Free Birds,2013,Comedy,55000000,54636592,6752094.0,732263.0,Owen Wilson,2013-11-01,Kids Fiction,Digital Animation,Original Screenplay,91.0,Jimmy Hayward,,0
13,The World's End,2013,Comedy,20000000,21503654,3198628.0,204433.0,Simon Pegg,2013-08-23,Science Fiction,Live Action,Original Screenplay,109.0,Edgar Wright,Focus Features,0
14,Under the Skin,2013,Thriller/Suspense,13300000,4615682,318854.0,87123.0,Scarlett Johansson,2014-04-04,Science Fiction,Live Action,Based on Fiction Book/Short Story,108.0,Jonathan Glazer,Nick Wechsler,0
15,The Wolverine,2013,Action,115000000,283900000,16304655.0,2430631.0,Hugh Jackman,2013-07-26,Super Hero,Live Action,Based on Comic/Graphic Novel,126.0,James Mangold,20th Century Fox,1
16,Turbo,2013,Adventure,135000000,203868448,10212562.0,2434316.0,Ryan Reynolds,2013-07-17,Kids Fiction,Digital Animation,Original Screenplay,96.0,David Soren,DreamWorks Animation,0
17,Despicable Me 2,2013,Comedy,76000000,606808379,45259130.0,8131955.0,Steve Carell,2013-07-03,Kids Fiction,Digital Animation,Original Screenplay,98.0,Chris Renaud,Universal Pictures,1
18,Thor: The Dark World,2013,Adventure,150000000,427000000,25024502.0,1871689.0,Natalie Portman,2013-11-08,Super Hero,Live Action,Based on Comic/Graphic Novel,111.0,Louis D'Esposito,Marvel Studios,1
19,Pacific Rim,2013,Action,190000000,309200000,12521882.0,1445568.0,Diego Klattenhoff,2013-07-12,Science Fiction,Live Action,Original Screenplay,131.0,Guillermo Del Toro,Warner Bros.,0
20,Frozen,2013,Adventure,150000000,873496971,36493447.0,12011114.0,Kristen Bell,2013-11-27,Kids Fiction,Digital Animation,Based on Folk Tale/Legend/Fairytale,102.0,Chris Buck,Walt Disney Animation Studios,0
21,Epic,2013,Adventure,100000000,155275759,13224930.0,2318476.0,Beyonce Knowles,2013-05-24,Kids Fiction,Digital Animation,Based on Fiction Book/Short Story,103.0,Chris Wedge,Blue Sky Studios,0
22,The Amazing Spider-Man 2,2013,Action,200000000,506142403,24829122.0,1243510.0,Andrew Garfield,2014-05-02,Super Hero,Live Action,Based on Comic/Graphic Novel,141.0,Marc Webb,Marvel Studios,1
23,The Hunger Games: Catching Fire,2013,Adventure,130000000,440200000,50078683.0,3876399.0,Philip Seymour Hoffman,2013-11-22,Science Fiction,Live Action,Based on Fiction Book/Short Story,146.0,Francis Lawrence,Lionsgate,1
24,The Smurfs 2,2013,Adventure,110000000,277529739,8735274.0,1232244.0,Hank Azaria,2013-07-31,Kids Fiction,Animation/Live Action,Based on Comic/Graphic Novel,104.0,Jordan Kerner,Columbia Pictures,1
25,Percy Jackson: Sea of Monsters,2013,Adventure,90000000,132300000,8427824.0,1683052.0,Logan Lerman,2013-08-07,Fantasy,Live Action,Based on Fiction Book/Short Story,105.0,Thor Freudenthal,1492 Pictures,1
26,RED 2,2013,Action,84000000,83900000,6551360.0,2016825.0,Bruce Willis,2013-07-19,Contemporary Fiction,Live Action,Based on Comic/Graphic Novel,116.0,Dean Parisot,Summit Entertainment,1
27,Now You See Me,2013,Thriller/Suspense,75000000,234000000,14480195.0,1072044.0,Isla Fisher,2013-05-31,Contemporary Fiction,Live Action,Original Screenplay,116.0,Stephen Pope,Summit Entertainment,0
28,Pixels,2013,Comedy,90000000,164819305,9408313.0,159413.0,Adam Sandler,2015-07-24,Science Fiction,Live Action,Based on Short Film,105.0,Chris Columbus,1492 Pictures,0
29,Captain Phillips,2013,Drama,55000000,113511767,12894801.0,1143036.0,Tom Hanks,2013-10-11,Dramatization,Live Action,Based on Real Life Events,133.0,Paul Greengrass,Columbia Pictures,0
30,The Hangover 3,2013,Comedy,103000000,249800000,13800746.0,912683.0,Bradley Cooper,2013-05-23,Contemporary Fiction,Live Action,Original Screenplay,100.0,Todd Phillips,Warner Bros.,1
31,Identity Thief,2013,Comedy,35000000,40854658,16544516.0,1314265.0,Morris Chestnut,2013-02-08,Contemporary Fiction,Live Action,Original Screenplay,147.0,Gary Hymes,Universal Pictures,0
32,Cloudy with a Chance of Meatballs 2,2013,Adventure,78000000,154599082,14466695.0,1354777.0,Bill Hader,2013-09-27,Kids Fiction,Digital Animation,Based on Fiction Book/Short Story,95.0,Cody Cameron,Sony Pictures Animation,1
33,ABCD (Any Body Can Dance),2013,Musical,1900000,9915136,27318.0,,Prabhu Deva,2013-02-08,Contemporary Fiction,Live Action,Original Screenplay,143.0,Remo D'Souza,UTV Motion Pictures,0
34,300: Rise of an Empire,2013,Action,110000000,224200000,13045293.0,982908.0,Sullivan Stapleton,2014-03-07,Historical Fiction,Animation/Live Action,Based on Comic/Graphic Novel,102.0,Noam Murro,Gianni Nunnari,1
35,Battle of the Year,2013,Drama,20000000,7835022,1093278.0,21442.0,Josh Holloway,2013-09-20,Contemporary Fiction,Live Action,Based on Movie,109.0,Tom Frazier,Screen Gems,0
36,21 and Over,2013,Comedy,13000000,16513386,3158964.0,333236.0,Miles Teller,2013-03-01,Contemporary Fiction,Live Action,Original Screenplay,93.0,Jon Lucas,Relativity Media,0
37,The Mortal Instruments: City of Bones,2013,Adventure,60000000,44800146,3833385.0,685500.0,Lily Collins,2013-08-21,Fantasy,Live Action,Based on Fiction Book/Short Story,130.0,Harald Zwart,Constantin Film,0
38,Carrie,2013,Horror,30000000,47142901,4337837.0,266790.0,Chloë Grace Moretz,2013-10-18,Fantasy,Live Action,Remake,99.0,Kimberly Peirce,Metor-Goldwyn-Mayer Pictures,0
39,The Lego Movie,2013,Adventure,60000000,199944670,31552597.0,3596308.0,Amanda Farinos,2014-02-07,Kids Fiction,Digital Animation,Based on Toy,110.0,Phil Lord,Vertigo Entertainment,0
40,This is the End,2013,Comedy,32000000,25068915,12480959.0,474229.0,James Franco,2013-06-12,Science Fiction,Live Action,Based on Short Film,106.0,Seth Rogen,Columbia Pictures,0
41,White House Down,2013,Thriller/Suspense,150000000,132336603,8991855.0,965213.0,Channing Tatum,2013-06-28,Contemporary Fiction,Live Action,Original Screenplay,131.0,Roland Emmerich,Columbia Pictures,0
42,The Internship,2013,Comedy,58000000,49000000,5494804.0,529119.0,Vince Vaughn,2013-06-07,Contemporary Fiction,Live Action,Original Screenplay,119.0,Shawn Levy,20th Century Fox,0
43,The Heat,2013,Comedy,43000000,70146187,19628731.0,2916153.0,Sandra Bullock,2013-06-28,Contemporary Fiction,Live Action,Original Screenplay,117.0,Paul Feig,20th Century Fox,0
44,One Direction: This is Us,2013,Concert/Performance,10000000,39668412,3551460.0,776553.0,Louis Tomlinson,2013-08-30,Factual,Live Action,Based on Real Life Events,92.0,Morgan Spurlock,,0
0,Ender's Game,2012,Adventure,110000000,28000000,7583868.0,847264.0,Asa Butterfield,2013-11-01,Science Fiction,Live Action,Based on Fiction Book/Short Story,114.0,Gavin Hood,Summit Entertainment,0
1,Foodfight!,2012,Comedy,45000000,73706,,,Wayne Brady,,Kids Fiction,Digital Animation,Original Screenplay,,,Threshold Entertainment,0
2,Madagascar 3: Europe's Most Wanted,2012,Adventure,145000000,530529789,27184859.0,3511489.0,Eric Darnell,2012-06-08,Kids Fiction,Digital Animation,Original Screenplay,85.0,Eric Darnell,DreamWorks Animation,1
3,Pompeii,2012,Drama,80000000,85300000,2835866.0,239403.0,Kit Harington,2014-02-21,Historical Fiction,Live Action,Original Screenplay,102.0,Paul W.S. Anderson,Constantin Film International,0
4,The Avengers,2012,Adventure,225000000,896200000,78301450.0,6025168.0,Scarlett Johansson,2012-05-04,Super Hero,Animation/Live Action,Based on Comic/Graphic Novel,143.0,Joss Whedon,Marvel Studios,0
5,Brave,2012,Adventure,185000000,317324350,29808677.0,7265553.0,Emma Thompson,2012-06-22,Kids Fiction,Digital Animation,Original Screenplay,93.0,Mark Andrews,Disney-Pixar,0
6,Man of Steel,2012,Action,225000000,376954000,35798956.0,2575890.0,Henry Cavill,2013-06-14,Super Hero,Live Action,Based on Comic/Graphic Novel,142.0,Emma Thomas,Warner Bros.,1
7,The Amazing Spider-Man,2012,Adventure,220000000,495859604,32918425.0,2413452.0,Andrew Garfield,2012-07-03,Super Hero,Live Action,Based on Comic/Graphic Novel,136.0,Steve Kloves,Columbia Pictures,1
8,The Hobbit: An Unexpected Journey,2012,Adventure,250000000,714000000,33145087.0,4379272.0,Hugo Weaving,2012-12-14,Fantasy,Animation/Live Action,Based on Fiction Book/Short Story,169.0,Peter Jackson,New Line Cinema,1
9,The Croods,2012,Adventure,135000000,385900000,23021946.0,2666130.0,Ryan Reynolds,2013-03-22,Kids Fiction,Digital Animation,Original Screenplay,98.0,Chris Sanders,Dreamworks Animation,0
10,Rise of the Guardians,2012,Adventure,145000000,203488144,12214531.0,2331566.0,Chris Pine,2012-11-21,Kids Fiction,Digital Animation,Based on Fiction Book/Short Story,97.0,Peter Ramsey,DreamWorks Animation,0
11,Star Trek Into Darkness,2012,Adventure,190000000,238200000,28140056.0,1844489.0,Chris Pine,2013-05-16,Science Fiction,Live Action,Based on TV,132.0,J.J. Abrams,Bad Robot,1
12,Monsters University,2012,Adventure,200000000,475100000,33024394.0,3527191.0,Billy Crystal,2013-06-21,Kids Fiction,Digital Animation,Original Screenplay,102.0,Dan Scanlon,Disney-Pixar,1
13,"The Twilight Saga: Breaking Dawn, Part 2",2012,Drama,136200000,537400000,36323285.0,5866258.0,Kristen Stewart,2012-11-16,Fantasy,Live Action,Based on Fiction Book/Short Story,115.0,Bill Condon,Temple Hill Entertainment,1
14,Elysium,2012,Action,120000000,193141974,11445278.0,902086.0,Wagner Moura,2013-08-09,Science Fiction,Live Action,Original Screenplay,109.0,Neill Blomkamp,TriStar Pictures,0
15,The Dark Knight Rises,2012,Action,275000000,636300000,56298881.0,6158956.0,Christian Bale,2012-07-20,Super Hero,Live Action,Based on Comic/Graphic Novel,164.0,Christopher Nolan,Warner Bros,1
16,Wrath of the Titans,2012,Adventure,150000000,221600000,10511316.0,1400711.0,Sam Worthington,2012-03-30,Fantasy,Animation/Live Action,Based on Folk Tale/Legend/Fairytale,99.0,Jonathan Liebesman,Warner Bros,1
17,A Good Day to Die Hard,2012,Action,92000000,236900000,8284034.0,916105.0,Bruce Willis,2013-02-14,Contemporary Fiction,Live Action,Original Screenplay,98.0,John Moore,20th Century Fox,1
18,The Secret Life of Walter Mitty,2012,Comedy,91000000,130300000,5592983.0,651523.0,Ben Stiller,2013-12-25,Contemporary Fiction,Live Action,Based on Fiction Book/Short Story,114.0,Ben Stiller,Samuel Goldwyn Films,0
19,The Host,2012,Thriller/Suspense,50000000,37853350,3274747.0,396448.0,Saorise Ronan,2013-03-29,Science Fiction,Live Action,Based on Fiction Book/Short Story,88.0,Stephenie Meyer,Open Road Films,0
20,Kill Your Darlings,2012,Drama,0,1054866,93543.0,,Daniel Radcliffe,2013-10-18,Historical Fiction,Live Action,Based on Fiction Book/Short Story,102.0,John Krokidas,Killer Films,0
21,Escape Plan,2012,Thriller/Suspense,70000000,78600000,3082848.0,626000.0,Sylvester Stallone,2013-10-18,Contemporary Fiction,Live Action,Original Screenplay,115.0,Mikael Hafstrom,Summit Entertainment,0
22,Total Recall,2012,Action,125000000,152978119,7396729.0,799739.0,Colin Farrell,2012-08-03,Science Fiction,Live Action,Based on Fiction Book/Short Story,117.0,Kurt Wimmer,Sony Pictures,0
23,Gravity,2012,Thriller/Suspense,110000000,442300000,31441779.0,1668580.0,George Clooney,2013-10-04,Contemporary Fiction,Live Action,Original Screenplay,91.0,Alfonso Cuaron,Warner Bros.,0
24,Evil Dead,2012,Horror,17000000,43538500,6671569.0,480612.0,Jane Levy,2013-04-05,Fantasy,Live Action,Remake,91.0,Fede Alverez,TriStar Pictures,0
25,The Great Gatsby,2012,Drama,190000000,206200000,17815549.0,2028725.0,Leonardo DiCaprio,2013-05-10,Historical Fiction,Live Action,Based on Fiction Book/Short Story,141.0,Baz Luhrmann,Warner Bros.,0
26,G.I. Joe: Retaliation,2012,Action,140000000,249400000,15070487.0,1125760.0,Ray Stevenson,2013-03-27,Contemporary Fiction,Animation/Live Action,Based on Toy,110.0,Jon M. Chu,Paramount Pictures,1
27,Iron Man 3,2012,Action,200000000,806400000,50306552.0,1266101.0,"Robert Downey, Jr.",2013-05-03,Super Hero,Animation/Live Action,Based on Comic/Graphic Novel,130.0,Shane Black,Marvel Studios,1
28,Pain & Gain,2012,Action,26000000,31400000,6134722.0,679755.0,Mark Wahlberg,2013-04-26,Contemporary Fiction,Live Action,Based on Real Life Events,129.0,Michael Bay,De Line Pictures,0
29,Ice Age: Continental Drift,2012,Adventure,95000000,718443294,20251769.0,2735688.0,Ray Romano,2012-07-13,Fantasy,Digital Animation,Original Screenplay,87.0,Steve Martino,20th Century Fox,1
30,Skyfall,2012,Action,200000000,806166704,37286980.0,2905594.0,Daniel Craig,2012-11-09,Contemporary Fiction,Live Action,Based on Fiction Book/Short Story,143.0,Micheal G. Wilson,Eon Productions,1
31,Resident Evil: Retribution,2012,Action,65000000,196595466,5319790.0,941284.0,Milla Jovovich,2012-09-14,Science Fiction,Live Action,Based on Game,95.0,Paul W.S. Anderson,Screen Gems,1
32,Wreck-It Ralph,2012,Adventure,165000000,284000000,22424829.0,3252448.0,John C. Reilly,2012-11-02,Kids Fiction,Digital Animation,Original Screenplay,101.0,Rich Moore,Walt Disney Animation Studios,0
33,The Expendables 2,2012,Action,100000000,226951064,10681933.0,1674632.0,Sylvester Stallone,2012-08-17,Contemporary Fiction,Live Action,Original Screenplay,103.0,Simon West,Lionsgate,1
34,Mirror Mirror,2012,Adventure,85000000,108678315,8157684.0,1456896.0,Mark Povinelli ,2012-03-30,Fantasy,Live Action,Based on Folk Tale/Legend/Fairytale,95.0,Tarsem Singh,Relativity Media,0
35,Trance,2012,Thriller/Suspense,16000000,20271459,285681.0,,James McAvoy,2013-04-05,Contemporary Fiction,Live Action,Original Screenplay,101.0,Danny Boyle,Pathe of a Cloud Eight,0
36,American Reunion,2012,Comedy,50000000,180040376,7130506.0,1080433.0,Jason Biggs,2012-04-06,Contemporary Fiction,Live Action,Original Screenplay,112.0,Jon Hurwitz,Universal Pictures,1
37,Think Like a Man,2012,Romantic Comedy,12000000,4607919,11500905.0,1081662.0,Michael Ealy,2012-04-20,Contemporary Fiction,Live Action,Based on Factual Book/Article,122.0,Tim Story,Screen Gems,0
38,What to Expect When You're Expecting,2012,Romantic Comedy,37500000,39500000,5169874.0,461676.0,Cameron Diaz,2012-05-18,Contemporary Fiction,Live Action,Based on Factual Book/Article,109.0,Kirk Jones,Lionsgate,0
39,Zero Dark Thirty,2012,Drama,52500000,38891719,11231805.0,867093.0,Jessica Chastain,2012-12-19,Dramatization,Live Action,Based on Real Life Events,137.0,Kathryn Bigelow,Columbia Pictures,0
40,Mama,2012,Horror,15000000,76467386,8810354.0,456283.0,Jessica Chastain,2013-01-18,Fantasy,Live Action,Based on Short Film,109.0,Andres Muschietti,Universal Pictures,0
41,Oblivion,2012,Thriller/Suspense,120000000,198809398,10960299.0,1016281.0,Tom Cruise,2013-04-19,Science Fiction,Live Action,Based on Comic/Graphic Novel,125.0,Joseph Kosinski,Universal Pictures,0
42,Savages,2012,Thriller/Suspense,45000000,31696956,5945113.0,632930.0,Blake Lively,2012-07-06,Contemporary Fiction,Live Action,Based on Fiction Book/Short Story,130.0,Oliver Stone,Universal Pictures,0
43,Fast and Furious 6,2012,Action,160000000,551272961,29357915.0,3462137.0,Vin Diesel,2013-05-24,Contemporary Fiction,Live Action,Based on Factual Book/Article,130.0,Justin Lin,Universal Pictures,1
44,Texas Chainsaw 3D,2012,Horror,20000000,13324068,1549504.0,246889.0,Gunnar Hansen,2013-01-04,Contemporary Fiction,Live Action,Original Screenplay,92.0,John Luessenhop,Lionsgate,1
0,Lincoln,2011,Drama,65000000,91138308,18101638.0,2047978.0,Daniel Day-Lewis,2012-11-09,Dramatization,Live Action,Based on Fiction Book/Short Story,149.0,Steven Spielberg,DreamWorks Pictures,0
1,The Smurfs,2011,Adventure,110000000,421135165,17984130.0,2360392.0,Alan Cumming,2011-07-29,Kids Fiction,Animation/Live Action,Based on Comic/Graphic Novel,103.0,Raja Gosnell,Sony Pictures Animation,0
2,Harry Potter and the Deathly Hallows: Part II,2011,Adventure,125000000,960500000,48046811.0,7618803.0,Josh Herdman,2011-07-15,Fantasy,Animation/Live Action,Based on Fiction Book/Short Story,131.0,David Yates,Warner Bros,1
3,Transformers: Dark of the Moon,2011,Action,195000000,771400000,44437647.0,3630842.0,Shia LaBeouf,2011-06-29,Science Fiction,Animation/Live Action,Based on TV,154.0,Michael Bay,Paramount Pictures,1
4,Thor,2011,Action,150000000,268295994,22828578.0,2407787.0,Kelly Hawthorne,2011-05-06,Super Hero,Live Action,Based on Comic/Graphic Novel,113.0,Kenneth Branagh,Marvel Studios,0
5,Sucker Punch,2011,Action,75000000,53365887,4589218.0,708039.0,Abbie Cornish,2011-03-25,Fantasy,Live Action,Original Screenplay,110.0,Zack Snyder,Warner Bros,0
6,Green Lantern,2011,Action,200000000,114600000,14703804.0,1764190.0,Tim Robbins,2011-06-17,Super Hero,Animation/Live Action,Based on Comic/Graphic Novel,113.0,Martin Campbell,De Line Pictures,0
7,The Hangover Part II,2011,Comedy,80000000,332000000,32088815.0,3769719.0,Zach Galifianakis,2011-05-26,Contemporary Fiction,Live Action,Original Screenplay,102.0,Todd Phillips,Warner Bros,1
8,Battleship,2011,Action,209000000,239984828,8195150.0,1141462.0,Liam Neeson,2012-05-18,Contemporary Fiction,Live Action,Based on Game,130.0,Brian Goldner,Universal Pictures,0
9,Puss in Boots,2011,Adventure,130000000,405726973,18345984.0,3040227.0,Antonio Banderas,2011-10-28,Kids Fiction,Digital Animation,Spin-Off,90.0,Joe M. Aguilar,Paramount Pictures,0
10,Hotel Transylvania,2011,Comedy,85000000,197594315,18363361.0,3388055.0,Adam Sandler,2012-09-28,Kids Fiction,Digital Animation,Original Screenplay,91.0,Genndy Tartakovsky,Columbia Pictures,0
11,Rio,2011,Adventure,90000000,343900000,18110946.0,5457070.0,Anne Hathaway,2011-04-15,Kids Fiction,Digital Animation,Original Screenplay,96.0,Bruce Anderson,20th Century Fox Animation,0
12,A Thousand Words,2011,Comedy,40000000,1170300,2317855.0,296059.0,Eddie Murphy,2012-03-09,Contemporary Fiction,Live Action,Original Screenplay,91.0,Brian Robbins,DreamWorks Pictures,0
13,Life of Pi,2011,Drama,120000000,483000000,11437121.0,1536374.0,Suraj Sharma,2012-11-21,Fantasy,Live Action,Based on Fiction Book/Short Story,125.0,Ang Lee,Fox 2000 Pictures,0
14,Cowboys and Aliens,2011,Action,163000000,75669764,12640674.0,1780282.0,Olivia Wilde,2011-07-29,Science Fiction,Live Action,Based on Comic/Graphic Novel,118.0,Jon Favreau,DreamWorks,0
15,Kung Fu Panda 2,2011,Adventure,150000000,499588484,20838469.0,2338996.0,Dustin Hoffman,2011-05-26,Kids Fiction,Digital Animation,Original Screenplay,90.0,Melissa Cobb,DreamWorks Animation,1
16,Hugo,2011,Adventure,180000000,106183277,6236343.0,1204247.0,Ben Kingsley,2011-11-23,Fantasy,Animation/Live Action,Based on Fiction Book/Short Story,126.0,Martin Scorsese,GK Films,0
17,Sin City: A Dame to Kill For,2011,Action,65000000,25741545,1683941.0,225916.0,Jessica Alba,2014-08-22,Fantasy,Live Action,Based on Comic/Graphic Novel,101.0,Frank Miller,Troublemaker Studios,1
18,Cars 2,2011,Adventure,200000000,368704508,24142607.0,5986286.0,Owen Wilson,2011-06-24,Kids Fiction,Digital Animation,Original Screenplay,107.0,Brad Lewis,Disney-Pixar,1
19,Captain America: The First Avenger,2011,Action,140000000,193915271,22276734.0,2703619.0,Hugo Weaving,2011-07-22,Super Hero,Live Action,Based on Comic/Graphic Novel,124.0,Joe Johnston,Paramount Pictures,0
20,Rango,2011,Adventure,135000000,122246993,15543200.0,1695446.0,Johnny Depp,2011-03-04,Kids Fiction,Digital Animation,Original Screenplay,107.0,Gore Verbinski,Paramount Pictures,0
21,Pirates of the Caribbean: On Stranger Tides,2011,Adventure,250000000,804600000,30398975.0,1906856.0,Johnny Depp,2011-05-20,Fantasy,Live Action,Based on Theme Park Ride,136.0,Rob Marshall,Walt Disney Pictures,1
22,Underworld: Awakening,2011,Action,70000000,98058891,7829276.0,1151682.0,Kate Beckinsale,2012-01-20,Fantasy,Live Action,Original Screenplay,89.0,Mans Marlind,Screen Gems,1
23,Happy Feet Two,2011,Adventure,135000000,93950000,7668117.0,1497795.0,Hank Azaria,2011-11-18,Kids Fiction,Digital Animation,Original Screenplay,99.0,George Miller,VR Mumble 2 Productions Pty Ltd.,1
24,Arthur Christmas,2011,Adventure,85000000,103254655,5778087.0,832269.0,James McAvoy,2011-11-23,Kids Fiction,Digital Animation,Original Screenplay,100.0,Sarah Smith,Aardman Animations,0
25,The Adventures of Tintin,2011,Adventure,130000000,296402120,5986777.0,1201985.0,Tony Curran,2011-12-21,Contemporary Fiction,Digital Animation,Based on Comic/Graphic Novel,104.0,Steven Spielberg,Paramount Pictures,0
26,Doctor Seuss' The Lorax,2011,Adventure,67500000,136946253,26888253.0,5557003.0,Danny De Vito,2012-03-02,Kids Fiction,Digital Animation,Based on Fiction Book/Short Story,101.0,Chris Renaud,Chris Meledandri,0
27,Immortals,2011,Action,75000000,128058418,10423329.0,1180662.0,Henry Cavill,2011-11-11,Fantasy,Live Action,Based on Folk Tale/Legend/Fairytale,110.0,Gianni Nunnari,Relativity Media,0
28,The Change-Up,2011,Comedy,52000000,38753649,4676100.0,1044149.0,Ryan Reynolds,2011-08-05,Contemporary Fiction,Live Action,Original Screenplay,114.0,David Dobkin,Relativity Media,0
29,Fast Five,2011,Action,125000000,420132129,26461245.0,2909676.0,Vin Diesel,2011-04-29,Contemporary Fiction,Live Action,Based on Factual Book/Article,130.0,Justin Lin,Universal,1
30,Bridesmaids,2011,Comedy,32500000,120420305,21324933.0,5374869.0,Kristen Wiig,2011-05-13,Contemporary Fiction,Live Action,Original Screenplay,120.0,Paul Feig,Universal,0
31,The Thing,2011,Horror,38000000,10573144,2134762.0,330549.0,Mary Elizabeth Winstead,2011-10-14,Fantasy,Live Action,Remake,102.0,Matthjs Van Heijnngen,Universal,1
32,The Girl with the Dragon Tattoo,2011,Thriller/Suspense,90000000,136858177,7009442.0,1815889.0,Daniel Craig,2011-12-20,Contemporary Fiction,Live Action,Based on Fiction Book/Short Story,160.0,Steven Zaillian,Columbia Pictures,0
33,"The Twilight Saga: Breaking Dawn, Part 1",2011,Drama,127500000,408132918,34745364.0,6299448.0,Kristen Stewart,2011-11-18,Fantasy,Live Action,Based on Fiction Book/Short Story,117.0,Bill Condon,Temple Hill Entertainment,1
34,Frankenweenie,2011,Comedy,39000000,45863000,4388659.0,890540.0,Catherine O'Hara,2012-10-05,Fantasy,Stop-Motion Animation,Based on Short Film,87.0,Tim Burton,Walt Disney Pictures,0
35,John Carter,2011,Adventure,275000000,209719421,9178226.0,1386330.0,Taylor Kitsch,2012-03-09,Science Fiction,Live Action,Based on Fiction Book/Short Story,132.0,Andrew Stanton,Walt Disney Pictures,0
36,Dolphin Tale,2011,Drama,37000000,23781945,9074879.0,2622195.0,"Harry Connick, Jr.",2011-09-23,Dramatization,Live Action,Based on Real Life Events,112.0,Charles Martin Smith,Alcon Entertainment,0
37,The Apparition,2011,Horror,17000000,1972848,620203.0,,Ashley Greene,2012-08-24,Contemporary Fiction,Live Action,Original Screenplay,82.0,Todd Lincoln,Warner Bros,0
38,Edge of Tomorrow,2011,Action,178000000,264200000,12265147.0,733252.0,Bill Paxton,2014-06-06,Science Fiction,Live Action,Based on Comic/Graphic Novel,136.0,Doug Liman,Warner Bros.,0
39,Bad Teacher,2011,Comedy,19000000,115156141,12647270.0,876289.0,Cameron Diaz,2011-06-24,Contemporary Fiction,Live Action,Original Screenplay,92.0,Jake Kasdan,Sony Pictures,0
40,One Day,2011,Drama,15000000,45324921,1745746.0,,Anne Hathaway,2011-08-19,Contemporary Fiction,Live Action,Based on Fiction Book/Short Story,107.0,Lone Scherfig,Random House Films,0
41,One for the Money,2011,Comedy,42000000,9782694,3318407.0,650094.0,Katherine Heigl,2012-01-27,Contemporary Fiction,Live Action,Based on Fiction Book/Short Story,106.0,Julie Anne Robinson,Lionsgate,0
42,Rise of the Planet of the Apes,2011,Adventure,93000000,306100000,22290061.0,2741269.0,James Franco,2011-08-05,Science Fiction,Animation/Live Action,Remake,120.0,Karma Tentrin,20th Century Fox,0
43,Celeste and Jesse Forever,2011,Romantic Comedy,840000,684282,389875.0,,Rashida Jones,2012-08-03,Contemporary Fiction,Live Action,Original Screenplay,91.0,Lee Toland Krieger,Envision Media,0
44,21 Jump Street,2011,Comedy,42000000,64364762,17392922.0,2550124.0,Jonah Hill,2012-03-16,Contemporary Fiction,Live Action,Based on TV,109.0,Patrick Hasburg,Columbia Pictures,0
0,Nanny McPhee and the Big Bang,2010,Adventure,35000000,68602223,3676960.0,705091.0,Emma Thompson,2010-08-20,Kids Fiction,Live Action,Based on Fiction Book/Short Story,109.0,Debra Osborne,StudioCanal,1
1,Sex and the City 2,2010,Comedy,95000000,199333086,12084625.0,2463557.0,Sarah Jessica Parker,2010-05-27,Contemporary Fiction,Live Action,Based on TV,,Michael Patrick King,,1
2,The Rum Diary,2010,Drama,0,8434917,1653192.0,322440.0,Johnny Depp,2011-10-28,Historical Fiction,Live Action,Based on Fiction Book/Short Story,122.0,Bruce Robinson,Infinitum Nihil,0
3,The Last Station,2010,Drama,18000000,9078279,838766.0,,Anne-Marie Duff,2010-01-15,Dramatization,Live Action,Based on Fiction Book/Short Story,,,,0
4,Inception,2010,Thriller/Suspense,160000000,540008221,37080969.0,6633339.0,Michael Caine,2010-07-16,Science Fiction,Animation/Live Action,Original Screenplay,147.0,Christopher Nolan,,0
5,Death at a Funeral,2010,Comedy,21000000,6237886,5416900.0,861227.0,Peter Dinklage,2010-04-16,Contemporary Fiction,Live Action,Remake,92.0,Neil LaBute,Sidney Kimmel Entertianment,0
6,Straw Dogs,2010,Thriller/Suspense,25000000,929380,1301947.0,797194.0,James Marsden,2011-09-16,Contemporary Fiction,Live Action,Remake,110.0,Rod Lurie,Screen Gems,0
7,Cop Out,2010,Comedy,37000000,11034429,5687640.0,854142.0,Kevin Pollak,2010-02-26,Contemporary Fiction,Live Action,Original Screenplay,107.0,Kevin Smith,Warner Bros.,0
8,Daybreakers,2010,Horror,20000000,21343926,3815155.0,802640.0,Isabel Lucas,2010-01-08,Science Fiction,Live Action,Original Screenplay,,Michael Spierig,,0
9,The Sorcerer's Apprentice,2010,Adventure,160000000,154835329,8003927.0,1552613.0,Alfred Molina,2010-07-14,Fantasy,Animation/Live Action,Based on Short Film,108.0,Jon Turteltaub,Walt Disney Pictures,0
10,Ramona and Beezus,2010,Comedy,15000000,1302619,3316476.0,1559428.0,Bridget Moynahan,2010-07-23,Kids Fiction,Live Action,Based on Fiction Book/Short Story,,,,0
11,Little Fockers,2010,Comedy,100000000,162211974,13000784.0,1245979.0,Teri Polo,2010-12-22,Contemporary Fiction,Live Action,Original Screenplay,98.0,Robert De Niro,Everyman Pictures,1
12,Gulliver's Travels,2010,Comedy,112000000,189238587,3479658.0,462415.0,Billy Connolly,2010-12-25,Fantasy,Animation/Live Action,Based on Fiction Book/Short Story,87.0,Benjamin Cooley,Davis Entertainment ,0
13,Date Night,2010,Comedy,55000000,53557629,12510951.0,1591665.0,Leighton Meester,2010-04-09,Contemporary Fiction,Live Action,Original Screenplay,88.0,Shawn Levy,21 Laps Entertainment,0
14,The Debt,2010,Thriller/Suspense,20000000,15426506,3931594.0,466227.0,Romi Aboulafia,2011-08-31,Historical Fiction,Live Action,Remake,113.0,John Madden,Marv Films,0
15,Percy Jackson & the Olympians: The Lightning Thief,2010,Adventure,95000000,134282571,11250735.0,2899951.0,Pierce Brosnan,2010-02-12,Fantasy,Live Action,Based on Fiction Book/Short Story,119.0,Chris Columbus,Fox 2000 Pictures,0
16,The A-Team,2010,Action,110000000,100019072,9787338.0,1957971.0,Jessica Biel,2010-06-11,Contemporary Fiction,Live Action,Based on TV,118.0,Brian Bloom,20th Century Fox,0
17,The Green Hornet,2010,Action,110000000,130375461,12456499.0,1046440.0,Tom Wilkinson,2011-01-14,Super Hero,Live Action,Based on TV,118.0,Neal H. Moritz,Original Film,0
18,Despicable Me,2010,Comedy,69000000,291981048,31838178.0,14156754.0,Jack McBrayer,2010-07-09,Kids Fiction,Digital Animation,Original Screenplay,95.0,Chris Renaud,Universal Pictures,0
19,The Crazies,2010,Horror,19000000,17321945,4958629.0,731935.0,Joe Anderson,2010-02-26,Contemporary Fiction,Live Action,Remake,,,Participant Media,0
20,The Last Airbender,2010,Adventure,150000000,187941694,16679475.0,1909717.0,Cliff Curtis,2010-07-01,Fantasy,Live Action,Based on TV,103.0,M. Night Shyamalan,Paramount Pictures,0
21,The Fighter,2010,Drama,11000000,35645379,5879449.0,1878463.0,Amy Adams,2010-12-10,Dramatization,Live Action,Based on Real Life Events,115.0,David Hoberman,Closest to the Hole ,0
22,The Wolfman,2010,Horror,150000000,80444474,7855472.0,1222552.0,Benicio Del Toro,2010-02-12,Fantasy,Live Action,Remake,102.0,Joe Johnston,Universal Pictures,0
23,Salt,2010,Thriller/Suspense,130000000,172339126,14995103.0,2329240.0,Angelina Jolie,2010-07-23,Contemporary Fiction,Live Action,Original Screenplay,100.0,Phillip Noyce,Columbia Pictures,0
24,The Twilight Saga: Eclipse,2010,Drama,68000000,405571077,38090209.0,11021913.0,Dakota Fanning,2010-06-30,Fantasy,Live Action,Based on Fiction Book/Short Story,124.0,David Slade,Temple Hill Entertainment,1
25,Jonah Hex,2010,Action,47000000,475579,1336770.0,529494.0,Will Arnett,2010-06-18,Historical Fiction,Live Action,Based on Comic/Graphic Novel,,,,0
26,The Expendables,2010,Action,82000000,165199650,13063184.0,4052894.0,Sylvester Stallone,2010-08-13,Contemporary Fiction,Live Action,Original Screenplay,103.0,Sylvester Stallone,Nu Image,0
27,Tron: Legacy,2010,Adventure,200000000,225500000,16641932.0,1670643.0,Garrett Hedlund,2010-12-17,Science Fiction,Live Action,Original Screenplay,125.0,Joseph Kosinski,Walt Disney Pictures,1
28,Secretariat,2010,Drama,35000000,676734,7484623.0,2867121.0,Dylan Baker,2010-10-08,Dramatization,Live Action,Based on Real Life Events,123.0,William Nack,Walt Disney Pictures,0
29,You Again,2010,Comedy,20000000,7136892,3257547.0,679277.0,Betty White,2010-09-24,Contemporary Fiction,Live Action,Original Screenplay,105.0,John J. Strauss,Touchtone Pictures,0
30,Tangled,2010,Adventure,260000000,385760000,21270213.0,9607615.0,Mandy Moore,2010-11-24,Kids Fiction,Digital Animation,Based on Folk Tale/Legend/Fairytale,101.0,Roy Conli,Walt Disney Animation Studios,0
31,The Losers,2010,Action,25000000,6272408,2990042.0,654168.0,Chris Evans,2010-04-23,Contemporary Fiction,Live Action,Based on Comic/Graphic Novel,97.0,Sylvain White,Dark Castle Entertainment,0
32,MacGruber,2010,Comedy,10000000,104295,1080557.0,291404.0,Kristen Wiig,2010-05-21,,Live Action,Based on TV,,,,0
33,A Nightmare on Elm Street,2010,Horror,35000000,54654610,7994297.0,756901.0,Jackie Earle Haley,2010-04-30,Fantasy,Live Action,Remake,94.0,Dan Hegeman,,0
34,Zookeeper,2010,Romantic Comedy,80000000,90444659,10133778.0,1005738.0,Adam Sandler,2011-07-08,Fantasy,Animation/Live Action,Original Screenplay,101.0,Frank Coraci,Columbia Pictures,0
35,Our Family Wedding,2010,Comedy,14000000,1155265,2566491.0,348378.0,America Ferrera,2010-03-12,Contemporary Fiction,Live Action,Original Screenplay,,,,0
36,Going the Distance,2010,Romantic Comedy,32000000,25799691,2256565.0,,Christina Applegate,2010-09-03,Contemporary Fiction,Live Action,Original Screenplay,109.0,Nanette Burstein,Offspring Entertainment,0
37,Marmaduke,2010,Comedy,50000000,50378823,4264231.0,1030242.0,David Z. Price,2010-06-04,Kids Fiction,Digital Animation,Based on Comic/Graphic Novel,88.0,Tom Dey,Davis Entertainment,0
38,Life as We Know It,2010,Romantic Comedy,38000000,52513156,61560.0,1955077.0,Katherine Heigl,2010-10-08,Contemporary Fiction,Live Action,Original Screenplay,113.0,Greg Berlanti,Josephson Entertainment,0
39,Due Date,2010,Comedy,65000000,111200000,12576922.0,2152122.0,Jamie Foxx,2010-11-05,Contemporary Fiction,Live Action,Original Screenplay,95.0,Todd Phillips,Legendary Pictures,0
40,Remember Me,2010,Drama,16000000,37437880,2416760.0,931087.0,Robert Pattinson,2010-03-12,Contemporary Fiction,Live Action,Original Screenplay,113.0,,,0
41,She's Out of My League,2010,Romantic Comedy,20000000,16670117,4008658.0,643199.0,Jay Baruchel,2010-03-12,Contemporary Fiction,Live Action,Original Screenplay,,,,0
42,Season of the Witch,2010,Thriller/Suspense,40000000,66299372,3130797.0,485259.0,Nicolas Cage,2011-01-07,Fantasy,Live Action,Original Screenplay,98.0,Dominic Sena,Rogue Pictures,0
43,Shrek Forever After,2010,Adventure,165000000,517507886,30214954.0,3797011.0,Lake Bell,2010-05-21,Kids Fiction,Digital Animation,Based on Fiction Book/Short Story,93.0,Harry Gregson-Williams,DreamWorks Animation,1
44,Resident Evil: Afterlife,2010,Horror,57500000,235745624,7620857.0,1456711.0,Milla Jovovich,2010-09-10,Science Fiction,Live Action,Based on Game,97.0,Paul W.S. Anderson,Impact Pictures,1
0,Transformers: Revenge of the Fallen,2009,Action,210000000,434407829,53614916.0,11083425.0,Shia LaBeouf,2009-06-24,Science Fiction,Animation/Live Action,Based on TV,149.0,Michael Bay,DreamWorks,1
1,Harry Potter and the Half-Blood Prince,2009,Adventure,250000000,633124489,40261226.0,11455655.0,Gemma Jones,2009-07-15,Fantasy,Animation/Live Action,Based on Fiction Book/Short Story,153.0,David Yates,Heyday Films,1
2,Up,2009,Adventure,175000000,438538457,39067222.0,12995860.0,Christopher Plummer,2009-05-29,Fantasy,Digital Animation,Original Screenplay,89.0,Pete Docter,Walt Disney Pictures,0
3,The Hangover,2009,Comedy,35000000,188441583,36976334.0,12777650.0,Mike Tyson,2009-06-05,Contemporary Fiction,Live Action,Original Screenplay,100.0,Todd Phillips,Warner Bros,0
4,Star Trek,2009,Adventure,140000000,127950427,34364003.0,8777343.0,Zachary Quinto,2009-05-08,Science Fiction,Live Action,Based on TV,125.0,J.J. Abrams,Bad Robot,1
5,Monsters vs. Aliens,2009,Adventure,175000000,183335854,26446870.0,5911147.0,Reese Witherspoon,2009-03-27,Kids Fiction,Digital Animation,Based on Comic/Graphic Novel,95.0,Rob Letterman,DreamWorks Animation,0
6,Ice Age: Dawn of the Dinosaurs,2009,Adventure,90000000,663128152,26209827.0,6438949.0,Kristen Wiig,2009-07-01,Kids Fiction,Digital Animation,Original Screenplay,93.0,Carlos Saldanha,Blue Sky Studios,1
7,X-Men Origins: Wolverine,2009,Action,150000000,194942603,23984421.0,5494018.0,Hugh Jackman,2009-05-01,Super Hero,Live Action,Spin-Off,107.0,Gavin Hood,20th Century Fox,0
8,Night at the Museum: Battle of the Smithsonian,2009,Comedy,150000000,224987342,23632496.0,4396089.0,Ben Stiller,2009-05-22,Fantasy,Live Action,Based on Fiction Book/Short Story,105.0,Shawn Levy,Twentieth Century Fox,1
9,The Proposal,2009,Romantic Comedy,40000000,150751686,21861071.0,6938929.0,Sandra Bullock,2009-06-19,Contemporary Fiction,Live Action,Original Screenplay,107.0,Anne Fletcher,Touchstone Pictures,0
10,Fast & Furious,2009,Action,85000000,208000000,20675235.0,4141176.0,Shea Whigham,2009-04-03,Contemporary Fiction,Live Action,Based on Factual Book/Article,107.0,Justin Lin,Universal Pictures,1
11,G.I. Joe: The Rise of Cobra,2009,Action,175000000,152267519,20026866.0,4708941.0,Byung-hun Lee,2009-08-07,Contemporary Fiction,Animation/Live Action,Based on Toy,118.0,David Elliot,di Bonaventura Pictures,0
12,Paul Blart: Mall Cop,2009,Comedy,26000000,39568572,19511490.0,3879392.0,Kevin James,2009-01-16,Contemporary Fiction,Live Action,Original Screenplay,91.0,Steve Carr,Columbia Pictures,0
13,Taken,2009,Thriller/Suspense,25000000,81940596,19333465.0,5499564.0,Liam Neeson,2009-01-30,Contemporary Fiction,Live Action,Original Screenplay,91.0,Pierre Morel,Europacorp,0
14,Angels & Demons,2009,Thriller/Suspense,150000000,357500000,17783446.0,2253525.0,Armin Mueller-Stahl,2009-05-15,Contemporary Fiction,Live Action,Based on Fiction Book/Short Story,138.0,Ron Howard,Columbia Pictures,1
15,Terminator Salvation,2009,Action,200000000,240169323,16709663.0,2369410.0,Christian Bale,2009-05-21,Science Fiction,Live Action,Original Screenplay,116.0,Joseph McGinty Nichol,Halcyon Company,1
16,G-Force,2009,Adventure,150000000,173381071,15924903.0,2379150.0,Zach Galifianakis,2009-07-24,Kids Fiction,Animation/Live Action,Original Screenplay,87.0,Hoyt H. Yeatman,Jerry Bruckheimer Films,0
17,District 9,2009,Thriller/Suspense,30000000,96807196,15419498.0,2106321.0,Mampho Brescia,2009-08-14,Science Fiction,Animation/Live Action,Original Screenplay,111.0,Neill Blomkamp,Wingnut Films,0
18,Inglourious Basterds,2009,Action,70000000,196140670,16103279.0,4479464.0,Brad Pitt,2009-08-21,Historical Fiction,Live Action,Original Screenplay,152.0,Quentin Tarantino,A Band Apart,0
19,Watchmen,2009,Action,138000000,76558558,14334640.0,2751103.0,Matthew Goode,2009-03-06,Super Hero,Live Action,Based on Comic/Graphic Novel,161.0,Zack Snyder,Legendary Pictures,0
20,Public Enemies,2009,Drama,102500000,115178089,12947283.0,2169183.0,Johnny Depp,2009-07-01,Dramatization,Live Action,Based on Fiction Book/Short Story,140.0,Michael Mann,Universal Pictures,0
21,He's Just Not That Into You,2009,Romantic Comedy,40000000,87100004,12527154.0,2351918.0,Kris Kristofferson,2009-02-06,Contemporary Fiction,Live Action,Based on Fiction Book/Short Story,129.0,Ken Kwapis,New Line Cinema,0
22,Julie & Julia,2009,Comedy,40000000,32520693,12550057.0,3513786.0,Vanessa Ferlito,2009-08-07,Contemporary Fiction,Live Action,Based on Fiction Book/Short Story,122.0,Nora Ephron,Columbia Pictures,0
23,The Ugly Truth,2009,Romantic Comedy,38000000,116383693,11855362.0,2119741.0,Katherine Heigl,2009-07-24,Contemporary Fiction,Live Action,Original Screenplay,95.0,Robert Luketic,Columbia Pictures,0
24,Knowing,2009,Thriller/Suspense,50000000,106492683,10661018.0,1692981.0,D.G. Maloney,2009-03-20,Contemporary Fiction,Live Action,Based on Fiction Book/Short Story,,Alex Proyas,Escape Artists,0
25,Hannah Montana the Movie,2009,Drama,30000000,89597017,10610159.0,3609731.0,Barry Bostwick,2009-04-10,Contemporary Fiction,Live Action,Based on TV,102.0,Peter Chelsom,Walt Disney Pictures,0
26,Coraline,2009,Adventure,60000000,50750828,10038164.0,3543508.0,"Robert Bailey, Jr.",2009-02-06,Kids Fiction,Stop-Motion Animation,Based on Fiction Book/Short Story,100.0,Henry Selick,Laika,0
27,Hotel for Dogs,2009,Comedy,75000000,45196303,9757140.0,2000495.0,Robinne Lee,2009-01-16,Kids Fiction,Live Action,Based on Fiction Book/Short Story,100.0,John Debney,Donners’ Company,0
28,"I Love You, Man",2009,Comedy,40000000,20289492,9601735.0,1939204.0,J.K. Simmons,2009-03-20,Contemporary Fiction,Live Action,Original Screenplay,105.0,Easton Smith,DreamWorks Pictures,0
29,Obsessed,2009,Thriller/Suspense,20000000,5703069,9101553.0,1253140.0,Idris Elba,2009-04-24,Contemporary Fiction,Live Action,Original Screenplay,,Steve Shill,,0
30,Race to Witch Mountain,2009,Adventure,50000000,37931189,8956346.0,2047755.0,Dwayne Johnson,2009-03-13,Science Fiction,Live Action,Based on Fiction Book/Short Story,,Andy Fickman,,0
31,The Taking of Pelham 123,2009,Action,110000000,86912058,8726975.0,1845490.0,Denzel Washington,2009-06-12,Contemporary Fiction,Live Action,Remake,106.0,Tony Scott,Columbia Pictures,0
32,Friday the 13th,2009,Horror,17000000,27668218,8666936.0,710447.0,Aaron Yoo,2009-02-13,Fantasy,Live Action,Spin-Off,97.0,Steve Jablonsky,,1
33,17 Again,2009,Comedy,40000000,75307837,8555609.0,2052241.0,Zac Efron,2009-04-17,Fantasy,Live Action,Original Screenplay,,Burr Steers,,0
34,The Final Destination,2009,Horror,40000000,120906927,8863693.0,792720.0,,2009-08-28,Fantasy,Live Action,Original Screenplay,,David R. Ellis,,1
35,The Time Traveler's Wife,2009,Drama,39000000,38917289,8455313.0,1678166.0,Rachel McAdams,2009-08-14,Science Fiction,Live Action,Based on Fiction Book/Short Story,107.0,Robert Schwentke,New Line Cinema,0
36,Brüno,2009,Comedy,42000000,70733713,8007271.0,809201.0,Sacha Baron Cohen,2009-07-10,Contemporary Fiction,Live Action,Based on TV,82.0,Larry Charles,Universal Pictures,0
37,Bride Wars,2009,Comedy,30000000,56434914,7828735.0,2118940.0,Kristen Johnston,2009-01-09,Contemporary Fiction,Live Action,Original Screenplay,,,,0
38,The Haunting in Connecticut,2009,Horror,0,23369006,7385269.0,1503300.0,Erik Berg,2009-03-27,Contemporary Fiction,Live Action,Based on Real Life Events,,Peter Cornwell,Gold Circle Films,0
39,Ghosts of Girlfriends Past,2009,Romantic Comedy,0,47262776,7366670.0,1614543.0,Matthew McConaughey,2009-05-01,Fantasy,Live Action,Original Screenplay,,Mark Waters,,0
40,Funny People,2009,Comedy,72500000,20025260,6914006.0,852601.0,Jonah Hill,2009-07-31,Contemporary Fiction,Live Action,Original Screenplay,146.0,Judd Apatow,Universal Pictures,0
41,My Bloody Valentine,2009,Horror,14000000,51290050,6872794.0,1140109.0,Jaime King,2009-01-16,Contemporary Fiction,Live Action,Remake,101.0,Patrick Lussier,,0
42,Land of the Lost,2009,Comedy,100000000,20110271,6591783.0,1517941.0,Matt Lauer,2009-06-05,Fantasy,Live Action,Based on TV,102.0,Brad Silberling,Universal Pictures,0
43,My Sister's Keeper,2009,Drama,27500000,47472772,6560031.0,1708798.0,Cameron Diaz,2009-06-26,Contemporary Fiction,Live Action,Based on Fiction Book/Short Story,109.0,Nick Cassavetes,New Line Cinema,0
44,Underworld 3: Rise of the Lycans,2009,Action,35000000,43300000,6106975.0,2520335.0,Michael Sheen,2009-01-23,Fantasy,Live Action,Original Screenplay,,,,1
0,The Dark Knight,2008,Action,185000000,469546000,312504.0,19512907.0,Cillian Murphy,2008-07-18,Super Hero,Live Action,Based on Comic/Graphic Novel,152.0,Christopher Nolan,Legendary Pictures,1
1,Iron Man,2008,Action,186000000,263839000,44347089.0,10953144.0,"Robert Downey, Jr.",2008-05-02,Super Hero,Live Action,Based on Comic/Graphic Novel,126.0,Jon Favreau,Paramount Pictures,0
2,Indiana Jones and the Kingdom of the Crystal Skull,2008,Adventure,185000000,469534294,44164501.0,6138134.0,Karen Allen,2008-05-22,Historical Fiction,Live Action,Original Screenplay,123.0,Steven Spielberg,Lucasfilm,1
3,Hancock,2008,Action,150000000,396287998,31747392.0,5907862.0,Jae Head,2008-07-01,Super Hero,Live Action,Original Screenplay,92.0,Peter Berg,Blue Light,0
4,WALL-E,2008,Adventure,180000000,308782830,31170876.0,12315243.0,Fred Willard,2008-06-27,Science Fiction,Digital Animation,Original Screenplay,100.0,Andrew Stanton,Walt Disney Animation Studios,0
5,Kung Fu Panda,2008,Adventure,130000000,416475940,30004818.0,9994732.0,Dan Fogler,2008-06-06,Kids Fiction,Digital Animation,Original Screenplay,91.0,Leslee Feldman,DreamWorks Animation,0
6,Twilight,2008,Drama,37000000,209510305,24641065.0,13870262.0,Kristen Stewart,2008-11-21,Fantasy,Live Action,Based on Fiction Book/Short Story,121.0,Tricia Wood,Temple Hill Entertainment,0
7,Madagascar: Escape 2 Africa,2008,Comedy,150000000,419505894,421076.0,8263300.0,Sacha Baron Cohen,2008-11-07,Kids Fiction,Digital Animation,Original Screenplay,89.0,Eric Darnell,DreamWorks Animation,1
8,Quantum of Solace,2008,Action,230000000,422323651,339735.0,3254599.0,Daniel Craig,2008-11-14,Contemporary Fiction,Live Action,Based on Fiction Book/Short Story,106.0,David Arnold,,1
9,Horton Hears a Who,2008,Adventure,85000000,144948447,21522206.0,6171282.0,Mickie McGowan,2008-03-14,Fantasy,Digital Animation,Based on Fiction Book/Short Story,88.0,Jimmy Hayward,20th Century Fox Animation,0
10,Sex and the City,2008,Comedy,57500000,262600000,21260064.0,5132970.0,Sarah Jessica Parker,2008-05-30,Contemporary Fiction,Live Action,Based on TV,145.0,Michael Patrick King,New Line Cinema,0
11,Gran Torino,2008,Drama,25000000,126447783,18436633.0,4651214.0,Clint Eastwood,2009-01-09,Contemporary Fiction,Live Action,Original Screenplay,116.0,Clint Eastwood,Warner Bros,0
12,Mamma Mia!,2008,Musical,52000000,458370497,20073825.0,7752123.0,Meryl Streep,2008-07-18,Contemporary Fiction,Live Action,Based on Musical or Opera,108.0,Phyllida Lloyd,Universal Pictures,0
13,Marley & Me,2008,Comedy,60000000,104658260,4865294.0,4702838.0,Owen Wilson,2008-12-25,Dramatization,Live Action,Based on Fiction Book/Short Story,116.0,David Frankel,Fox 2000 Pictures,0
14,The Chronicles of Narnia: Prince Caspian,2008,Adventure,225000000,275719798,19724442.0,6430529.0,Pedja Bjelac,2008-05-16,Fantasy,Animation/Live Action,Based on Fiction Book/Short Story,144.0,Andrew Adamson,Walt Disney Pictures,1
15,Slumdog Millionaire,2008,Drama,14000000,243199737,15020547.0,2712603.0,Irfan Khan,2008-11-12,Contemporary Fiction,Live Action,Original Screenplay,116.0,Danny Boyle,Fox Searchlight,0
16,The Incredible Hulk,2008,Adventure,137500000,128611000,18775336.0,4391501.0,Stan Lee,2008-06-13,Super Hero,Live Action,Based on Comic/Graphic Novel,112.0,Louis Leterrier,Universal Pictures,0
17,Wanted,2008,Action,75000000,207907909,18733781.0,4500425.0,James McAvoy,2008-06-27,Science Fiction,Live Action,Based on Comic/Graphic Novel,110.0,Timur Bekmambetov,Universal Pictures,0
18,Get Smart,2008,Comedy,80000000,96420208,18150308.0,2353868.0,Steve Carell,2008-06-20,Contemporary Fiction,Live Action,Based on TV,110.0,Andrew Lazar,Village Roadshow Productions,0
19,The Curious Case of Benjamin Button,2008,Drama,160000000,202300000,6428299.0,3100324.0,Madisen Beaty,2008-12-25,Fantasy,Live Action,Based on Fiction Book/Short Story,167.0,David Fincher,Paramount Pictures,0
20,Four Christmases,2008,Comedy,80000000,48165518,260827.0,1937237.0,Jon Voight,2008-11-26,Contemporary Fiction,Live Action,Original Screenplay,88.0,Seth Gordon,Spyglass Entertainment,0
21,Bolt,2008,Comedy,150000000,213961450,551525.0,5335501.0,Susie Essman,2008-11-21,Kids Fiction,Digital Animation,Original Screenplay,96.0,Chris Williams,Walt Disney Pictures,0
22,Tropic Thunder,2008,Comedy,90000000,80629943,15392105.0,3240543.0,Ben Stiller,2008-08-13,Contemporary Fiction,Live Action,Original Screenplay,106.0,Ben Stiller,DreamWorks Pictures,0
23,Bedtime Stories,2008,Comedy,80000000,111366960,3275041.0,3193084.0,Thomas Hoffman,2008-12-25,Fantasy,Live Action,Original Screenplay,99.0,Adam Shankman,Walt Disney Pictures,0
24,The Mummy: Tomb of the Dragon Emperor,2008,Adventure,175000000,303268449,14274621.0,2934573.0,Brendan Fraser,2008-08-01,Fantasy,Live Action,Remake,111.0,Rob Cohen,,1
25,Journey to the Center of the Earth,2008,Adventure,45000000,141476567,14164954.0,2314624.0,Anita Briem,2008-07-11,Science Fiction,Live Action,Based on Fiction Book/Short Story,92.0,Andrew Lockington,New Line Cinema,0
26,Eagle Eye,2008,Thriller/Suspense,80000000,76625826,5206.0,2369258.0,Anthony Azizi,2008-09-26,Contemporary Fiction,Live Action,Original Screenplay,117.0,D.J. Caruso,DreamWorks,0
27,Step Brothers,2008,Comedy,65000000,28000000,13992868.0,4568553.0,Will Ferrell,2008-07-25,Contemporary Fiction,Live Action,Original Screenplay,95.0,Adam McKay,Columbia Pictures,0
28,You Don't Mess With the Zohan,2008,Comedy,90000000,102892154,13930200.0,1884251.0,Adam Sandler,2008-06-06,Contemporary Fiction,Live Action,Original Screenplay,113.0,Dennis Dugan,Columbia Pictures,0
29,Yes Man,2008,Comedy,50000000,128300000,11073452.0,1818426.0,Jim Carrey,2008-12-19,Contemporary Fiction,Live Action,Based on Fiction Book/Short Story,104.0,Peyton Reed,Warner Bros,0
30,Beverly Hills Chihuahua,2008,Comedy,20000000,59703766,98060.0,3797897.0,Jose Maria Yazpik,2008-10-03,Fantasy,Live Action,Original Screenplay,91.0,Jeff Bushell,Walt Disney Pictures,0
31,High School Musical 3: Senior Year,2008,Musical,11000000,183833464,44683.0,3507657.0,Jemma McKenzie-Brown,2008-10-24,Contemporary Fiction,Live Action,Based on TV,,,,1
32,The Pineapple Express,2008,Comedy,26000000,15062639,12164538.0,3032966.0,James Franco,2008-08-06,Contemporary Fiction,Live Action,Original Screenplay,112.0,David Gordon Green,Columbia Pictures,0
33,Valkyrie,2008,Thriller/Suspense,90000000,120824345,8458763.0,1778468.0,Tom Cruise,2008-12-25,Dramatization,Live Action,Based on Real Life Events,120.0,Bryan Singer,Metro Goldwyn Mayer Pictures,0
34,What Happens in Vegas...,2008,Romantic Comedy,35000000,138258062,11180731.0,1850555.0,Cameron Diaz,2008-05-09,Contemporary Fiction,Live Action,Original Screenplay,98.0,Tom Vaughan,20th Century Fox,0
35,Jumper,2008,Adventure,82500000,142468684,11166035.0,1975590.0,Diane Lane,2008-02-14,Science Fiction,Live Action,Based on Fiction Book/Short Story,88.0,Doug Liman,Regency Enterprises,0
36,Cloverfield,2008,Action,25000000,91253793,11148807.0,1877875.0,T.J. Miller,2008-01-18,Science Fiction,Live Action,Original Screenplay,85.0,Matt Reeves,Bad Robot,0
37,The Day the Earth Stood Still,2008,Adventure,80000000,153700000,659030.0,2072963.0,Brandon T. Jackson,2008-12-12,Science Fiction,Live Action,Remake,103.0,Scott Derrickson,20th Century Fox,0
38,Hellboy II: The Golden Army,2008,Action,82500000,84401560,10583078.0,2795057.0,Seth MacFarlane,2008-07-11,Super Hero,Live Action,Based on Comic/Graphic Novel,120.0,Guillermo Del Toro,,1
39,Vantage Point,2008,Thriller/Suspense,40000000,78620023,10064945.0,1355574.0,Matthew Fox,2008-02-22,Contemporary Fiction,Live Action,Original Screenplay,89.0,Pete Travis,Columbia Pictures,0
40,The Spiderwick Chronicles,2008,Adventure,92500000,91644614,9915746.0,1721353.0,Freddie Highmore,2008-02-14,Fantasy,Live Action,Based on Fiction Book/Short Story,96.0,Mark Waters,The Kennedy/Marshall Company,0
41,Fool's Gold,2008,Adventure,72500000,39131925,9781482.0,1350623.0,Ewen Bremner,2008-02-08,Contemporary Fiction,Live Action,Original Screenplay,,Andy Tennant,,0
42,Seven Pounds,2008,Drama,54000000,96665504,1307270.0,1925513.0,Will Smith,2008-12-19,Contemporary Fiction,Live Action,Original Screenplay,123.0,Gabriele Muccino,Columbia Pictures,0
43,Role Models,2008,Comedy,28000000,27199871,78737.0,2588847.0,Seann William Scott,2008-11-07,Contemporary Fiction,Live Action,Original Screenplay,99.0,David Wain,Universal Pictures,0
44,Hannah Montana/Miley Cyrus: Best of Both Worlds Concert Tour,2008,Concert/Performance,6500000,5430318,9092170.0,1119667.0,Nick Jonas,2008-02-01,Factual,Live Action,Based on Real Life Events,,,,0
