,movie_display_name,movie_production_year,movie_genre_display_name,movie_financial_summary_production_budget,movie_financial_summary_international_box_office,movie_annual_summary_tickets_sold,movie_video_summary_domestic_dvd_units,movie_acting_role_display_name,movie_theatrical_release_release_date,movie_creative_type_display_name,movie_production_method_display_name,movie_source_display_name,movie_running_time,movie_technical_role_display_name,movie_production_company_display_name,movie_sequel
0,The Dark Knight,2008,Action,185000000,469546000,312504,19512907,Cillian Murphy,2008-07-18,Super Hero,Live Action,Based on Comic/Graphic Novel,152.0,Christopher Nolan,Legendary Pictures,1
1,Iron Man,2008,Action,186000000,263839000,44347089,10953144,"Robert Downey, Jr.",2008-05-02,Super Hero,Live Action,Based on Comic/Graphic Novel,126.0,Jon Favreau,Paramount Pictures,0
2,Indiana Jones and the Kingdom of the Crystal Skull,2008,Adventure,185000000,469534294,44164501,6138134,Karen Allen,2008-05-22,Historical Fiction,Live Action,Original Screenplay,123.0,Steven Spielberg,Lucasfilm,1
3,Hancock,2008,Action,150000000,396287998,31747392,5907862,Jae Head,2008-07-01,Super Hero,Live Action,Original Screenplay,92.0,Peter Berg,Blue Light,0
4,WALL-E,2008,Adventure,180000000,308782830,31170876,12315243,Fred Willard,2008-06-27,Science Fiction,Digital Animation,Original Screenplay,100.0,Andrew Stanton,Walt Disney Animation Studios,0
5,Kung Fu Panda,2008,Adventure,130000000,416475940,30004818,9994732,Dan Fogler,2008-06-06,Kids Fiction,Digital Animation,Original Screenplay,91.0,Leslee Feldman,DreamWorks Animation,0
6,Twilight,2008,Drama,37000000,209510305,24641065,13870262,Kristen Stewart,2008-11-21,Fantasy,Live Action,Based on Fiction Book/Short Story,121.0,Tricia Wood,Temple Hill Entertainment,0
7,Madagascar: Escape 2 Africa,2008,Comedy,150000000,419505894,421076,8263300,Sacha Baron Cohen,2008-11-07,Kids Fiction,Digital Animation,Original Screenplay,89.0,Eric Darnell,DreamWorks Animation,1
8,Quantum of Solace,2008,Action,230000000,422323651,339735,3254599,Daniel Craig,2008-11-14,Contemporary Fiction,Live Action,Based on Fiction Book/Short Story,106.0,David Arnold,,1
9,Horton Hears a Who,2008,Adventure,85000000,144948447,21522206,6171282,Mickie McGowan,2008-03-14,Fantasy,Digital Animation,Based on Fiction Book/Short Story,88.0,Jimmy Hayward,20th Century Fox Animation,0
10,Sex and the City,2008,Comedy,57500000,262600000,21260064,5132970,Sarah Jessica Parker,2008-05-30,Contemporary Fiction,Live Action,Based on TV,145.0,Michael Patrick King,New Line Cinema,0
11,Gran Torino,2008,Drama,25000000,126447783,18436633,4651214,Clint Eastwood,2009-01-09,Contemporary Fiction,Live Action,Original Screenplay,116.0,Clint Eastwood,Warner Bros,0
12,Mamma Mia!,2008,Musical,52000000,458370497,20073825,7752123,Meryl Streep,2008-07-18,Contemporary Fiction,Live Action,Based on Musical or Opera,108.0,Phyllida Lloyd,Universal Pictures,0
13,Marley & Me,2008,Comedy,60000000,104658260,4865294,4702838,Owen Wilson,2008-12-25,Dramatization,Live Action,Based on Fiction Book/Short Story,116.0,David Frankel,Fox 2000 Pictures,0
14,The Chronicles of Narnia: Prince Caspian,2008,Adventure,225000000,275719798,19724442,6430529,Pedja Bjelac,2008-05-16,Fantasy,Animation/Live Action,Based on Fiction Book/Short Story,144.0,Andrew Adamson,Walt Disney Pictures,1
15,Slumdog Millionaire,2008,Drama,14000000,243199737,15020547,2712603,Irfan Khan,2008-11-12,Contemporary Fiction,Live Action,Original Screenplay,116.0,Danny Boyle,Fox Searchlight,0
16,The Incredible Hulk,2008,Adventure,137500000,128611000,18775336,4391501,Stan Lee,2008-06-13,Super Hero,Live Action,Based on Comic/Graphic Novel,112.0,Louis Leterrier,Universal Pictures,0
17,Wanted,2008,Action,75000000,207907909,18733781,4500425,James McAvoy,2008-06-27,Science Fiction,Live Action,Based on Comic/Graphic Novel,110.0,Timur Bekmambetov,Universal Pictures,0
18,Get Smart,2008,Comedy,80000000,96420208,18150308,2353868,Steve Carell,2008-06-20,Contemporary Fiction,Live Action,Based on TV,110.0,Andrew Lazar,Village Roadshow Productions,0
19,The Curious Case of Benjamin Button,2008,Drama,160000000,202300000,6428299,3100324,Madisen Beaty,2008-12-25,Fantasy,Live Action,Based on Fiction Book/Short Story,167.0,David Fincher,Paramount Pictures,0
20,Four Christmases,2008,Comedy,80000000,48165518,260827,1937237,Jon Voight,2008-11-26,Contemporary Fiction,Live Action,Original Screenplay,88.0,Seth Gordon,Spyglass Entertainment,0
21,Bolt,2008,Comedy,150000000,213961450,551525,5335501,Susie Essman,2008-11-21,Kids Fiction,Digital Animation,Original Screenplay,96.0,Chris Williams,Walt Disney Pictures,0
22,Tropic Thunder,2008,Comedy,90000000,80629943,15392105,3240543,Ben Stiller,2008-08-13,Contemporary Fiction,Live Action,Original Screenplay,106.0,Ben Stiller,DreamWorks Pictures,0
23,Bedtime Stories,2008,Comedy,80000000,111366960,3275041,3193084,Thomas Hoffman,2008-12-25,Fantasy,Live Action,Original Screenplay,99.0,Adam Shankman,Walt Disney Pictures,0
24,The Mummy: Tomb of the Dragon Emperor,2008,Adventure,175000000,303268449,14274621,2934573,Brendan Fraser,2008-08-01,Fantasy,Live Action,Remake,111.0,Rob Cohen,,1
25,Journey to the Center of the Earth,2008,Adventure,45000000,141476567,14164954,2314624,Anita Briem,2008-07-11,Science Fiction,Live Action,Based on Fiction Book/Short Story,92.0,Andrew Lockington,New Line Cinema,0
26,Eagle Eye,2008,Thriller/Suspense,80000000,76625826,5206,2369258,Anthony Azizi,2008-09-26,Contemporary Fiction,Live Action,Original Screenplay,117.0,D.J. Caruso,DreamWorks,0
27,Step Brothers,2008,Comedy,65000000,28000000,13992868,4568553,Will Ferrell,2008-07-25,Contemporary Fiction,Live Action,Original Screenplay,95.0,Adam McKay,Columbia Pictures,0
28,You Don't Mess With the Zohan,2008,Comedy,90000000,102892154,13930200,1884251,Adam Sandler,2008-06-06,Contemporary Fiction,Live Action,Original Screenplay,113.0,Dennis Dugan,Columbia Pictures,0
29,Yes Man,2008,Comedy,50000000,128300000,11073452,1818426,Jim Carrey,2008-12-19,Contemporary Fiction,Live Action,Based on Fiction Book/Short Story,104.0,Peyton Reed,Warner Bros,0
30,Beverly Hills Chihuahua,2008,Comedy,20000000,59703766,98060,3797897,Jose Maria Yazpik,2008-10-03,Fantasy,Live Action,Original Screenplay,91.0,Jeff Bushell,Walt Disney Pictures,0
31,High School Musical 3: Senior Year,2008,Musical,11000000,183833464,44683,3507657,Jemma McKenzie-Brown,2008-10-24,Contemporary Fiction,Live Action,Based on TV,,,,1
32,The Pineapple Express,2008,Comedy,26000000,15062639,12164538,3032966,James Franco,2008-08-06,Contemporary Fiction,Live Action,Original Screenplay,112.0,David Gordon Green,Columbia Pictures,0
33,Valkyrie,2008,Thriller/Suspense,90000000,120824345,8458763,1778468,Tom Cruise,2008-12-25,Dramatization,Live Action,Based on Real Life Events,120.0,Bryan Singer,Metro Goldwyn Mayer Pictures,0
34,What Happens in Vegas...,2008,Romantic Comedy,35000000,138258062,11180731,1850555,Cameron Diaz,2008-05-09,Contemporary Fiction,Live Action,Original Screenplay,98.0,Tom Vaughan,20th Century Fox,0
35,Jumper,2008,Adventure,82500000,142468684,11166035,1975590,Diane Lane,2008-02-14,Science Fiction,Live Action,Based on Fiction Book/Short Story,88.0,Doug Liman,Regency Enterprises,0
36,Cloverfield,2008,Action,25000000,91253793,11148807,1877875,T.J. Miller,2008-01-18,Science Fiction,Live Action,Original Screenplay,85.0,Matt Reeves,Bad Robot,0
37,The Day the Earth Stood Still,2008,Adventure,80000000,153700000,659030,2072963,Brandon T. Jackson,2008-12-12,Science Fiction,Live Action,Remake,103.0,Scott Derrickson,20th Century Fox,0
38,Hellboy II: The Golden Army,2008,Action,82500000,84401560,10583078,2795057,Seth MacFarlane,2008-07-11,Super Hero,Live Action,Based on Comic/Graphic Novel,120.0,Guillermo Del Toro,,1
39,Vantage Point,2008,Thriller/Suspense,40000000,78620023,10064945,1355574,Matthew Fox,2008-02-22,Contemporary Fiction,Live Action,Original Screenplay,89.0,Pete Travis,Columbia Pictures,0
40,The Spiderwick Chronicles,2008,Adventure,92500000,91644614,9915746,1721353,Freddie Highmore,2008-02-14,Fantasy,Live Action,Based on Fiction Book/Short Story,96.0,Mark Waters,The Kennedy/Marshall Company,0
41,Fool's Gold,2008,Adventure,72500000,39131925,9781482,1350623,Ewen Bremner,2008-02-08,Contemporary Fiction,Live Action,Original Screenplay,,Andy Tennant,,0
42,Seven Pounds,2008,Drama,54000000,96665504,1307270,1925513,Will Smith,2008-12-19,Contemporary Fiction,Live Action,Original Screenplay,123.0,Gabriele Muccino,Columbia Pictures,0
43,Role Models,2008,Comedy,28000000,27199871,78737,2588847,Seann William Scott,2008-11-07,Contemporary Fiction,Live Action,Original Screenplay,99.0,David Wain,Universal Pictures,0
44,Hannah Montana/Miley Cyrus: Best of Both Worlds Concert Tour,2008,Concert/Performance,6500000,5430318,9092170,1119667,Nick Jonas,2008-02-01,Factual,Live Action,Based on Real Life Events,,,,0
