,movie_display_name,movie_production_year,movie_genre_display_name,movie_financial_summary_production_budget,movie_financial_summary_international_box_office,movie_annual_summary_tickets_sold,movie_video_summary_domestic_dvd_units,movie_acting_role_display_name,movie_theatrical_release_release_date,movie_creative_type_display_name,movie_production_method_display_name,movie_source_display_name,movie_running_time,movie_technical_role_display_name,movie_production_company_display_name,movie_sequel
0,Nanny McPhee and the Big Bang,2010,Adventure,35000000,68602223,3676960,705091.0,Emma Thompson,2010-08-20,Kids Fiction,Live Action,Based on Fiction Book/Short Story,109.0,Debra Osborne,StudioCanal,1
1,Sex and the City 2,2010,Comedy,95000000,199333086,12084625,2463557.0,Sarah Jessica Parker,2010-05-27,Contemporary Fiction,Live Action,Based on TV,,Michael Patrick King,,1
2,The Rum Diary,2010,Drama,0,8434917,1653192,322440.0,Johnny Depp,2011-10-28,Historical Fiction,Live Action,Based on Fiction Book/Short Story,122.0,Bruce Robinson,Infinitum Nihil,0
3,The Last Station,2010,Drama,18000000,9078279,838766,,Anne-Marie Duff,2010-01-15,Dramatization,Live Action,Based on Fiction Book/Short Story,,,,0
4,Inception,2010,Thriller/Suspense,160000000,540008221,37080969,6633339.0,Michael Caine,2010-07-16,Science Fiction,Animation/Live Action,Original Screenplay,147.0,Christopher Nolan,,0
5,Death at a Funeral,2010,Comedy,21000000,6237886,5416900,861227.0,Peter Dinklage,2010-04-16,Contemporary Fiction,Live Action,Remake,92.0,Neil LaBute,Sidney Kimmel Entertianment,0
6,Straw Dogs,2010,Thriller/Suspense,25000000,929380,1301947,797194.0,James Marsden,2011-09-16,Contemporary Fiction,Live Action,Remake,110.0,Rod Lurie,Screen Gems,0
7,Cop Out,2010,Comedy,37000000,11034429,5687640,854142.0,Kevin Pollak,2010-02-26,Contemporary Fiction,Live Action,Original Screenplay,107.0,Kevin Smith,Warner Bros.,0
8,Daybreakers,2010,Horror,20000000,21343926,3815155,802640.0,Isabel Lucas,2010-01-08,Science Fiction,Live Action,Original Screenplay,,Michael Spierig,,0
9,The Sorcerer's Apprentice,2010,Adventure,160000000,154835329,8003927,1552613.0,Alfred Molina,2010-07-14,Fantasy,Animation/Live Action,Based on Short Film,108.0,Jon Turteltaub,Walt Disney Pictures,0
10,Ramona and Beezus,2010,Comedy,15000000,1302619,3316476,1559428.0,Bridget Moynahan,2010-07-23,Kids Fiction,Live Action,Based on Fiction Book/Short Story,,,,0
11,Little Fockers,2010,Comedy,100000000,162211974,13000784,1245979.0,Teri Polo,2010-12-22,Contemporary Fiction,Live Action,Original Screenplay,98.0,Robert De Niro,Everyman Pictures,1
12,Gulliver's Travels,2010,Comedy,112000000,189238587,3479658,462415.0,Billy Connolly,2010-12-25,Fantasy,Animation/Live Action,Based on Fiction Book/Short Story,87.0,Benjamin Cooley,Davis Entertainment ,0
13,Date Night,2010,Comedy,55000000,53557629,12510951,1591665.0,Leighton Meester,2010-04-09,Contemporary Fiction,Live Action,Original Screenplay,88.0,Shawn Levy,21 Laps Entertainment,0
14,The Debt,2010,Thriller/Suspense,20000000,15426506,3931594,466227.0,Romi Aboulafia,2011-08-31,Historical Fiction,Live Action,Remake,113.0,John Madden,Marv Films,0
15,Percy Jackson & the Olympians: The Lightning Thief,2010,Adventure,95000000,134282571,11250735,2899951.0,Pierce Brosnan,2010-02-12,Fantasy,Live Action,Based on Fiction Book/Short Story,119.0,Chris Columbus,Fox 2000 Pictures,0
16,The A-Team,2010,Action,110000000,100019072,9787338,1957971.0,Jessica Biel,2010-06-11,Contemporary Fiction,Live Action,Based on TV,118.0,Brian Bloom,20th Century Fox,0
17,The Green Hornet,2010,Action,110000000,130375461,12456499,1046440.0,Tom Wilkinson,2011-01-14,Super Hero,Live Action,Based on TV,118.0,Neal H. Moritz,Original Film,0
18,Despicable Me,2010,Comedy,69000000,291981048,31838178,14156754.0,Jack McBrayer,2010-07-09,Kids Fiction,Digital Animation,Original Screenplay,95.0,Chris Renaud,Universal Pictures,0
19,The Crazies,2010,Horror,19000000,17321945,4958629,731935.0,Joe Anderson,2010-02-26,Contemporary Fiction,Live Action,Remake,,,Participant Media,0
20,The Last Airbender,2010,Adventure,150000000,187941694,16679475,1909717.0,Cliff Curtis,2010-07-01,Fantasy,Live Action,Based on TV,103.0,M. Night Shyamalan,Paramount Pictures,0
21,The Fighter,2010,Drama,11000000,35645379,5879449,1878463.0,Amy Adams,2010-12-10,Dramatization,Live Action,Based on Real Life Events,115.0,David Hoberman,Closest to the Hole ,0
22,The Wolfman,2010,Horror,150000000,80444474,7855472,1222552.0,Benicio Del Toro,2010-02-12,Fantasy,Live Action,Remake,102.0,Joe Johnston,Universal Pictures,0
23,Salt,2010,Thriller/Suspense,130000000,172339126,14995103,2329240.0,Angelina Jolie,2010-07-23,Contemporary Fiction,Live Action,Original Screenplay,100.0,Phillip Noyce,Columbia Pictures,0
24,The Twilight Saga: Eclipse,2010,Drama,68000000,405571077,38090209,11021913.0,Dakota Fanning,2010-06-30,Fantasy,Live Action,Based on Fiction Book/Short Story,124.0,David Slade,Temple Hill Entertainment,1
25,Jonah Hex,2010,Action,47000000,475579,1336770,529494.0,Will Arnett,2010-06-18,Historical Fiction,Live Action,Based on Comic/Graphic Novel,,,,0
26,The Expendables,2010,Action,82000000,165199650,13063184,4052894.0,Sylvester Stallone,2010-08-13,Contemporary Fiction,Live Action,Original Screenplay,103.0,Sylvester Stallone,Nu Image,0
27,Tron: Legacy,2010,Adventure,200000000,225500000,16641932,1670643.0,Garrett Hedlund,2010-12-17,Science Fiction,Live Action,Original Screenplay,125.0,Joseph Kosinski,Walt Disney Pictures,1
28,Secretariat,2010,Drama,35000000,676734,7484623,2867121.0,Dylan Baker,2010-10-08,Dramatization,Live Action,Based on Real Life Events,123.0,William Nack,Walt Disney Pictures,0
29,You Again,2010,Comedy,20000000,7136892,3257547,679277.0,Betty White,2010-09-24,Contemporary Fiction,Live Action,Original Screenplay,105.0,John J. Strauss,Touchtone Pictures,0
30,Tangled,2010,Adventure,260000000,385760000,21270213,9607615.0,Mandy Moore,2010-11-24,Kids Fiction,Digital Animation,Based on Folk Tale/Legend/Fairytale,101.0,Roy Conli,Walt Disney Animation Studios,0
31,The Losers,2010,Action,25000000,6272408,2990042,654168.0,Chris Evans,2010-04-23,Contemporary Fiction,Live Action,Based on Comic/Graphic Novel,97.0,Sylvain White,Dark Castle Entertainment,0
32,MacGruber,2010,Comedy,10000000,104295,1080557,291404.0,Kristen Wiig,2010-05-21,,Live Action,Based on TV,,,,0
33,A Nightmare on Elm Street,2010,Horror,35000000,54654610,7994297,756901.0,Jackie Earle Haley,2010-04-30,Fantasy,Live Action,Remake,94.0,Dan Hegeman,,0
34,Zookeeper,2010,Romantic Comedy,80000000,90444659,10133778,1005738.0,Adam Sandler,2011-07-08,Fantasy,Animation/Live Action,Original Screenplay,101.0,Frank Coraci,Columbia Pictures,0
35,Our Family Wedding,2010,Comedy,14000000,1155265,2566491,348378.0,America Ferrera,2010-03-12,Contemporary Fiction,Live Action,Original Screenplay,,,,0
36,Going the Distance,2010,Romantic Comedy,32000000,25799691,2256565,,Christina Applegate,2010-09-03,Contemporary Fiction,Live Action,Original Screenplay,109.0,Nanette Burstein,Offspring Entertainment,0
37,Marmaduke,2010,Comedy,50000000,50378823,4264231,1030242.0,David Z. Price,2010-06-04,Kids Fiction,Digital Animation,Based on Comic/Graphic Novel,88.0,Tom Dey,Davis Entertainment,0
38,Life as We Know It,2010,Romantic Comedy,38000000,52513156,61560,1955077.0,Katherine Heigl,2010-10-08,Contemporary Fiction,Live Action,Original Screenplay,113.0,Greg Berlanti,Josephson Entertainment,0
39,Due Date,2010,Comedy,65000000,111200000,12576922,2152122.0,Jamie Foxx,2010-11-05,Contemporary Fiction,Live Action,Original Screenplay,95.0,Todd Phillips,Legendary Pictures,0
40,Remember Me,2010,Drama,16000000,37437880,2416760,931087.0,Robert Pattinson,2010-03-12,Contemporary Fiction,Live Action,Original Screenplay,113.0,,,0
41,She's Out of My League,2010,Romantic Comedy,20000000,16670117,4008658,643199.0,Jay Baruchel,2010-03-12,Contemporary Fiction,Live Action,Original Screenplay,,,,0
42,Season of the Witch,2010,Thriller/Suspense,40000000,66299372,3130797,485259.0,Nicolas Cage,2011-01-07,Fantasy,Live Action,Original Screenplay,98.0,Dominic Sena,Rogue Pictures,0
43,Shrek Forever After,2010,Adventure,165000000,517507886,30214954,3797011.0,Lake Bell,2010-05-21,Kids Fiction,Digital Animation,Based on Fiction Book/Short Story,93.0,Harry Gregson-Williams,DreamWorks Animation,1
44,Resident Evil: Afterlife,2010,Horror,57500000,235745624,7620857,1456711.0,Milla Jovovich,2010-09-10,Science Fiction,Live Action,Based on Game,97.0,Paul W.S. Anderson,Impact Pictures,1
