,Ship_Date,Ord_id,Prod_id,Ship_id,Cust_id
0,01-01-2010,2,2,2,2
1,01-01-2011,1,1,1,1
2,01-01-2012,6,6,6,6
3,01-02-2009,3,3,3,3
4,01-02-2010,3,3,3,3
5,01-02-2011,2,2,2,2
6,01-02-2012,8,8,8,8
7,01-03-2009,1,1,1,1
8,01-03-2010,3,3,3,3
9,01-03-2011,4,4,4,4
10,01-03-2012,4,4,4,4
11,01-04-2009,3,3,3,3
12,01-04-2010,3,3,3,3
13,01-04-2011,1,1,1,1
14,01-04-2012,3,3,3,3
15,01-05-2009,3,3,3,3
16,01-05-2010,3,3,3,3
17,01-05-2011,5,5,5,5
18,01-05-2012,3,3,3,3
19,01-06-2010,1,1,1,1
20,01-06-2011,2,2,2,2
21,01-06-2012,3,3,3,3
22,01-07-2009,3,3,3,3
23,01-07-2010,4,4,4,4
24,01-07-2011,4,4,4,4
25,01-07-2012,1,1,1,1
26,01-08-2009,4,4,4,4
27,01-08-2010,2,2,2,2
28,01-08-2011,2,2,2,2
29,01-08-2012,3,3,3,3
30,01-09-2010,1,1,1,1
31,01-09-2011,5,5,5,5
32,01-09-2012,3,3,3,3
33,01-10-2009,6,6,6,6
34,01-10-2010,4,4,4,4
35,01-10-2011,3,3,3,3
36,01-10-2012,2,2,2,2
37,01-11-2009,2,2,2,2
38,01-11-2010,5,5,5,5
39,01-11-2011,2,2,2,2
40,01-11-2012,11,11,11,11
41,01-12-2009,2,2,2,2
42,01-12-2010,4,4,4,4
43,01-12-2011,4,4,4,4
44,01-12-2012,5,5,5,5
45,02-01-2009,3,3,3,3
46,02-01-2010,2,2,2,2
47,02-01-2011,4,4,4,4
48,02-01-2012,2,2,2,2
49,02-02-2009,4,4,4,4
50,02-02-2010,6,6,6,6
51,02-02-2011,2,2,2,2
52,02-02-2012,2,2,2,2
53,02-03-2009,5,5,5,5
54,02-03-2010,1,1,1,1
55,02-03-2012,2,2,2,2
56,02-04-2009,1,1,1,1
57,02-04-2010,2,2,2,2
58,02-04-2011,3,3,3,3
59,02-04-2012,2,2,2,2
60,02-05-2009,3,3,3,3
61,02-05-2010,5,5,5,5
62,02-05-2011,4,4,4,4
63,02-06-2009,1,1,1,1
64,02-06-2010,1,1,1,1
65,02-06-2011,6,6,6,6
66,02-06-2012,7,7,7,7
67,02-07-2009,1,1,1,1
68,02-07-2010,1,1,1,1
69,02-07-2011,3,3,3,3
70,02-08-2009,3,3,3,3
71,02-08-2010,1,1,1,1
72,02-08-2011,1,1,1,1
73,02-08-2012,4,4,4,4
74,02-09-2009,6,6,6,6
75,02-09-2010,5,5,5,5
76,02-09-2011,5,5,5,5
77,02-09-2012,3,3,3,3
78,02-10-2009,2,2,2,2
79,02-10-2010,3,3,3,3
80,02-10-2011,3,3,3,3
81,02-10-2012,3,3,3,3
82,02-11-2009,2,2,2,2
83,02-11-2010,2,2,2,2
84,02-11-2011,6,6,6,6
85,02-11-2012,4,4,4,4
86,02-12-2009,5,5,5,5
87,02-12-2010,1,1,1,1
88,02-12-2011,1,1,1,1
89,02-12-2012,7,7,7,7
90,03-01-2010,5,5,5,5
91,03-01-2011,1,1,1,1
92,03-01-2012,1,1,1,1
93,03-02-2009,2,2,2,2
94,03-02-2010,7,7,7,7
95,03-02-2012,5,5,5,5
96,03-03-2009,2,2,2,2
97,03-03-2010,5,5,5,5
98,03-03-2011,1,1,1,1
99,03-03-2012,6,6,6,6
100,03-04-2009,1,1,1,1
101,03-04-2010,6,6,6,6
102,03-04-2011,1,1,1,1
103,03-04-2012,1,1,1,1
104,03-05-2009,1,1,1,1
105,03-05-2010,2,2,2,2
106,03-05-2011,6,6,6,6
107,03-06-2009,8,8,8,8
108,03-06-2010,1,1,1,1
109,03-06-2011,1,1,1,1
110,03-07-2009,5,5,5,5
111,03-07-2010,2,2,2,2
112,03-07-2011,7,7,7,7
113,03-07-2012,4,4,4,4
114,03-08-2009,2,2,2,2
115,03-08-2011,2,2,2,2
116,03-08-2012,4,4,4,4
117,03-09-2009,5,5,5,5
118,03-09-2011,1,1,1,1
119,03-09-2012,6,6,6,6
120,03-10-2009,3,3,3,3
121,03-10-2010,3,3,3,3
122,03-10-2011,5,5,5,5
123,03-10-2012,2,2,2,2
124,03-11-2009,1,1,1,1
125,03-11-2011,1,1,1,1
126,03-11-2012,5,5,5,5
127,03-12-2009,2,2,2,2
128,03-12-2010,1,1,1,1
129,03-12-2011,2,2,2,2
130,03-12-2012,6,6,6,6
131,04-01-2009,4,4,4,4
132,04-01-2010,3,3,3,3
133,04-01-2011,3,3,3,3
134,04-01-2012,3,3,3,3
135,04-02-2009,2,2,2,2
136,04-02-2010,3,3,3,3
137,04-02-2012,1,1,1,1
138,04-03-2009,3,3,3,3
139,04-03-2010,3,3,3,3
140,04-03-2011,5,5,5,5
141,04-03-2012,4,4,4,4
142,04-04-2010,2,2,2,2
143,04-04-2011,7,7,7,7
144,04-04-2012,3,3,3,3
145,04-05-2009,1,1,1,1
146,04-05-2011,3,3,3,3
147,04-05-2012,2,2,2,2
148,04-06-2009,2,2,2,2
149,04-06-2010,2,2,2,2
150,04-06-2011,1,1,1,1
151,04-06-2012,3,3,3,3
152,04-07-2009,6,6,6,6
153,04-07-2010,4,4,4,4
154,04-07-2011,3,3,3,3
155,04-07-2012,2,2,2,2
156,04-08-2009,2,2,2,2
157,04-08-2010,3,3,3,3
158,04-08-2011,4,4,4,4
159,04-08-2012,1,1,1,1
160,04-09-2010,2,2,2,2
161,04-09-2011,3,3,3,3
162,04-09-2012,3,3,3,3
163,04-10-2009,5,5,5,5
164,04-10-2010,5,5,5,5
165,04-10-2011,1,1,1,1
166,04-10-2012,10,10,10,10
167,04-11-2009,5,5,5,5
168,04-11-2010,1,1,1,1
169,04-11-2011,3,3,3,3
170,04-11-2012,4,4,4,4
171,04-12-2009,1,1,1,1
172,04-12-2010,3,3,3,3
173,04-12-2011,1,1,1,1
174,04-12-2012,5,5,5,5
175,05-01-2009,6,6,6,6
176,05-01-2011,1,1,1,1
177,05-01-2012,4,4,4,4
178,05-02-2009,8,8,8,8
179,05-02-2010,2,2,2,2
180,05-02-2011,3,3,3,3
181,05-02-2012,2,2,2,2
182,05-03-2009,2,2,2,2
183,05-03-2010,2,2,2,2
184,05-03-2011,3,3,3,3
185,05-03-2012,9,9,9,9
186,05-04-2010,2,2,2,2
187,05-04-2011,1,1,1,1
188,05-04-2012,2,2,2,2
189,05-05-2009,4,4,4,4
190,05-05-2010,3,3,3,3
191,05-05-2011,4,4,4,4
192,05-06-2009,7,7,7,7
193,05-06-2011,3,3,3,3
194,05-06-2012,1,1,1,1
195,05-07-2009,2,2,2,2
196,05-07-2010,3,3,3,3
197,05-07-2011,2,2,2,2
198,05-07-2012,2,2,2,2
199,05-08-2010,3,3,3,3
200,05-08-2011,1,1,1,1
201,05-08-2012,4,4,4,4
202,05-09-2009,7,7,7,7
203,05-09-2010,5,5,5,5
204,05-09-2011,3,3,3,3
205,05-09-2012,2,2,2,2
206,05-10-2009,2,2,2,2
207,05-10-2010,1,1,1,1
208,05-10-2011,5,5,5,5
209,05-10-2012,2,2,2,2
210,05-11-2009,4,4,4,4
211,05-11-2011,1,1,1,1
212,05-11-2012,4,4,4,4
213,05-12-2009,1,1,1,1
214,05-12-2010,5,5,5,5
215,05-12-2011,1,1,1,1
216,05-12-2012,4,4,4,4
217,06-01-2009,5,5,5,5
218,06-01-2011,1,1,1,1
219,06-01-2012,5,5,5,5
220,06-02-2009,5,5,5,5
221,06-02-2010,2,2,2,2
222,06-02-2011,8,8,8,8
223,06-02-2012,3,3,3,3
224,06-03-2009,5,5,5,5
225,06-03-2010,1,1,1,1
226,06-03-2011,5,5,5,5
227,06-03-2012,2,2,2,2
228,06-04-2009,7,7,7,7
229,06-04-2010,3,3,3,3
230,06-04-2011,3,3,3,3
231,06-04-2012,1,1,1,1
232,06-05-2009,1,1,1,1
233,06-05-2010,2,2,2,2
234,06-05-2011,5,5,5,5
235,06-05-2012,5,5,5,5
236,06-06-2009,1,1,1,1
237,06-06-2010,3,3,3,3
238,06-06-2011,2,2,2,2
239,06-06-2012,2,2,2,2
240,06-07-2009,6,6,6,6
241,06-07-2010,2,2,2,2
242,06-07-2011,7,7,7,7
243,06-07-2012,2,2,2,2
244,06-08-2009,2,2,2,2
245,06-08-2010,3,3,3,3
246,06-08-2011,4,4,4,4
247,06-08-2012,3,3,3,3
248,06-09-2009,4,4,4,4
249,06-09-2011,3,3,3,3
250,06-09-2012,6,6,6,6
251,06-10-2009,7,7,7,7
252,06-10-2010,1,1,1,1
253,06-10-2011,3,3,3,3
254,06-10-2012,4,4,4,4
255,06-11-2009,7,7,7,7
256,06-11-2010,4,4,4,4
257,06-11-2011,1,1,1,1
258,06-11-2012,3,3,3,3
259,06-12-2009,3,3,3,3
260,06-12-2010,4,4,4,4
261,06-12-2011,5,5,5,5
262,06-12-2012,2,2,2,2
263,07-01-2009,3,3,3,3
264,07-01-2010,3,3,3,3
265,07-01-2011,4,4,4,4
266,07-01-2012,5,5,5,5
267,07-02-2009,1,1,1,1
268,07-02-2010,4,4,4,4
269,07-02-2011,3,3,3,3
270,07-02-2012,6,6,6,6
271,07-03-2009,3,3,3,3
272,07-03-2010,3,3,3,3
273,07-03-2011,3,3,3,3
274,07-03-2012,3,3,3,3
275,07-04-2009,6,6,6,6
276,07-04-2010,2,2,2,2
277,07-04-2011,2,2,2,2
278,07-04-2012,2,2,2,2
279,07-05-2009,2,2,2,2
280,07-05-2010,2,2,2,2
281,07-05-2011,3,3,3,3
282,07-05-2012,4,4,4,4
283,07-06-2009,1,1,1,1
284,07-06-2010,5,5,5,5
285,07-06-2011,1,1,1,1
286,07-06-2012,3,3,3,3
287,07-07-2009,3,3,3,3
288,07-07-2010,1,1,1,1
289,07-07-2011,3,3,3,3
290,07-07-2012,1,1,1,1
291,07-08-2009,4,4,4,4
292,07-08-2010,2,2,2,2
293,07-08-2011,1,1,1,1
294,07-08-2012,3,3,3,3
295,07-09-2009,2,2,2,2
296,07-09-2010,3,3,3,3
297,07-09-2011,5,5,5,5
298,07-09-2012,5,5,5,5
299,07-10-2009,1,1,1,1
300,07-10-2010,3,3,3,3
301,07-10-2011,2,2,2,2
302,07-10-2012,2,2,2,2
303,07-11-2009,1,1,1,1
304,07-11-2010,2,2,2,2
305,07-11-2011,2,2,2,2
306,07-12-2009,3,3,3,3
307,07-12-2010,4,4,4,4
308,07-12-2011,3,3,3,3
309,07-12-2012,1,1,1,1
310,08-01-2009,6,6,6,6
311,08-01-2010,1,1,1,1
312,08-01-2011,2,2,2,2
313,08-01-2012,1,1,1,1
314,08-02-2009,4,4,4,4
315,08-02-2010,4,4,4,4
316,08-02-2011,3,3,3,3
317,08-02-2012,2,2,2,2
318,08-03-2009,2,2,2,2
319,08-03-2010,5,5,5,5
320,08-03-2012,3,3,3,3
321,08-04-2009,3,3,3,3
322,08-04-2010,5,5,5,5
323,08-04-2011,3,3,3,3
324,08-04-2012,2,2,2,2
325,08-05-2009,1,1,1,1
326,08-05-2010,4,4,4,4
327,08-05-2011,3,3,3,3
328,08-05-2012,5,5,5,5
329,08-06-2009,4,4,4,4
330,08-06-2010,6,6,6,6
331,08-06-2011,2,2,2,2
332,08-06-2012,2,2,2,2
333,08-07-2009,7,7,7,7
334,08-07-2011,3,3,3,3
335,08-07-2012,1,1,1,1
336,08-08-2009,3,3,3,3
337,08-08-2010,5,5,5,5
338,08-08-2011,3,3,3,3
339,08-08-2012,2,2,2,2
340,08-09-2009,3,3,3,3
341,08-09-2010,6,6,6,6
342,08-09-2011,1,1,1,1
343,08-09-2012,6,6,6,6
344,08-10-2009,3,3,3,3
345,08-10-2010,7,7,7,7
346,08-10-2011,3,3,3,3
347,08-10-2012,5,5,5,5
348,08-11-2010,4,4,4,4
349,08-11-2011,2,2,2,2
350,08-11-2012,1,1,1,1
351,08-12-2009,4,4,4,4
352,08-12-2010,4,4,4,4
353,08-12-2011,4,4,4,4
354,08-12-2012,1,1,1,1
355,09-01-2009,2,2,2,2
356,09-01-2010,1,1,1,1
357,09-01-2012,2,2,2,2
358,09-02-2009,5,5,5,5
359,09-02-2010,4,4,4,4
360,09-02-2011,3,3,3,3
361,09-02-2012,6,6,6,6
362,09-03-2010,3,3,3,3
363,09-03-2011,2,2,2,2
364,09-03-2012,3,3,3,3
365,09-04-2009,2,2,2,2
366,09-04-2010,3,3,3,3
367,09-04-2011,3,3,3,3
368,09-04-2012,1,1,1,1
369,09-05-2009,4,4,4,4
370,09-05-2010,3,3,3,3
371,09-05-2011,3,3,3,3
372,09-05-2012,9,9,9,9
373,09-06-2009,4,4,4,4
374,09-06-2010,3,3,3,3
375,09-06-2011,6,6,6,6
376,09-06-2012,2,2,2,2
377,09-07-2009,1,1,1,1
378,09-07-2010,2,2,2,2
379,09-07-2011,4,4,4,4
380,09-07-2012,4,4,4,4
381,09-08-2009,2,2,2,2
382,09-08-2010,3,3,3,3
383,09-08-2011,2,2,2,2
384,09-08-2012,2,2,2,2
385,09-09-2009,3,3,3,3
386,09-09-2010,1,1,1,1
387,09-09-2011,2,2,2,2
388,09-09-2012,2,2,2,2
389,09-10-2009,7,7,7,7
390,09-10-2010,4,4,4,4
391,09-10-2011,2,2,2,2
392,09-10-2012,4,4,4,4
393,09-11-2009,2,2,2,2
394,09-11-2010,4,4,4,4
395,09-11-2011,1,1,1,1
396,09-12-2009,4,4,4,4
397,09-12-2010,5,5,5,5
398,09-12-2011,4,4,4,4
399,09-12-2012,2,2,2,2
400,10-01-2009,3,3,3,3
401,10-01-2010,3,3,3,3
402,10-01-2011,5,5,5,5
403,10-01-2012,3,3,3,3
404,10-02-2009,2,2,2,2
405,10-02-2010,4,4,4,4
406,10-02-2011,4,4,4,4
407,10-02-2012,1,1,1,1
408,10-03-2009,2,2,2,2
409,10-03-2010,10,10,10,10
410,10-03-2011,2,2,2,2
411,10-03-2012,3,3,3,3
412,10-04-2009,3,3,3,3
413,10-04-2010,2,2,2,2
414,10-04-2011,3,3,3,3
415,10-04-2012,3,3,3,3
416,10-05-2009,3,3,3,3
417,10-05-2010,3,3,3,3
418,10-05-2011,3,3,3,3
419,10-05-2012,2,2,2,2
420,10-06-2009,1,1,1,1
421,10-06-2010,4,4,4,4
422,10-06-2011,3,3,3,3
423,10-06-2012,1,1,1,1
424,10-07-2009,1,1,1,1
425,10-07-2010,1,1,1,1
426,10-07-2011,2,2,2,2
427,10-07-2012,4,4,4,4
428,10-08-2009,4,4,4,4
429,10-08-2010,2,2,2,2
430,10-08-2011,4,4,4,4
431,10-08-2012,2,2,2,2
432,10-09-2009,1,1,1,1
433,10-09-2010,3,3,3,3
434,10-09-2011,4,4,4,4
435,10-09-2012,3,3,3,3
436,10-10-2009,4,4,4,4
437,10-10-2010,3,3,3,3
438,10-10-2011,5,5,5,5
439,10-10-2012,2,2,2,2
440,10-11-2009,3,3,3,3
441,10-11-2010,3,3,3,3
442,10-11-2011,1,1,1,1
443,10-11-2012,3,3,3,3
444,10-12-2009,3,3,3,3
445,10-12-2010,1,1,1,1
446,10-12-2011,2,2,2,2
447,10-12-2012,6,6,6,6
448,11-01-2009,7,7,7,7
449,11-01-2010,4,4,4,4
450,11-01-2011,4,4,4,4
451,11-02-2009,4,4,4,4
452,11-02-2010,2,2,2,2
453,11-02-2012,3,3,3,3
454,11-03-2009,2,2,2,2
455,11-03-2010,1,1,1,1
456,11-03-2011,3,3,3,3
457,11-03-2012,9,9,9,9
458,11-04-2009,9,9,9,9
459,11-04-2010,2,2,2,2
460,11-04-2011,4,4,4,4
461,11-04-2012,4,4,4,4
462,11-05-2009,3,3,3,3
463,11-05-2010,4,4,4,4
464,11-05-2011,3,3,3,3
465,11-05-2012,2,2,2,2
466,11-06-2009,1,1,1,1
467,11-06-2010,4,4,4,4
468,11-06-2011,3,3,3,3
469,11-06-2012,2,2,2,2
470,11-07-2009,4,4,4,4
471,11-07-2010,2,2,2,2
472,11-07-2012,5,5,5,5
473,11-08-2009,3,3,3,3
474,11-08-2010,4,4,4,4
475,11-08-2011,5,5,5,5
476,11-08-2012,3,3,3,3
477,11-09-2009,2,2,2,2
478,11-09-2010,5,5,5,5
479,11-09-2011,4,4,4,4
480,11-09-2012,1,1,1,1
481,11-10-2009,6,6,6,6
482,11-10-2010,4,4,4,4
483,11-10-2011,5,5,5,5
484,11-10-2012,2,2,2,2
485,11-11-2009,2,2,2,2
486,11-11-2010,2,2,2,2
487,11-11-2011,3,3,3,3
488,11-11-2012,4,4,4,4
489,11-12-2009,2,2,2,2
490,11-12-2010,3,3,3,3
491,11-12-2011,3,3,3,3
492,11-12-2012,3,3,3,3
493,12-01-2009,4,4,4,4
494,12-01-2010,5,5,5,5
495,12-01-2011,5,5,5,5
496,12-01-2012,7,7,7,7
497,12-02-2009,4,4,4,4
498,12-02-2010,4,4,4,4
499,12-02-2011,1,1,1,1
500,12-02-2012,4,4,4,4
501,12-03-2009,3,3,3,3
502,12-03-2010,1,1,1,1
503,12-03-2011,4,4,4,4
504,12-03-2012,4,4,4,4
505,12-04-2009,6,6,6,6
506,12-04-2010,4,4,4,4
507,12-04-2011,7,7,7,7
508,12-04-2012,4,4,4,4
509,12-05-2009,1,1,1,1
510,12-05-2010,5,5,5,5
511,12-05-2012,5,5,5,5
512,12-06-2009,4,4,4,4
513,12-06-2010,3,3,3,3
514,12-06-2011,3,3,3,3
515,12-06-2012,2,2,2,2
516,12-07-2010,1,1,1,1
517,12-07-2011,2,2,2,2
518,12-07-2012,2,2,2,2
519,12-08-2009,3,3,3,3
520,12-08-2010,3,3,3,3
521,12-08-2011,3,3,3,3
522,12-08-2012,4,4,4,4
523,12-09-2009,5,5,5,5
524,12-09-2010,3,3,3,3
525,12-09-2011,2,2,2,2
526,12-09-2012,7,7,7,7
527,12-10-2009,1,1,1,1
528,12-10-2010,1,1,1,1
529,12-10-2011,4,4,4,4
530,12-10-2012,1,1,1,1
531,12-11-2009,3,3,3,3
532,12-11-2010,3,3,3,3
533,12-11-2012,3,3,3,3
534,12-12-2009,3,3,3,3
535,12-12-2010,5,5,5,5
536,12-12-2011,5,5,5,5
537,12-12-2012,6,6,6,6
538,13-01-2009,3,3,3,3
539,13-01-2010,4,4,4,4
540,13-01-2011,4,4,4,4
541,13-01-2012,6,6,6,6
542,13-02-2010,3,3,3,3
543,13-02-2011,3,3,3,3
544,13-02-2012,4,4,4,4
545,13-03-2009,3,3,3,3
546,13-03-2010,2,2,2,2
547,13-03-2011,1,1,1,1
548,13-03-2012,5,5,5,5
549,13-04-2009,3,3,3,3
550,13-04-2010,2,2,2,2
551,13-04-2011,4,4,4,4
552,13-04-2012,3,3,3,3
553,13-05-2009,7,7,7,7
554,13-05-2010,11,11,11,11
555,13-05-2011,3,3,3,3
556,13-05-2012,3,3,3,3
557,13-06-2009,4,4,4,4
558,13-06-2010,2,2,2,2
559,13-06-2011,1,1,1,1
560,13-06-2012,1,1,1,1
561,13-07-2009,5,5,5,5
562,13-07-2010,1,1,1,1
563,13-07-2011,1,1,1,1
564,13-07-2012,1,1,1,1
565,13-08-2009,4,4,4,4
566,13-08-2011,4,4,4,4
567,13-08-2012,4,4,4,4
568,13-09-2009,6,6,6,6
569,13-09-2010,1,1,1,1
570,13-09-2011,3,3,3,3
571,13-10-2009,2,2,2,2
572,13-10-2010,6,6,6,6
573,13-10-2011,1,1,1,1
574,13-10-2012,4,4,4,4
575,13-11-2009,3,3,3,3
576,13-11-2010,3,3,3,3
577,13-11-2011,6,6,6,6
578,13-11-2012,4,4,4,4
579,13-12-2009,2,2,2,2
580,13-12-2010,3,3,3,3
581,13-12-2012,1,1,1,1
582,14-01-2009,2,2,2,2
583,14-01-2010,1,1,1,1
584,14-01-2011,2,2,2,2
585,14-01-2012,4,4,4,4
586,14-02-2009,3,3,3,3
587,14-02-2010,1,1,1,1
588,14-02-2011,7,7,7,7
589,14-02-2012,1,1,1,1
590,14-03-2009,4,4,4,4
591,14-03-2010,8,8,8,8
592,14-03-2011,3,3,3,3
593,14-03-2012,3,3,3,3
594,14-04-2009,4,4,4,4
595,14-04-2011,2,2,2,2
596,14-04-2012,5,5,5,5
597,14-05-2009,8,8,8,8
598,14-05-2010,3,3,3,3
599,14-05-2011,2,2,2,2
600,14-05-2012,9,9,9,9
601,14-06-2009,6,6,6,6
602,14-06-2010,2,2,2,2
603,14-06-2011,2,2,2,2
604,14-06-2012,5,5,5,5
605,14-07-2009,4,4,4,4
606,14-07-2011,3,3,3,3
607,14-08-2009,2,2,2,2
608,14-08-2010,3,3,3,3
609,14-08-2011,3,3,3,3
610,14-08-2012,3,3,3,3
611,14-09-2009,2,2,2,2
612,14-09-2010,1,1,1,1
613,14-09-2011,5,5,5,5
614,14-09-2012,4,4,4,4
615,14-10-2009,1,1,1,1
616,14-10-2010,3,3,3,3
617,14-10-2012,1,1,1,1
618,14-11-2009,2,2,2,2
619,14-11-2010,2,2,2,2
620,14-11-2011,5,5,5,5
621,14-11-2012,4,4,4,4
622,14-12-2009,7,7,7,7
623,14-12-2010,5,5,5,5
624,14-12-2011,1,1,1,1
625,15-01-2009,2,2,2,2
626,15-01-2010,8,8,8,8
627,15-01-2011,2,2,2,2
628,15-01-2012,4,4,4,4
629,15-02-2009,5,5,5,5
630,15-02-2010,2,2,2,2
631,15-02-2011,9,9,9,9
632,15-02-2012,6,6,6,6
633,15-03-2009,4,4,4,4
634,15-03-2010,4,4,4,4
635,15-03-2011,3,3,3,3
636,15-03-2012,3,3,3,3
637,15-04-2009,4,4,4,4
638,15-04-2010,4,4,4,4
639,15-04-2011,2,2,2,2
640,15-04-2012,10,10,10,10
641,15-05-2009,6,6,6,6
642,15-05-2010,6,6,6,6
643,15-05-2011,7,7,7,7
644,15-05-2012,5,5,5,5
645,15-06-2010,8,8,8,8
646,15-06-2011,2,2,2,2
647,15-06-2012,1,1,1,1
648,15-07-2009,1,1,1,1
649,15-07-2010,1,1,1,1
650,15-07-2011,1,1,1,1
651,15-08-2009,5,5,5,5
652,15-08-2010,3,3,3,3
653,15-08-2011,6,6,6,6
654,15-08-2012,2,2,2,2
655,15-09-2009,7,7,7,7
656,15-09-2010,3,3,3,3
657,15-09-2011,5,5,5,5
658,15-09-2012,2,2,2,2
659,15-10-2010,6,6,6,6
660,15-10-2011,3,3,3,3
661,15-10-2012,2,2,2,2
662,15-11-2009,3,3,3,3
663,15-11-2010,7,7,7,7
664,15-11-2011,1,1,1,1
665,15-11-2012,2,2,2,2
666,15-12-2009,3,3,3,3
667,15-12-2010,3,3,3,3
668,15-12-2011,2,2,2,2
669,15-12-2012,1,1,1,1
670,16-01-2009,8,8,8,8
671,16-01-2010,3,3,3,3
672,16-01-2011,6,6,6,6
673,16-02-2009,4,4,4,4
674,16-02-2010,1,1,1,1
675,16-02-2011,6,6,6,6
676,16-02-2012,1,1,1,1
677,16-03-2009,4,4,4,4
678,16-03-2010,4,4,4,4
679,16-03-2011,6,6,6,6
680,16-03-2012,5,5,5,5
681,16-04-2009,3,3,3,3
682,16-04-2010,2,2,2,2
683,16-04-2011,1,1,1,1
684,16-04-2012,8,8,8,8
685,16-05-2009,5,5,5,5
686,16-05-2010,7,7,7,7
687,16-05-2011,1,1,1,1
688,16-05-2012,1,1,1,1
689,16-06-2009,4,4,4,4
690,16-06-2010,2,2,2,2
691,16-06-2011,1,1,1,1
692,16-06-2012,2,2,2,2
693,16-07-2009,5,5,5,5
694,16-07-2010,2,2,2,2
695,16-07-2011,3,3,3,3
696,16-07-2012,1,1,1,1
697,16-08-2009,6,6,6,6
698,16-08-2010,2,2,2,2
699,16-08-2011,2,2,2,2
700,16-08-2012,2,2,2,2
701,16-09-2009,3,3,3,3
702,16-09-2010,5,5,5,5
703,16-09-2011,2,2,2,2
704,16-10-2010,3,3,3,3
705,16-10-2011,4,4,4,4
706,16-10-2012,2,2,2,2
707,16-11-2009,5,5,5,5
708,16-11-2011,2,2,2,2
709,16-11-2012,1,1,1,1
710,16-12-2009,1,1,1,1
711,16-12-2010,4,4,4,4
712,16-12-2011,2,2,2,2
713,16-12-2012,1,1,1,1
714,17-01-2009,4,4,4,4
715,17-01-2010,2,2,2,2
716,17-01-2011,1,1,1,1
717,17-01-2012,1,1,1,1
718,17-02-2009,3,3,3,3
719,17-02-2010,2,2,2,2
720,17-02-2011,2,2,2,2
721,17-02-2012,2,2,2,2
722,17-03-2009,3,3,3,3
723,17-03-2010,1,1,1,1
724,17-03-2011,1,1,1,1
725,17-03-2012,4,4,4,4
726,17-04-2009,3,3,3,3
727,17-04-2010,2,2,2,2
728,17-04-2011,3,3,3,3
729,17-04-2012,2,2,2,2
730,17-05-2009,3,3,3,3
731,17-05-2010,4,4,4,4
732,17-05-2011,1,1,1,1
733,17-05-2012,3,3,3,3
734,17-06-2009,4,4,4,4
735,17-06-2010,1,1,1,1
736,17-06-2011,6,6,6,6
737,17-06-2012,1,1,1,1
738,17-07-2009,3,3,3,3
739,17-07-2010,2,2,2,2
740,17-07-2011,5,5,5,5
741,17-07-2012,3,3,3,3
742,17-08-2009,3,3,3,3
743,17-08-2010,2,2,2,2
744,17-08-2011,4,4,4,4
745,17-08-2012,3,3,3,3
746,17-09-2009,4,4,4,4
747,17-09-2010,3,3,3,3
748,17-09-2011,7,7,7,7
749,17-10-2009,3,3,3,3
750,17-10-2010,2,2,2,2
751,17-10-2012,1,1,1,1
752,17-11-2009,4,4,4,4
753,17-11-2010,2,2,2,2
754,17-11-2011,1,1,1,1
755,17-12-2009,2,2,2,2
756,17-12-2010,5,5,5,5
757,17-12-2011,4,4,4,4
758,17-12-2012,1,1,1,1
759,18-01-2009,4,4,4,4
760,18-01-2010,3,3,3,3
761,18-01-2011,1,1,1,1
762,18-02-2009,2,2,2,2
763,18-02-2010,1,1,1,1
764,18-02-2011,2,2,2,2
765,18-02-2012,6,6,6,6
766,18-03-2009,1,1,1,1
767,18-03-2010,3,3,3,3
768,18-03-2011,2,2,2,2
769,18-03-2012,2,2,2,2
770,18-04-2009,3,3,3,3
771,18-04-2011,2,2,2,2
772,18-04-2012,6,6,6,6
773,18-05-2009,4,4,4,4
774,18-05-2010,1,1,1,1
775,18-05-2011,6,6,6,6
776,18-06-2009,4,4,4,4
777,18-06-2010,5,5,5,5
778,18-06-2011,4,4,4,4
779,18-06-2012,1,1,1,1
780,18-07-2009,6,6,6,6
781,18-07-2010,8,8,8,8
782,18-07-2011,2,2,2,2
783,18-07-2012,2,2,2,2
784,18-08-2009,3,3,3,3
785,18-08-2010,1,1,1,1
786,18-08-2011,5,5,5,5
787,18-08-2012,6,6,6,6
788,18-09-2009,5,5,5,5
789,18-09-2010,3,3,3,3
790,18-09-2012,1,1,1,1
791,18-10-2009,2,2,2,2
792,18-10-2010,2,2,2,2
793,18-10-2011,2,2,2,2
794,18-10-2012,3,3,3,3
795,18-11-2009,1,1,1,1
796,18-11-2010,4,4,4,4
797,18-11-2011,6,6,6,6
798,18-11-2012,1,1,1,1
799,18-12-2009,2,2,2,2
800,18-12-2010,1,1,1,1
801,18-12-2011,5,5,5,5
802,18-12-2012,3,3,3,3
803,19-01-2009,5,5,5,5
804,19-01-2010,2,2,2,2
805,19-01-2011,4,4,4,4
806,19-01-2012,1,1,1,1
807,19-02-2009,5,5,5,5
808,19-02-2010,2,2,2,2
809,19-02-2011,2,2,2,2
810,19-02-2012,4,4,4,4
811,19-03-2009,1,1,1,1
812,19-03-2010,1,1,1,1
813,19-03-2011,3,3,3,3
814,19-04-2009,3,3,3,3
815,19-04-2010,2,2,2,2
816,19-04-2011,4,4,4,4
817,19-04-2012,2,2,2,2
818,19-05-2009,2,2,2,2
819,19-05-2010,2,2,2,2
820,19-05-2011,4,4,4,4
821,19-05-2012,3,3,3,3
822,19-06-2009,2,2,2,2
823,19-06-2010,1,1,1,1
824,19-06-2011,3,3,3,3
825,19-06-2012,3,3,3,3
826,19-07-2009,4,4,4,4
827,19-07-2010,6,6,6,6
828,19-07-2011,5,5,5,5
829,19-07-2012,3,3,3,3
830,19-08-2009,2,2,2,2
831,19-08-2010,5,5,5,5
832,19-08-2011,3,3,3,3
833,19-08-2012,1,1,1,1
834,19-09-2009,4,4,4,4
835,19-09-2010,3,3,3,3
836,19-09-2011,1,1,1,1
837,19-09-2012,1,1,1,1
838,19-10-2009,2,2,2,2
839,19-10-2010,1,1,1,1
840,19-10-2011,1,1,1,1
841,19-10-2012,2,2,2,2
842,19-11-2009,2,2,2,2
843,19-11-2010,8,8,8,8
844,19-11-2011,5,5,5,5
845,19-11-2012,3,3,3,3
846,19-12-2009,3,3,3,3
847,19-12-2010,3,3,3,3
848,19-12-2011,10,10,10,10
849,19-12-2012,3,3,3,3
850,20-01-2009,3,3,3,3
851,20-01-2010,4,4,4,4
852,20-01-2011,1,1,1,1
853,20-01-2012,5,5,5,5
854,20-02-2009,1,1,1,1
855,20-02-2010,1,1,1,1
856,20-02-2011,1,1,1,1
857,20-02-2012,1,1,1,1
858,20-03-2009,4,4,4,4
859,20-03-2010,2,2,2,2
860,20-03-2011,4,4,4,4
861,20-03-2012,4,4,4,4
862,20-04-2009,2,2,2,2
863,20-04-2010,4,4,4,4
864,20-04-2011,5,5,5,5
865,20-04-2012,2,2,2,2
866,20-05-2009,3,3,3,3
867,20-05-2010,7,7,7,7
868,20-05-2011,2,2,2,2
869,20-05-2012,6,6,6,6
870,20-06-2009,1,1,1,1
871,20-06-2010,1,1,1,1
872,20-06-2012,1,1,1,1
873,20-07-2009,1,1,1,1
874,20-07-2010,2,2,2,2
875,20-07-2011,2,2,2,2
876,20-07-2012,3,3,3,3
877,20-08-2009,4,4,4,4
878,20-08-2010,4,4,4,4
879,20-08-2011,1,1,1,1
880,20-08-2012,5,5,5,5
881,20-09-2010,2,2,2,2
882,20-09-2011,1,1,1,1
883,20-09-2012,1,1,1,1
884,20-10-2009,2,2,2,2
885,20-10-2010,4,4,4,4
886,20-10-2011,2,2,2,2
887,20-10-2012,4,4,4,4
888,20-11-2009,1,1,1,1
889,20-11-2010,3,3,3,3
890,20-11-2011,6,6,6,6
891,20-11-2012,5,5,5,5
892,20-12-2009,2,2,2,2
893,20-12-2010,4,4,4,4
894,20-12-2011,4,4,4,4
895,20-12-2012,2,2,2,2
896,21-01-2009,2,2,2,2
897,21-01-2010,1,1,1,1
898,21-01-2011,2,2,2,2
899,21-01-2012,6,6,6,6
900,21-02-2009,4,4,4,4
901,21-02-2010,1,1,1,1
902,21-02-2011,8,8,8,8
903,21-02-2012,3,3,3,3
904,21-03-2009,2,2,2,2
905,21-03-2010,3,3,3,3
906,21-03-2011,3,3,3,3
907,21-03-2012,3,3,3,3
908,21-04-2009,2,2,2,2
909,21-04-2010,1,1,1,1
910,21-04-2011,1,1,1,1
911,21-04-2012,3,3,3,3
912,21-05-2009,4,4,4,4
913,21-05-2010,5,5,5,5
914,21-05-2011,6,6,6,6
915,21-05-2012,2,2,2,2
916,21-06-2009,2,2,2,2
917,21-06-2011,1,1,1,1
918,21-06-2012,2,2,2,2
919,21-07-2009,2,2,2,2
920,21-07-2010,5,5,5,5
921,21-07-2011,1,1,1,1
922,21-07-2012,1,1,1,1
923,21-08-2009,2,2,2,2
924,21-08-2010,3,3,3,3
925,21-08-2011,3,3,3,3
926,21-08-2012,4,4,4,4
927,21-09-2009,4,4,4,4
928,21-09-2010,9,9,9,9
929,21-09-2011,2,2,2,2
930,21-10-2009,4,4,4,4
931,21-10-2010,2,2,2,2
932,21-10-2011,2,2,2,2
933,21-10-2012,1,1,1,1
934,21-11-2009,7,7,7,7
935,21-11-2010,2,2,2,2
936,21-11-2011,4,4,4,4
937,21-11-2012,2,2,2,2
938,21-12-2009,4,4,4,4
939,21-12-2010,3,3,3,3
940,21-12-2011,1,1,1,1
941,22-01-2009,1,1,1,1
942,22-01-2011,4,4,4,4
943,22-01-2012,3,3,3,3
944,22-02-2009,3,3,3,3
945,22-02-2010,5,5,5,5
946,22-02-2011,2,2,2,2
947,22-02-2012,2,2,2,2
948,22-03-2009,5,5,5,5
949,22-03-2010,3,3,3,3
950,22-03-2011,2,2,2,2
951,22-03-2012,1,1,1,1
952,22-04-2009,1,1,1,1
953,22-04-2010,2,2,2,2
954,22-04-2011,3,3,3,3
955,22-04-2012,4,4,4,4
956,22-05-2009,6,6,6,6
957,22-05-2010,6,6,6,6
958,22-05-2011,8,8,8,8
959,22-05-2012,6,6,6,6
960,22-06-2009,8,8,8,8
961,22-06-2011,4,4,4,4
962,22-07-2009,7,7,7,7
963,22-07-2010,4,4,4,4
964,22-07-2011,3,3,3,3
965,22-07-2012,4,4,4,4
966,22-08-2009,3,3,3,3
967,22-08-2010,3,3,3,3
968,22-08-2011,2,2,2,2
969,22-08-2012,1,1,1,1
970,22-09-2009,1,1,1,1
971,22-09-2010,3,3,3,3
972,22-09-2011,2,2,2,2
973,22-09-2012,2,2,2,2
974,22-10-2009,2,2,2,2
975,22-10-2010,1,1,1,1
976,22-10-2011,4,4,4,4
977,22-10-2012,4,4,4,4
978,22-11-2009,2,2,2,2
979,22-11-2010,4,4,4,4
980,22-11-2011,2,2,2,2
981,22-12-2009,6,6,6,6
982,22-12-2010,4,4,4,4
983,22-12-2011,2,2,2,2
984,22-12-2012,4,4,4,4
985,23-01-2009,5,5,5,5
986,23-01-2010,2,2,2,2
987,23-01-2011,1,1,1,1
988,23-01-2012,3,3,3,3
989,23-02-2009,3,3,3,3
990,23-02-2010,1,1,1,1
991,23-02-2011,1,1,1,1
992,23-02-2012,1,1,1,1
993,23-03-2009,2,2,2,2
994,23-03-2010,1,1,1,1
995,23-03-2011,7,7,7,7
996,23-03-2012,1,1,1,1
997,23-04-2009,2,2,2,2
998,23-04-2010,3,3,3,3
999,23-05-2009,7,7,7,7
1000,23-05-2010,2,2,2,2
1001,23-05-2011,2,2,2,2
1002,23-05-2012,2,2,2,2
1003,23-06-2009,1,1,1,1
1004,23-06-2010,3,3,3,3
1005,23-06-2012,1,1,1,1
1006,23-07-2009,4,4,4,4
1007,23-07-2010,4,4,4,4
1008,23-07-2011,5,5,5,5
1009,23-07-2012,1,1,1,1
1010,23-08-2009,4,4,4,4
1011,23-08-2010,3,3,3,3
1012,23-08-2011,4,4,4,4
1013,23-08-2012,3,3,3,3
1014,23-09-2009,2,2,2,2
1015,23-09-2011,4,4,4,4
1016,23-09-2012,2,2,2,2
1017,23-10-2010,1,1,1,1
1018,23-10-2011,2,2,2,2
1019,23-10-2012,2,2,2,2
1020,23-11-2009,1,1,1,1
1021,23-11-2010,2,2,2,2
1022,23-11-2011,3,3,3,3
1023,23-11-2012,2,2,2,2
1024,23-12-2009,1,1,1,1
1025,23-12-2010,4,4,4,4
1026,23-12-2011,3,3,3,3
1027,24-01-2009,3,3,3,3
1028,24-01-2010,4,4,4,4
1029,24-01-2012,2,2,2,2
1030,24-02-2010,4,4,4,4
1031,24-02-2011,1,1,1,1
1032,24-02-2012,3,3,3,3
1033,24-03-2009,2,2,2,2
1034,24-03-2010,4,4,4,4
1035,24-03-2011,3,3,3,3
1036,24-03-2012,4,4,4,4
1037,24-04-2009,3,3,3,3
1038,24-04-2010,4,4,4,4
1039,24-04-2011,2,2,2,2
1040,24-04-2012,6,6,6,6
1041,24-05-2010,2,2,2,2
1042,24-06-2009,5,5,5,5
1043,24-06-2010,4,4,4,4
1044,24-07-2009,1,1,1,1
1045,24-07-2010,5,5,5,5
1046,24-08-2009,5,5,5,5
1047,24-08-2010,2,2,2,2
1048,24-08-2012,3,3,3,3
1049,24-09-2009,1,1,1,1
1050,24-09-2010,2,2,2,2
1051,24-09-2011,3,3,3,3
1052,24-10-2009,4,4,4,4
1053,24-10-2010,2,2,2,2
1054,24-10-2011,1,1,1,1
1055,24-10-2012,2,2,2,2
1056,24-11-2009,2,2,2,2
1057,24-11-2010,1,1,1,1
1058,24-12-2009,3,3,3,3
1059,24-12-2010,3,3,3,3
1060,24-12-2011,1,1,1,1
1061,24-12-2012,1,1,1,1
1062,25-01-2009,1,1,1,1
1063,25-01-2010,2,2,2,2
1064,25-01-2011,1,1,1,1
1065,25-02-2010,6,6,6,6
1066,25-02-2011,1,1,1,1
1067,25-02-2012,3,3,3,3
1068,25-03-2009,5,5,5,5
1069,25-03-2011,3,3,3,3
1070,25-03-2012,4,4,4,4
1071,25-04-2009,4,4,4,4
1072,25-04-2010,1,1,1,1
1073,25-04-2011,4,4,4,4
1074,25-04-2012,4,4,4,4
1075,25-05-2009,2,2,2,2
1076,25-05-2010,3,3,3,3
1077,25-05-2011,1,1,1,1
1078,25-05-2012,3,3,3,3
1079,25-06-2009,3,3,3,3
1080,25-06-2010,5,5,5,5
1081,25-06-2011,3,3,3,3
1082,25-07-2009,4,4,4,4
1083,25-07-2010,7,7,7,7
1084,25-07-2011,1,1,1,1
1085,25-07-2012,5,5,5,5
1086,25-08-2009,1,1,1,1
1087,25-08-2010,1,1,1,1
1088,25-08-2011,1,1,1,1
1089,25-08-2012,1,1,1,1
1090,25-09-2009,7,7,7,7
1091,25-09-2010,5,5,5,5
1092,25-09-2011,5,5,5,5
1093,25-09-2012,3,3,3,3
1094,25-10-2009,4,4,4,4
1095,25-10-2010,4,4,4,4
1096,25-10-2011,1,1,1,1
1097,25-10-2012,2,2,2,2
1098,25-11-2009,7,7,7,7
1099,25-11-2010,5,5,5,5
1100,25-11-2011,2,2,2,2
1101,25-11-2012,1,1,1,1
1102,25-12-2009,1,1,1,1
1103,25-12-2010,1,1,1,1
1104,25-12-2011,1,1,1,1
1105,26-01-2009,3,3,3,3
1106,26-01-2010,1,1,1,1
1107,26-01-2011,3,3,3,3
1108,26-02-2009,1,1,1,1
1109,26-02-2010,3,3,3,3
1110,26-02-2011,4,4,4,4
1111,26-02-2012,1,1,1,1
1112,26-03-2009,1,1,1,1
1113,26-03-2010,2,2,2,2
1114,26-03-2011,2,2,2,2
1115,26-03-2012,3,3,3,3
1116,26-04-2009,3,3,3,3
1117,26-04-2010,5,5,5,5
1118,26-04-2011,2,2,2,2
1119,26-04-2012,4,4,4,4
1120,26-05-2009,3,3,3,3
1121,26-05-2010,5,5,5,5
1122,26-05-2011,1,1,1,1
1123,26-05-2012,3,3,3,3
1124,26-06-2009,2,2,2,2
1125,26-06-2010,2,2,2,2
1126,26-06-2012,2,2,2,2
1127,26-07-2009,1,1,1,1
1128,26-07-2010,3,3,3,3
1129,26-07-2011,4,4,4,4
1130,26-08-2009,4,4,4,4
1131,26-08-2010,4,4,4,4
1132,26-08-2011,6,6,6,6
1133,26-09-2009,2,2,2,2
1134,26-09-2010,8,8,8,8
1135,26-09-2011,2,2,2,2
1136,26-09-2012,1,1,1,1
1137,26-10-2010,3,3,3,3
1138,26-10-2011,1,1,1,1
1139,26-10-2012,3,3,3,3
1140,26-11-2009,7,7,7,7
1141,26-11-2010,3,3,3,3
1142,26-11-2011,3,3,3,3
1143,26-12-2009,3,3,3,3
1144,26-12-2010,4,4,4,4
1145,26-12-2011,3,3,3,3
1146,26-12-2012,4,4,4,4
1147,27-01-2009,1,1,1,1
1148,27-01-2010,5,5,5,5
1149,27-01-2011,4,4,4,4
1150,27-01-2012,1,1,1,1
1151,27-02-2009,7,7,7,7
1152,27-02-2010,3,3,3,3
1153,27-02-2011,1,1,1,1
1154,27-02-2012,2,2,2,2
1155,27-03-2009,2,2,2,2
1156,27-03-2010,1,1,1,1
1157,27-03-2011,4,4,4,4
1158,27-03-2012,5,5,5,5
1159,27-04-2009,2,2,2,2
1160,27-04-2010,3,3,3,3
1161,27-04-2011,1,1,1,1
1162,27-04-2012,7,7,7,7
1163,27-05-2009,5,5,5,5
1164,27-05-2010,6,6,6,6
1165,27-05-2011,3,3,3,3
1166,27-05-2012,6,6,6,6
1167,27-06-2009,3,3,3,3
1168,27-06-2011,1,1,1,1
1169,27-06-2012,1,1,1,1
1170,27-07-2009,1,1,1,1
1171,27-07-2010,5,5,5,5
1172,27-07-2011,3,3,3,3
1173,27-07-2012,1,1,1,1
1174,27-08-2009,3,3,3,3
1175,27-08-2010,2,2,2,2
1176,27-08-2011,2,2,2,2
1177,27-08-2012,1,1,1,1
1178,27-09-2009,2,2,2,2
1179,27-09-2010,6,6,6,6
1180,27-09-2011,1,1,1,1
1181,27-09-2012,1,1,1,1
1182,27-10-2009,1,1,1,1
1183,27-10-2010,3,3,3,3
1184,27-10-2011,4,4,4,4
1185,27-10-2012,3,3,3,3
1186,27-11-2009,1,1,1,1
1187,27-11-2010,4,4,4,4
1188,27-11-2012,2,2,2,2
1189,27-12-2009,3,3,3,3
1190,27-12-2010,3,3,3,3
1191,27-12-2011,4,4,4,4
1192,27-12-2012,1,1,1,1
1193,28-01-2009,3,3,3,3
1194,28-01-2010,2,2,2,2
1195,28-01-2011,4,4,4,4
1196,28-01-2012,2,2,2,2
1197,28-02-2009,2,2,2,2
1198,28-02-2010,5,5,5,5
1199,28-02-2011,2,2,2,2
1200,28-03-2009,9,9,9,9
1201,28-03-2011,2,2,2,2
1202,28-03-2012,4,4,4,4
1203,28-04-2009,2,2,2,2
1204,28-04-2011,4,4,4,4
1205,28-04-2012,2,2,2,2
1206,28-05-2009,4,4,4,4
1207,28-05-2010,3,3,3,3
1208,28-05-2012,4,4,4,4
1209,28-06-2009,1,1,1,1
1210,28-06-2010,4,4,4,4
1211,28-06-2011,3,3,3,3
1212,28-06-2012,7,7,7,7
1213,28-07-2009,4,4,4,4
1214,28-07-2010,5,5,5,5
1215,28-07-2011,7,7,7,7
1216,28-07-2012,5,5,5,5
1217,28-08-2009,1,1,1,1
1218,28-08-2010,1,1,1,1
1219,28-08-2011,1,1,1,1
1220,28-08-2012,4,4,4,4
1221,28-09-2009,1,1,1,1
1222,28-09-2010,1,1,1,1
1223,28-09-2011,5,5,5,5
1224,28-09-2012,1,1,1,1
1225,28-10-2010,6,6,6,6
1226,28-10-2011,1,1,1,1
1227,28-10-2012,5,5,5,5
1228,28-11-2009,2,2,2,2
1229,28-11-2010,1,1,1,1
1230,28-11-2011,2,2,2,2
1231,28-11-2012,3,3,3,3
1232,28-12-2009,1,1,1,1
1233,28-12-2010,1,1,1,1
1234,28-12-2011,3,3,3,3
1235,28-12-2012,4,4,4,4
1236,29-01-2009,3,3,3,3
1237,29-01-2010,1,1,1,1
1238,29-01-2011,4,4,4,4
1239,29-01-2012,2,2,2,2
1240,29-02-2012,8,8,8,8
1241,29-03-2009,7,7,7,7
1242,29-03-2010,3,3,3,3
1243,29-03-2011,1,1,1,1
1244,29-03-2012,4,4,4,4
1245,29-04-2009,1,1,1,1
1246,29-04-2012,6,6,6,6
1247,29-05-2009,2,2,2,2
1248,29-05-2010,2,2,2,2
1249,29-05-2011,1,1,1,1
1250,29-05-2012,9,9,9,9
1251,29-06-2009,2,2,2,2
1252,29-06-2010,6,6,6,6
1253,29-06-2011,3,3,3,3
1254,29-06-2012,2,2,2,2
1255,29-07-2009,2,2,2,2
1256,29-07-2010,5,5,5,5
1257,29-07-2011,4,4,4,4
1258,29-07-2012,2,2,2,2
1259,29-08-2009,4,4,4,4
1260,29-08-2011,1,1,1,1
1261,29-08-2012,3,3,3,3
1262,29-09-2010,2,2,2,2
1263,29-09-2012,1,1,1,1
1264,29-10-2009,1,1,1,1
1265,29-10-2010,1,1,1,1
1266,29-10-2011,4,4,4,4
1267,29-10-2012,5,5,5,5
1268,29-11-2009,2,2,2,2
1269,29-11-2010,3,3,3,3
1270,29-11-2011,6,6,6,6
1271,29-11-2012,4,4,4,4
1272,29-12-2009,2,2,2,2
1273,29-12-2010,3,3,3,3
1274,29-12-2012,1,1,1,1
1275,30-01-2009,2,2,2,2
1276,30-01-2010,1,1,1,1
1277,30-01-2011,4,4,4,4
1278,30-03-2009,1,1,1,1
1279,30-03-2010,2,2,2,2
1280,30-03-2011,1,1,1,1
1281,30-03-2012,7,7,7,7
1282,30-04-2009,4,4,4,4
1283,30-04-2010,3,3,3,3
1284,30-04-2011,3,3,3,3
1285,30-04-2012,2,2,2,2
1286,30-05-2010,3,3,3,3
1287,30-05-2011,1,1,1,1
1288,30-05-2012,3,3,3,3
1289,30-06-2010,1,1,1,1
1290,30-06-2011,4,4,4,4
1291,30-06-2012,4,4,4,4
1292,30-07-2009,2,2,2,2
1293,30-07-2010,2,2,2,2
1294,30-07-2011,1,1,1,1
1295,30-08-2010,5,5,5,5
1296,30-08-2011,6,6,6,6
1297,30-08-2012,4,4,4,4
1298,30-09-2009,4,4,4,4
1299,30-09-2010,3,3,3,3
1300,30-09-2011,2,2,2,2
1301,30-09-2012,2,2,2,2
1302,30-10-2009,3,3,3,3
1303,30-10-2010,3,3,3,3
1304,30-10-2011,3,3,3,3
1305,30-10-2012,6,6,6,6
1306,30-11-2009,5,5,5,5
1307,30-11-2011,3,3,3,3
1308,30-11-2012,3,3,3,3
1309,30-12-2009,2,2,2,2
1310,30-12-2010,2,2,2,2
1311,30-12-2011,1,1,1,1
1312,30-12-2012,7,7,7,7
1313,31-01-2010,3,3,3,3
1314,31-01-2011,1,1,1,1
1315,31-01-2012,1,1,1,1
1316,31-03-2009,4,4,4,4
1317,31-03-2011,1,1,1,1
1318,31-03-2012,3,3,3,3
1319,31-05-2009,1,1,1,1
1320,31-05-2010,3,3,3,3
1321,31-05-2011,1,1,1,1
1322,31-05-2012,2,2,2,2
1323,31-07-2009,3,3,3,3
1324,31-07-2010,4,4,4,4
1325,31-07-2011,2,2,2,2
1326,31-07-2012,4,4,4,4
1327,31-08-2009,1,1,1,1
1328,31-08-2010,4,4,4,4
1329,31-08-2011,2,2,2,2
1330,31-08-2012,4,4,4,4
1331,31-10-2009,3,3,3,3
1332,31-10-2010,6,6,6,6
1333,31-10-2011,3,3,3,3
1334,31-10-2012,7,7,7,7
1335,31-12-2010,1,1,1,1
1336,31-12-2011,8,8,8,8
