,States,2008
0,UNITED STATES,50303
1,ALABAMA,44476
2,ALASKA,63989
3,ARIZONA,46914
4,ARKANSAS,39586
5,CALIFORNIA,57014
6,COLORADO,60943
7,CONNECTICUT,64682
8,DELAWARE,50702
9,DISTRICT OF COLUMBIA,55590
10,FLORIDA,44857
11,GEORGIA,46227
12,HAWAII,61521
13,IDAHO,47420
14,ILLINOIS,53254
15,INDIANA,46520
16,IOWA,50142
17,KANSAS,47877
18,KENTUCKY,41148
19,LOUISIANA,39563
20,MAINE,47228
21,MARYLAND,63711
22,MASSACHUSETTS,60320
23,MICHIGAN,49788
24,MINNESOTA,54925
25,MISSISSIPPI,36446
26,MISSOURI,46038
27,MONTANA,42900
28,NEBRASKA,50728
29,NEVADA,54744
30,NEW HAMPSHIRE,66176
31,NEW JERSEY,65306
32,NEW MEXICO,42102
33,NEW YORK,50461
34,NORTH CAROLINA,42930
35,NORTH DAKOTA,49631
36,OHIO,46934
37,OKLAHOMA,46111
38,OREGON,51727
39,PENNSYLVANIA,51402
40,RHODE ISLAND,53241
41,SOUTH CAROLINA,42155
42,SOUTH DAKOTA,51600
43,TENNESSEE,39702
44,TEXAS,46490
45,UTAH,62537
46,VERMONT,50706
47,VIRGINIA,61985
48,WASHINGTON,56631
49,WEST VIRGINIA,37994
50,WISCONSIN,51200
51,WYOMING,53337
