,batsman,batsman_runs_x,total_runs,batsman_runs_y,batsman_runs
0,J Bairstow,46.8,50,46.8,4
1,DA Warner,37.626984126984134,462,37.626984126984134,48
2,LMP Simmons,37.206896551724135,110,37.206896551724135,12
3,CH Gayle,36.774193548387096,383,36.774193548387096,35
4,SE Marsh,36.072463768115945,274,36.072463768115945,21
5,HM Amla,36.0625,60,36.0625,5
6,KL Rahul,34.70689655172413,177,34.70689655172413,17
7,ML Hayden,34.59375,124,34.59375,8
8,MEK Hussey,34.086206896551715,200,34.086206896551715,16
9,R Parag,33.8,18,33.8,1
10,MN van Wyk,33.4,18,33.4,1
11,RR Pant,33.185185185185176,151,33.185185185185176,12
12,KS Williamson,32.170731707317074,114,32.170731707317074,10
13,V Kohli,32.153846153846146,486,32.153846153846146,42
14,CA Lynn,31.902439024390244,127,31.902439024390244,9
15,JC Buttler,31.8,141,31.8,9
16,AB de Villiers,31.183098591549296,361,31.183098591549296,34
17,SR Tendulkar,29.923076923076927,300,29.923076923076927,14
18,Q de Kock,29.78,160,29.78,10
19,N Pooran,29.5,10,29.5,0
20,S Dhawan,29.31645569620253,529,29.31645569620253,32
21,F du Plessis,29.28125,165,29.28125,11
22,AM Rahane,29.16666666666667,410,29.16666666666667,29
23,E Lewis,29.0,36,29.0,4
24,PD Collingwood,29.0,9,29.0,3
25,AS Yadav,28.885714285714286,111,28.885714285714286,6
26,SK Raina,28.65079365079365,492,28.65079365079365,38
27,SPD Smith,28.430555555555557,183,28.430555555555557,9
28,SS Iyer,28.098360655737704,151,28.098360655737704,11
29,G Gambhir,27.966887417218548,499,27.966887417218548,34
30,KP Pietersen,27.805555555555557,92,27.805555555555557,4
31,SR Watson,27.8,345,27.8,22
32,AD Russell,27.788461538461537,99,27.788461538461537,10
33,DJ Harris,27.75,11,27.75,0
34,Salman Butt,27.57142857142857,30,27.57142857142857,1
35,JP Duminy,27.21333333333333,128,27.21333333333333,14
36,DR Smith,27.10227272727273,249,27.10227272727273,15
37,A Symonds,27.055555555555557,75,27.055555555555557,5
38,RG Sharma,27.0,431,27.0,32
39,N Rana,26.92682926829268,83,26.92682926829268,7
40,BB McCullum,26.541284403669724,294,26.541284403669724,15
41,R Dravid,26.51219512195122,272,26.51219512195122,11
42,MS Dhoni,26.335294117647056,303,26.335294117647056,23
43,V Sehwag,26.23076923076923,340,26.23076923076923,17
44,RV Uthappa,26.15294117647059,443,26.15294117647059,23
45,AC Gilchrist,25.8625,240,25.8625,12
46,AC Voges,25.857142857142854,16,25.857142857142854,0
47,ST Jayasuriya,25.6,85,25.6,5
48,JH Kallis,25.547368421052628,257,25.547368421052628,17
49,GC Smith,25.48275862068965,95,25.48275862068965,4
50,SV Samson,25.397727272727273,172,25.397727272727273,13
51,M Vijay,25.392156862745093,247,25.392156862745093,13
52,A Hales,25.33333333333333,14,25.33333333333333,0
53,KC Sangakkara,24.808823529411764,197,24.808823529411764,9
54,P Shaw,24.64,72,24.64,4
55,HH Gibbs,24.61111111111111,84,24.61111111111111,5
56,DA Miller,24.350649350649352,131,24.350649350649352,11
57,RS Bopara,24.13636363636364,39,24.13636363636364,3
58,MK Pandey,24.134453781512605,257,24.134453781512605,15
59,BJ Rohrer,24.125,22,24.125,1
60,AT Rayudu,24.10144927536232,281,24.10144927536232,19
61,SC Ganguly,24.089285714285715,138,24.089285714285715,6
62,AJ Finch,23.89041095890411,179,23.89041095890411,11
63,RA Tripathi,23.363636363636363,75,23.363636363636363,4
64,KK Nair,23.33333333333333,159,23.33333333333333,8
65,JJ Roy,23.25,18,23.25,1
66,DPMD Jayawardene,23.179487179487182,201,23.179487179487182,11
67,MJ Lumb,23.16666666666667,47,23.16666666666667,1
68,TM Dilshan,23.06,139,23.06,8
69,OA Shah,23.0,35,23.0,4
70,KD Karthik,22.765432098765434,358,22.765432098765434,17
71,M Vohra,22.577777777777783,98,22.577777777777783,3
72,S Gill,22.47826086956522,43,22.47826086956522,4
73,SA Asnodkar,22.26315789473684,59,22.26315789473684,1
74,BJ Hodge,22.222222222222218,125,22.222222222222218,5
75,M Ali,22.214285714285715,20,22.214285714285715,3
76,S Badrinath,22.169230769230772,156,22.169230769230772,11
77,H Brar,22.0,2,22.0,0
78,PC Valthaty,21.956521739130434,63,21.956521739130434,3
79,JR Hopes,21.947368421052627,49,21.947368421052627,4
80,Yuvraj Singh,21.944444444444446,218,21.944444444444446,12
81,SM Katich,21.90909090909091,26,21.90909090909091,1
82,AP Majumdar,21.75,7,21.75,0
83,DJ Hussey,21.672131147540984,90,21.672131147540984,4
84,CL White,21.577777777777783,75,21.577777777777783,6
85,Ishan Kishan,21.545454545454547,64,21.545454545454547,3
86,Kamran Akmal,21.33333333333333,12,21.33333333333333,1
87,V Shankar,21.259259259259263,34,21.259259259259263,2
88,LJ Wright,21.2,15,21.2,0
89,YK Pathan,21.18300653594771,265,21.18300653594771,15
90,UT Khawaja,21.166666666666668,14,21.166666666666668,0
91,PA Patel,21.13235294117647,369,21.13235294117647,13
92,KA Pollard,21.09090909090909,184,21.09090909090909,13
93,GJ Maxwell,20.94029850746269,113,20.94029850746269,6
94,MJ Guptill,20.846153846153847,25,20.846153846153847,0
95,JD Ryder,20.82758620689655,67,20.82758620689655,4
96,A Flintoff,20.666666666666668,6,20.666666666666668,0
97,TM Head,20.5,12,20.5,1
98,MS Bisla,20.46153846153846,97,20.46153846153846,4
99,MK Tiwary,20.44578313253012,157,20.44578313253012,6
100,JEC Franklin,20.4375,25,20.4375,1
101,BA Stokes,20.21875,43,20.21875,1
102,Niraj Patel,20.166666666666668,15,20.166666666666668,1
103,P R Barman,20.0,2,20.0,0
104,SS Tiwary,19.9375,93,19.9375,7
105,KH Pandya,19.891304347826086,86,19.891304347826086,1
106,SP Fleming,19.6,26,19.6,0
107,MC Henriques,19.38,86,19.38,5
108,MP Stoinis,19.28,35,19.28,1
109,YV Takawale,19.2,27,19.2,0
110,WP Saha,19.139784946236556,161,19.139784946236556,7
111,DR Martyn,19.0,1,19.0,0
112,Y Gnaneswara Rao,19.0,3,19.0,0
113,EJG Morgan,18.977777777777774,76,18.977777777777774,4
114,Y Venugopal Rao,18.94230769230769,77,18.94230769230769,3
115,SN Khan,18.90909090909091,45,18.90909090909091,1
116,LA Pomersbach,18.875,27,18.875,1
117,LRPL Taylor,18.83333333333333,68,18.83333333333333,3
118,Mandeep Singh,18.63855421686747,161,18.63855421686747,5
119,S Hetmyer,18.6,4,18.6,1
120,CJ Anderson,18.55172413793104,40,18.55172413793104,2
121,Azhar Mahmood,18.476190476190478,40,18.476190476190478,2
122,GJ Bailey,18.416666666666668,60,18.416666666666668,2
123,S Sohal,18.4,34,18.4,2
124,SM Pollock,18.375,12,18.375,0
125,HH Pandya,18.327868852459016,74,18.327868852459016,3
126,M Klinger,18.25,9,18.25,0
127,RR Sarwan,18.25,6,18.25,0
128,S Vidyut,18.125,22,18.125,1
129,L Livingstone,18.0,6,18.0,0
130,BJ Haddin,18.0,2,18.0,0
131,MC Juneja,17.857142857142858,11,17.857142857142858,0
132,SW Billings,17.789473684210527,33,17.789473684210527,3
133,CA Pujara,17.727272727272727,51,17.727272727272727,1
134,MA Agarwal,17.722222222222218,118,17.722222222222218,5
135,AD Mathews,17.658536585365855,45,17.658536585365855,1
136,D Short,17.571428571428573,11,17.571428571428573,0
137,M Santner,17.5,0,17.5,0
138,AL Menaria,17.434782608695652,24,17.434782608695652,0
139,TL Suman,17.333333333333332,55,17.333333333333332,2
140,AC Blizzard,17.142857142857142,22,17.142857142857142,1
141,MV Boucher,17.130434782608695,33,17.130434782608695,0
142,AP Dole,17.0,3,17.0,0
143,S Singh,17.0,1,17.0,0
144,FY Fazal,16.636363636363637,23,16.636363636363637,0
145,NV Ojha,16.54255319148936,122,16.54255319148936,6
146,Gurkeerat Singh,16.51851851851852,48,16.51851851851852,2
147,Shakib Al Hasan,16.5,71,16.5,2
148,PA Reddy,16.4,15,16.4,0
149,C Munro,16.363636363636363,20,16.363636363636363,0
150,MJ Clarke,16.333333333333332,12,16.333333333333332,0
151,W Jaffer,16.25,14,16.25,0
152,LA Carseldine,16.2,11,16.2,0
153,MR Marsh,16.071428571428573,9,16.071428571428573,0
154,D Wiese,15.875,13,15.875,0
155,SP Goswami,15.842105263157894,32,15.842105263157894,1
156,Anirudh Singh,15.75,6,15.75,0
157,BB Samantray,15.625,13,15.625,1
158,RA Jadeja,15.607999999999999,136,15.607999999999999,0
159,KM Jadhav,15.585714285714285,92,15.585714285714285,3
160,C Ingram,15.583333333333336,20,15.583333333333336,0
161,RN ten Doeschate,15.523809523809526,27,15.523809523809526,1
162,S Sriram,15.5,3,15.5,0
163,DJ Bravo,15.131313131313133,118,15.131313131313133,4
164,C Madan,15.0,4,15.0,0
165,SD Lad,15.0,1,15.0,0
166,A Joseph,15.0,2,15.0,0
167,UBT Chand,15.0,32,15.0,1
168,DB Ravi Teja,15.0,36,15.0,1
169,GR Napier,15.0,1,15.0,0
170,TR Birt,15.0,9,15.0,0
171,C de Grandhomme,14.904761904761903,19,14.904761904761903,0
172,SP Narine,14.870370370370368,95,14.870370370370368,4
173,DJG Sammy,14.75,15,14.75,1
174,RJ Quiney,14.714285714285715,13,14.714285714285715,1
175,Misbah-ul-Haq,14.625,10,14.625,0
176,J Botha,14.607142857142858,39,14.607142857142858,1
177,Mohammad Nabi,14.6,11,14.6,0
178,JA Morkel,14.552238805970148,61,14.552238805970148,3
179,VH Zol,14.5,3,14.5,0
180,SA Yadav,14.476190476190474,53,14.476190476190474,1
181,AA Jhunjhunwala,14.466666666666667,20,14.466666666666667,1
182,Y Nagar,14.25,20,14.25,0
183,NLTC Perera,14.133333333333333,26,14.133333333333333,0
184,BCJ Cutting,14.117647058823529,15,14.117647058823529,0
185,VVS Laxman,14.1,34,14.1,1
186,CH Morris,14.054054054054054,37,14.054054054054054,2
187,IK Pathan,14.024390243902438,94,14.024390243902438,1
188,JDS Neesham,14.0,3,14.0,0
189,AB Barath,14.0,5,14.0,0
190,MD Mishra,13.941176470588234,26,13.941176470588234,0
191,RE Levi,13.833333333333336,10,13.833333333333336,0
192,DB Das,13.818181818181818,23,13.818181818181818,0
193,Sachin Baby,13.7,11,13.7,0
194,AB McDonald,13.666666666666664,9,13.666666666666664,0
195,K Goel,13.625,17,13.625,0
196,M Manhas,13.526315789473687,44,13.526315789473687,0
197,AM Nayar,13.44,57,13.44,0
198,CR Brathwaite,13.428571428571427,10,13.428571428571427,0
199,STR Binny,13.363636363636365,66,13.363636363636365,0
200,LPC Silva,13.333333333333336,5,13.333333333333336,0
201,B Chipli,13.333333333333336,29,13.333333333333336,1
202,BR Dunk,13.333333333333336,7,13.333333333333336,0
203,GH Vihari,13.333333333333336,23,13.333333333333336,0
204,DT Christian,13.176470588235292,22,13.176470588235292,0
205,DJ Jacobs,13.142857142857142,10,13.142857142857142,0
206,SB Styris,13.1,11,13.1,0
207,JM Kemp,13.0,1,13.0,0
208,NL McCullum,13.0,0,13.0,0
209,AR Patel,13.0,48,13.0,0
210,CM Gautam,13.0,19,13.0,0
211,SP Jackson,12.666666666666664,5,12.666666666666664,0
212,MF Maharoof,12.642857142857142,12,12.642857142857142,0
213,AP Tare,12.555555555555555,41,12.555555555555555,1
214,SD Chitnis,12.375,10,12.375,0
215,LR Shukla,12.272727272727273,33,12.272727272727273,0
216,CJ Ferguson,12.25,9,12.25,0
217,R McLaren,12.230769230769232,14,12.230769230769232,1
218,A Ashish Reddy,12.173913043478262,17,12.173913043478262,0
219,AS Raut,12.125,13,12.125,0
220,DAJ Bracewell,12.0,1,12.0,0
221,ER Dwivedi,12.0,3,12.0,0
222,AR Bawne,12.0,1,12.0,0
223,N Saini,11.916666666666664,16,11.916666666666664,0
224,DJ Hooda,11.888888888888891,26,11.888888888888891,1
225,S Curran,11.875,13,11.875,1
226,M Kaif,11.772727272727273,23,11.772727272727273,0
227,Yashpal Singh,11.75,5,11.75,0
228,S Rutherford,11.714285714285715,2,11.714285714285715,0
229,JP Faulkner,11.711111111111109,36,11.711111111111109,0
230,MN Samuels,11.5,9,11.5,0
231,NS Naik,11.5,1,11.5,0
232,S Rana,11.375,9,11.375,0
233,S Anirudha,11.333333333333336,11,11.333333333333336,1
234,H Klaasen,11.333333333333336,5,11.333333333333336,0
235,R Sathish,11.25,22,11.25,0
236,D Salunkhe,11.0,5,11.0,0
237,Bipul Sharma,11.0,11,11.0,0
238,IR Jaggi,10.857142857142858,7,10.857142857142858,0
239,RE van der Merwe,10.6,13,10.6,0
240,RR Rossouw,10.6,3,10.6,0
241,P Dogra,10.583333333333334,4,10.583333333333334,0
242,P Negi,10.457142857142856,29,10.457142857142856,0
243,DL Chahar,10.428571428571429,2,10.428571428571429,0
244,R Singh,10.428571428571429,5,10.428571428571429,0
245,Shoaib Malik,10.4,5,10.4,0
246,T Taibu,10.333333333333334,3,10.333333333333334,0
247,Ankit Sharma,10.25,11,10.25,0
248,PR Shah,10.222222222222221,9,10.222222222222221,0
249,RT Ponting,10.111111111111109,7,10.111111111111109,0
250,S Dube,10.0,1,10.0,0
251,KAJ Roach,10.0,1,10.0,0
252,X Thalaivan Sargunam,10.0,0,10.0,0
253,DH Yagnik,10.0,23,10.0,0
254,D du Preez,10.0,0,10.0,0
255,K Rabada,10.0,5,10.0,0
256,AB Agarkar,9.944444444444443,13,9.944444444444443,0
257,R Tewatia,9.916666666666666,11,9.916666666666666,0
