,Id,SalePrice
0,1461,123555.92790014892
1,1462,164022.8780358517
2,1463,187372.27010537594
3,1464,189893.89297139613
4,1465,187422.75284997333
5,1466,173930.1941444652
6,1467,176140.2254934414
7,1468,164651.7353993984
8,1469,182653.56156647124
9,1470,124527.18761029301
10,1471,183338.33985690447
11,1472,96352.25556512512
12,1473,94372.94496039292
13,1474,154084.38903102354
14,1475,119531.54958722598
15,1476,408989.4670928829
16,1477,258930.6977342001
17,1478,270126.0476670227
18,1479,268414.2041315629
19,1480,486163.6014294761
20,1481,357124.3221436044
21,1482,206319.05299250808
22,1483,170812.3460676478
23,1484,166370.4260511181
24,1485,193465.95503960585
25,1486,191581.45266634726
26,1487,358939.39088798134
27,1488,231681.74833459462
28,1489,198088.87159404712
29,1490,217666.9173111872
30,1491,189243.84888974047
31,1492,93280.01093292717
32,1493,171704.162210891
33,1494,295904.706814502
34,1495,295975.67004238826
35,1496,216775.3310802815
36,1497,174902.56266787302
37,1498,170335.3052566881
38,1499,167643.259442951
39,1500,150274.32867636578
40,1501,179409.6021613282
41,1502,156245.98728903336
42,1503,311217.0561063416
43,1504,245711.5911482452
44,1505,222285.23938051928
45,1506,183683.4673982805
46,1507,242500.82746961102
47,1508,200572.9162780504
48,1509,155216.6736661935
49,1510,147368.5646118675
50,1511,140690.44321544233
51,1512,164904.28868079945
52,1513,143532.2991877452
53,1514,169446.35587939038
54,1515,175906.74376911588
55,1516,155062.6346595174
56,1517,160561.23152459448
57,1518,131156.1690711462
58,1519,216796.8980118623
59,1520,130131.95915192351
60,1521,130669.3128372959
61,1522,174646.50191594262
62,1523,113306.87895937626
63,1524,124019.95832193324
64,1525,126906.32374396054
65,1526,115899.4055090548
66,1527,105465.9432929384
67,1528,129061.17880720375
68,1529,155044.05251858378
69,1530,180863.89198732426
70,1531,104838.28018742053
71,1532,97918.41809614908
72,1533,154489.962529314
73,1534,122962.06892010446
74,1535,157158.5386032176
75,1536,109284.07658948793
76,1537,62779.40194002822
77,1538,157502.89690825698
78,1539,194972.12146348984
79,1540,87586.89883984179
80,1541,142430.33916568966
81,1542,152782.28555533572
82,1543,222774.92215429246
83,1544,84020.20482018034
84,1545,107738.51818444187
85,1546,131452.23822019526
86,1547,138388.46759056498
87,1548,146448.94823439847
88,1549,105643.6596459787
89,1550,139849.57569813082
90,1551,112387.74364819464
91,1552,136869.54344588026
92,1553,153535.95856523165
93,1554,111928.87047648248
94,1555,163727.05973298766
95,1556,84137.95179429206
96,1557,110307.45812897565
97,1558,100098.50566205727
98,1559,64462.108259585664
99,1560,131500.0299108047
100,1561,144435.38204529288
101,1562,132880.10060985206
102,1563,118974.90904573258
103,1564,157286.45361534046
104,1565,140872.81360866374
105,1566,227329.36987260953
106,1567,75477.46258836839
107,1568,219969.52222142747
108,1569,139521.63994022564
109,1570,139587.17760054645
110,1571,120313.64767050465
111,1572,147676.53643157572
112,1573,241298.52158798176
113,1574,112484.6422564682
114,1575,202606.03385808927
115,1576,226464.3444317876
116,1577,186844.16884960808
117,1578,145451.2300783449
118,1579,137931.31673172687
119,1580,189985.07410202027
120,1581,158580.0568604184
121,1582,127707.43149003258
122,1583,315199.84995997034
123,1584,224127.8111467489
124,1585,142485.0071529417
125,1586,66868.87033510994
126,1587,102104.98228475856
127,1588,147068.78443360573
128,1589,97168.77632320096
129,1590,139689.57623078665
130,1591,93804.86858535932
131,1592,115808.16950362873
132,1593,129687.51438145974
133,1594,141511.92651910364
134,1595,110073.90420572851
135,1596,246902.53425361164
136,1597,185212.73772712247
137,1598,222508.37791926358
138,1599,167331.00321636675
139,1600,157263.16403033212
140,1601,59536.98551527527
141,1602,117162.34561956115
142,1603,75512.54893808125
143,1604,254862.1415674437
144,1605,247788.9354310469
145,1606,175997.83025906602
146,1607,170502.92221143912
147,1608,208038.1406616766
148,1609,189454.5192874255
149,1610,151108.59221646222
150,1611,138314.64562790006
151,1612,161894.981782799
152,1613,159666.88177840243
153,1614,126530.8206251589
154,1615,82127.85279482322
155,1616,67120.98873843411
156,1617,89275.71325173033
157,1618,124531.40855230649
158,1619,140879.84521317075
159,1620,184292.41712289688
160,1621,140914.67532216525
161,1622,139847.33400644595
162,1623,306165.1226160656
163,1624,201914.43063527023
164,1625,122260.6898363834
165,1626,167274.9107807801
166,1627,187222.0356131333
167,1628,269382.6679254211
168,1629,177008.16610185907
169,1630,358069.35804649343
170,1631,214956.24971086247
171,1632,249312.8440632186
172,1633,178483.34604358015
173,1634,186831.16360199425
174,1635,175810.29844593786
175,1636,154470.8371405068
176,1637,196336.3487154896
177,1638,188025.09089362557
178,1639,180588.10920479035
179,1640,265065.1156542417
180,1641,178194.88439158988
181,1642,223813.17337760862
182,1643,223784.34841222267
183,1644,227326.30393810218
184,1645,183188.9237342424
185,1646,159460.53040677693
186,1647,150337.64940720552
187,1648,132466.11091363398
188,1649,141433.3293589281
189,1650,115993.20715401707
190,1651,118459.40186963472
191,1652,98813.08351439996
192,1653,104267.46109772944
193,1654,145803.88996536634
194,1655,146414.4698216431
195,1656,150261.07166416448
196,1657,149756.78866408527
197,1658,146328.82815004844
198,1659,132281.34905192052
199,1660,148641.92061070912
200,1661,419920.9249115897
201,1662,449141.5748072589
202,1663,379995.53747987596
203,1664,468613.34484757885
204,1665,294466.0632447342
205,1666,307545.7748962179
206,1667,345485.6383132481
207,1668,343722.8987089519
208,1669,288676.3308137984
209,1670,361858.2894729691
210,1671,267689.0519019657
211,1672,447840.9754525223
212,1673,288287.0656303068
213,1674,242673.77348581483
214,1675,184349.14442872442
215,1676,190045.85200823878
216,1677,215379.40232118266
217,1678,450408.4967166374
218,1679,387590.5541810829
219,1680,372491.4493641432
220,1681,244733.86087196364
221,1682,287710.8254331564
222,1683,175497.88417384904
223,1684,176464.80618049586
224,1685,168245.65366810234
225,1686,166135.4880576306
226,1687,180454.0870890733
227,1688,183670.24105062746
228,1689,187352.15950095805
229,1690,186493.38118937548
230,1691,186745.2772353434
231,1692,254648.3114815197
232,1693,178280.2344176021
233,1694,179448.98833329452
234,1695,173022.81406380667
235,1696,276329.6351048789
236,1697,182460.8031258561
237,1698,325222.49355456035
238,1699,315919.4047741507
239,1700,240093.02743972835
240,1701,276308.7638200925
241,1702,268608.5362484273
242,1703,269129.0430699111
243,1704,275947.2639553743
244,1705,220959.21513706728
245,1706,361351.79265085264
246,1707,205933.34775460817
247,1708,208398.509650747
248,1709,278199.3692199702
249,1710,217686.93052887492
250,1711,253278.1128015601
251,1712,285529.8562292371
252,1713,251637.40195427282
253,1714,224972.750854102
254,1715,200325.23845511774
255,1716,187495.91199592198
256,1717,173181.3416861958
257,1718,138097.97690503308
258,1719,201368.12615348914
259,1720,241590.06753367087
260,1721,167755.75341872266
261,1722,126455.53172205045
262,1723,153587.00114042865
263,1724,205589.46586945048
264,1725,240645.16691154076
265,1726,183614.82468778148
266,1727,158732.27768869585
267,1728,179803.8784184041
268,1729,172391.11510836668
269,1730,142856.25911027926
270,1731,117766.20479489092
271,1732,126632.12083634787
272,1733,113931.18632167525
273,1734,114759.02435725086
274,1735,127642.5113505334
275,1736,119212.00452533332
276,1737,318029.4639471348
277,1738,211710.43832571726
278,1739,254038.13809066906
279,1740,213179.04284016372
280,1741,193623.68067665555
281,1742,165037.21966884745
282,1743,168379.44226873494
283,1744,309895.1543111466
284,1745,232378.69945080427
285,1746,176361.4644217727
286,1747,214976.5112705229
287,1748,230178.70019864445
288,1749,158353.06968089132
289,1750,128370.79767663033
290,1751,245134.22669964802
291,1752,122965.75510854615
292,1753,137426.0693152397
293,1754,187612.98059353707
294,1755,167975.81855612685
295,1756,126021.8219948438
296,1757,121908.71323847705
297,1758,141473.2846721735
298,1759,166685.32202364109
299,1760,172410.02459827595
300,1761,148642.99485172462
301,1762,176834.92283901887
302,1763,170460.61041887256
303,1764,116439.87948773902
304,1765,158883.98172058302
305,1766,178788.37992777888
306,1767,214772.02724819828
307,1768,146471.09433724926
308,1769,169657.15177321946
309,1770,142078.09209895655
310,1771,126165.07436832336
311,1772,141907.1036062733
312,1773,129925.72502740887
313,1774,126666.95843514596
314,1775,137210.91060984178
315,1776,123632.33321979675
316,1777,114971.70220751346
317,1778,135573.1544905958
318,1779,113007.93121399269
319,1780,170115.3546794059
320,1781,130562.98334805775
321,1782,82982.48100667607
322,1783,140894.5529690331
323,1784,105942.80442531008
324,1785,121812.3634460681
325,1786,138062.82074983278
326,1787,169515.28580856492
327,1788,53461.11269567489
328,1789,96018.05426565108
329,1790,84146.7618961718
330,1791,180714.11639396648
331,1792,159500.09350530064
332,1793,121102.26796980776
333,1794,144743.50705651595
334,1795,134104.59262267777
335,1796,121095.10042838172
336,1797,117861.27769262214
337,1798,126686.15354136552
338,1799,105898.73408795797
339,1800,127432.36736685857
340,1801,133035.56110707892
341,1802,137419.30348864305
342,1803,149552.42857997687
343,1804,141790.27471305258
344,1805,139854.82676816572
345,1806,116547.88378329633
346,1807,132062.29807614314
347,1808,116955.93971360961
348,1809,114702.70894446752
349,1810,137940.0404514765
350,1811,94258.61173230324
351,1812,88096.34715066446
352,1813,124815.51209812082
353,1814,98325.03948688356
354,1815,47533.921771223984
355,1816,97614.72466023662
356,1817,106609.65688014723
357,1818,149685.07525411542
358,1819,128540.06110413426
359,1820,53472.675870983076
360,1821,108548.48258924574
361,1822,137765.53336514242
362,1823,41200.607340228635
363,1824,139610.579707856
364,1825,134779.7260425861
365,1826,104427.5951587887
366,1827,107553.72925462502
367,1828,140321.28550736193
368,1829,110516.73971034412
369,1830,141031.43223214702
370,1831,146154.49706782028
371,1832,76600.03330970094
372,1833,145409.64677070163
373,1834,118389.38061545671
374,1835,134357.54673914574
375,1836,121602.15623397092
376,1837,97025.84562537604
377,1838,130121.18211425512
378,1839,95695.04068487801
379,1840,162891.20260247268
380,1841,147819.6259926369
381,1842,84840.97273858039
382,1843,132483.0369778652
383,1844,137282.57991410707
384,1845,144845.89675415805
385,1846,153064.05976058106
386,1847,167751.13161457045
387,1848,50700.414400177695
388,1849,111042.76317347364
389,1850,116889.80363385065
390,1851,150660.63873293292
391,1852,126618.48137730568
392,1853,130691.78005381364
393,1854,175906.25585344306
394,1855,135410.98890785384
395,1856,218081.8217765631
396,1857,141760.59760531876
397,1858,142090.7281770843
398,1859,119796.36997857176
399,1860,152197.5031180543
400,1861,119511.57285708831
401,1862,297795.17226021946
402,1863,281931.6186393095
403,1864,281931.6186393095
404,1865,348110.46149281826
405,1866,339474.8238510027
406,1867,237356.1628440774
407,1868,309279.94858071214
408,1869,200481.86324783345
409,1870,223775.64357514112
410,1871,239083.13674458317
411,1872,165711.9549479264
412,1873,255709.8108130108
413,1874,144270.10043921927
414,1875,197227.23737214887
415,1876,194419.96030290663
416,1877,199485.94409886526
417,1878,201353.75338610832
418,1879,126524.32798999471
419,1880,131472.85185281932
420,1881,234597.0868849331
421,1882,268160.10503604304
422,1883,189612.52001571306
423,1884,203070.38322085273
424,1885,235213.97872222983
425,1886,312819.9904439353
426,1887,205386.9960290821
427,1888,268392.50250747165
428,1889,153516.05998788867
429,1890,121228.37755133134
430,1891,140201.82343093565
431,1892,106434.29685672908
432,1893,124906.12527962087
433,1894,122051.2215489333
434,1895,131675.18014860153
435,1896,126478.43261470053
436,1897,115036.09824570967
437,1898,113282.81703614516
438,1899,157572.147844695
439,1900,168871.96803773922
440,1901,174106.0789668564
441,1902,143879.47268747044
442,1903,231537.77462660245
443,1904,148497.32470844814
444,1905,205615.91006658
445,1906,191819.47352719225
446,1907,200482.96011236167
447,1908,111393.60477429305
448,1909,136457.50530936162
449,1910,119313.0744633789
450,1911,229020.9353020604
451,1912,334342.89269792876
452,1913,152145.07710896558
453,1914,52366.563477887765
454,1915,302109.96797289076
455,1916,74244.86466222769
456,1917,248775.32745225774
457,1918,143103.20770225176
458,1919,173636.73125665906
459,1920,144921.38592171346
460,1921,435561.15759714117
461,1922,334193.06323265913
462,1923,211866.5978640255
463,1924,225858.86058417536
464,1925,184377.4817655272
465,1926,388587.6644232311
466,1927,126391.69183543461
467,1928,159176.07355688314
468,1929,115160.21791457053
469,1930,135133.81571287094
470,1931,149065.1934745351
471,1932,137082.25317469932
472,1933,181178.33887186012
473,1934,180384.0376953281
474,1935,166206.1862111842
475,1936,186007.3018278549
476,1937,185910.67173667028
477,1938,177035.44740076872
478,1939,244926.5654581646
479,1940,189831.4294708088
480,1941,171145.56445375155
481,1942,184023.5957284505
482,1943,206743.98043336652
483,1944,373082.72969293664
484,1945,405545.5634425209
485,1946,135708.69063265473
486,1947,327241.54741358384
487,1948,162139.49028518106
488,1949,262690.214422033
489,1950,181452.30238360612
490,1951,261112.63688925453
491,1952,233388.0093027097
492,1953,155246.14502118682
493,1954,179394.21360280496
494,1955,130304.2774227112
495,1956,304991.0327676467
496,1957,153781.88804513458
497,1958,310475.8916753425
498,1959,145705.29271327256
499,1960,116308.86276002279
500,1961,122724.23887650792
501,1962,96700.54106546263
502,1963,103870.08135156467
503,1964,111296.2860498392
504,1965,149098.0096266531
505,1966,144575.45077273712
506,1967,278594.6882946068
507,1968,437336.20103285677
508,1969,402441.5165536568
509,1970,410311.76830743736
510,1971,457671.8963687018
511,1972,401436.5254521874
512,1973,256724.6502551005
513,1974,311073.05918040033
514,1975,526878.4212419182
515,1976,258818.94881613625
516,1977,358646.6027068997
517,1978,350581.2100716816
518,1979,359499.0183045353
519,1980,186757.51448729078
520,1981,357301.5769083018
521,1982,222802.25986682068
522,1983,204604.96650838613
523,1984,167253.0447826999
524,1985,211753.7032933381
525,1986,211500.51875319864
526,1987,175774.18510207694
527,1988,173390.97259491036
528,1989,191944.97073191774
529,1990,204556.67908279138
530,1991,236282.0424100717
531,1992,207700.30980586048
532,1993,172248.6954189103
533,1994,236422.90997975843
534,1995,183418.00033308144
535,1996,275005.37445269
536,1997,322437.8825848442
537,1998,314400.6617048554
538,1999,249996.00360630197
539,2000,329501.7588384511
540,2001,263079.1996864556
541,2002,243965.19945597055
542,2003,255486.53628701702
543,2004,272822.00844234275
544,2005,213930.29793803606
545,2006,234457.8128079259
546,2007,253890.2754642205
547,2008,214686.06465576863
548,2009,192181.83602481094
549,2010,193721.7326157064
550,2011,142969.40846751054
551,2012,173713.59107698352
552,2013,177317.250023516
553,2014,182177.13647832317
554,2015,204182.9399579635
555,2016,190199.11945786446
556,2017,189016.02426797047
557,2018,119579.47745221255
558,2019,131671.0284666471
559,2020,106913.96703615184
560,2021,107266.1347935429
561,2022,183934.7269066993
562,2023,150963.43952293522
563,2024,251981.8183563948
564,2025,393084.05082455784
565,2026,164933.57936463947
566,2027,148522.75502955733
567,2028,146642.1236208906
568,2029,164869.59443539882
569,2030,286728.96418834786
570,2031,244424.4103640932
571,2032,254948.88986640074
572,2033,273420.2798054861
573,2034,169845.97107113092
574,2035,210275.56881360352
575,2036,186323.88127004035
576,2037,199208.02645706848
577,2038,312761.7294742827
578,2039,211621.4594659824
579,2040,325487.7082786477
580,2041,318770.8980456159
581,2042,199818.128339714
582,2043,176408.47122974126
583,2044,159711.1012164036
584,2045,219983.0336026664
585,2046,137662.08219929854
586,2047,145988.62219206052
587,2048,139304.99131315068
588,2049,137721.16802098555
589,2050,174879.6069614203
590,2051,108342.5543134066
591,2052,131634.99477235545
592,2053,146480.3995095893
593,2054,81744.35179928305
594,2055,148488.82099592694
595,2056,141018.30693226052
596,2057,116145.10907933587
597,2058,217952.61284100212
598,2059,129715.68866231776
599,2060,173882.02541448918
600,2061,178014.9325844001
601,2062,133850.6096407118
602,2063,112152.96090093676
603,2064,149369.46627602004
604,2065,118037.28640038193
605,2066,160407.70521792822
606,2067,107884.48195547312
607,2068,131789.3724304298
608,2069,92466.81736279133
609,2070,114570.20787383824
610,2071,91909.66024192217
611,2072,137044.92355928302
612,2073,136327.13672115115
613,2074,181220.86118149696
614,2075,149264.63820241494
615,2076,127455.80412338555
616,2077,158330.97988056813
617,2078,132973.07981051158
618,2079,140640.74488626985
619,2080,125352.06836434554
620,2081,126763.83885562162
621,2082,127718.69844410328
622,2083,147365.27014314965
623,2084,111865.24434329344
624,2085,122895.33549614315
625,2086,117842.3629060565
626,2087,122581.68456389685
627,2088,93498.14230112608
628,2089,76708.61532803101
629,2090,128542.18259341748
630,2091,123116.15377941895
631,2092,126346.47759513473
632,2093,115099.22506051973
633,2094,126730.3426449491
634,2095,144940.4817242997
635,2096,80456.7645194685
636,2097,93067.65121019988
637,2098,146318.31506834846
638,2099,55604.89761064906
639,2100,82406.71768468298
640,2101,119359.84365995172
641,2102,119735.03580730855
642,2103,108986.63019801994
643,2104,127024.61205327275
644,2105,121298.47611484845
645,2106,65347.828567596276
646,2107,206295.77826607745
647,2108,111317.42057264986
648,2109,110495.97279522491
649,2110,135542.23473694222
650,2111,147370.79618198247
651,2112,143903.14850859807
652,2113,119484.69391810543
653,2114,121734.61030889358
654,2115,171832.21570366767
655,2116,124128.6216048805
656,2117,157446.26991229257
657,2118,125445.83220534588
658,2119,105587.29282746822
659,2120,119367.72487081234
660,2121,134021.06655323127
661,2122,104845.53394316432
662,2123,82723.16306124906
663,2124,166402.37020888366
664,2125,124538.8907132504
665,2126,149064.81193477608
666,2127,161871.63209782008
667,2128,122372.22559186652
668,2129,99098.65661510878
669,2130,141437.33338963665
670,2131,141471.9709368276
671,2132,125195.90729403547
672,2133,130428.18542783581
673,2134,121352.45655557033
674,2135,95525.83195236174
675,2136,72656.59684227293
676,2137,115947.24036581315
677,2138,140016.10288354743
678,2139,154520.2071220899
679,2140,131648.16181039048
680,2141,139634.3002454751
681,2142,124735.3843644714
682,2143,147201.84695739
683,2144,121810.64335262086
684,2145,133089.62650839222
685,2146,163518.08130501784
686,2147,153827.48657475685
687,2148,128283.02491189472
688,2149,145156.3245090997
689,2150,238852.51146879
690,2151,115660.31163240953
691,2152,159666.15030741662
692,2153,157904.36865536706
693,2154,102438.3888163035
694,2155,133222.95614129354
695,2156,255657.4801196785
696,2157,234818.23700356265
697,2158,242191.41256988735
698,2159,196690.3416638804
699,2160,186774.10605325797
700,2161,239297.08816012988
701,2162,438864.4954241019
702,2163,358562.5795397228
703,2164,238979.0542742136
704,2165,201034.90274637926
705,2166,149093.72696158206
706,2167,212674.60112290585
707,2168,206892.91312477813
708,2169,191982.6265813196
709,2170,219136.8780266823
710,2171,144489.01690919482
711,2172,137525.99999212896
712,2173,161202.3010732611
713,2174,238254.5469356646
714,2175,308191.35293458524
715,2176,313399.99706444115
716,2177,242804.34021761763
717,2178,216832.0206007216
718,2179,142908.23985027554
719,2180,220255.7738585321
720,2181,182144.16618104104
721,2182,220235.25275473858
722,2183,188622.69187418805
723,2184,124635.53788575383
724,2185,119107.81180809592
725,2186,144454.60836396788
726,2187,159024.1335592762
727,2188,159252.75322803544
728,2189,194014.4444567146
729,2190,85518.97213672088
730,2191,84046.79030496164
731,2192,89837.76187449678
732,2193,99211.96819066221
733,2194,105898.51703526816
734,2195,108038.91686254698
735,2196,101361.45646667383
736,2197,112464.10004902644
737,2198,162806.10736681378
738,2199,195947.91463351512
739,2200,155705.1149026083
740,2201,148641.04554997644
741,2202,218678.9057832937
742,2203,139396.5995168827
743,2204,189697.4929019977
744,2205,121720.64067959278
745,2206,152210.35614654847
746,2207,205598.43539159698
747,2208,267279.52612703305
748,2209,223717.65921036663
749,2210,119831.08848459765
750,2211,119975.6501256175
751,2212,119173.60849383961
752,2213,102491.39573070416
753,2214,130932.5289088105
754,2215,104382.71626466906
755,2216,135475.1096573993
756,2217,67164.77417612281
757,2218,69628.54061971554
758,2219,66230.36925458693
759,2220,60561.498270848446
760,2221,302106.1435179053
761,2222,273622.49173616164
762,2223,326038.0145276088
763,2224,200141.4490979609
764,2225,121583.80304867474
765,2226,172308.89459004375
766,2227,198474.71658069067
767,2228,264924.08787284174
768,2229,269465.279503355
769,2230,152559.51253175992
770,2231,210653.6659075432
771,2232,177225.5531589261
772,2233,169817.12758494614
773,2234,236380.7385641864
774,2235,197968.11741069227
775,2236,295609.96785610984
776,2237,338007.8199408975
777,2238,194877.5174560945
778,2239,117518.88385479768
779,2240,158146.00915250884
780,2241,149410.97442656208
781,2242,130218.28102588818
782,2243,123519.94620309213
783,2244,100755.30986246029
784,2245,92190.95155446613
785,2246,139805.26244340526
786,2247,115261.95841363068
787,2248,128587.53326687947
788,2249,124024.3764762741
789,2250,131741.04649089172
790,2251,93626.24318848153
791,2252,170198.60631416136
792,2253,152849.51314534346
793,2254,175478.35603767133
794,2255,189262.69728074246
795,2256,178503.7603669641
796,2257,199372.19129733427
797,2258,162668.95073720792
798,2259,182689.50911888533
799,2260,152541.83707931355
800,2261,178809.01780119046
801,2262,202565.67000731762
802,2263,393374.67816652905
803,2264,456031.2445340064
804,2265,156588.0847088769
805,2266,321190.60391796025
806,2267,410956.09138193174
807,2268,417834.78348481964
808,2269,156964.98802973202
809,2270,191959.6128339345
810,2271,219062.80548182726
811,2272,190996.80079078933
812,2273,158969.15469397866
813,2274,183001.39653315762
814,2275,176089.05127951212
815,2276,187306.39341874575
816,2277,192611.5752075172
817,2278,144331.80721533392
818,2279,120663.66963987846
819,2280,115773.883593717
820,2281,170829.94111665268
821,2282,181431.5968154309
822,2283,101662.22542509105
823,2284,111100.26158810784
824,2285,144314.58897198114
825,2286,125033.08614383196
826,2287,363734.18624188117
827,2288,266873.89529295405
828,2289,394785.4509986426
829,2290,465505.92036404577
830,2291,324661.9586002264
831,2292,450770.2984693261
832,2293,465746.1241715114
833,2294,406744.081920101
834,2295,478548.9323640882
835,2296,258839.59661878104
836,2297,307763.43310350506
837,2298,351048.349840925
838,2299,340479.5442932723
839,2300,353937.2600104529
840,2301,277600.638173978
841,2302,239785.71170145646
842,2303,257600.1033932277
843,2304,246195.62960952948
844,2305,195626.2487824076
845,2306,188713.71879892235
846,2307,191312.95367046812
847,2308,232284.00146814605
848,2309,288118.6313381045
849,2310,207721.67426954678
850,2311,191848.61759856308
851,2312,171077.28379613164
852,2313,175283.6509630619
853,2314,168841.8720828883
854,2315,173505.12908574473
855,2316,185726.47445935867
856,2317,192012.64863593425
857,2318,178287.50851068468
858,2319,181265.90171018886
859,2320,187973.40387568728
860,2321,238799.91403695827
861,2322,174892.9501587456
862,2323,187584.96537169078
863,2324,177381.71612201782
864,2325,229866.96672495588
865,2326,181034.56981240702
866,2327,196810.77093705093
867,2328,212314.52016809094
868,2329,190167.09571485047
869,2330,179129.33140596238
870,2331,369244.75221535156
871,2332,389235.75409880147
872,2333,325793.7174573512
873,2334,240890.4146252423
874,2335,276974.66738939425
875,2336,315552.9025566089
876,2337,200836.02147800612
877,2338,256996.1950750825
878,2339,221767.8569431381
879,2340,387363.7581906387
880,2341,224235.03552323827
881,2342,250525.59854470496
882,2343,226504.34066793663
883,2344,208757.45474342228
884,2345,240947.7023616749
885,2346,215059.62852594012
886,2347,198418.4095012616
887,2348,240081.81258959768
888,2349,180178.53329243578
889,2350,287665.42603451235
890,2351,251385.2920736131
891,2352,270127.48046372377
892,2353,207828.67798605468
893,2354,141275.3952822265
894,2355,145902.97076934794
895,2356,147968.22188230028
896,2357,188330.3179682963
897,2358,192771.7766545456
898,2359,130352.16454095881
899,2360,122727.55681530829
900,2361,152195.02298076244
901,2362,305229.52647297306
902,2363,132751.05703681306
903,2364,152384.58120317807
904,2365,213137.9617871524
905,2366,182546.53662971078
906,2367,228929.42841393768
907,2368,211517.6965072965
908,2369,230995.9499054361
909,2370,161900.4789120923
910,2371,163439.33437327214
911,2372,192618.4106190615
912,2373,284173.3332159882
913,2374,341098.97227784124
914,2375,269658.2139366689
915,2376,279836.01868451806
916,2377,345547.7215341096
917,2378,146608.19688851145
918,2379,191060.14745441577
919,2380,147993.42282809122
920,2381,166812.30860010948
921,2382,194560.49757781182
922,2383,210413.19840303846
923,2384,246931.83402432463
924,2385,164850.12155161067
925,2386,135564.74380365846
926,2387,138395.9884796334
927,2388,98016.52566544033
928,2389,120187.10922667212
929,2390,147673.42506058898
930,2391,138939.72179508893
931,2392,118617.22056839454
932,2393,165338.43039988505
933,2394,142304.46676182054
934,2395,211892.15886583718
935,2396,145312.6542713898
936,2397,220106.31260179344
937,2398,136229.48077621896
938,2399,58817.305815903914
939,2400,56862.295930404325
940,2401,116432.11363416346
941,2402,144612.53403854885
942,2403,131801.8442789841
943,2404,154067.0385812059
944,2405,163581.97186763462
945,2406,138074.23370260693
946,2407,119944.31135735332
947,2408,140958.5210851849
948,2409,119654.93882683148
949,2410,161426.44166921775
950,2411,120310.49449222627
951,2412,158474.8416224149
952,2413,130765.56316010984
953,2414,137165.41068576465
954,2415,131010.0881006592
955,2416,124188.34947031293
956,2417,136465.66168581616
957,2418,133716.73011206934
958,2419,130595.88083788265
959,2420,126770.71064565926
960,2421,141054.21025505185
961,2422,102911.49775714386
962,2423,121612.97688652195
963,2424,160948.0698959695
964,2425,180523.38920812568
965,2426,144988.99137329214
966,2427,129273.28742122494
967,2428,180340.02427089307
968,2429,119517.61398520516
969,2430,129151.71536314314
970,2431,109244.90419600953
971,2432,149312.44294922386
972,2433,153219.71901619856
973,2434,137902.50021852928
974,2435,151919.5840751754
975,2436,110484.6310152264
976,2437,110356.85703236304
977,2438,126274.04214658686
978,2439,113588.09280054332
979,2440,119942.83270087655
980,2441,91331.85989315485
981,2442,97853.24972323117
982,2443,120826.8084346121
983,2444,133473.25550032264
984,2445,86368.57860679232
985,2446,134119.14535891052
986,2447,188501.43008081536
987,2448,131773.48225721548
988,2449,112155.60560715778
989,2450,148268.2496927263
990,2451,129580.42921069494
991,2452,213829.42419772898
992,2453,88886.444207625
993,2454,121184.25586240215
994,2455,130590.39372554507
995,2456,139990.0557291451
996,2457,129079.76660874546
997,2458,123654.70386781463
998,2459,111690.1978297076
999,2460,153641.80897176886
1000,2461,117550.17074608494
1001,2462,149716.7060429191
1002,2463,117910.9016024267
1003,2464,168742.30494920805
1004,2465,138047.76678885106
1005,2466,115323.57681431586
1006,2467,145356.40753827806
1007,2468,79885.45636597475
1008,2469,73870.939922288
1009,2470,188498.41643365484
1010,2471,202755.3755042248
1011,2472,159709.89046127352
1012,2473,125801.40923611069
1013,2474,83522.39343535059
1014,2475,239983.24021018101
1015,2476,113853.31775133488
1016,2477,128399.17368569635
1017,2478,154409.18159139165
1018,2479,100907.31794610393
1019,2480,147535.49229648613
1020,2481,120882.07463328858
1021,2482,128868.77657319536
1022,2483,118122.25119236814
1023,2484,124403.39097859955
1024,2485,128106.5558053448
1025,2486,164638.274320102
1026,2487,162764.80381396375
1027,2488,164334.36312702086
1028,2489,146652.0328649623
1029,2490,151976.06861768095
1030,2491,90308.68477206511
1031,2492,177784.24170701765
1032,2493,145160.41445967773
1033,2494,144500.48559741632
1034,2495,88870.90568258065
1035,2496,248167.50496079426
1036,2497,157450.912115861
1037,2498,113739.96210619267
1038,2499,97863.99730906717
1039,2500,127111.3364048474
1040,2501,139331.55382659516
1041,2502,163204.18266568484
1042,2503,98704.8610337156
1043,2504,175430.5474745967
1044,2505,209322.02857291608
1045,2506,256021.6581280393
1046,2507,304787.8459632698
1047,2508,257130.80464198228
1048,2509,212491.62542329106
1049,2510,225268.0677225843
1050,2511,174434.66710898367
1051,2512,209794.69585504496
1052,2513,211100.31480759667
1053,2514,245885.2134860641
1054,2515,149931.33427305243
1055,2516,165403.8147950813
1056,2517,142420.21192799765
1057,2518,156876.76484343348
1058,2519,223904.01965212185
1059,2520,211716.8422592774
1060,2521,185857.76309184707
1061,2522,217140.3078270118
1062,2523,118887.63399189682
1063,2524,133121.0363646268
1064,2525,148080.1328976669
1065,2526,141827.22563354232
1066,2527,122217.71981682444
1067,2528,129190.34074692953
1068,2529,129521.98384272258
1069,2530,119563.13544735251
1070,2531,255223.26328429172
1071,2532,217708.66816560552
1072,2533,198508.9035270011
1073,2534,236567.5867011623
1074,2535,336900.91604481236
1075,2536,223642.45300217962
1076,2537,239827.995807757
1077,2538,182375.7852407884
1078,2539,187056.10484828558
1079,2540,177639.08685277542
1080,2541,179713.4092235152
1081,2542,168845.17500336244
1082,2543,125881.62891320957
1083,2544,125424.60465697137
1084,2545,145809.52791726706
1085,2546,124214.0745113959
1086,2547,132902.03322830828
1087,2548,157175.05906709094
1088,2549,163329.52049179163
1089,2550,397016.6141764439
1090,2551,141500.6678171149
1091,2552,129329.68981918227
1092,2553,72346.1698028955
1093,2554,106686.1920820119
1094,2555,127119.61450431964
1095,2556,100846.19924688851
1096,2557,107461.71666433004
1097,2558,154154.7109720442
1098,2559,145016.66275271378
1099,2560,145717.18706662222
1100,2561,145766.56808348792
1101,2562,131150.55594773268
1102,2563,145810.72830818515
1103,2564,216601.27009078066
1104,2565,143139.409439976
1105,2566,164580.10044855525
1106,2567,141721.61677348625
1107,2568,199967.78065285913
1108,2569,229400.1006089737
1109,2570,113672.09433902756
1110,2571,178140.2096606968
1111,2572,155478.06902192824
1112,2573,228278.54034173943
1113,2574,265339.33317463426
1114,2575,123081.94220657012
1115,2576,116191.4650235359
1116,2577,156051.85964480884
1117,2578,79036.99540397705
1118,2579,67943.69864815606
1119,2580,100224.0205992682
1120,2581,97202.66267165367
1121,2582,93662.99251892189
1122,2583,285283.9296193739
1123,2584,176514.3127918822
1124,2585,177509.49306543914
1125,2586,218854.07589574702
1126,2587,189607.83128833934
1127,2588,155560.72945978268
1128,2589,142277.46995370966
1129,2590,208373.69481818282
1130,2591,230760.71438015532
1131,2592,229823.0485716193
1132,2593,266147.45241544564
1133,2594,184579.20137755477
1134,2595,199642.31613387406
1135,2596,306452.9571072447
1136,2597,177489.47735120152
1137,2598,305300.8554390175
1138,2599,298921.8481437032
1139,2600,125595.28321121898
1140,2601,153443.77891958118
1141,2602,78125.76158582888
1142,2603,92330.69899505156
1143,2604,85016.98703664634
1144,2605,73300.64396579702
1145,2606,141314.31726627567
1146,2607,215798.38072845511
1147,2608,191051.6720108977
1148,2609,174888.1278280647
1149,2610,109989.08205882821
1150,2611,119814.63627136465
1151,2612,154054.0274228522
1152,2613,132290.9160019506
1153,2614,133347.78505204138
1154,2615,153641.53643330748
1155,2616,142100.9078754678
1156,2617,167526.19815630608
1157,2618,203571.34960342039
1158,2619,201934.03110073984
1159,2620,184874.60854958516
1160,2621,180277.96665544747
1161,2622,186392.72023301735
1162,2623,257619.1672667393
1163,2624,321552.9787012758
1164,2625,337695.7217991447
1165,2626,178065.85658770712
1166,2627,157058.4725559263
1167,2628,510226.4996188786
1168,2629,456109.15113220474
1169,2630,363378.99774975545
1170,2631,460757.4468102514
1171,2632,442952.9827077728
1172,2633,333019.31413734826
1173,2634,422703.525177596
1174,2635,158425.03185020335
1175,2636,182624.0861880801
1176,2637,173028.22836319526
1177,2638,267314.4208067523
1178,2639,177675.92886576612
1179,2640,152719.82766363627
1180,2641,115055.82478377098
1181,2642,182542.580397788
1182,2643,101784.35606418492
1183,2644,124151.74314074812
1184,2645,103017.58129727279
1185,2646,95448.82898173777
1186,2647,103040.36266892488
1187,2648,139323.70410765873
1188,2649,148104.47838046294
1189,2650,148335.02080817812
1190,2651,141548.48557399405
1191,2652,409185.6117768979
1192,2653,256424.24892082185
1193,2654,243588.5330605704
1194,2655,409281.50550236687
1195,2656,293198.61841763696
1196,2657,371953.7922333896
1197,2658,317172.7065007313
1198,2659,297779.9809688137
1199,2660,355341.9136822557
1200,2661,355823.42734457884
1201,2662,344114.9344118986
1202,2663,286023.2679525367
1203,2664,276318.33169060573
1204,2665,324588.3380078506
1205,2666,306751.0781081403
1206,2667,167296.58846614565
1207,2668,176619.00111386567
1208,2669,185952.86262467699
1209,2670,269706.96632181306
1210,2671,182418.10770714367
1211,2672,192192.05040392614
1212,2673,201471.8938271156
1213,2674,194864.7924387593
1214,2675,166425.93399671395
1215,2676,184090.73284969985
1216,2677,193148.78068697712
1217,2678,262120.61493975768
1218,2679,266726.58835469466
1219,2680,277136.89655535016
1220,2681,411981.91389932437
1221,2682,315735.8938574732
1222,2683,576476.847805811
1223,2684,317922.0223103781
1224,2685,334742.43641680136
1225,2686,260081.8546110383
1226,2687,318994.23790562205
1227,2688,227958.43389167124
1228,2689,207714.82167248396
1229,2690,403962.025440616
1230,2691,186730.70830930857
1231,2692,137444.2278658629
1232,2693,192745.07543263052
1233,2694,136210.89058985625
1234,2695,196180.2938677552
1235,2696,187679.49722344114
1236,2697,191388.71730260988
1237,2698,192860.32345229146
1238,2699,175175.97071145134
1239,2700,150800.31892417042
1240,2701,148008.74701960606
1241,2702,109125.40555734524
1242,2703,121845.78125860804
1243,2704,136164.81018311845
1244,2705,119720.81614955145
1245,2706,116775.25069482732
1246,2707,122036.11279168435
1247,2708,142570.91522341274
1248,2709,107997.0557974232
1249,2710,123932.78969708626
1250,2711,291506.3401611766
1251,2712,369794.6776407941
1252,2713,160862.0603561601
1253,2714,155710.28498637234
1254,2715,167663.08664510073
1255,2716,153500.51530866395
1256,2717,163640.47313587574
1257,2718,230358.19105219905
1258,2719,158370.0179175323
1259,2720,177380.10142246878
1260,2721,133017.96947632227
1261,2722,163163.75668311393
1262,2723,140378.40096147562
1263,2724,129920.16197464564
1264,2725,131781.61844770634
1265,2726,146244.71203145594
1266,2727,177434.19225956398
1267,2728,174069.5448746134
1268,2729,137861.11832922322
1269,2730,145173.88675536402
1270,2731,134377.6490837454
1271,2732,130181.98214049176
1272,2733,157838.74383663782
1273,2734,147735.136891912
1274,2735,135020.5337164301
1275,2736,138123.8824595308
1276,2737,125067.48954474482
1277,2738,129859.98913708932
1278,2739,159677.93136309893
1279,2740,132257.25124881786
1280,2741,151691.65651167982
1281,2742,156809.2391807553
1282,2743,156130.59896278536
1283,2744,162378.66949281722
1284,2745,140996.28815575902
1285,2746,134708.7190478116
1286,2747,139572.73636165206
1287,2748,115666.45125913179
1288,2749,127791.1294036769
1289,2750,139960.15701035687
1290,2751,137763.458451135
1291,2752,192955.61428562945
1292,2753,151496.3272633515
1293,2754,220416.89628304934
1294,2755,138652.91733946322
1295,2756,87742.34582945639
1296,2757,70001.66247466549
1297,2758,81214.35211602901
1298,2759,156818.8315031474
1299,2760,132784.54690269567
1300,2761,149304.80371853453
1301,2762,139958.6222410461
1302,2763,188925.4187223669
1303,2764,137588.8591004518
1304,2765,290159.06802570197
1305,2766,133253.08176902347
1306,2767,91124.70548275107
1307,2768,134163.4902507908
1308,2769,129749.1708426728
1309,2770,141679.20305978387
1310,2771,112410.9593422124
1311,2772,117036.57407760355
1312,2773,162004.6552644235
1313,2774,137640.3447790523
1314,2775,113927.60754808779
1315,2776,139470.30929638506
1316,2777,148778.34293377007
1317,2778,104025.71523668256
1318,2779,120974.53884583744
1319,2780,101048.13452890817
1320,2781,97513.3034158394
1321,2782,97656.00555469717
1322,2783,101809.938321557
1323,2784,123175.10325928836
1324,2785,130554.00901644536
1325,2786,66905.15702270009
1326,2787,120438.8136046632
1327,2788,70140.4674897312
1328,2789,177315.00095772734
1329,2790,91765.12430568377
1330,2791,113047.05143171053
1331,2792,47688.590847532316
1332,2793,180120.4626884388
1333,2794,100465.14961625854
1334,2795,124105.62463474512
1335,2796,99865.12719636492
1336,2797,172645.9499969332
1337,2798,110505.77887675381
1338,2799,117535.95629051096
1339,2800,62330.44067181513
1340,2801,107678.10559893335
1341,2802,133561.5042989624
1342,2803,161409.35807490555
1343,2804,125395.12010694946
1344,2805,104219.95274178154
1345,2806,75962.33216072463
1346,2807,160589.94766070732
1347,2808,150277.72573103957
1348,2809,138524.88259851412
1349,2810,131374.39046960312
1350,2811,162275.24724043257
1351,2812,157067.39698838186
1352,2813,152008.35736795294
1353,2814,158877.86561131608
1354,2815,106147.28150011506
1355,2816,234863.49790519988
1356,2817,158660.1357940831
1357,2818,127805.46742941956
1358,2819,166143.78756524852
1359,2820,141020.17985823887
1360,2821,98570.43716790024
1361,2822,209178.62936139747
1362,2823,276886.38888315816
1363,2824,169420.23862795345
1364,2825,137533.94250302648
1365,2826,131237.95835336947
1366,2827,139361.06077504097
1367,2828,208187.69784324683
1368,2829,222620.70382186386
1369,2830,216924.82294781366
1370,2831,171168.34831952766
1371,2832,243557.3763861761
1372,2833,293145.45909959346
1373,2834,214622.24837340298
1374,2835,220916.1358634497
1375,2836,193461.3001724801
1376,2837,157632.0808409695
1377,2838,153337.47955948752
1378,2839,176206.2974649796
1379,2840,203527.44609245608
1380,2841,201812.13319349798
1381,2842,225353.2343319677
1382,2843,152321.0206886948
1383,2844,169237.8881819965
1384,2845,121239.01669767125
1385,2846,200515.86105441142
1386,2847,201474.0402259359
1387,2848,222226.16160524747
1388,2849,197600.94615355218
1389,2850,278108.98997895647
1390,2851,225771.77237878952
1391,2852,223891.65451936726
1392,2853,229905.77580886378
1393,2854,140237.232787248
1394,2855,200639.27113703734
1395,2856,203533.13007851824
1396,2857,191068.91882239148
1397,2858,204482.70604894854
1398,2859,120990.10277347865
1399,2860,134307.28739912118
1400,2861,122126.2864076478
1401,2862,183979.2315758028
1402,2863,123985.83219236367
1403,2864,232806.25438668468
1404,2865,142357.40194085753
1405,2866,138907.25409447146
1406,2867,96163.9702135638
1407,2868,99981.28399682342
1408,2869,112273.68090020024
1409,2870,123940.74371986759
1410,2871,82187.85906645867
1411,2872,46064.67017765278
1412,2873,97018.51684316936
1413,2874,145378.15231658207
1414,2875,118856.97148081461
1415,2876,168128.84420499866
1416,2877,137877.7700680655
1417,2878,157777.935040773
1418,2879,147908.8711259235
1419,2880,100104.1667346612
1420,2881,157089.0425662749
1421,2882,185584.70340853685
1422,2883,200466.6137321834
1423,2884,191538.1098932293
1424,2885,191422.33411588246
1425,2886,225954.95912774012
1426,2887,94627.79506195943
1427,2888,137000.88790897842
1428,2889,59545.9426402977
1429,2890,81974.23674168326
1430,2891,136755.51957438086
1431,2892,43666.04620884872
1432,2893,75043.70597931989
1433,2894,48472.232459763225
1434,2895,348588.2493138912
1435,2896,288828.3791151362
1436,2897,205942.63893187977
1437,2898,156119.99404199605
1438,2899,217881.68024553507
1439,2900,162978.89225665526
1440,2901,189331.62515095004
1441,2902,186462.76022953962
1442,2903,339445.4552434471
1443,2904,354051.27032324724
1444,2905,82533.56743265927
1445,2906,199664.75201178546
1446,2907,112610.09085058619
1447,2908,135014.55302903304
1448,2909,138183.65827864115
1449,2910,79975.27161852253
1450,2911,76776.014107477
1451,2912,145391.88472767585
1452,2913,85614.6776608268
1453,2914,72442.8224651868
1454,2915,76811.23327375574
1455,2916,82094.46755171346
1456,2917,159716.90450233262
1457,2918,115459.40490442252
1458,2919,216555.33571913408
