,country,beer_servings,spirit_servings,wine_servings,total_litres_of_pure_alcohol,continent
96,Liberia,19,152,2,3.1,AF
97,Libya,0,0,0,0.0,AF
98,Lithuania,343,244,56,12.9,EU
99,Luxembourg,236,133,271,11.4,EU
100,Madagascar,26,15,4,0.8,AF
101,Malawi,8,11,1,1.5,AF
102,Malaysia,13,4,0,0.3,AS
103,Maldives,0,0,0,0.0,AS
104,Mali,5,1,1,0.6,AF
105,Malta,149,100,120,6.6,EU
106,Marshall Islands,0,0,0,0.0,OC
107,Mauritania,0,0,0,0.0,AF
108,Mauritius,98,31,18,2.6,AF
109,Mexico,238,68,5,5.5,
110,Micronesia,62,50,18,2.3,OC
111,Monaco,0,0,0,0.0,EU
112,Mongolia,77,189,8,4.9,AS
113,Montenegro,31,114,128,4.9,EU
114,Morocco,12,6,10,0.5,AF
115,Mozambique,47,18,5,1.3,AF
116,Myanmar,5,1,0,0.1,AS
117,Namibia,376,3,1,6.8,AF
118,Nauru,49,0,8,1.0,OC
119,Nepal,5,6,0,0.2,AS
120,Netherlands,251,88,190,9.4,EU
121,New Zealand,203,79,175,9.3,OC
122,Nicaragua,78,118,1,3.5,
123,Niger,3,2,1,0.1,AF
124,Nigeria,42,5,2,9.1,AF
125,Niue,188,200,7,7.0,OC
126,Norway,169,71,129,6.7,EU
127,Oman,22,16,1,0.7,AS
128,Pakistan,0,0,0,0.0,AS
129,Palau,306,63,23,6.9,OC
130,Panama,285,104,18,7.2,
131,Papua New Guinea,44,39,1,1.5,OC
132,Paraguay,213,117,74,7.3,SA
133,Peru,163,160,21,6.1,SA
134,Philippines,71,186,1,4.6,AS
135,Poland,343,215,56,10.9,EU
136,Portugal,194,67,339,11.0,EU
137,Qatar,1,42,7,0.9,AS
138,South Korea,140,16,9,9.8,AS
139,Moldova,109,226,18,6.3,EU
140,Romania,297,122,167,10.4,EU
141,Russian Federation,247,326,73,11.5,AS
142,Rwanda,43,2,0,6.8,AF
143,St. Kitts & Nevis,194,205,32,7.7,
144,St. Lucia,171,315,71,10.1,
145,St. Vincent & the Grenadines,120,221,11,6.3,
146,Samoa,105,18,24,2.6,OC
147,San Marino,0,0,0,0.0,EU
148,Sao Tome & Principe,56,38,140,4.2,AF
149,Saudi Arabia,0,5,0,0.1,AS
150,Senegal,9,1,7,0.3,AF
151,Serbia,283,131,127,9.6,EU
152,Seychelles,157,25,51,4.1,AF
153,Sierra Leone,25,3,2,6.7,AF
154,Singapore,60,12,11,1.5,AS
155,Slovakia,196,293,116,11.4,EU
156,Slovenia,270,51,276,10.6,EU
157,Solomon Islands,56,11,1,1.2,OC
158,Somalia,0,0,0,0.0,AF
159,South Africa,225,76,81,8.2,AF
160,Spain,284,157,112,10.0,EU
161,Sri Lanka,16,104,0,2.2,AS
162,Sudan,8,13,0,1.7,AF
163,Suriname,128,178,7,5.6,SA
164,Swaziland,90,2,2,4.7,AF
165,Sweden,152,60,186,7.2,EU
166,Switzerland,185,100,280,10.2,EU
167,Syria,5,35,16,1.0,AS
168,Tajikistan,2,15,0,0.3,AS
169,Thailand,99,258,1,6.4,AS
170,Macedonia,106,27,86,3.9,EU
171,Timor-Leste,1,1,4,0.1,AS
172,Togo,36,2,19,1.3,AF
173,Tonga,36,21,5,1.1,OC
174,Trinidad & Tobago,197,156,7,6.4,
175,Tunisia,51,3,20,1.3,AF
176,Turkey,51,22,7,1.4,AS
177,Turkmenistan,19,71,32,2.2,AS
178,Tuvalu,6,41,9,1.0,OC
179,Uganda,45,9,0,8.3,AF
180,Ukraine,206,237,45,8.9,EU
181,United Arab Emirates,16,135,5,2.8,AS
182,United Kingdom,219,126,195,10.4,EU
183,Tanzania,36,6,1,5.7,AF
184,USA,249,158,84,8.7,
185,Uruguay,115,35,220,6.6,SA
186,Uzbekistan,25,101,8,2.4,AS
187,Vanuatu,21,18,11,0.9,OC
188,Venezuela,333,100,3,7.7,SA
189,Vietnam,111,2,1,2.0,AS
190,Yemen,6,0,0,0.1,AS
191,Zambia,32,19,4,2.5,AF
192,Zimbabwe,64,18,4,4.7,AF
