,type,city,fare,ride_id,driver_count
0,Urban,Amandaburgh,23.072,5057696898269.134,12
1,Urban,Barajasview,28.754375,5353622836034.3125,26
2,Urban,Carriemouth,27.25047619047619,5522079655028.714,52
3,Urban,Christopherfurt,22.585714285714285,5225763048179.619,41
4,Urban,Deanville,24.868,4867588176655.267,49
5,Urban,East Kaylahaven,22.62,3975536599392.25,65
6,Urban,Erikaland,22.52111111111111,4625144345338.444,37
7,Urban,Grahamburgh,22.935555555555556,4071647407520.778,61
8,Urban,Huntermouth,28.8445,3995404907474.0,37
9,Urban,Hurleymouth,26.385217391304344,5925391684120.826,36
10,Urban,Jerryton,26.126470588235296,4605113876008.588,64
11,Urban,Johnton,28.416874999999997,5553765568980.5625,27
12,Urban,Joneschester,20.874375000000004,3581810517278.3125,39
13,Urban,Justinberg,24.67434782608695,4566096341073.392,39
14,Urban,Karenberg,28.571538461538463,5980286882546.385,22
15,Urban,Karenside,29.10809523809524,4826863686934.81,5
16,Urban,Lake Danielberg,23.593529411764706,5564526207924.0,19
17,Urban,Lake Jonathanshire,22.166153846153847,5416689451536.154,5
18,Urban,Lake Scottton,21.268571428571427,4842240315593.643,58
19,Urban,Leahton,18.824117647058824,5195005573584.294,17
20,Urban,Liumouth,25.375238095238096,4601009330834.952,69
21,Urban,Loganberg,23.125000000000004,4861558798139.1,23
22,Urban,Martinezhaven,21.192777777777778,5266378375222.056,25
23,Urban,New Jacobville,27.265,5125758254549.167,50
24,Urban,New Kimberlyborough,20.631666666666664,5384900644102.75,33
25,Urban,New Paulton,25.768000000000004,5565317380934.2,44
26,Urban,New Paulville,19.243333333333332,3950927316361.8667,44
27,Urban,North Barbara,25.208235294117646,4995028908392.823,18
28,Urban,North Jasmine,27.622499999999995,4888747521450.45,33
29,Urban,North Jason,20.510909090909095,4995968234470.682,6
30,Urban,North Madeline,23.145263157894735,4112729547637.263,19
31,Urban,North Markport,30.950000000000006,3403837182917.0,22
32,Urban,Pattyland,24.205882352941174,4666159973058.941,59
33,Urban,Port Angela,24.93875,4692169929760.4375,67
34,Urban,Port David,25.385555555555555,4714401219705.333,7
35,Urban,Port Frank,28.73173913043479,4883097894938.869,23
36,Urban,Port Johnbury,24.44266666666667,4477359106439.0,3
37,Urban,Port Samanthamouth,27.501500000000004,4374502080994.65,57
38,Urban,Raymondhaven,18.923333333333332,6235677181407.223,11
39,Urban,Reynoldsfurt,22.458461538461542,4929564808055.77,67
40,Urban,Richardfort,23.923750000000002,4908988454087.75,38
41,Urban,Roberthaven,22.351,4860826181530.95,47
42,Urban,Robertport,23.521333333333335,6196330096973.4,12
43,Urban,Rodneyfort,28.29090909090909,4748764816184.772,34
44,Urban,Rogerston,23.806875,5731052499681.4375,25
45,Urban,Royland,20.73,5137031093166.167,64
46,Urban,Simpsonburgh,22.121111111111112,3690420530483.9443,21
47,Urban,South Evanton,28.18142857142857,5994261593641.238,11
48,Urban,South Jack,22.034615384615385,4812503077762.154,46
49,Urban,South Karenland,28.3044,5190852708086.0,4
50,Urban,South Latoya,19.521875000000005,4518443976699.5,10
51,Urban,South Michelleport,23.880952380952387,4679058628861.048,72
52,Urban,South Phillip,29.772083333333327,5524520073971.542,38
53,Urban,Valentineton,21.28,4911326640476.214,45
54,Urban,West Angela,25.67724137931035,5079986168848.827,48
55,Urban,West Anthony,24.4228,4600632944537.52,70
56,Urban,West Christopherberg,26.24421052631579,4182082389613.263,32
57,Urban,West Ericstad,21.573333333333334,4436471977221.417,25
58,Urban,West Gabriel,20.9475,6159898656987.083,57
59,Urban,West Heidi,24.36318181818182,4913617219605.682,28
60,Urban,West Josephberg,21.294285714285714,4542814261091.952,45
61,Urban,West Patrickchester,29.086363636363636,4754452223743.637,25
62,Urban,West Robert,22.530434782608697,4715008400433.131,39
63,Urban,West Samuelburgh,23.450555555555557,4738222325633.556,73
64,Urban,Williamsstad,25.214210526315792,4615161963826.526,59
65,Urban,Williamsview,27.196923076923078,3560962868900.5386,46
