,States,2012
0,UNITED STATES,51017
1,ALABAMA,43464
2,ALASKA,63648
3,ARIZONA,47044
4,ARKANSAS,39018
5,CALIFORNIA,57020
6,COLORADO,57255
7,CONNECTICUT,64247
8,DELAWARE,48972
9,DISTRICT OF COLUMBIA,65246
10,FLORIDA,46071
11,GEORGIA,48121
12,HAWAII,56263
13,IDAHO,47922
14,ILLINOIS,51738
15,INDIANA,46158
16,IOWA,53442
17,KANSAS,50003
18,KENTUCKY,41086
19,LOUISIANA,39085
20,MAINE,49158
21,MARYLAND,71836
22,MASSACHUSETTS,63656
23,MICHIGAN,50015
24,MINNESOTA,61795
25,MISSISSIPPI,36641
26,MISSOURI,49764
27,MONTANA,45088
28,NEBRASKA,52196
29,NEVADA,47333
30,NEW HAMPSHIRE,67819
31,NEW JERSEY,66692
32,NEW MEXICO,43424
33,NEW YORK,47680
34,NORTH CAROLINA,41553
35,NORTH DAKOTA,55766
36,OHIO,44375
37,OKLAHOMA,48407
38,OREGON,51775
39,PENNSYLVANIA,51904
40,RHODE ISLAND,56065
41,SOUTH CAROLINA,44401
42,SOUTH DAKOTA,49415
43,TENNESSEE,42995
44,TEXAS,51926
45,UTAH,58341
46,VERMONT,55582
47,VIRGINIA,64632
48,WASHINGTON,62187
49,WEST VIRGINIA,43553
50,WISCONSIN,53079
51,WYOMING,57512
