,city,date,fare,ride_id
1187,New Aaron,2016-06-04 02:23:05,20.53,2321624903569
1188,New David,2016-05-03 16:38:23,32.12,141206269867
1189,Aprilchester,2016-10-14 13:03:43,17.94,6499432941564
1190,Port Josephfurt,2016-10-31 04:48:36,41.94,3151468117803
1191,Nguyenbury,2016-09-29 23:40:50,35.73,1542525861890
1192,Arnoldview,2016-08-04 11:44:19,29.49,9822259629136
1193,Pearsonberg,2016-03-29 12:59:03,36.4,9393126938175
1194,New Maryport,2016-07-13 10:19:13,11.96,5603767195344
1195,New Maryport,2016-08-27 12:46:27,32.67,836543255832
1196,Stewartview,2016-06-10 14:50:02,31.47,5397544665778
1197,Alyssaberg,2016-08-27 06:36:52,11.38,2204837124818
1198,Torresshire,2016-12-04 15:39:40,38.02,6250893878567
1199,South Josephville,2016-05-19 00:58:34,27.96,816017494899
1200,Lake Jennaton,2016-01-18 08:02:42,15.86,2263399293141
1201,Lisaville,2016-01-04 01:40:35,42.14,2668359628139
1202,Russellport,2016-04-04 16:17:46,36.62,9553714155722
1203,Arnoldview,2016-04-02 23:42:37,39.53,1051093826540
1204,Kimberlychester,2016-07-04 11:41:21,14.85,9827853347875
1205,Aprilchester,2016-03-19 04:20:06,25.69,4172540287794
1206,Rodriguezburgh,2016-05-15 08:56:20,22.06,784852603359
1207,Eriktown,2016-12-04 07:48:45,5.43,8529417231590
1208,Antoniomouth,2016-03-13 19:52:06,41.44,8152232990801
1209,Port Johnstad,2016-09-07 11:05:29,39.43,3601497356525
1210,Davistown,2016-03-13 10:22:46,39.05,5986778765684
1211,Port Johnstad,2016-01-26 18:19:49,39.14,6195088092413
1212,New Andreamouth,2016-05-24 01:44:59,17.03,3476204894474
1213,New Andreamouth,2016-03-08 11:59:08,5.09,9657020276475
1214,New Christine,2016-09-23 11:29:15,22.01,7556716897913
1215,Port Samantha,2016-09-08 12:46:54,40.1,3938412866532
1216,Davidtown,2016-02-20 16:27:08,12.64,7147024552818
1217,West Peter,2016-01-15 09:18:00,29.65,7685890652329
1218,Mooreview,2016-10-06 11:54:24,24.94,7428536660155
1219,Torresshire,2016-10-21 08:28:25,15.16,5429504813032
1220,Smithhaven,2016-01-17 23:39:57,27.17,2993555290515
1221,West Peter,2016-04-20 00:52:22,35.17,1460875294512
1222,Sandymouth,2016-10-21 16:57:01,4.76,6963610460845
1223,East Erin,2016-09-05 00:50:01,44.96,5171595369713
1224,West Peter,2016-09-06 18:01:25,15.63,5821034596261
1225,East Erin,2016-08-10 06:20:38,31.07,6623062977031
1226,Russellport,2016-06-12 15:10:55,23.01,425304453916
1227,East Douglas,2016-01-14 15:35:05,32.56,4982197353458
1228,Carrollfort,2016-07-28 16:00:04,30.69,7832998090472
1229,Fosterside,2016-01-10 23:19:03,41.96,9983247565536
1230,Sandymouth,2016-10-22 11:31:08,36.53,9225871763811
1231,West Alexis,2016-09-18 00:18:54,11.21,9931429025088
1232,Maryside,2016-08-13 19:11:48,31.47,3759233919258
1233,Travisville,2016-03-12 19:18:17,44.07,7648191284026
1234,Vickimouth,2016-03-01 00:15:17,12.07,5511048255284
1235,Arnoldview,2016-02-25 03:28:30,6.45,4442018164095
1236,Lake Sarashire,2016-06-16 05:24:49,11.26,5121115293370
1237,Mooreview,2016-04-05 05:22:03,40.99,8602942622757
1238,East Erin,2016-08-27 20:23:48,24.66,8704871514117
1239,Williamshire,2016-06-29 21:55:55,44.73,3509018739850
1240,Stewartview,2016-04-06 18:53:33,15.19,7699101110164
1241,Lisaville,2016-06-21 03:07:42,29.94,400014131507
1242,Lake Jennaton,2016-08-01 21:47:51,30.09,5953318965521
1243,West Brandy,2016-12-05 00:26:43,24.12,6709372314350
1244,Swansonbury,2016-06-13 03:24:43,15.51,9023774061986
1245,Lisaville,2016-02-10 20:42:37,44.12,984587225288
1246,Carrollfort,2016-05-16 18:01:39,21.78,8716455359908
1247,Aprilchester,2016-04-04 13:08:06,24.26,1488504143994
1248,West Brittanyton,2016-07-20 06:59:34,22.94,9236848159452
1249,Kimberlychester,2016-08-23 18:33:25,9.68,2742288543623
1250,Kimberlychester,2016-07-07 10:01:19,22.16,734603548767
1251,Port Josephfurt,2016-10-20 04:17:52,29.27,6974479265243
1252,Lisaville,2016-05-01 17:04:49,44.29,6533371877406
1253,Aprilchester,2016-05-31 14:41:48,39.53,2402730414153
1254,Kimberlychester,2016-11-21 23:00:17,34.27,7740105458636
1255,New Andreamouth,2016-11-09 19:19:07,37.22,3986560585683
1256,Port Samantha,2016-09-18 02:37:37,15.66,6663745459003
1257,Swansonbury,2016-10-04 11:52:07,6.24,8541766783650
1258,Vickimouth,2016-03-03 09:41:00,37.87,1433210718370
1259,Port Samantha,2016-02-09 17:41:18,15.6,6813747840822
1260,Kelseyland,2016-04-20 05:36:59,31.67,2865704421982
1261,Kelseyland,2016-05-02 05:55:28,40.92,2769007541388
1262,New Maryport,2016-05-08 12:25:49,39.88,8893151181566
1263,Travisville,2016-01-20 21:31:40,4.95,5910932409152
1264,New Aaron,2016-06-01 22:33:35,44.99,3742682430832
1265,Vickimouth,2016-02-27 08:42:19,8.89,9420709368538
1266,Carrollfort,2016-07-09 22:55:46,24.16,2356453371807
1267,South Josephville,2016-06-11 09:24:42,33.72,3611974996045
1268,Wiseborough,2016-05-24 00:45:50,4.74,8941891433572
1269,South Bryanstad,2016-08-17 22:38:39,21.34,5939858494462
1270,Swansonbury,2016-04-09 22:57:28,36.73,7133881868469
1271,Alvarezhaven,2016-01-25 06:02:25,5.16,2233026076010
1272,Jacobfort,2016-02-29 18:17:33,24.45,3007209176373
1273,New David,2016-11-03 14:58:52,38.62,2082838210712
1274,Nguyenbury,2016-01-30 13:17:52,33.43,6262269338025
1275,Port Martinberg,2016-11-11 21:16:52,22.38,1132435277456
1276,Arnoldview,2016-07-31 18:16:12,10.74,5702076948068
1277,New Andreamouth,2016-03-12 15:09:29,18.33,1653669562403
1278,New Jeffrey,2016-04-14 01:43:28,31.47,917693513796
1279,Edwardsbury,2016-04-12 05:27:49,10.65,7427401517402
1280,East Douglas,2016-03-01 17:52:51,20.27,1104424524940
1281,Lake Jennaton,2016-11-10 02:12:49,41.72,9531279483368
1282,Lake Sarashire,2016-06-30 10:48:04,35.35,5104871581523
1283,Port Martinberg,2016-02-27 00:10:36,16.84,3520075022877
1284,Spencertown,2016-08-25 14:12:28,11.93,7467069564011
1285,Port Josephfurt,2016-06-26 08:24:48,43.65,9407429201079
1286,New Aaron,2016-03-23 18:54:59,10.61,5079158580820
1287,Pearsonberg,2016-02-22 20:28:25,20.27,3352911581909
1288,Antoniomouth,2016-02-11 19:28:16,35.05,8730700384262
1289,East Erin,2016-02-04 09:29:54,15.57,75841830079
1290,Port Samantha,2016-08-28 20:20:00,42.34,2704782358660
1291,Port Johnstad,2016-07-09 19:59:09,30.87,2642194942339
1292,New Jeffrey,2016-01-25 08:30:57,34.01,6559731736480
1293,East Erin,2016-09-23 10:01:50,39.33,6267493536940
1294,Vickimouth,2016-01-21 06:11:37,14.22,5803305657789
1295,Lake Stevenbury,2016-03-16 18:42:15,34.09,1207523123769
1296,Nguyenbury,2016-08-30 04:06:45,7.03,6218370015522
1297,West Oscar,2016-06-05 21:53:03,39.53,2314239287209
1298,Lake Sarashire,2016-03-20 06:40:30,15.2,9865919996100
1299,South Bryanstad,2016-09-11 12:04:31,18.43,4394546874154
1300,Travisville,2016-08-04 20:22:04,26.48,1138195197737
1301,Vickimouth,2016-05-15 19:26:26,11.88,5271795959476
1302,West Brandy,2016-04-24 13:40:20,22.57,2513509744071
1303,Rodriguezburgh,2016-12-02 08:18:15,37.91,3149300400862
1304,Alyssaberg,2016-05-27 16:42:25,4.94,3705415349696
1305,Smithhaven,2016-10-13 22:03:18,19.87,606427514979
1306,West Oscar,2016-11-09 05:46:49,8.66,8952717743829
1307,Smithhaven,2016-05-03 09:43:47,10.56,6743514371573
1308,Sarabury,2016-09-30 20:41:18,44.32,2103508227691
1309,New David,2016-05-21 00:01:15,17.06,9678966503456
1310,Travisville,2016-05-09 18:15:34,36.37,1008612838645
1311,Lake Jeffreyland,2016-11-07 01:56:21,39.58,2727803067754
1312,Lake Jeffreyland,2016-05-28 07:17:15,37.9,1639696275400
1313,New Andreamouth,2016-10-15 07:28:43,30.43,9150752827460
1314,Sarabury,2016-07-30 10:37:38,25.99,5233926699781
1315,West Sydneyhaven,2016-08-04 17:20:34,21.99,9517526721612
1316,South Roy,2016-08-08 08:26:33,44.34,417945335133
1317,Jacobfort,2016-11-14 14:42:01,12.04,891660595247
1318,Fosterside,2016-05-20 00:15:27,42.67,6763080895709
1319,Antoniomouth,2016-01-08 02:19:34,43.26,6274568419176
1320,Port Martinberg,2016-08-03 20:00:33,31.93,1136753188531
1321,West Oscar,2016-01-02 07:50:03,36.06,2483310207884
1322,Rodriguezburgh,2016-06-03 15:45:27,36.07,3484370547285
1323,West Dawnfurt,2016-04-20 21:22:30,6.17,3534063157755
1324,Pearsonberg,2016-03-05 12:54:49,24.33,83452309358
1325,West Oscar,2016-01-27 21:43:44,27.91,8224055782908
1326,Pearsonberg,2016-09-13 06:32:34,11.35,9432289892846
1327,Jacobfort,2016-11-07 00:55:38,34.54,5279022168233
1328,Fosterside,2016-06-01 02:10:18,20.18,3724718922597
1329,Lake Sarashire,2016-04-17 04:08:17,39.55,4780405905389
1330,Rodriguezburgh,2016-02-15 06:46:41,20.76,7111332837189
1331,Antoniomouth,2016-06-27 11:53:39,19.91,5738047411910
1332,Yolandafurt,2016-08-27 23:18:36,34.95,9030131895269
1333,Russellport,2016-06-03 21:49:19,23.05,3862759508254
1334,Maryside,2016-03-16 08:29:02,35.47,5352891865134
1335,New David,2016-03-11 17:19:06,37.52,4214845399458
1336,West Brittanyton,2016-07-24 11:09:03,36.31,2182251156762
1337,Pamelahaven,2016-07-23 00:02:04,40.09,9084389718436
1338,South Roy,2016-10-01 22:21:08,43.07,2192441706271
1339,West Alexis,2016-07-05 16:43:06,10.04,5289717125465
1340,West Sydneyhaven,2016-05-23 11:24:27,41.55,4120354032918
1341,Stewartview,2016-08-31 11:18:21,20.02,2050328864974
1342,New Maryport,2016-07-19 05:21:24,33.31,2805852339982
1343,Jacobfort,2016-10-27 17:53:55,14.99,9619449467230
1344,Carrollfort,2016-01-13 13:03:42,29.2,4807864277489
1345,New Aaron,2016-02-07 03:24:26,19.09,8833450230688
1346,Lake Jennaton,2016-06-25 16:32:08,10.95,7330490897419
1347,Fosterside,2016-12-03 05:03:24,33.45,976394396367
1348,Edwardsbury,2016-08-06 06:20:36,36.3,5986780813014
1349,Pamelahaven,2016-02-01 19:44:44,7.5,9992146021449
1350,West Oscar,2016-06-13 12:57:28,29.91,3599513812523
1351,Lake Jeffreyland,2016-03-03 01:10:19,44.68,787513851380
1352,Wiseborough,2016-07-08 00:43:05,30.94,8676089786481
1353,Mooreview,2016-07-30 17:39:30,37.14,8244565411112
1354,Maryside,2016-04-21 03:14:22,29.25,6698556520536
1355,Lake Sarashire,2016-06-06 04:51:45,33.25,6299235671251
1356,Port Johnstad,2016-05-04 10:44:56,33.64,664048536800
1357,New David,2016-01-23 09:17:28,27.55,403004119295
1358,West Jefferyfurt,2016-09-07 06:09:02,34.4,9478484889656
1359,South Roy,2016-08-03 21:28:03,5.19,9820059837508
1360,Arnoldview,2016-01-30 11:19:06,22.23,5838519732243
1361,Davistown,2016-04-26 21:16:24,38.1,1939474425585
1362,South Roy,2016-07-10 04:09:33,17.23,1510646299830
1363,Edwardsbury,2016-02-09 18:25:06,43.5,6796777511668
1364,Stewartview,2016-02-08 17:08:49,43.91,3939447683194
1365,Mooreview,2016-07-26 23:48:43,29.37,2594258754795
1366,Port Samantha,2016-11-30 20:45:46,6.26,6334284199698
1367,West Dawnfurt,2016-06-15 21:42:34,26.75,6456250923639
1368,Nguyenbury,2016-02-11 00:31:30,37.16,6698671779345
1369,Eriktown,2016-03-22 22:54:12,35.16,5339773326396
1370,New Aaron,2016-07-16 19:43:04,28.88,4872228261244
1371,Antoniomouth,2016-07-31 19:23:54,10.44,7499859613449
1372,West Sydneyhaven,2016-06-25 20:10:09,15.65,6835917836657
1373,Nguyenbury,2016-11-29 13:10:42,5.75,3041057850290
1374,Lake Jeffreyland,2016-03-01 18:09:11,42.07,8658558349939
1375,Maryside,2016-04-27 09:54:59,40.67,5581319323530
1376,Alvarezhaven,2016-11-19 02:00:34,5.34,1108172306544
1377,Aprilchester,2016-10-24 20:16:27,32.42,5573547666893
1378,Maryside,2016-09-03 09:45:24,36.94,8262984393222
1379,West Peter,2016-09-10 06:14:50,17.77,4124832951548
1380,Spencertown,2016-07-19 19:03:15,7.39,2426400472885
1381,West Peter,2016-09-22 03:26:20,9.13,4226378426426
1382,Port Samantha,2016-05-30 03:00:05,18.63,9819193482927
1383,Lake Jennaton,2016-10-17 16:52:12,10.67,1341005417936
1384,Antoniomouth,2016-01-23 09:02:59,39.87,4754206353625
1385,Travisville,2016-05-11 13:05:08,42.99,4784056438609
1386,West Oscar,2016-01-11 11:58:26,31.81,2193515097318
1387,West Dawnfurt,2016-08-05 23:20:53,18.57,243269133946
1388,Swansonbury,2016-11-09 01:30:06,43.61,5244206952991
1389,Lisatown,2016-05-18 03:24:36,43.0,5749810098603
1390,Swansonbury,2016-06-24 08:15:03,43.95,4565664701695
1391,Fosterside,2016-08-06 04:15:38,22.67,404611862727
1392,West Brandy,2016-10-18 09:21:08,36.16,1531575658123
1393,Sandymouth,2016-07-28 18:03:58,4.26,297870556755
1394,Lake Stevenbury,2016-09-09 19:17:13,43.07,3020458317045
1395,New Andreamouth,2016-10-28 22:00:03,39.74,4695818152421
1396,Kimberlychester,2016-10-10 22:34:36,8.74,2670450662936
1397,Zimmermanmouth,2016-09-16 03:59:52,34.65,3806179410575
1398,Lake Sarashire,2016-05-10 04:34:45,43.85,8243797091475
1399,East Douglas,2016-03-04 15:34:23,43.62,8271162283323
1400,Lisaville,2016-07-16 10:17:40,43.0,985334613129
1401,Lake Jeffreyland,2016-05-15 08:54:22,4.15,5569007322768
1402,Lake Stevenbury,2016-07-12 16:11:02,15.23,1560212848078
1403,West Alexis,2016-06-15 14:21:54,5.65,1990600229279
1404,New Christine,2016-02-26 18:57:25,11.55,7847311968284
1405,Zimmermanmouth,2016-08-19 14:31:49,14.36,7886293230125
1406,Rodriguezburgh,2016-04-23 03:18:27,19.7,411248132468
1407,Kimberlychester,2016-07-08 21:18:10,39.59,4141440176194
1408,Smithhaven,2016-01-09 04:34:29,41.46,2306412951526
1409,Wiseborough,2016-01-21 15:43:03,18.28,9676818789300
1410,Smithhaven,2016-11-02 23:37:03,4.57,7025973384561
1411,South Louis,2016-10-06 03:17:06,39.52,538681001868
1412,Russellport,2016-03-28 03:39:11,4.84,3612459319748
1413,Fosterside,2016-11-22 10:37:25,37.92,4368027144340
1414,Port Johnstad,2016-10-19 06:35:29,28.5,3437920874423
1415,New Maryport,2016-06-27 15:45:11,38.12,3785390249624
1416,Pearsonberg,2016-01-02 09:50:27,13.8,3286332823129
1417,Kelseyland,2016-06-22 06:54:57,12.58,6629798205387
1418,Torresshire,2016-03-10 03:35:28,7.86,9239353071769
1419,Kelseyland,2016-06-18 06:03:03,16.77,7223504701591
1420,West Alexis,2016-11-10 08:10:15,12.79,6640917180705
1421,Carrollfort,2016-07-20 14:53:43,21.72,9954379185046
1422,Torresshire,2016-10-21 01:10:36,5.32,7486924635970
1423,Lake Stevenbury,2016-04-19 08:14:00,44.76,9507412203384
1424,South Roy,2016-02-08 04:56:35,31.52,3284017542884
1425,Alvarezhaven,2016-02-15 11:14:12,31.74,5487020911007
1426,Russellport,2016-11-21 20:26:43,11.71,7107770283343
1427,Sandymouth,2016-11-10 10:12:00,29.77,5102585552877
1428,New Andreamouth,2016-01-18 07:04:51,26.08,6981699421038
1429,Eriktown,2016-11-10 08:31:17,39.15,4715353076775
1430,New Andreamouth,2016-01-15 08:09:01,12.29,9016835555517
1431,Alvarezhaven,2016-06-16 18:29:05,32.46,858631473935
1432,West Jefferyfurt,2016-06-25 17:40:42,35.93,5688977816425
1433,Williamshire,2016-03-16 16:02:46,12.08,2872798800975
1434,Rodriguezburgh,2016-02-19 04:34:57,34.56,7700761099192
1435,New Maryport,2016-11-12 10:00:31,10.45,7465162274950
1436,Yolandafurt,2016-06-04 08:50:50,35.75,1266755807090
1437,New Christine,2016-09-30 05:09:31,36.04,6891426419255
1438,Lake Jennaton,2016-05-23 02:41:41,42.97,956432297054
1439,Alvarezhaven,2016-03-16 02:01:15,33.62,8974645194719
1440,Lisaville,2016-02-09 23:03:32,30.89,7036924404801
1441,Port Samantha,2016-10-01 01:52:46,43.22,2232921092378
1442,Lisatown,2016-11-09 19:01:11,7.58,7012676828928
1443,Jacobfort,2016-08-07 04:38:32,35.09,8645956613601
1444,West Brittanyton,2016-11-26 12:42:58,22.88,1850096179420
1445,Port Samantha,2016-07-17 10:15:28,14.91,4533043041465
1446,Port Josephfurt,2016-09-25 16:36:30,28.32,6590314190886
1447,Port Martinberg,2016-06-08 13:10:29,23.96,2579264518791
1448,New Aaron,2016-08-31 13:53:58,43.38,994783421001
1449,Lake Jeffreyland,2016-06-04 19:38:37,34.28,2197992772300
1450,Lake Jennaton,2016-10-07 19:44:40,40.49,4655525490308
1451,West Jefferyfurt,2016-06-07 00:49:56,22.81,3242327231133
1452,Port Johnstad,2016-03-13 13:43:55,30.04,8952976156323
1453,Alyssaberg,2016-09-05 04:28:57,24.74,1702311642823
1454,New Andreamouth,2016-10-16 12:36:53,38.23,9554694502513
1455,Russellport,2016-06-28 12:09:11,6.52,7639754473841
1456,Edwardsbury,2016-01-08 06:41:25,28.75,652590440355
1457,Lake Jeffreyland,2016-02-07 07:26:32,37.86,2330246783626
1458,East Erin,2016-09-08 17:48:23,23.31,6036769302196
1459,Edwardsbury,2016-05-09 15:54:03,37.34,397795156693
1460,Russellport,2016-11-17 17:55:22,21.92,5642744495206
1461,Travisville,2016-04-15 12:13:21,15.03,8140799265043
1462,West Brandy,2016-01-04 23:48:30,7.01,8676890827915
1463,South Roy,2016-04-01 08:18:41,42.56,4913703623772
1464,Sarabury,2016-04-01 07:15:24,6.94,1931215121299
1465,Yolandafurt,2016-07-03 03:20:30,21.53,1204646715819
1466,Williamshire,2016-07-19 14:23:41,26.14,3820624502578
1467,South Josephville,2016-01-15 16:18:50,25.83,1637047743967
1468,Port Josephfurt,2016-02-29 14:49:47,42.45,338242802787
1469,Torresshire,2016-10-20 19:17:17,16.64,6259401722347
1470,Williamshire,2016-03-05 03:54:12,22.03,7577485884485
1471,New Andreamouth,2016-10-26 13:34:45,34.01,2638675141582
1472,Swansonbury,2016-11-16 23:44:23,32.51,6043084594410
1473,Kellershire,2016-03-09 01:06:52,9.0,9197603993608
1474,West Dawnfurt,2016-06-01 08:15:43,30.05,9314512935974
1475,New Jeffrey,2016-11-06 23:32:45,18.1,8778146704138
1476,Kelseyland,2016-01-09 20:28:56,27.21,831362906446
1477,Mooreview,2016-05-11 00:21:59,22.7,3257317481863
1478,Davistown,2016-10-10 06:48:06,33.06,9124293805447
1479,Lake Jeffreyland,2016-10-09 15:12:41,4.16,9927742208390
1480,Pearsonberg,2016-01-02 10:59:19,17.43,7692020339180
1481,Port Johnstad,2016-06-22 07:30:32,35.35,1751633231390
1482,Arnoldview,2016-06-08 14:23:20,33.23,2561901175214
1483,Port Josephfurt,2016-02-14 23:20:22,32.7,3577231707703
1484,Port Josephfurt,2016-09-25 04:47:07,18.85,454198708789
1485,Lisaville,2016-12-05 01:52:05,44.61,2441811424155
1486,West Oscar,2016-10-08 16:18:45,25.35,4006937548727
1487,Prattfurt,2016-10-11 16:29:45,37.78,7679067660736
1488,Swansonbury,2016-03-24 17:14:54,7.17,2321894460533
1489,West Sydneyhaven,2016-04-07 10:14:20,8.88,3262903091739
1490,Lake Stevenbury,2016-10-03 00:41:32,14.32,7741014139517
1491,Aprilchester,2016-06-29 11:22:21,9.1,6466731062634
1492,Lisatown,2016-07-08 20:53:54,7.63,1356346590835
1493,Maryside,2016-10-01 05:58:14,11.2,763698281945
1494,Pamelahaven,2016-05-08 11:55:15,21.15,3914550239889
1495,East Douglas,2016-05-21 09:59:11,11.48,577914432444
1496,Fosterside,2016-07-09 18:28:08,37.65,4264791605400
1497,Sarabury,2016-11-23 03:08:59,37.17,9141412183460
1498,Rodriguezburgh,2016-08-21 23:47:37,13.49,4674261522531
1499,West Brittanyton,2016-09-17 08:14:01,29.53,6643004963922
1500,Travisville,2016-09-25 03:51:39,39.45,2448021188839
1501,Russellport,2016-11-12 12:46:42,29.56,1850964431407
1502,West Peter,2016-07-13 17:29:17,20.53,5576331342119
1503,Williamshire,2016-01-26 16:52:20,41.72,8891970851608
1504,New Aaron,2016-05-26 06:44:46,39.93,506548236203
1505,Stewartview,2016-03-30 10:06:54,15.35,3009186281019
1506,South Roy,2016-01-25 00:02:02,42.09,6940433136850
1507,Alyssaberg,2016-01-08 18:50:12,17.03,1841736403845
1508,West Brandy,2016-06-30 22:47:19,25.68,4224290693513
1509,Lisatown,2016-05-24 09:23:11,23.83,438019181722
1510,Kellershire,2016-06-15 01:32:19,43.76,5649647055667
1511,Zimmermanmouth,2016-11-12 22:15:06,5.27,885932877834
1512,South Louis,2016-05-05 13:22:04,25.15,6976367855086
1513,East Erin,2016-09-27 12:31:24,12.01,9277783245350
1514,West Brandy,2016-01-24 03:55:23,32.4,157087758710
1515,New Jeffrey,2016-11-07 07:30:44,43.51,2707900923917
1516,West Brittanyton,2016-10-21 01:04:43,32.43,9032710351395
1517,Lake Sarashire,2016-05-03 17:43:44,32.53,1725233941812
1518,West Oscar,2016-05-02 15:06:43,7.42,1342155568240
1519,South Louis,2016-01-26 11:21:34,23.67,1887960407761
1520,West Dawnfurt,2016-03-22 00:46:40,16.97,9155756590990
1521,Torresshire,2016-10-05 13:00:56,9.6,8443023570181
1522,New David,2016-02-17 21:34:54,6.49,128496622626
1523,Lisaville,2016-01-02 09:04:22,31.16,2386664973163
1524,Russellport,2016-10-05 14:04:13,17.69,5168390301277
1525,Lisatown,2016-01-10 04:34:52,17.05,3622314211636
1526,Port Martinberg,2016-07-02 14:51:46,25.02,2742462062414
1527,Rodriguezburgh,2016-11-23 11:12:21,20.32,7880452100175
1528,South Josephville,2016-04-04 16:33:16,25.69,1133047034703
1529,Yolandafurt,2016-09-27 15:31:45,21.79,613467789601
1530,Zimmermanmouth,2016-08-21 05:53:52,40.95,5672693632216
1531,Lake Jennaton,2016-05-05 08:14:52,15.81,3507008623912
1532,New Christine,2016-03-01 12:45:29,38.17,1336892846655
1533,Prattfurt,2016-01-11 21:18:01,12.9,5530092860060
1534,Pamelahaven,2016-03-10 14:48:07,34.67,9143800867747
1535,Pearsonberg,2016-05-25 21:08:21,39.59,6723209307056
1536,Kelseyland,2016-07-22 19:28:21,35.71,1234880130185
1537,South Bryanstad,2016-09-11 05:26:37,34.58,9543806768633
1538,West Oscar,2016-10-26 13:38:35,9.57,558835210731
1539,Rodriguezburgh,2016-06-30 14:48:54,35.86,3609361523059
1540,New Andreamouth,2016-02-22 18:51:27,11.92,5787493616752
1541,Pamelahaven,2016-10-13 15:13:25,21.09,2359390080566
1542,New Jeffrey,2016-04-17 01:14:26,6.14,8594963223597
1543,Zimmermanmouth,2016-10-21 04:10:04,24.69,9508846094814
1544,Kelseyland,2016-11-26 02:34:57,15.49,5187807155760
1545,Stewartview,2016-04-10 01:26:26,11.93,8887064721766
1546,West Brittanyton,2016-01-09 13:57:10,30.28,3228901013104
1547,West Brittanyton,2016-06-05 00:50:57,39.15,559226537321
1548,Mooreview,2016-07-11 18:46:36,19.51,2835637288297
1549,Smithhaven,2016-09-03 11:34:41,13.05,2352819826103
1550,Fosterside,2016-09-03 01:10:02,13.37,8859934081119
1551,Pearsonberg,2016-02-16 17:47:41,8.7,5920023199381
1552,South Roy,2016-05-13 04:28:42,14.85,7755858811799
1553,Port Johnstad,2016-07-14 08:16:32,5.97,1910592368893
1554,Yolandafurt,2016-09-16 14:36:50,20.44,3649222420394
1555,Pearsonberg,2016-10-17 23:01:10,29.6,8058328163862
1556,Sarabury,2016-10-23 02:40:28,17.23,1977978528067
1557,Port Martinberg,2016-04-05 18:06:02,5.32,2338260053367
1558,Port Johnstad,2016-07-22 11:27:31,10.88,1261252469017
1559,Carrollfort,2016-10-01 04:18:59,12.76,2385786307986
1560,Kimberlychester,2016-11-12 03:56:46,21.25,1900612777804
1561,Yolandafurt,2016-08-04 23:06:32,36.08,9895622307900
1562,Port Martinberg,2016-04-03 12:48:22,37.88,4962531926258
1563,Rodriguezburgh,2016-03-11 11:58:09,42.88,9130331181244
1564,South Louis,2016-09-05 05:03:02,4.23,8839515131785
1565,Pamelahaven,2016-04-23 09:33:27,37.55,7632486767202
1566,West Brittanyton,2016-01-06 04:35:41,8.81,7136420965025
1567,West Sydneyhaven,2016-02-24 06:48:52,42.96,52775545231
1568,South Louis,2016-06-25 08:50:25,20.24,6055268563532
1569,South Louis,2016-05-16 09:42:27,18.15,8391398161414
1570,New Maryport,2016-07-01 10:14:52,27.13,382199011501
1571,Kellershire,2016-07-27 23:00:25,43.87,4038581497311
1572,New Christine,2016-07-16 04:10:39,22.62,2709317524893
1573,Davistown,2016-04-11 20:10:45,17.32,8393410447872
1574,New Aaron,2016-05-11 23:11:37,41.39,6357669957577
1575,Nguyenbury,2016-01-23 11:39:17,39.29,2341137532544
1576,Eriktown,2016-10-01 16:31:42,14.5,5347678591955
1577,Sandymouth,2016-04-25 17:56:42,23.89,2912261745379
1578,Aprilchester,2016-05-16 02:36:06,18.11,5417062924680
1579,Alvarezhaven,2016-09-19 16:01:49,27.51,6282665852239
1580,Alvarezhaven,2016-05-16 15:33:14,6.45,8939751998750
1581,Torresshire,2016-09-23 14:32:48,41.2,4024780961494
1582,Kellershire,2016-05-26 02:37:52,20.39,1880098130006
1583,Jacobfort,2016-06-04 22:31:57,37.38,906007537108
1584,Edwardsbury,2016-07-19 20:04:23,13.27,3571086569028
1585,Antoniomouth,2016-05-05 18:12:05,14.46,7446807041342
1586,Nguyenbury,2016-01-27 07:00:28,22.38,7425425924510
1587,Lake Jeffreyland,2016-04-13 21:40:52,22.48,3582852745980
1588,East Douglas,2016-08-01 01:21:55,28.37,4589100972654
1589,Kimberlychester,2016-11-24 08:36:27,12.55,558100056378
1590,Williamshire,2016-10-24 22:12:48,39.6,3882385067550
1591,Port Martinberg,2016-03-29 02:03:35,16.0,2860657960977
1592,West Peter,2016-08-25 12:03:53,41.98,8601849653888
1593,Kellershire,2016-11-20 16:46:09,22.01,4367913867547
1594,Aprilchester,2016-08-17 21:24:26,14.39,4490937531153
1595,East Erin,2016-05-18 20:48:05,12.13,1266215264012
1596,Port Johnstad,2016-11-01 20:52:15,41.09,9067296393743
1597,South Bryanstad,2016-09-16 09:02:02,25.82,5264899878521
1598,Lake Jennaton,2016-09-03 07:14:23,8.89,6023947302499
1599,New Aaron,2016-06-27 11:28:34,37.02,5355985559469
1600,Lisatown,2016-04-13 10:09:58,12.2,6017161751300
1601,South Louis,2016-07-15 07:48:18,24.84,4997876249830
1602,Alvarezhaven,2016-01-27 10:38:40,6.72,6152998520191
1603,West Jefferyfurt,2016-07-23 13:10:00,24.4,6114053475907
1604,West Jefferyfurt,2016-02-03 00:54:14,5.8,4393925880724
1605,Stewartview,2016-10-10 06:20:58,13.9,4005866140934
1606,West Brittanyton,2016-07-07 13:33:03,24.27,9330634223713
1607,Spencertown,2016-11-22 10:05:47,4.79,2729162668443
1608,New Jeffrey,2016-09-22 23:52:38,21.44,8763732577685
1609,New Aaron,2016-09-30 09:45:03,35.26,4769926083028
1610,South Bryanstad,2016-11-16 22:51:16,13.58,3696811450171
1611,Davidtown,2016-04-12 21:45:55,30.19,9023918750752
1612,Prattfurt,2016-08-05 20:08:15,32.12,4506575381521
1613,West Alexis,2016-11-06 19:02:42,29.01,4924471900019
1614,Sarabury,2016-04-06 21:02:54,7.14,6096364843852
1615,Antoniomouth,2016-03-09 08:07:17,31.2,1712057358094
1616,West Brandy,2016-03-23 07:35:25,38.48,1506716802765
1617,Fosterside,2016-12-04 21:31:45,21.49,5128740240083
1618,South Louis,2016-11-22 15:34:11,35.27,3627438789238
1619,Eriktown,2016-09-06 07:01:34,41.11,8990582387342
1620,Alvarezhaven,2016-07-04 04:28:22,33.31,306054352684
1621,New David,2016-05-25 07:40:52,24.32,7741295871755
1622,Kimberlychester,2016-11-19 09:53:46,25.99,149474167977
1623,Lisatown,2016-08-07 23:07:09,15.09,6098402365128
1624,East Erin,2016-04-30 11:04:53,9.34,6037776836315
1625,Port James,2016-12-04 06:16:36,15.77,2259499336994
1626,New Samanthaside,2016-06-05 14:36:58,39.38,3647873452658
1627,Port Alexandria,2016-07-29 09:30:09,24.86,2962960319234
1628,Lake Brenda,2016-08-26 03:07:30,20.97,5231983896020
1629,Campbellport,2016-03-02 09:59:04,41.53,5956974893832
1630,Rodriguezview,2016-01-28 06:54:42,28.01,2553550911701
1631,New Brandonborough,2016-05-21 12:30:19,27.03,5950100513601
1632,Port Jose,2016-06-16 00:12:15,49.23,5244063123954
1633,West Paulport,2016-10-01 00:42:24,32.71,1539208688431
1634,West Tony,2016-09-18 10:26:14,23.83,2029581191356
1635,North Tara,2016-11-23 07:44:07,31.8,921596947671
1636,West Tony,2016-08-27 08:35:50,27.11,6369211091172
1637,Campbellport,2016-03-30 05:26:39,47.2,3822028879041
1638,South Shannonborough,2016-02-11 19:51:25,13.52,3795802163318
1639,North Tara,2016-11-14 17:35:08,20.8,1029835833712
1640,Thomastown,2016-06-16 18:15:22,21.39,1987163423763
1641,South Shannonborough,2016-03-20 15:01:27,19.89,3845871211684
1642,South Gracechester,2016-04-14 10:02:49,48.86,1957278032099
1643,Jeffreyton,2016-11-10 22:40:53,19.64,7108882723871
1644,New Jessicamouth,2016-01-09 09:30:18,18.95,2895933324303
1645,Clarkstad,2016-07-15 16:34:16,44.96,5858467951626
1646,New Jessicamouth,2016-11-03 10:35:40,38.79,740553329134
1647,Johnland,2016-06-10 14:01:07,15.35,6010029428604
1648,West Tony,2016-01-28 21:44:57,39.15,1038754510925
1649,Rodriguezview,2016-10-16 00:30:11,26.03,1287910457837
1650,New Samanthaside,2016-07-12 21:06:49,36.77,514782728712
1651,Kyleton,2016-01-22 12:02:18,30.96,8748468059988
1652,Johnland,2016-07-20 00:13:54,39.87,6430495308819
1653,Anitamouth,2016-01-03 16:21:46,43.54,2473012019465
1654,Port Alexandria,2016-11-14 09:13:23,13.62,5294797879566
1655,Port Michelleview,2016-03-07 08:29:49,39.84,3865985959715
1656,Jeffreyton,2016-08-29 19:38:58,40.59,8074321661518
1657,New Samanthaside,2016-09-01 16:40:01,25.63,3618969452159
1658,New Lynn,2016-04-26 13:23:40,25.08,7939436769904
1659,Paulfort,2016-06-16 06:23:19,26.42,457880464635
1660,Lake Brenda,2016-03-23 02:36:53,17.03,5828512638444
1661,West Pamelaborough,2016-06-05 11:12:13,15.28,1222008498286
1662,Port James,2016-05-16 21:25:03,26.26,4051110168629
1663,Port James,2016-01-04 22:46:29,20.25,3994763896598
1664,West Pamelaborough,2016-11-11 17:09:36,35.66,8866001802935
1665,Kyleton,2016-03-25 04:31:28,42.69,4236972438480
1666,Port James,2016-01-27 19:25:42,21.86,2433830274897
1667,East Jenniferchester,2016-01-30 09:35:36,22.29,8495395457867
1668,Carrollbury,2016-05-09 03:12:10,25.0,485795568537
1669,Webstertown,2016-05-09 12:29:16,26.06,848495615756
1670,Conwaymouth,2016-10-14 03:11:59,46.57,772729607555
1671,Conwaymouth,2016-09-29 22:24:04,43.1,392080056948
1672,New Samanthaside,2016-08-17 19:09:51,28.05,3545873204669
1673,Jasonfort,2016-11-06 09:45:39,29.92,7780702340033
1674,Port James,2016-05-30 15:35:47,38.05,424462809740
1675,New Brandonborough,2016-04-26 19:15:18,27.95,7273596757686
1676,West Evan,2016-08-09 02:20:20,39.26,2350874801479
1677,Webstertown,2016-10-14 02:13:10,46.43,5706208902485
1678,New Jessicamouth,2016-10-16 15:52:27,44.09,3992141200784
1679,Paulfort,2016-01-07 05:55:13,43.87,1010359511088
1680,Jeffreyton,2016-10-24 06:36:39,27.55,5013373885070
1681,New Samanthaside,2016-05-19 15:25:45,49.72,7380786579345
1682,Sarahview,2016-01-24 01:34:09,21.42,4350977208586
1683,South Jennifer,2016-10-05 12:22:37,39.24,1148273096494
1684,Thomastown,2016-11-12 23:53:40,34.85,8529093151861
1685,South Jennifer,2016-11-07 05:30:12,18.97,2871370237024
1686,Floresberg,2016-07-03 11:24:38,18.21,4098574795183
1687,New Jessicamouth,2016-09-15 12:09:25,26.41,8459455899004
1688,Williamchester,2016-08-28 17:40:49,30.72,8203822920323
1689,West Pamelaborough,2016-02-27 18:49:45,44.51,3199484646495
1690,West Tony,2016-04-30 22:02:46,19.88,606026211071
1691,Williamchester,2016-09-10 19:11:19,41.04,4383983578923
1692,Johnland,2016-05-27 16:22:49,25.94,3155411343394
1693,Port Jose,2016-04-22 08:46:03,19.74,950684475611
1694,New Lynn,2016-05-21 04:28:24,18.32,407937529572
1695,Port Michelleview,2016-09-13 10:15:29,15.77,2906114536788
1696,Martinmouth,2016-10-01 16:59:07,15.78,7253951228785
1697,New Samanthaside,2016-05-22 04:11:49,33.72,7639215386925
1698,Rodriguezview,2016-05-21 02:13:31,44.16,4218436943945
1699,Johnland,2016-09-20 10:51:56,31.94,4796950441388
1700,New Brandonborough,2016-08-21 17:10:16,47.12,354052933497
1701,Jeffreyton,2016-07-15 12:47:02,33.16,9369949433920
1702,Webstertown,2016-02-07 20:42:57,48.44,8381556183648
1703,Johnland,2016-07-23 20:37:28,24.86,8890795921633
1704,Port James,2016-06-05 02:06:00,14.67,9583600979958
1705,Sarahview,2016-09-27 14:09:57,30.98,3354457528400
1706,Thomastown,2016-08-28 05:02:29,12.33,276829037576
1707,Kyleton,2016-03-08 01:12:42,35.19,2681798433010
1708,South Jennifer,2016-06-29 13:25:23,12.45,2425173624774
1709,Lake Brenda,2016-04-10 06:47:12,46.13,7673158091683
1710,North Tara,2016-09-18 04:02:49,14.46,4928625444060
1711,Jeffreyton,2016-07-05 19:18:31,28.63,456736587870
1712,New Samanthaside,2016-09-04 01:09:10,46.22,7969279660182
1713,Lake Brenda,2016-04-04 10:48:47,15.0,1887155538379
1714,Port Jose,2016-08-31 16:10:08,43.44,306580935122
1715,Clarkstad,2016-06-20 22:14:27,15.69,8071737640007
1716,Port Guytown,2016-05-23 23:19:25,23.37,2895832299221
1717,West Evan,2016-04-05 16:12:46,12.92,2977589133604
1718,Thomastown,2016-04-24 11:36:54,13.48,6397734718122
1719,Port Guytown,2016-08-17 05:04:53,24.07,4324667745620
1720,East Jenniferchester,2016-04-22 00:41:37,37.62,6197422878141
1721,Port Michelleview,2016-06-10 15:07:17,22.27,3653689097044
1722,New Cindyborough,2016-09-25 16:34:43,35.8,3880166548267
1723,South Shannonborough,2016-11-25 17:40:02,25.58,7061878883457
1724,Thomastown,2016-09-26 06:29:54,18.97,85030914220
1725,East Jenniferchester,2016-06-13 19:28:51,15.6,5582773710232
1726,Port Alexandria,2016-08-16 17:42:34,47.71,3640372608991
1727,Johnland,2016-03-13 20:41:46,31.01,7266309914360
1728,Port Guytown,2016-11-01 15:12:54,24.69,5729585363571
1729,South Gracechester,2016-10-09 20:53:10,38.01,9533525908489
1730,New Cindyborough,2016-08-18 13:22:49,25.48,7847736737731
1731,Sarahview,2016-08-15 08:03:40,48.07,7858530738749
1732,New Cindyborough,2016-04-16 08:49:04,31.24,726573408301
1733,South Shannonborough,2016-07-17 18:36:20,14.33,6590368382510
1734,Anitamouth,2016-06-01 22:47:11,27.44,1552303233665
1735,East Jenniferchester,2016-07-14 15:33:37,34.73,4810430377667
1736,New Lynn,2016-08-19 22:01:40,34.17,6163833223610
1737,South Jennifer,2016-06-06 19:55:42,17.89,8537426876183
1738,West Paulport,2016-07-14 14:16:05,42.78,3126498704132
1739,New Lynn,2016-11-27 22:50:09,29.71,4205314056255
1740,Kyleton,2016-11-08 20:18:01,22.28,249199309598
1741,Port Jose,2016-06-06 06:13:06,27.74,5015660682102
1742,Port Guytown,2016-09-19 12:07:25,46.84,2930116010731
1743,Port Michelleview,2016-06-15 02:16:48,26.18,4446640562892
1744,Campbellport,2016-11-17 07:00:34,24.17,9077149378919
1745,Paulfort,2016-05-22 13:33:47,39.37,5353210611708
1746,West Evan,2016-07-25 18:46:38,40.65,6288459692067
1747,South Jennifer,2016-07-25 08:16:21,45.26,3555066079707
1748,Port Guytown,2016-04-19 23:46:03,24.2,7878066980306
1749,New Michelleberg,2016-11-17 19:04:51,27.33,4786622689927
1750,Rodriguezview,2016-11-26 16:39:59,25.1,7213759774495
1751,East Jenniferchester,2016-11-21 17:26:21,39.17,9394274730970
1752,Williamchester,2016-05-06 02:59:25,31.91,5362699747075
1753,Rodriguezview,2016-08-25 09:46:58,36.38,2499929698661
1754,Thomastown,2016-02-03 06:17:41,41.24,4015619225467
1755,New Lynn,2016-08-30 13:21:00,25.79,5191872296419
1756,Kyleton,2016-09-23 20:14:10,33.83,1461082145741
1757,South Shannonborough,2016-11-25 04:23:13,44.67,235371347427
1758,Port James,2016-01-05 05:44:27,26.3,4033584825314
1759,Port Jose,2016-03-23 08:35:04,35.35,4835653759472
1760,West Evan,2016-01-10 09:49:08,40.85,8256782275378
1761,Campbellport,2016-06-15 20:20:35,46.98,6390609717763
1762,Kyleton,2016-11-20 08:43:54,24.84,671093638632
1763,Port Alexandria,2016-01-09 06:20:29,17.09,6414632699046
1764,Webstertown,2016-05-08 09:30:42,12.17,9397777219034
1765,Clarkstad,2016-08-14 21:01:38,34.01,4180626937976
1766,Jeffreyton,2016-06-30 13:38:30,29.0,9608406536911
1767,South Jennifer,2016-11-23 17:09:59,25.01,6986989902594
1768,Kyleton,2016-06-29 22:54:56,40.12,2118760201266
1769,Paulfort,2016-07-24 14:55:43,29.91,150411814694
1770,North Tara,2016-08-10 01:31:18,26.76,1966267269736
1771,Jasonfort,2016-04-13 11:32:30,38.57,9211220548390
1772,Johnland,2016-11-21 00:48:22,42.16,4680224996936
1773,Clarkstad,2016-06-23 10:01:29,18.12,8618074281922
1774,West Pamelaborough,2016-02-06 20:38:08,45.0,7116322157575
1775,Rodriguezview,2016-01-30 05:13:05,16.08,5896683170001
1776,North Tracyfort,2016-05-07 11:43:48,19.69,4573622856127
1777,Port James,2016-04-24 17:14:17,22.79,4853299324427
1778,Floresberg,2016-02-27 21:59:10,46.02,669238029346
1779,Jeffreyton,2016-07-16 13:08:15,49.34,9077353760081
1780,West Paulport,2016-02-16 02:32:49,15.82,4212374850877
1781,Port Guytown,2016-03-07 10:07:01,26.48,9572799894722
1782,Rodriguezview,2016-01-15 23:03:21,34.6,7242571684880
1783,West Tony,2016-05-25 06:30:46,16.12,7605115191082
1784,Port Guytown,2016-07-09 13:57:46,39.84,9141056397087
1785,Kyleton,2016-01-10 22:38:28,29.23,5189958330782
1786,North Tracyfort,2016-09-21 01:28:24,40.54,2577864807420
1787,Port Jose,2016-01-08 17:03:03,44.39,7718912986888
1788,West Tony,2016-01-24 02:58:44,24.34,8755639016046
1789,Jeffreyton,2016-03-21 10:00:13,42.94,6080403204711
1790,Johnland,2016-10-29 11:10:08,48.46,9112825944047
1791,Conwaymouth,2016-04-14 11:33:57,15.59,3955373212352
1792,West Paulport,2016-11-11 12:05:26,32.18,4534167022149
1793,Martinmouth,2016-09-13 05:50:40,39.92,155794037869
1794,Port Jose,2016-11-12 21:20:21,22.23,5186267317558
1795,Tiffanyton,2016-03-18 22:23:02,27.56,9111212410554
1796,Anitamouth,2016-01-29 20:03:47,41.74,4547643471379
1797,New Michelleberg,2016-06-21 15:52:21,31.77,2821566079327
1798,Thomastown,2016-10-28 20:46:36,48.63,4794095403216
1799,Martinmouth,2016-11-07 00:57:33,24.76,2090749775206
1800,New Cindyborough,2016-05-29 02:25:53,48.76,8949387752145
1801,Floresberg,2016-01-25 00:12:42,37.13,949364469163
1802,East Jenniferchester,2016-01-09 08:16:24,19.43,3140536371209
1803,West Pamelaborough,2016-11-15 04:57:03,39.43,9917671288754
1804,Port Alexandria,2016-05-11 17:15:14,38.47,7189369952182
1805,New Samanthaside,2016-04-17 15:18:51,22.32,617327795375
1806,West Tony,2016-05-16 07:56:11,21.18,4405297556074
1807,Kyleton,2016-07-30 17:11:06,35.13,2764828683026
1808,Port James,2016-04-02 08:25:37,32.73,5462893938573
1809,Conwaymouth,2016-02-02 05:02:42,33.01,5967628978263
1810,North Tracyfort,2016-11-24 21:37:31,24.57,2537949312003
1811,West Paulport,2016-06-16 09:17:40,25.54,2292878802291
1812,Jasonfort,2016-10-15 03:31:31,21.43,5373940569247
1813,Sarahview,2016-01-19 13:53:59,43.51,5710760111353
1814,Johnland,2016-02-04 17:52:10,15.91,1874282123271
1815,Port Alexandria,2016-10-13 03:59:47,33.28,1052173055744
1816,Port Alexandria,2016-09-30 06:44:31,21.51,4852023321121
1817,Sarahview,2016-08-29 20:57:53,19.14,9524692301111
1818,Floresberg,2016-04-16 06:43:35,37.54,1700159036187
1819,Kyleton,2016-04-18 23:04:09,45.73,4804713241981
1820,Lake Brenda,2016-04-04 15:00:57,43.37,9969031014367
1821,New Brandonborough,2016-04-18 15:33:56,36.79,4705955883246
1822,New Lynn,2016-06-14 20:08:50,37.84,3819903517457
1823,West Pamelaborough,2016-01-14 10:14:35,28.57,1476721533971
1824,Port Michelleview,2016-06-15 09:49:26,15.86,5824224992980
1825,Jasonfort,2016-09-19 16:12:44,47.02,8675079475534
1826,West Evan,2016-10-12 03:10:17,14.71,9922952516174
1827,Webstertown,2016-06-29 21:08:12,38.73,5511135048218
1828,New Brandonborough,2016-03-06 19:39:18,45.81,7875186572053
1829,West Pamelaborough,2016-03-16 01:34:04,15.15,1720905556820
1830,Conwaymouth,2016-06-01 05:46:21,12.72,3515642488408
1831,Carrollbury,2016-06-09 05:04:24,49.47,617204620844
1832,West Evan,2016-07-18 15:02:01,12.64,5273569127197
1833,New Brandonborough,2016-09-03 15:42:49,29.58,5251620933413
1834,Johnland,2016-04-26 02:04:14,44.69,5845918134639
1835,Port James,2016-06-10 07:17:00,44.75,727817561646
1836,Jasonfort,2016-05-10 11:11:41,26.6,7210392911232
1837,West Tony,2016-11-23 03:39:55,19.09,2278107678769
1838,Port James,2016-02-07 12:25:28,40.07,7695306000262
1839,Lake Brenda,2016-08-03 02:55:14,28.66,9852716564731
1840,Rodriguezview,2016-04-13 15:37:06,42.79,3463916031617
1841,New Jessicamouth,2016-06-26 09:05:48,26.17,1455925680803
1842,North Tara,2016-06-06 01:12:34,42.16,4291626115971
1843,Paulfort,2016-08-26 19:52:46,26.99,5563290424550
1844,Port James,2016-01-11 23:27:53,39.66,7936265883399
1845,New Brandonborough,2016-09-24 05:27:18,46.86,7317308291126
1846,West Pamelaborough,2016-01-27 00:09:03,49.48,4491450664304
1847,New Jessicamouth,2016-10-01 17:03:01,19.72,2110231519290
1848,Floresberg,2016-06-13 03:18:43,35.33,1134742931687
1849,Lake Brenda,2016-07-14 19:37:59,33.61,6644364498185
1850,Sarahview,2016-01-01 06:02:28,32.92,1488051243765
1851,Jasonfort,2016-10-04 12:19:53,12.46,5645987335032
1852,Campbellport,2016-02-01 21:28:29,40.34,2656304167956
1853,New Samanthaside,2016-04-23 06:36:42,30.86,7624846176540
1854,Tiffanyton,2016-07-12 10:50:49,26.13,283064332960
1855,Port Alexandria,2016-03-16 12:26:35,13.32,6677577128884
1856,New Lynn,2016-03-23 18:39:03,27.2,2019066981961
1857,New Samanthaside,2016-11-26 00:34:37,48.8,4428266158994
1858,New Cindyborough,2016-03-20 19:51:54,13.52,9380132596512
1859,Port James,2016-01-10 23:39:42,32.32,4224453478049
1860,Sarahview,2016-07-19 19:09:38,25.19,4384430571337
1861,West Paulport,2016-09-28 15:40:39,43.63,3170172661044
1862,New Brandonborough,2016-09-08 06:20:28,37.15,7658679118958
1863,Webstertown,2016-02-06 09:12:29,28.23,702835367463
1864,West Paulport,2016-09-24 16:31:30,40.24,1968625958382
1865,New Samanthaside,2016-07-27 10:11:39,31.22,1798463538022
1866,West Pamelaborough,2016-07-04 02:16:51,20.09,341374146346
1867,Port Michelleview,2016-07-17 04:14:33,31.4,869277210068
1868,Jasonfort,2016-09-14 00:49:40,22.68,835998423056
1869,Webstertown,2016-06-02 21:04:45,37.6,1674787439453
1870,Carrollbury,2016-05-20 06:12:36,35.33,73368831241
1871,South Gracechester,2016-01-11 03:37:53,26.3,5217396245723
1872,Port Guytown,2016-06-25 10:47:45,48.36,7519400494096
1873,Kyleton,2016-04-05 10:57:34,16.34,4121350835817
1874,East Cherylfurt,2016-08-02 14:26:36,36.94,6776337445619
1875,West Tony,2016-04-10 11:36:23,36.47,7938082066689
1876,Campbellport,2016-01-05 14:05:02,25.05,8330216959048
1877,West Paulport,2016-02-11 03:33:52,33.09,6208173207781
1878,West Paulport,2016-10-15 04:14:58,36.91,9561001153382
1879,Rodriguezview,2016-07-20 18:34:06,43.14,261330967924
1880,Johnland,2016-01-03 06:46:47,19.42,5724461259511
1881,Port Alexandria,2016-04-09 05:03:21,17.17,1182627408427
1882,West Tony,2016-04-23 03:04:04,34.79,7350107524576
1883,Port Michelleview,2016-09-26 06:06:21,28.09,9606165132450
1884,Thomastown,2016-11-02 10:05:00,43.53,3942768576779
1885,Kyleton,2016-10-02 03:27:23,22.79,3573102810268
1886,Rodriguezview,2016-11-08 18:32:30,26.39,1854986904642
1887,Carrollbury,2016-03-21 17:31:26,20.26,7948046018548
1888,Lake Brenda,2016-11-22 20:33:19,42.33,6290601114327
1889,New Brandonborough,2016-08-01 10:57:05,16.47,1764852710232
1890,Anitamouth,2016-09-21 12:36:00,46.36,2181536008161
1891,New Lynn,2016-11-23 21:46:22,22.68,3431339613147
1892,Webstertown,2016-03-06 07:35:35,27.52,5049883151602
1893,Jeffreyton,2016-09-12 21:04:26,43.5,3487138650210
1894,New Michelleberg,2016-04-26 02:49:50,18.74,3755005483286
1895,Kyleton,2016-01-28 01:49:49,38.78,6964075287091
1896,New Brandonborough,2016-10-01 20:47:42,33.72,133676763525
1897,Thomastown,2016-07-18 22:41:20,32.03,8197237848207
1898,Port Michelleview,2016-06-20 16:18:18,35.97,484374812788
1899,Port Alexandria,2016-11-25 03:09:57,12.79,8578192374831
1900,New Samanthaside,2016-06-22 13:59:05,21.23,21811557354
1901,East Cherylfurt,2016-03-17 03:20:52,20.09,2485910526235
1902,Campbellport,2016-10-06 08:51:49,46.45,3136041776028
1903,Jasonfort,2016-07-20 22:23:32,34.42,9789644708374
1904,Port James,2016-05-16 02:53:08,46.22,9521469665490
1905,East Jenniferchester,2016-02-05 06:13:47,48.65,5250780994425
1906,Rodriguezview,2016-03-20 20:58:33,35.14,4838062062713
1907,West Tony,2016-01-12 05:13:19,48.54,6180779872542
1908,West Paulport,2016-03-08 10:13:26,24.14,1514547278000
1909,Rodriguezview,2016-04-17 21:46:17,45.95,8886162688001
1910,East Cherylfurt,2016-04-15 23:16:05,20.2,1769004341074
1911,Clarkstad,2016-05-13 00:04:06,30.18,9738777396613
1912,Johnland,2016-08-09 23:50:54,37.69,2152364951219
1913,Johnland,2016-05-29 06:19:46,17.89,5603488284457
1914,Thomastown,2016-09-26 04:13:40,33.38,71844197683
1915,Port Jose,2016-10-17 05:13:16,22.91,2631055354107
1916,Conwaymouth,2016-06-07 09:41:23,34.14,6462345985192
1917,East Jenniferchester,2016-02-12 23:17:22,49.09,8688039069193
1918,New Samanthaside,2016-07-25 17:46:24,24.1,6795310658129
1919,East Jenniferchester,2016-04-09 08:41:02,27.93,5734600760396
1920,Port Jose,2016-07-06 04:26:35,19.83,4118480450720
1921,Port Jose,2016-01-15 10:56:09,25.69,9396761759280
1922,East Jenniferchester,2016-07-20 14:28:58,30.19,9300889800311
1923,Campbellport,2016-11-30 16:00:09,20.34,7519948223028
1924,Port James,2016-05-07 22:05:02,21.35,7332778837759
1925,East Cherylfurt,2016-05-02 05:19:25,31.67,5635483838274
1926,Paulfort,2016-05-27 17:21:14,22.46,3683589224028
1927,Floresberg,2016-03-29 02:26:52,34.4,9522434420717
1928,Port Michelleview,2016-03-14 13:45:37,22.59,5415302656162
1929,Paulfort,2016-02-11 21:34:47,16.38,3941639526493
1930,South Gracechester,2016-07-26 11:37:43,23.7,3535775421714
1931,South Shannonborough,2016-05-08 12:58:16,41.16,5064663629522
1932,Conwaymouth,2016-04-29 12:06:42,46.07,345847571901
1933,Port Jose,2016-06-08 17:34:54,38.22,6828086363215
1934,Carrollbury,2016-08-20 11:20:51,46.67,4786094151694
1935,South Shannonborough,2016-11-25 04:39:20,12.3,3179319025978
1936,Thomastown,2016-08-08 22:55:04,17.93,9682751210580
1937,Lake Brenda,2016-11-14 05:23:04,23.08,3681321669021
1938,Port James,2016-01-04 18:16:23,37.63,2362248064700
1939,Sarahview,2016-01-18 07:08:26,44.94,9864579115814
1940,New Samanthaside,2016-04-14 08:50:35,20.27,7799256342745
1941,New Brandonborough,2016-09-08 07:31:21,15.51,5501234786005
1942,New Brandonborough,2016-03-01 09:19:02,23.21,1349520687919
1943,New Cindyborough,2016-04-21 03:10:31,41.04,3003882770358
1944,West Tony,2016-02-18 19:47:57,38.0,3360615463971
1945,Webstertown,2016-02-01 10:46:00,15.05,4097005965560
1946,Jeffreyton,2016-02-23 11:48:42,32.52,161301672621
1947,Rodriguezview,2016-01-17 03:28:19,24.09,9630657622549
1948,Clarkstad,2016-08-08 20:18:29,32.14,8348145560532
1949,Sarahview,2016-06-01 14:38:44,47.71,5422487851312
1950,New Samanthaside,2016-02-15 01:27:51,28.39,9183374328787
1951,Port James,2016-09-18 19:32:48,47.44,6345934618193
1952,South Shannonborough,2016-11-12 15:53:22,14.63,9782158167835
1953,South Jennifer,2016-08-10 16:05:12,38.07,8330517990191
1954,New Michelleberg,2016-08-11 20:26:51,12.57,8955073597969
1955,Jasonfort,2016-12-04 15:42:42,19.35,6265163938186
1956,Williamchester,2016-05-10 16:35:23,36.07,4922838323136
1957,New Lynn,2016-10-16 02:01:42,35.17,2419386883523
1958,West Pamelaborough,2016-11-02 14:44:12,46.46,3050127413075
1959,Thomastown,2016-03-06 00:37:27,16.55,4353717248965
1960,Kyleton,2016-11-25 02:05:44,12.37,8626841117800
1961,Tiffanyton,2016-02-05 13:27:09,12.58,9108926058196
1962,Floresberg,2016-03-10 17:33:08,24.86,5223533152533
1963,Port James,2016-01-07 03:59:34,19.35,6666174578710
1964,Port Alexandria,2016-09-24 11:54:00,37.57,1793904500347
1965,Johnland,2016-08-28 04:49:36,26.09,9089007149111
1966,Rodriguezview,2016-03-14 14:31:41,26.91,4912118363884
1967,New Cindyborough,2016-07-05 14:06:03,41.4,8247236750916
1968,Rodriguezview,2016-11-17 11:30:31,23.71,3592487444943
1969,Tiffanyton,2016-10-25 14:38:53,31.86,2725298681394
1970,Tiffanyton,2016-01-18 07:12:58,30.51,4094127044562
1971,Tiffanyton,2016-10-15 03:14:13,35.81,8313302680453
1972,South Shannonborough,2016-07-04 23:28:43,16.44,6493200750587
1973,Port Alexandria,2016-08-10 12:16:09,31.75,11622863980
1974,Anitamouth,2016-03-03 13:56:02,40.85,3932716370818
1975,Williamchester,2016-05-22 04:15:15,25.91,4677896988123
1976,New Michelleberg,2016-02-22 07:48:38,32.15,7613749224588
1977,West Tony,2016-09-30 14:44:15,35.83,5762664174132
1978,Port James,2016-02-21 17:23:45,44.61,5827549120908
1979,Port Michelleview,2016-11-01 04:02:07,46.47,8823569388950
1980,East Cherylfurt,2016-03-27 15:05:56,43.78,2425201866909
1981,Carrollbury,2016-09-20 11:00:55,44.22,6459562305940
1982,Conwaymouth,2016-11-24 02:48:23,45.62,2517980089836
1983,Port James,2016-07-23 18:11:48,49.68,225521001828
1984,South Shannonborough,2016-02-08 20:41:32,27.11,6356688344771
1985,New Jessicamouth,2016-09-21 06:44:05,48.04,110306836705
1986,East Cherylfurt,2016-09-30 04:50:27,27.26,4041208907070
1987,Williamchester,2016-05-16 12:38:34,48.47,6529898720226
1988,North Tracyfort,2016-01-27 20:06:56,33.6,123346812875
1989,Floresberg,2016-05-03 02:41:26,27.14,888255520135
1990,Campbellport,2016-07-27 23:38:49,31.53,5666350540501
1991,Thomastown,2016-09-10 12:37:43,44.88,9639371208688
1992,Paulfort,2016-04-16 08:05:44,13.7,748289041023
1993,East Cherylfurt,2016-10-08 18:59:05,45.34,1975964580532
1994,South Jennifer,2016-10-05 18:42:44,30.99,3125036468369
1995,Port Michelleview,2016-08-13 23:22:52,27.05,3012620164458
1996,North Tracyfort,2016-11-18 13:54:43,29.4,7150798445286
1997,Lake Brenda,2016-03-18 18:41:44,17.22,586661635473
1998,Thomastown,2016-04-13 13:57:23,44.08,100417176739
1999,Port Alexandria,2016-10-30 11:03:57,14.44,4823477354201
2000,Port Jose,2016-10-12 21:24:39,36.71,2041011376515
2001,Floresberg,2016-11-29 16:25:20,20.97,1614840729060
2002,Port Guytown,2016-04-08 03:57:11,29.64,6262857384885
2003,Martinmouth,2016-05-17 22:41:04,24.07,4713008941201
2004,East Cherylfurt,2016-11-30 11:34:25,29.88,3015887259301
2005,Port James,2016-07-02 17:07:48,33.05,1962459203120
2006,Kyleton,2016-04-04 21:50:21,20.28,5584542899445
2007,New Samanthaside,2016-04-21 22:08:35,29.73,3735529800837
2008,New Michelleberg,2016-09-30 01:07:25,14.81,3554336501696
2009,Port James,2016-03-12 06:41:32,49.32,2251646720854
2010,Rodriguezview,2016-10-01 11:30:32,21.63,3494730789132
2011,West Tony,2016-01-05 08:35:08,15.72,9708629466047
2012,North Tracyfort,2016-05-24 20:17:59,13.67,4453084700766
2013,Port James,2016-07-31 02:04:29,43.77,2243875350940
2014,Paulfort,2016-08-20 13:30:14,29.74,3568075122975
2015,Williamchester,2016-08-21 22:39:11,41.25,9414595182903
2016,East Jenniferchester,2016-10-27 19:36:16,19.58,6240346383717
2017,Port Guytown,2016-02-15 05:39:03,30.42,2348070460699
2018,Sarahview,2016-10-16 01:15:21,45.78,5014267265657
2019,Kyleton,2016-03-05 20:14:14,48.12,6497008376154
2020,Thomastown,2016-08-25 23:01:13,27.56,3202709169249
2021,Rodriguezview,2016-03-14 21:17:57,42.48,4800994452962
2022,Webstertown,2016-05-22 13:29:10,40.77,208804190853
2023,Port James,2016-08-30 14:21:57,37.25,3317696509821
2024,South Gracechester,2016-09-08 06:53:25,23.25,7522667629
2025,East Cherylfurt,2016-04-05 09:38:00,33.16,4788395142159
2026,West Evan,2016-11-24 04:36:20,49.85,9119405187566
2027,Webstertown,2016-09-18 02:17:52,24.01,1837558931703
2028,South Jennifer,2016-03-26 07:26:46,31.29,9689974905231
2029,Lake Brenda,2016-08-06 02:22:33,49.37,8053437881027
2030,New Michelleberg,2016-11-11 08:38:30,19.47,3105353614687
2031,Lake Brenda,2016-01-18 07:43:54,12.6,3115166356407
2032,Port Jose,2016-08-22 05:55:45,36.32,5724387750895
2033,West Evan,2016-11-27 08:12:54,22.68,3217602360785
2034,New Jessicamouth,2016-05-27 18:12:50,34.64,3429718443072
2035,East Jenniferchester,2016-11-30 07:07:02,25.89,1282665257671
2036,East Cherylfurt,2016-10-20 02:48:36,25.35,7467234030037
2037,New Michelleberg,2016-09-15 12:57:54,15.08,6317456118314
2038,West Pamelaborough,2016-11-15 06:34:47,19.93,8874522344506
2039,Tiffanyton,2016-04-20 13:59:12,25.68,3052223959419
2040,West Tony,2016-11-21 01:55:09,40.4,8416261507066
2041,Thomastown,2016-08-13 15:11:15,19.87,1695880499571
2042,Carrollbury,2016-10-27 00:24:55,34.9,8699745721565
2043,Carrollbury,2016-05-24 03:40:10,47.88,1288226293003
2044,Port Michelleview,2016-06-19 23:29:06,21.46,9495212592725
2045,East Jenniferchester,2016-05-06 20:54:12,43.27,6363912312277
2046,New Lynn,2016-01-12 07:52:43,33.29,7480332909340
2047,Port Guytown,2016-06-11 16:12:49,18.55,1828189802982
2048,Campbellport,2016-09-16 09:30:36,41.36,2325853295846
2049,Port Michelleview,2016-07-08 04:37:28,21.88,3783066220076
2050,Port Michelleview,2016-03-30 00:47:16,29.29,4238697212550
2051,Tiffanyton,2016-07-23 16:54:50,22.19,6914513061639
2052,Thomastown,2016-05-25 05:24:47,34.31,7340244821782
2053,New Samanthaside,2016-07-11 10:25:51,41.34,2083682275483
2054,Webstertown,2016-09-23 04:54:40,24.22,4813531433508
2055,Thomastown,2016-08-24 11:15:23,19.52,3323125819577
2056,Thomastown,2016-01-04 08:16:03,41.6,4288093292601
2057,Port James,2016-06-15 08:18:47,31.1,8363935047666
2058,Port James,2016-07-15 15:34:51,33.5,7476222765363
2059,Clarkstad,2016-11-11 13:40:14,21.89,6278532840157
2060,South Jennifer,2016-09-04 02:07:50,46.04,8294973100382
2061,Tiffanyton,2016-01-01 20:44:29,26.45,5291896526193
2062,South Shannonborough,2016-03-04 23:04:49,37.28,2414712340510
2063,New Cindyborough,2016-05-09 17:03:22,33.1,5001830916139
2064,Port James,2016-09-14 18:28:44,12.45,1179558562502
2065,Clarkstad,2016-06-05 17:26:32,41.99,918971160640
2066,New Cindyborough,2016-03-24 02:06:33,42.86,3595976475749
2067,New Brandonborough,2016-01-08 03:46:22,19.27,3170004856303
2068,Campbellport,2016-10-21 18:00:21,41.07,4760258667191
2069,North Tracyfort,2016-03-03 08:13:27,23.21,6002446501978
2070,New Samanthaside,2016-07-03 11:52:24,28.49,8879091414520
2071,Carrollbury,2016-03-20 00:10:38,24.36,7992828891256
2072,Sarahview,2016-05-03 01:13:42,45.86,1119895390369
2073,Martinmouth,2016-05-25 14:23:33,41.13,8387195416611
2074,North Tracyfort,2016-06-24 17:18:10,21.92,1332876355342
2075,Sarahview,2016-11-24 03:57:32,33.69,2500365382349
2076,Port Guytown,2016-01-09 11:21:45,37.1,325900627097
2077,Sarahview,2016-10-22 08:19:16,31.69,8383104648159
2078,South Gracechester,2016-02-15 00:38:41,21.87,4879359439375
2079,New Jessicamouth,2016-07-20 04:52:39,43.96,2648125330121
2080,West Tony,2016-04-19 04:44:04,33.67,2466282970147
2081,New Samanthaside,2016-04-24 05:27:32,49.59,2441127691517
2082,New Lynn,2016-04-11 04:08:20,19.03,4318701941000
2083,New Brandonborough,2016-02-23 23:14:44,40.17,6808285140480
2084,Port Jose,2016-08-29 12:55:05,32.02,5415594887923
2085,North Tracyfort,2016-02-08 14:00:45,12.76,6874219865163
2086,Thomastown,2016-03-10 05:20:36,43.07,1453760214276
2087,Clarkstad,2016-01-05 19:46:16,36.58,6182507428588
2088,East Cherylfurt,2016-05-27 03:20:37,33.86,1660232503039
2089,Jeffreyton,2016-10-04 21:52:13,47.04,171997414689
2090,Williamchester,2016-03-20 21:13:30,33.75,8817502166163
2091,Anitamouth,2016-07-04 03:08:18,36.12,2375666393963
2092,Port Alexandria,2016-05-28 07:48:42,42.4,2800056185632
2093,South Gracechester,2016-02-25 17:21:02,45.89,2294069786663
2094,Port Michelleview,2016-11-04 02:56:02,28.06,7208840772863
2095,South Gracechester,2016-08-28 06:25:26,39.53,1119985165266
2096,Port Michelleview,2016-06-23 19:58:58,26.1,2324016320333
2097,West Paulport,2016-02-22 11:57:13,29.15,1932165656503
2098,South Shannonborough,2016-05-20 16:11:57,48.59,167469351521
2099,Tiffanyton,2016-05-22 10:32:56,32.21,4194519944958
2100,East Jenniferchester,2016-08-16 09:38:32,48.79,3379331000308
2101,Williamchester,2016-04-25 22:42:48,23.62,2455293950361
2102,West Paulport,2016-02-28 04:08:12,47.74,4597968972754
2103,West Evan,2016-03-03 18:39:31,17.08,4557078548904
2104,Campbellport,2016-06-05 13:59:07,23.22,9008316216925
2105,Port Jose,2016-01-08 10:24:23,41.68,7576675360143
2106,New Michelleberg,2016-09-11 18:56:08,15.76,4613798088004
2107,New Jessicamouth,2016-06-11 20:41:32,23.83,2174175458954
2108,Port Guytown,2016-12-03 05:31:39,15.8,5015205993434
2109,New Michelleberg,2016-08-24 18:38:32,48.24,8997239775026
2110,Port Alexandria,2016-10-13 21:49:40,28.77,5128376426073
2111,New Cindyborough,2016-10-08 13:31:44,28.48,3432623472310
2112,New Samanthaside,2016-02-15 13:11:03,45.78,1232837967808
2113,Martinmouth,2016-09-23 13:03:07,46.01,7370807523891
2114,South Gracechester,2016-09-28 22:04:56,39.09,247194956090
2115,Conwaymouth,2016-02-10 23:15:46,29.57,5434846644701
2116,South Shannonborough,2016-08-27 23:51:03,17.32,3579784497827
2117,Jeffreyton,2016-02-25 08:29:05,40.02,8265365582703
2118,New Lynn,2016-11-09 02:49:39,43.74,574863745434
2119,Anitamouth,2016-12-02 22:59:42,38.64,7347191675192
2120,Carrollbury,2016-11-20 14:55:02,37.97,4395282429585
2121,West Tony,2016-01-13 13:54:09,30.32,7884903517284
2122,Jeffreyton,2016-08-16 11:00:51,33.71,9966858013290
2123,Paulfort,2016-11-14 14:49:10,39.57,4554329308959
2124,Jeffreyton,2016-02-17 15:46:19,12.77,3656954320526
2125,West Pamelaborough,2016-08-10 00:56:27,43.17,3214638737567
2126,Johnland,2016-07-17 16:27:49,46.96,7239195028961
2127,Paulfort,2016-06-07 02:40:22,35.32,3720394047456
2128,Port Michelleview,2016-10-29 14:09:31,19.01,8482529942368
2129,Conwaymouth,2016-11-30 20:07:05,48.45,8995803338738
2130,Jeffreyton,2016-07-12 23:20:30,28.71,4681889328162
2131,Sarahview,2016-11-02 22:40:30,13.68,7462937892494
2132,Martinmouth,2016-10-26 02:21:34,29.03,568812204547
2133,New Samanthaside,2016-04-03 12:43:43,41.87,6921665148781
2134,Lake Brenda,2016-05-05 11:25:25,45.93,7681604268404
2135,South Gracechester,2016-06-27 15:54:38,30.9,9364933227561
2136,West Evan,2016-02-03 15:50:57,17.57,2238752751
2137,West Paulport,2016-02-15 12:08:12,47.04,7838669752717
2138,Port Jose,2016-11-09 19:10:25,17.75,172157590687
2139,New Jessicamouth,2016-03-19 01:56:46,21.92,1982991238954
2140,Port Jose,2016-07-02 03:44:09,14.9,8469790600203
2141,New Lynn,2016-10-31 10:33:55,17.89,7106182911035
2142,Port James,2016-02-06 01:24:57,15.67,3449564026717
2143,South Jennifer,2016-10-07 21:10:22,35.7,3440594061846
2144,Port Michelleview,2016-09-30 00:18:46,38.76,2948110877038
2145,New Samanthaside,2016-10-13 06:40:10,37.05,2718293829861
2146,Webstertown,2016-01-26 07:27:21,36.73,6513765504538
2147,South Jennifer,2016-06-24 20:00:42,36.29,7629110609205
2148,Anitamouth,2016-07-14 16:11:11,48.93,7745514475878
2149,Webstertown,2016-05-31 09:14:14,20.15,3046318756120
2150,New Jessicamouth,2016-05-18 16:18:03,39.17,820574534622
2151,New Cindyborough,2016-10-19 22:48:45,19.45,9696914665100
2152,Johnland,2016-08-31 17:17:43,16.34,3262136578014
2153,Martinmouth,2016-05-28 07:21:44,15.49,2838087595946
2154,Clarkstad,2016-09-28 05:16:26,42.58,5687344816686
2155,Jeffreyton,2016-11-03 20:05:04,26.06,4691824954233
2156,Jasonfort,2016-06-26 16:45:40,35.04,4101286981895
2157,Jeffreyton,2016-04-18 07:32:21,46.26,4170471527972
2158,South Gracechester,2016-05-30 17:10:29,16.57,4365273051347
2159,West Paulport,2016-04-11 14:22:29,34.31,5735333103412
2160,South Jennifer,2016-05-09 20:44:30,25.02,5180084863014
2161,Webstertown,2016-07-19 11:48:25,25.28,5545096368412
2162,Campbellport,2016-02-25 20:39:21,20.55,1952715136422
2163,South Shannonborough,2016-09-23 16:13:17,25.78,7225493243908
2164,South Gracechester,2016-02-13 08:59:15,17.95,7707934263299
2165,Port Guytown,2016-05-20 07:48:29,19.43,4247411080238
2166,South Jennifer,2016-02-05 10:51:18,29.74,9506460250524
2167,Clarkstad,2016-05-23 15:09:27,21.7,7362542792786
2168,New Jessicamouth,2016-07-02 00:26:53,49.95,7153762992366
2169,South Jennifer,2016-08-31 21:49:33,18.46,5678403186406
2170,Campbellport,2016-08-15 22:27:38,22.95,7917780105807
2171,West Paulport,2016-07-26 14:43:53,14.98,9736030276740
2172,North Tara,2016-04-30 08:52:01,45.36,4625917076816
2173,Martinmouth,2016-01-23 18:52:27,38.3,8533541191606
2174,Paulfort,2016-01-06 08:35:46,48.39,9067527240907
2175,Johnland,2016-11-17 04:32:08,14.08,7746790862079
2176,New Jessicamouth,2016-01-12 14:36:00,30.04,2292425164476
2177,East Cherylfurt,2016-02-10 08:01:22,42.62,520744463270
2178,South Gracechester,2016-07-07 11:44:06,29.38,4313739296320
2179,North Tara,2016-11-09 15:45:56,43.72,8103943152521
2180,Tiffanyton,2016-06-02 06:42:46,23.58,5550577665799
2181,Port Jose,2016-04-29 21:46:58,33.34,2084175895874
2182,North Tara,2016-04-15 13:57:39,49.2,5356741485558
2183,Floresberg,2016-11-06 05:10:52,41.5,502047327282
2184,Sarahview,2016-07-09 09:05:03,23.35,8198565947587
2185,Jeffreyton,2016-11-20 11:01:27,15.54,6377267655644
2186,Paulfort,2016-10-23 19:21:00,32.76,1154850634331
2187,West Paulport,2016-06-07 10:59:44,44.39,6958569707509
2188,South Gracechester,2016-10-16 03:24:03,30.95,8903442044811
2189,East Jenniferchester,2016-06-25 20:08:16,37.1,1275710680951
2190,West Pamelaborough,2016-07-26 15:41:29,21.1,1859961459728
2191,Tiffanyton,2016-09-02 20:49:53,29.91,4571645215747
2192,New Michelleberg,2016-08-01 12:29:19,38.77,8188679960565
2193,Williamchester,2016-03-12 05:45:40,44.37,4341000080149
2194,New Jessicamouth,2016-10-30 20:31:41,24.27,2755333176738
2195,North Tracyfort,2016-01-21 22:58:39,49.2,8858130821345
2196,East Cherylfurt,2016-04-12 15:15:17,18.26,9193824203632
2197,New Cindyborough,2016-04-21 13:16:48,17.43,1036264344283
2198,South Gracechester,2016-01-07 04:23:50,12.82,6638603885492
2199,South Gracechester,2016-05-09 23:34:49,36.82,4134621753765
2200,South Gracechester,2016-06-24 00:33:52,38.59,5542622996828
2201,Port James,2016-07-01 12:54:56,21.83,715134404609
2202,West Tony,2016-08-12 13:46:10,36.19,503643402298
2203,Lake Brenda,2016-10-05 10:21:54,45.47,7308711145137
2204,South Gracechester,2016-02-27 07:42:17,30.47,421686911259
2205,Campbellport,2016-09-29 18:39:16,32.93,8560812007694
2206,Jasonfort,2016-11-13 12:08:17,23.24,4348021999986
2207,South Jennifer,2016-08-29 19:51:11,26.36,641341897487
2208,New Jessicamouth,2016-07-19 14:20:26,30.24,6872721534416
2209,Tiffanyton,2016-10-26 13:51:36,46.16,1378647556556
2210,Thomastown,2016-01-25 17:39:01,21.1,6426838853122
2211,Port James,2016-03-07 08:51:17,24.26,623481159694
2212,Thomastown,2016-05-30 02:40:38,28.0,9142221889864
2213,Thomastown,2016-01-19 12:40:19,29.08,3261020829294
2214,Port Michelleview,2016-03-16 10:58:26,14.9,8175931855295
2215,South Gracechester,2016-03-09 20:08:51,44.62,1689521191238
2216,Conwaymouth,2016-04-02 18:40:05,25.67,9947857222852
2217,South Shannonborough,2016-03-06 06:47:59,39.15,6580337521064
2218,West Evan,2016-01-02 16:24:54,22.59,3598172235339
2219,Webstertown,2016-09-12 04:03:15,24.15,7088674842808
2220,West Tony,2016-03-17 08:21:55,21.95,3863083046542
2221,Lake Brenda,2016-07-26 22:43:47,21.61,906508038494
2222,West Paulport,2016-03-25 00:12:36,21.08,8297446071998
2223,Port Michelleview,2016-10-23 20:30:26,19.91,3559113387760
2224,East Jenniferchester,2016-07-26 01:44:46,46.71,9936536228476
2225,Rodriguezview,2016-06-23 03:43:13,49.24,9932335592589
2226,Lake Brenda,2016-07-04 13:31:18,23.5,3602696796266
2227,East Jenniferchester,2016-04-11 09:46:48,28.66,8222557011922
2228,Port James,2016-04-14 19:45:45,38.26,4124017812046
2229,Thomastown,2016-05-15 09:40:27,40.02,6407619626296
2230,East Jenniferchester,2016-10-02 08:26:34,19.26,4159099493050
2231,West Evan,2016-03-22 22:20:01,33.36,9782668221379
2232,Anitamouth,2016-01-06 07:02:48,12.22,5607242791342
2233,New Samanthaside,2016-10-23 19:06:23,23.06,3922898108538
2234,East Jenniferchester,2016-01-28 21:29:29,25.43,5273736332355
2235,Rodriguezview,2016-08-29 19:22:52,18.75,9976923455740
2236,Jasonfort,2016-11-10 20:28:12,23.25,8032749449163
2237,Williamchester,2016-08-31 16:49:37,19.95,3362713962981
2238,Port Michelleview,2016-09-14 06:44:17,44.15,243886776311
2239,Lake Brenda,2016-11-05 00:11:09,20.57,6852219007554
2240,New Jessicamouth,2016-05-17 08:21:05,37.59,5545308851404
2241,Rodriguezview,2016-10-18 19:48:10,26.75,7553206322344
2242,Port James,2016-01-03 16:21:55,35.59,1509231568529
2243,Johnland,2016-09-25 21:33:40,18.89,3474570518178
2244,Clarkstad,2016-06-11 19:21:00,32.78,8947216476408
2245,Port Michelleview,2016-11-27 07:42:07,12.83,1139750594022
2246,West Pamelaborough,2016-11-26 10:45:05,49.36,1790101950968
2247,Port Guytown,2016-06-17 11:20:35,14.84,6611757009662
2248,New Cindyborough,2016-05-12 21:57:46,24.89,3648265749196
2249,North Tara,2016-08-19 09:15:43,17.22,9307594888276
2250,Horneland,2016-07-19 10:07:33,12.63,8214498891817
2251,Kinghaven,2016-05-18 23:28:12,20.53,6432117120069
2252,New Johnbury,2016-04-21 08:30:25,56.6,9002881309143
2253,South Joseph,2016-02-17 01:41:29,57.52,7365786843443
2254,Kennethburgh,2016-10-19 13:13:17,24.43,2728236352387
2255,East Stephen,2016-02-16 11:58:06,22.43,8118042484039
2256,Stevensport,2016-02-14 15:52:14,22.2,341262393081
2257,West Kevintown,2016-11-27 20:12:58,12.92,6460741616450
2258,East Troybury,2016-02-21 06:07:18,45.12,1607319707836
2259,Erikport,2016-01-01 18:05:56,11.76,3568184448232
2260,Hernandezshire,2016-02-20 08:17:32,58.95,3176534714830
2261,Jacksonfort,2016-10-09 02:18:33,10.33,1819118738960
2262,East Leslie,2016-04-21 18:44:59,19.26,5836114186294
2263,Horneland,2016-03-22 21:22:20,31.53,1797785685674
2264,New Johnbury,2016-07-25 19:05:05,24.03,8781417245667
2265,East Stephen,2016-07-27 09:55:18,41.64,3154261826545
2266,North Whitney,2016-04-01 21:21:37,51.01,612689673941
2267,East Leslie,2016-04-13 04:30:56,40.47,7075058703398
2268,Manuelchester,2016-03-21 22:15:25,49.62,6045427401799
2269,South Joseph,2016-04-12 00:21:43,56.07,7011959069461
2270,North Whitney,2016-04-26 09:35:48,42.09,9465134041656
2271,Kinghaven,2016-08-15 14:54:05,54.73,9861677486822
2272,East Leslie,2016-04-26 02:34:30,45.8,9402873395510
2273,Hernandezshire,2016-06-26 20:11:50,28.78,6382848462030
2274,East Stephen,2016-07-11 01:21:31,41.86,1023430862078
2275,East Troybury,2016-03-04 10:49:25,35.77,9725377510815
2276,Erikport,2016-10-01 06:32:37,25.18,5044558212428
2277,East Leslie,2016-04-05 18:53:16,44.78,6113138249150
2278,West Kevintown,2016-02-19 01:42:58,11.15,8622534016726
2279,Shelbyhaven,2016-05-24 15:29:59,18.11,1144791937271
2280,Kennethburgh,2016-02-10 11:22:03,44.02,225335802727
2281,East Stephen,2016-11-19 04:47:01,43.84,7366535419230
2282,West Kevintown,2016-03-11 09:03:43,42.13,4568909568268
2283,Kinghaven,2016-06-01 19:02:55,29.88,9429195617069
2284,North Whitney,2016-06-24 21:09:09,50.03,9224879345166
2285,Shelbyhaven,2016-10-17 14:47:38,53.42,8515375903761
2286,South Joseph,2016-02-10 04:40:32,38.98,4404175884957
2287,Kinghaven,2016-10-24 13:55:09,29.51,7225032916195
2288,Hernandezshire,2016-01-24 00:21:35,30.32,7342649945759
2289,Horneland,2016-01-26 09:38:17,21.73,5665544449606
2290,East Leslie,2016-11-13 10:21:10,15.71,7275986542384
2291,North Whitney,2016-06-10 18:27:03,29.25,4071225680519
2292,Jacksonfort,2016-01-09 01:11:17,50.43,9888063516963
2293,South Joseph,2016-11-21 05:16:26,56.41,1763715882352
2294,East Stephen,2016-05-23 12:55:48,48.49,9985496304508
2295,South Elizabethmouth,2016-04-03 11:13:07,22.79,8193837300497
2296,Hernandezshire,2016-03-05 10:40:16,23.35,7443355895137
2297,East Leslie,2016-03-06 06:10:40,51.32,6841691147797
2298,East Troybury,2016-01-06 13:25:48,59.53,5277708038641
2299,Erikport,2016-04-19 06:56:29,26.4,8819643364798
2300,East Stephen,2016-09-30 12:57:33,58.45,2786024888524
2301,South Joseph,2016-02-03 21:31:31,46.32,2945397874811
2302,East Leslie,2016-03-04 10:18:03,13.43,8814831098684
2303,Jacksonfort,2016-11-15 18:10:42,34.73,2872259802463
2304,Kinghaven,2016-02-26 06:13:28,29.15,7556363986770
2305,South Elizabethmouth,2016-03-11 12:27:01,26.72,4943246873754
2306,South Joseph,2016-02-15 02:35:41,39.18,2125908491083
2307,East Stephen,2016-03-23 17:37:13,28.13,5544477192400
2308,West Kevintown,2016-06-25 08:04:12,24.53,8188407925972
2309,East Stephen,2016-08-24 01:16:18,39.71,4855991750139
2310,Hernandezshire,2016-04-11 04:44:50,10.41,9823290002445
2311,East Leslie,2016-11-28 09:09:15,37.76,804829686137
2312,East Troybury,2016-02-29 07:26:19,14.01,6867080292206
2313,Kennethburgh,2016-02-29 21:50:59,47.48,12105457917
2314,Shelbyhaven,2016-04-21 19:22:03,37.19,5142074323359
2315,North Whitney,2016-02-21 18:20:14,42.01,3306522110065
2316,Hernandezshire,2016-06-26 11:16:28,26.29,304182959218
2317,South Joseph,2016-02-24 07:17:34,43.15,1177421944004
2318,East Leslie,2016-09-08 19:19:38,30.59,8211833105097
2319,Jacksonfort,2016-06-09 23:01:40,24.63,978305304720
2320,North Whitney,2016-11-14 10:46:11,55.07,8000095653619
2321,South Joseph,2016-08-24 23:19:15,40.57,4362092657873
2322,Stevensport,2016-10-30 16:24:21,22.81,3116198466324
2323,East Troybury,2016-07-01 12:48:05,12.88,5989452220219
2324,Matthewside,2016-02-23 17:46:29,59.65,241191157535
2325,East Troybury,2016-04-16 01:37:27,26.6,2964889579584
2326,Hernandezshire,2016-11-25 20:34:14,38.45,2898512024847
2327,West Kevintown,2016-07-24 13:41:23,11.78,2001192693573
2328,Erikport,2016-01-18 07:11:45,10.66,9287766069118
2329,Hernandezshire,2016-11-20 17:32:37,26.79,3095402154397
2330,East Leslie,2016-03-02 22:09:34,36.61,5500269118478
2331,Erikport,2016-11-28 05:51:38,23.38,6392257942917
2332,North Whitney,2016-01-24 09:14:51,24.37,7069044920500
2333,Kennethburgh,2016-03-22 18:04:29,25.67,1480709392474
2334,Kennethburgh,2016-03-22 12:38:48,36.54,7210244842844
2335,Erikport,2016-06-28 07:08:14,51.09,3151357214095
2336,Stevensport,2016-05-11 12:08:25,41.83,1591306474620
2337,East Stephen,2016-03-14 01:46:10,30.59,9121141930245
2338,New Johnbury,2016-05-03 04:52:29,40.71,2918447130656
2339,South Joseph,2016-10-08 02:37:31,19.21,7539237840408
2340,Stevensport,2016-10-13 03:36:59,52.99,9771737428375
2341,North Whitney,2016-03-24 10:27:00,29.72,3818227780479
2342,Shelbyhaven,2016-06-12 16:57:25,30.18,2015025942653
2343,Kennethburgh,2016-07-13 18:13:46,59.64,1666847044707
2344,Shelbyhaven,2016-07-22 05:59:01,10.64,1406024986969
2345,West Kevintown,2016-06-15 19:53:16,13.5,9577921579881
2346,Matthewside,2016-02-23 00:43:51,40.84,8665248512368
2347,Erikport,2016-11-26 04:39:52,44.21,9598643212986
2348,Kinghaven,2016-07-23 08:23:50,46.08,8440329717166
2349,Hernandezshire,2016-02-24 17:30:44,44.68,6389115653382
2350,Kennethburgh,2016-01-01 04:31:43,33.53,5149088250183
2351,Stevensport,2016-02-22 02:45:07,19.91,808097865942
2352,South Elizabethmouth,2016-11-23 07:47:18,46.39,1939838068038
2353,East Stephen,2016-07-30 21:25:01,35.39,1107870956099
2354,Jacksonfort,2016-10-01 13:41:00,34.17,7750597960630
2355,Kennethburgh,2016-04-30 20:44:27,23.58,4524301143267
2356,Horneland,2016-03-25 02:05:42,20.04,5729327140644
2357,Shelbyhaven,2016-01-25 01:39:16,59.43,8088329954312
2358,Erikport,2016-08-03 21:19:11,47.67,9201708664049
2359,Kennethburgh,2016-11-19 06:59:31,18.37,5897895798960
2360,Jacksonfort,2016-10-20 16:42:54,37.75,4356781814784
2361,South Joseph,2016-10-15 03:53:06,32.5,2758038144583
2362,Matthewside,2016-05-18 02:00:30,48.67,2049161404256
2363,Matthewside,2016-08-08 14:02:35,24.97,2872494724827
2364,South Joseph,2016-10-28 09:52:15,25.34,6706101910500
2365,South Elizabethmouth,2016-07-19 09:35:59,31.09,2959749591417
2366,North Whitney,2016-11-11 16:24:16,22.99,3454326063039
2367,New Johnbury,2016-08-29 02:36:06,18.83,7368222134792
2368,East Leslie,2016-06-22 07:45:30,34.54,684950063164
2369,Kennethburgh,2016-06-07 11:43:43,56.02,311733202150
2370,West Kevintown,2016-02-10 00:50:04,34.69,9595491362610
2371,East Troybury,2016-03-14 01:55:32,38.8,9205811495606
2372,North Whitney,2016-01-26 01:06:41,34.92,4165974278063
2373,South Joseph,2016-09-28 07:30:55,12.55,4336212615821
2374,South Elizabethmouth,2016-04-21 10:20:09,16.5,5702608059064
