,earliest_cr_line
Sep-1999,35
Sep-2001,34
Oct-1999,31
Dec-1996,28
Aug-2000,28
Nov-1999,28
Dec-1998,27
Dec-1995,26
Nov-1998,26
Dec-2000,26
Feb-1999,25
Aug-1998,25
Oct-1998,24
Dec-1999,24
Nov-1995,24
Nov-1996,23
Jan-1994,23
Sep-2000,22
Nov-1994,22
Dec-1997,22
Nov-2003,22
Dec-2001,22
Jun-1994,21
Dec-1994,21
Nov-1997,21
Dec-1993,21
Oct-1996,20
Mar-1998,20
May-2000,20
Jan-1998,20
Oct-1997,20
Oct-2003,20
Nov-1993,20
Sep-2002,20
Sep-2003,20
Sep-1996,19
Jun-2000,19
Oct-2001,19
Oct-2000,19
Oct-2004,18
Apr-1996,18
Jan-1999,18
Sep-1997,18
Aug-2001,18
Apr-2002,18
Jul-2003,18
Aug-2002,17
Jan-1996,17
Apr-2000,17
Feb-2000,17
Aug-1995,17
Jul-1999,17
May-1998,17
Nov-2002,16
Feb-1994,16
Jan-2000,16
Apr-1997,16
Jun-1998,16
Jul-2001,16
May-2001,16
Jan-2001,16
Jun-1999,16
Mar-2000,15
Jan-1997,15
May-1996,15
Aug-1996,15
Feb-1993,15
Jun-2003,15
Oct-2002,15
Jun-1993,14
Nov-2001,14
May-1995,14
Aug-1999,14
Jan-2003,14
Mar-1994,14
Dec-2003,14
Jul-2000,14
May-2003,14
Sep-1995,14
Dec-1992,14
Jun-2004,14
Mar-1999,14
May-1999,14
Apr-2001,14
Sep-2004,14
Sep-1994,13
Jun-1995,13
Jun-1991,13
Dec-2004,13
Nov-1991,13
Jan-1991,13
Feb-2003,13
Jul-1998,13
Mar-1996,12
Jun-1997,12
Mar-1997,12
Mar-2004,12
Oct-1995,12
Feb-1995,12
Apr-1998,12
Apr-1999,12
Mar-2001,12
Aug-2005,12
Dec-2002,12
May-2002,12
May-1994,11
Feb-1996,11
Nov-1992,11
Aug-1997,11
Jul-1994,11
Jan-2002,11
Jul-1993,11
Feb-1997,11
Oct-1994,11
Jan-1995,11
Sep-1998,11
Feb-2005,11
Nov-1990,11
Jul-1996,11
Sep-1990,10
Oct-1993,10
Aug-1994,10
Jan-1993,10
Jun-1996,10
Sep-1988,10
Aug-2003,10
May-2004,10
Jun-2001,10
Jul-1997,10
Jul-1990,9
Jun-1990,9
Dec-1988,9
Mar-1991,9
Apr-2004,9
Feb-1998,9
Nov-2000,9
Sep-1989,9
May-1993,9
May-1992,9
Oct-2005,9
Feb-2004,9
Apr-1995,9
Nov-2005,9
Apr-1994,8
Feb-2001,8
Aug-2004,8
Aug-1991,8
Dec-1989,8
Feb-1992,8
Mar-2002,8
Apr-1993,8
Jul-1995,8
Jul-2002,8
Mar-2005,8
Nov-1989,8
Sep-2005,8
Feb-1991,8
Apr-2005,8
Jan-2004,7
Jan-1990,7
Mar-1995,7
May-1989,7
Jun-2002,7
Feb-1990,7
Jul-2005,7
Dec-1990,7
Nov-2004,7
May-1997,7
Jul-2004,7
Sep-1993,7
Oct-1989,7
May-2005,7
Mar-2003,7
Jul-1988,7
Dec-1987,6
Sep-1987,6
Jan-2005,6
Jul-1986,6
Aug-1992,6
Oct-1991,6
Feb-2002,6
Dec-1991,6
Apr-1990,6
Feb-1988,6
May-1988,6
Sep-1986,6
Mar-1992,6
Jun-1988,6
Aug-1989,6
Mar-1986,6
Dec-1986,6
Mar-1985,5
Apr-1988,5
Apr-1989,5
Jun-1986,5
Jul-1989,5
Jul-1992,5
Aug-1990,5
Jan-1988,5
May-1986,5
Feb-1987,5
Jun-1989,5
Oct-1990,5
Oct-1992,5
Mar-1993,5
May-1991,5
Jun-2005,5
Oct-1986,5
Apr-1992,5
Nov-1987,5
Mar-1990,4
Dec-2005,4
Oct-1985,4
Oct-1983,4
Apr-1984,4
Aug-1986,4
Dec-1984,4
Apr-1991,4
Sep-1983,4
Feb-2006,4
Jun-1992,4
Jan-1989,4
Aug-1993,4
Jan-1987,4
Feb-1986,4
Nov-1988,4
Sep-1992,4
Jan-1992,4
Mar-1988,4
Nov-1984,4
Mar-1989,4
Mar-1980,3
May-1985,3
Aug-1984,3
Jun-1987,3
Jun-1980,3
Jan-1985,3
Sep-1978,3
Feb-1985,3
Sep-1980,3
Jan-1981,3
Aug-1988,3
May-2006,3
Jul-1987,3
Jun-1981,3
Mar-1983,3
Apr-1987,3
Aug-1987,3
Aug-1982,3
Apr-1985,3
Feb-1984,3
Jan-1978,3
May-1984,3
Feb-1989,3
Oct-1987,3
Feb-1978,3
Jun-1984,3
Jul-1991,3
Apr-2003,3
Jan-1984,3
Sep-1985,3
May-1990,3
Aug-1976,2
Aug-1970,2
Jul-1980,2
Apr-2006,2
Jun-1974,2
May-1987,2
Jan-1979,2
Jun-1977,2
Dec-1983,2
Apr-1980,2
Oct-1980,2
Mar-1987,2
Jul-1984,2
Nov-1983,2
Nov-1986,2
Sep-1991,2
Oct-1979,2
Jun-1985,2
May-1983,2
Jul-1971,2
Oct-1977,2
Apr-1975,2
Jan-2006,2
Dec-1974,2
Oct-1988,2
Jul-1972,2
Nov-1985,2
Nov-1980,2
Aug-1985,2
Apr-1986,2
May-1976,2
Jan-1983,2
Feb-1977,2
Dec-1978,2
Nov-1978,2
May-1982,2
Nov-1982,2
Jun-1976,1
Sep-1967,1
May-1971,1
Feb-1980,1
Jul-1982,1
May-1973,1
Nov-1976,1
Apr-1979,1
Feb-1982,1
Oct-1974,1
Jan-1982,1
Nov-1971,1
Aug-1980,1
Apr-1982,1
Nov-1981,1
Jan-1968,1
Nov-1975,1
Jun-1978,1
Dec-1977,1
Sep-1984,1
Feb-1979,1
Mar-1981,1
Oct-1975,1
Jan-1980,1
Oct-1973,1
Jan-1970,1
Jan-1986,1
Mar-1975,1
Mar-1972,1
Oct-1978,1
Mar-1982,1
Oct-1968,1
Mar-2006,1
Jun-2006,1
Oct-1972,1
Aug-1969,1
Jun-1983,1
Apr-1981,1
Dec-1966,1
Sep-1982,1
Oct-1984,1
Dec-1981,1
Sep-1970,1
Apr-1983,1
Jun-1973,1
Sep-1974,1
May-1975,1
Apr-1978,1
Jul-1985,1
Sep-1977,1
Dec-1982,1
May-1974,1
Jun-1975,1
Aug-1983,1
Oct-1971,1
May-1972,1
Dec-1968,1
Nov-1979,1
Jan-1972,1
Mar-1978,1
Sep-1981,1
Jul-1983,1
Sep-1979,1
Dec-1985,1
Apr-1971,1
Oct-1976,1
Jul-1981,1
