,earliest_cr_line
Dec-2006,9
Aug-2006,9
Apr-2004,8
Apr-1999,7
Nov-1993,6
Jun-2006,6
Jan-2006,6
Sep-2004,6
Oct-1998,6
Sep-2005,6
Dec-2003,5
Nov-2006,5
Nov-1995,5
Dec-2004,5
Jan-2007,5
May-2005,5
Feb-2006,5
Aug-2004,5
Nov-1999,5
Nov-2005,5
Jul-2006,4
Nov-1997,4
Oct-2002,4
Dec-2005,4
May-2006,4
Apr-2006,4
Nov-2004,4
Sep-1999,4
Sep-1997,4
Dec-2002,4
Jul-2007,4
Oct-1992,4
Sep-2000,4
Mar-2006,4
Sep-1998,4
Oct-2006,4
Feb-2000,4
Jun-2001,4
Jul-1998,4
Jun-2000,4
Aug-2005,4
Sep-2006,4
Apr-2005,4
Apr-1998,3
Apr-2002,3
Aug-2001,3
Oct-2000,3
Jan-2000,3
Jan-1991,3
Sep-2002,3
Nov-2001,3
May-1991,3
Oct-1996,3
Jan-2005,3
Dec-1993,3
Dec-1998,3
Oct-1993,3
Sep-2003,3
Jan-1999,3
Oct-1988,3
Jul-1996,3
Aug-2002,3
Jun-1994,3
Nov-2000,3
Sep-1991,3
Dec-1995,3
Dec-1996,3
Feb-2007,3
Jun-2004,3
Mar-2007,3
Jun-2003,3
Mar-2000,3
Jul-1999,3
Mar-2001,3
May-2001,3
Mar-1998,2
Mar-1984,2
May-1999,2
May-1996,2
Mar-1999,2
Oct-1989,2
Jul-2001,2
Jul-2000,2
Jun-1993,2
Jun-2005,2
Jun-1997,2
Jul-1993,2
Dec-2000,2
Sep-1984,2
Jul-1995,2
Mar-2005,2
Oct-2001,2
Oct-1999,2
Jul-1990,2
Aug-1990,2
Oct-1990,2
Jan-1998,2
Jan-2001,2
Jan-1992,2
Dec-1994,2
Sep-1996,2
Jan-1995,2
Feb-2003,2
Dec-1989,2
Mar-1989,2
Aug-1996,2
Nov-1998,2
Apr-1994,2
Apr-2007,2
Oct-2005,2
Jun-1995,2
Jun-2002,2
Jan-1994,2
Oct-1994,2
Mar-1996,2
Aug-1987,2
Feb-1984,2
Aug-1999,2
Apr-1990,2
Oct-2004,2
Jul-2004,2
May-2000,2
Mar-1987,2
Nov-1996,2
Feb-1989,2
Oct-1997,2
May-1990,2
Oct-1995,2
Jul-2003,2
Jun-1989,2
Jul-1994,2
Jul-1988,2
Dec-1977,1
Sep-1993,1
Mar-2002,1
May-1993,1
Dec-2001,1
Sep-1995,1
Feb-1998,1
Aug-2003,1
Jan-2003,1
Aug-1997,1
Feb-1982,1
Aug-1974,1
Feb-1994,1
Feb-1987,1
Feb-1985,1
Jan-2002,1
Apr-2003,1
Apr-1993,1
Jul-1974,1
Jan-1990,1
May-2004,1
Jun-1999,1
Oct-1987,1
Jul-1976,1
Aug-1994,1
Apr-1992,1
May-1977,1
Jun-1981,1
Aug-1989,1
Jan-1996,1
Nov-1994,1
Sep-1975,1
Aug-1992,1
Feb-2002,1
Feb-2004,1
Nov-1987,1
Jan-1982,1
Apr-2001,1
Sep-1990,1
Dec-1983,1
Feb-1995,1
Nov-1989,1
Jul-1989,1
Oct-1969,1
Feb-2005,1
Mar-1997,1
Nov-2002,1
Mar-1991,1
Dec-1987,1
Dec-1988,1
Feb-1997,1
Mar-2004,1
Dec-1992,1
Feb-1992,1
May-1997,1
Dec-1999,1
Aug-1993,1
Jun-1982,1
Feb-1986,1
Apr-1989,1
Oct-1982,1
Aug-1991,1
Jul-2005,1
Jul-1987,1
Jan-1971,1
Jun-2007,1
Sep-2001,1
Sep-1989,1
Jan-1987,1
May-1998,1
Mar-1990,1
Apr-1981,1
Dec-1991,1
May-1994,1
Feb-2001,1
Feb-1996,1
Nov-1985,1
Jun-1998,1
Jan-1997,1
Apr-1991,1
Jan-2004,1
Aug-1998,1
Dec-1990,1
Nov-1991,1
Aug-1985,1
May-1988,1
