,movie_display_name,movie_production_year,movie_genre_display_name,movie_financial_summary_production_budget,movie_financial_summary_international_box_office,movie_annual_summary_tickets_sold,movie_video_summary_domestic_dvd_units,movie_acting_role_display_name,movie_theatrical_release_release_date,movie_creative_type_display_name,movie_production_method_display_name,movie_source_display_name,movie_running_time,movie_technical_role_display_name,movie_production_company_display_name,movie_sequel
45,Point Break,2015,Action,100000000,14100000,,,Edgar Ramirez,2015-12-25,Contemporary Fiction,Live Action,Remake,0,Ericson Core,,0
46,Max,2015,Adventure,20000000,896846,5096326.0,176225.0,Thomas Haden Church,2015-06-26,Contemporary Fiction,Live Action,Original Screenplay,111,Boaz Yakin,Sunswept Entertainment,0
47,The Gunman,2015,Thriller/Suspense,40000000,2979543,1274163.0,82641.0,Sean Penn,2015-03-20,Contemporary Fiction,Live Action,Based on Fiction Book/Short Story,115,Pierre Morel,Silver Pictures,0
48,Scout's Guide to the Zombie Apocalypse,2015,Comedy,15000000,10300000,442418.0,,Tye Sheridan,2015-10-30,Fantasy,Live Action,Original Screenplay,93,Christopher Landon,Paramount Pictures,0
49,The Visit,2015,Thriller/Suspense,5000000,31973325,7779213.0,,Kathryn Hahn,2015-09-11,Fantasy,Live Action,Original Screenplay,94,M. Night Shyamalan,Blinding Edge Pictures,0
50,American Sniper,2015,Drama,58000000,197200000,272862.0,2063019.0,Bradley Cooper,2015-01-16,Dramatization,Live Action,Based on Factual Book/Article,132,Clint Eastwood,Mad Chance,0
51,The Vatican Tapes,2015,Horror,13000000,10342828,213233.0,2543.0,Michael Peña,2015-07-24,Fantasy,Live Action,Original Screenplay,91,Mark Neveldine,Lakeshore Entertainment,0
52,Bridge of Spies,2015,Thriller/Suspense,40000000,41900000,8211718.0,,Tom Hanks,2015-10-16,Historical Fiction,Live Action,Original Screenplay,141,Steven Spielberg,DreamWorks Pictures,0
53,Straight Outta Compton,2015,Drama,28000000,39388086,19242375.0,,"O'Shea Jackson, Jr.",2015-08-14,Dramatization,Live Action,Based on Real Life Events,146,F. Gary Gray,Broken Chair Flickz,0
54,Ex Machina,2015,Thriller/Suspense,13000000,12691165,3039542.0,235320.0,Oscar Isaac,2015-04-24,Science Fiction,Live Action,Original Screenplay,110,Alex Garland,DNA Films,0
55,Black Mass,2015,Drama,53000000,27500000,7476186.0,,Johnny Depp,2015-09-18,Dramatization,Live Action,Based on Factual Book/Article,122,Scott Cooper,Warner Bros.,0
56,Sinister 2,2015,Horror,10000000,24923805,3314331.0,,Shannyn Sossamon,2015-08-21,Fantasy,Live Action,Original Screenplay,97,Ciaran Foy,Focus Features,1
57,Seymour: An Introduction,2015,Documentary,0,37216,87185.0,,Seymour Bernstein,2015-03-13,Factual,Live Action,Based on Real Life Events,81,Ethan Hawke,Under the Influence Productions,0
58,Big Game,2015,Action,0,1613195,2957.0,107416.0,Samuel L. Jackson,2015-06-26,Contemporary Fiction,Live Action,Original Screenplay,90,Jalmari Helander,Subzero Film Entertainment,0
59,Just Jim,2015,Black Comedy,0,13507,,,Craig Roberts,2015-09-25,Contemporary Fiction,Live Action,Original Screenplay,0,Craig Roberts,Vox Pictures,0
60,The DUFF,2015,Comedy,8500000,9498291,4065751.0,327962.0,Mae Whitman,2015-02-20,Contemporary Fiction,Live Action,Based on Fiction Book/Short Story,100,Ari Sandel,Wonderland Sound and Vision,0
61,Paper Towns,2015,Drama,0,50400000,3823214.0,60276.0,Nat Wolff,2015-07-24,Contemporary Fiction,Live Action,Based on Fiction Book/Short Story,109,Michael H. Weber,Fox 2000 Pictures,0
62,The Last Witch Hunter,2015,Action,80000000,72975858,3241697.0,,Vin Diesel,2015-10-23,Fantasy,Live Action,Original Screenplay,98,Breck Eisner,Marc Canton,0
63,Rock the Kasbah,2015,Comedy,0,117118,360891.0,,Bill Murray,2015-10-23,Contemporary Fiction,Live Action,Original Screenplay,106,Barry Levinson,Venture 4th,0
64,Outcast,2015,Adventure,0,216567,,5741.0,Nicolas Cage,2015-02-06,Fantasy,Live Action,Original Screenplay,98,Nick Powell,Yunnan Film Group,0
65,The Transporter Refueled,2015,Action,22000000,50773906,1915133.0,,Ed Skrein,2015-09-04,Contemporary Fiction,Live Action,Original Screenplay,96,Camille Delamarre,EuropaCorp,0
66,Vacation,2015,Comedy,31000000,41771605,7035147.0,0.0,Ed Helms,2015-07-29,Contemporary Fiction,Live Action,Original Screenplay,98,John Francis Daley,Benderspink Productions,1
67,Krampus,2015,Black Comedy,15000000,3467285,2208399.0,,Toni Collette,2015-12-04,Fantasy,Live Action,Original Screenplay,98,Michael Dougherty,Legendary Pictures,0
68,Mr. Holmes,2015,Drama,0,9823103,2119193.0,,Ian McKellen,2015-07-17,Historical Fiction,Live Action,Based on Fiction Book/Short Story,105,Bill Condon,See-Saw Films,0
69,Secret in Their Eyes,2015,Thriller/Suspense,20000000,4650999,2112016.0,,Chiwetel Ejiofor,2015-11-19,Contemporary Fiction,Live Action,Remake,111,Billy Ray,STX Entertainment,0
70,Pay the Ghost,2015,Thriller/Suspense,0,711859,,,Nicolas Cage,2015-09-25,Fantasy,Live Action,Based on Fiction Book/Short Story,94,Uli Edel,Voltage Pictures,0
71,Louder Than Bombs,2015,Drama,0,17422,,,Gabriel Byrne,2015-11-06,Contemporary Fiction,Live Action,Original Screenplay,0,Jonathan Trier,Memento Films International,0
72,The Woman in Black 2: Angel of Death,2015,Horror,0,7000000,1839340.0,109779.0,Jeremy Irvine,2015-01-02,Fantasy,Live Action,Original Screenplay,98,Tom Harper,Talisman,1
73,By the Sea,2015,Drama,20000000,1393240,63919.0,,Brad Pitt,2015-11-13,Historical Fiction,Live Action,Original Screenplay,122,Angelina Jolie,Jolie Pas,0
74,Maze Runner: The Scorch Trials,2015,Thriller/Suspense,61000000,229000000,9720322.0,,Dylan O'Brien,2015-09-18,Science Fiction,Live Action,Based on Fiction Book/Short Story,131,Wes Ball,Gotham Group,1
75,Bone Tomahawk,2015,Western,0,1758,,,Fred Melamed,2015-10-23,Historical Fiction,Live Action,Original Screenplay,132,Dallas Sonnier,Caliber Media Company,0
76,The Diabolical,2015,Horror,0,23116,,,Ali Larter,2015-10-16,Science Fiction,Live Action,Original Screenplay,86,Alistair Legrand,Campfire,0
77,Gloria,2015,Drama,0,1267863,,694.0,Sofia Espinosa,2015-07-17,Dramatization,Live Action,Based on Real Life Events,110,Christian Keller,Pelo Suelto Mexico Films,0
78,Heist,2015,Thriller/Suspense,15000000,1591513,5989.0,,Robert De Niro,2015-11-12,Contemporary Fiction,Live Action,Original Screenplay,90,Scott Mann,Emmett Furla Oasis Films,0
79,The End of the Tour,2015,Drama,0,17843,356627.0,,Jason Segel,2015-07-31,Dramatization,Live Action,Based on Factual Book/Article,106,James Ponsoldt,Modern Man Films,0
80,Trainwreck,2015,Comedy,35000000,29371126,13146729.0,,Robert E. Torres,2015-07-17,Contemporary Fiction,Live Action,Original Screenplay,122,Judd Apatow,Apatow Productions,0
81,Jem and the Holograms,2015,Musical,0,88303,261008.0,,Aubrey Peeples,2015-10-23,Science Fiction,Live Action,Based on Toy,118,Jon M. Chu,Universal Pictures,0
82,Survivor,2015,Thriller/Suspense,20000000,616056,,173094.0,Pierce Brosnan,2015-05-29,Contemporary Fiction,Live Action,Original Screenplay,96,James McTeigue,Millennium Films,0
83,Steve Jobs,2015,Drama,0,6574162,2121730.0,,Michael Fassbender,2015-10-09,Dramatization,Live Action,Based on Factual Book/Article,121,Danny Boyle,Entertainment 360,0
84,Spooks: The Greater Good,2015,Action,0,5062305,,,Colin Firth,2015-05-08,Contemporary Fiction,Live Action,Based on TV,102,Bharat Nalluri,Pinewood Pictures,0
85,We Are Your Friends,2015,Drama,2000000,5826057,429082.0,,Zac Efron,2015-08-28,Contemporary Fiction,Live Action,Original Screenplay,96,Max Joseph,Working Title Films,0
86,The Legend of Longwood,2015,Adventure,0,61319,,,,2015-09-24,Fantasy,Live Action,Original Screenplay,0,Lisa Mulcahy,,0
87,Kurt Cobain: Montage Of Heck,2015,Documentary,0,306969,,,Kurt Cobain,2015-04-24,Factual,Live Action,Based on Real Life Events,132,Brett Morgen,HBO Documentary Films,0
88,Strange Magic,2015,Adventure,0,905428,1485015.0,122740.0,Kristin Chenoweth,2015-01-23,Kids Fiction,Digital Animation,Original Screenplay,99,Gary Rydstrom,Lucasfilm,0
89,Backstreet Boys: Show 'Em What You're Made Of,2015,Documentary,0,24389,,,Nick Carter,2015-01-30,Factual,Live Action,Based on Real Life Events,102,Stephen Kijak,Bluespill Design,0
