,nombre,n_concursados,n_aprobados,año
0,UNIV. DE CHILE,204,86,2010
1,PONT. UNIV. CATOLICA DE CHILE,180,100,2010
2,UNIV. DE CONCEPCION,95,41,2010
3,UNIV. AUSTRAL DE CHILE,48,25,2010
4,UNIV. DE SANTIAGO DE CHILE,62,21,2010
5,UNIV. TECNICA FEDERICO SANTA MARIA,37,19,2010
6,PONT. UNIV. CATOLICA DE VALPARAISO,53,13,2010
7,UNIV. DE LA FRONTERA,20,12,2010
8,UNIV. ANDRES BELLO,22,8,2010
9,UNIV. CATOLICA DEL NORTE,22,9,2010
10,UNIV. DE TALCA,22,9,2010
11,UNIV. DEL BIO-BIO,17,5,2010
12,UNIV. DE LOS ANDES,14,4,2010
13,UNIV. DEL DESARROLLO,11,6,2010
14,UNIV. DE VALPARAISO,21,5,2010
15,UNIV. DE ANTOFAGASTA,18,8,2010
16,UNIV. DIEGO PORTALES,11,2,2010
17,UNIV. DE TARAPACA,10,6,2010
18,UNIV. ADOLFO IBAÑEZ,9,3,2010
19,UNIV. DE LA SERENA,9,3,2010
20,UNIV. ALBERTO HURTADO,7,3,2010
21,UNIV. ARTURO PRAT,7,2,2010
22,UNIV. ACADEMIA DE HUMANISMO CRISTIANO,4,1,2010
23,UNIV. CATOLICA DE LA STMA. CONCEPCION,8,1,2010
24,UNIV. DE PLAYA ANCHA CS. EDUCACION,5,1,2010
25,UNIV. DE MAGALLANES,3,0,2010
26,UNIV. CATOLICA CARDENAL SILVA HENRIQUEZ,1,1,2010
27,UNIV. CATOLICA DE TEMUCO,3,0,2010
28,UNIV. SANTO TOMAS,3,1,2010
29,UNIV. DE LOS LAGOS,12,0,2010
30,OTRAS UNIVERSIDADES,32,0,2010
