,Id,SalePrice
729,2190,84889.74811356515
730,2191,84889.74811356515
731,2192,84889.74811356515
732,2193,94624.82903157463
733,2194,94624.82903157463
734,2195,129217.08608545615
735,2196,111696.52840891742
736,2197,132711.8374061988
737,2198,214014.16942368765
738,2199,189934.65503633453
739,2200,129217.08608545615
740,2201,111696.52840891742
741,2202,172671.17973501698
742,2203,189934.65503633453
743,2204,152847.1631607417
744,2205,132711.8374061988
745,2206,142993.06974193858
746,2207,172671.17973501698
747,2208,214014.16942368765
748,2209,152847.1631607417
749,2210,129217.08608545615
750,2211,94624.82903157463
751,2212,111696.52840891742
752,2213,94624.82903157463
753,2214,152847.1631607417
754,2215,111696.52840891742
755,2216,132711.8374061988
756,2217,84889.74811356515
757,2218,40759.84062409099
758,2219,40759.84062409099
759,2220,94624.82903157463
760,2221,254979.488522171
761,2222,254979.488522171
762,2223,304732.7300126854
763,2224,214014.16942368765
764,2225,111696.52840891742
765,2226,152847.1631607417
766,2227,214014.16942368765
767,2228,214014.16942368765
768,2229,214014.16942368765
769,2230,111696.52840891742
770,2231,172671.17973501698
771,2232,164548.9526557949
772,2233,164548.9526557949
773,2234,214014.16942368765
774,2235,189934.65503633453
775,2236,304732.7300126854
776,2237,304732.7300126854
777,2238,152762.24505741644
778,2239,132711.8374061988
779,2240,164548.9526557949
780,2241,132711.8374061988
781,2242,132711.8374061988
782,2243,111696.52840891742
783,2244,129217.08608545615
784,2245,129217.08608545615
785,2246,132711.8374061988
786,2247,94624.82903157463
787,2248,129217.08608545615
788,2249,129217.08608545615
789,2250,129217.08608545615
790,2251,132711.8374061988
791,2252,189934.65503633453
792,2253,111696.52840891742
793,2254,189934.65503633453
794,2255,189934.65503633453
795,2256,172671.17973501698
796,2257,189934.65503633453
797,2258,172671.17973501698
798,2259,189934.65503633453
799,2260,164548.9526557949
800,2261,172671.17973501698
801,2262,214014.16942368765
802,2263,304732.7300126854
803,2264,453930.76346228673
804,2265,132711.8374061988
805,2266,329633.9098210963
806,2267,304732.7300126854
807,2268,329633.9098210963
808,2269,164548.9526557949
809,2270,172671.17973501698
810,2271,254979.488522171
811,2272,214014.16942368765
812,2273,164548.9526557949
813,2274,164548.9526557949
814,2275,164548.9526557949
815,2276,214014.16942368765
816,2277,189934.65503633453
817,2278,132711.8374061988
818,2279,129217.08608545615
819,2280,111696.52840891742
820,2281,164548.9526557949
821,2282,164548.9526557949
822,2283,111696.52840891742
823,2284,111696.52840891742
824,2285,172671.17973501698
825,2286,129217.08608545615
826,2287,329633.9098210963
827,2288,254979.488522171
828,2289,304732.7300126854
829,2290,453930.76346228673
830,2291,304732.7300126854
831,2292,453930.76346228673
832,2293,453930.76346228673
833,2294,453930.76346228673
834,2295,453930.76346228673
835,2296,304732.7300126854
836,2297,214014.16942368765
837,2298,329633.9098210963
838,2299,304732.7300126854
839,2300,304732.7300126854
840,2301,214014.16942368765
841,2302,254979.488522171
842,2303,254979.488522171
843,2304,254979.488522171
844,2305,164548.9526557949
845,2306,164548.9526557949
846,2307,164548.9526557949
847,2308,214014.16942368765
848,2309,329633.9098210963
849,2310,214014.16942368765
850,2311,214014.16942368765
851,2312,164548.9526557949
852,2313,164548.9526557949
853,2314,172671.17973501698
854,2315,164548.9526557949
855,2316,189934.65503633453
856,2317,164548.9526557949
857,2318,164548.9526557949
858,2319,172671.17973501698
859,2320,172671.17973501698
860,2321,214014.16942368765
861,2322,172671.17973501698
862,2323,172671.17973501698
863,2324,172671.17973501698
864,2325,214014.16942368765
865,2326,172671.17973501698
866,2327,214014.16942368765
867,2328,214014.16942368765
868,2329,189934.65503633453
869,2330,189934.65503633453
870,2331,304732.7300126854
871,2332,453930.76346228673
872,2333,304732.7300126854
873,2334,254979.488522171
874,2335,254979.488522171
875,2336,304732.7300126854
876,2337,214014.16942368765
877,2338,214014.16942368765
878,2339,214014.16942368765
879,2340,329633.9098210963
880,2341,214014.16942368765
881,2342,214014.16942368765
882,2343,214014.16942368765
883,2344,214014.16942368765
884,2345,254979.488522171
885,2346,214014.16942368765
886,2347,214014.16942368765
887,2348,214014.16942368765
888,2349,132711.8374061988
889,2350,214014.16942368765
890,2351,254979.488522171
891,2352,254979.488522171
892,2353,189934.65503633453
893,2354,142993.06974193858
894,2355,172671.17973501698
895,2356,132711.8374061988
896,2357,214014.16942368765
897,2358,189934.65503633453
898,2359,111696.52840891742
899,2360,129217.08608545615
900,2361,132711.8374061988
901,2362,304732.7300126854
902,2363,132711.8374061988
903,2364,164548.9526557949
904,2365,214014.16942368765
905,2366,172671.17973501698
906,2367,214014.16942368765
907,2368,214014.16942368765
908,2369,214014.16942368765
909,2370,164548.9526557949
910,2371,189934.65503633453
911,2372,214014.16942368765
912,2373,214014.16942368765
913,2374,254979.488522171
914,2375,214014.16942368765
915,2376,304732.7300126854
916,2377,304732.7300126854
917,2378,164548.9526557949
918,2379,189934.65503633453
919,2380,164548.9526557949
920,2381,164548.9526557949
921,2382,214014.16942368765
922,2383,254979.488522171
923,2384,254979.488522171
924,2385,164548.9526557949
925,2386,142993.06974193858
926,2387,132711.8374061988
927,2388,84889.74811356515
928,2389,129217.08608545615
929,2390,152847.1631607417
930,2391,129217.08608545615
931,2392,111696.52840891742
932,2393,172671.17973501698
933,2394,164548.9526557949
934,2395,189934.65503633453
935,2396,142993.06974193858
936,2397,189934.65503633453
937,2398,129217.08608545615
938,2399,84889.74811356515
939,2400,84889.74811356515
940,2401,129217.08608545615
941,2402,132711.8374061988
942,2403,132711.8374061988
943,2404,152847.1631607417
944,2405,164548.9526557949
945,2406,129217.08608545615
946,2407,129217.08608545615
947,2408,132711.8374061988
948,2409,152847.1631607417
949,2410,189934.65503633453
950,2411,129217.08608545615
951,2412,152847.1631607417
952,2413,132711.8374061988
953,2414,129217.08608545615
954,2415,132711.8374061988
955,2416,129217.08608545615
956,2417,142993.06974193858
957,2418,129217.08608545615
958,2419,132711.8374061988
959,2420,129217.08608545615
960,2421,152847.1631607417
961,2422,111696.52840891742
962,2423,132711.8374061988
963,2424,152847.1631607417
964,2425,132711.8374061988
965,2426,132711.8374061988
966,2427,132711.8374061988
967,2428,172671.17973501698
968,2429,111696.52840891742
969,2430,129217.08608545615
970,2431,152847.1631607417
971,2432,132711.8374061988
972,2433,152847.1631607417
973,2434,132711.8374061988
974,2435,152847.1631607417
975,2436,111696.52840891742
976,2437,129217.08608545615
977,2438,129217.08608545615
978,2439,111696.52840891742
979,2440,164548.9526557949
980,2441,84889.74811356515
981,2442,94624.82903157463
982,2443,111696.52840891742
983,2444,111696.52840891742
984,2445,84889.74811356515
985,2446,132711.8374061988
986,2447,172671.17973501698
987,2448,142993.06974193858
988,2449,111696.52840891742
989,2450,189934.65503633453
990,2451,111696.52840891742
991,2452,254979.488522171
992,2453,111696.52840891742
993,2454,111696.52840891742
994,2455,84889.74811356515
995,2456,132711.8374061988
996,2457,94624.82903157463
997,2458,94624.82903157463
998,2459,111696.52840891742
999,2460,164548.9526557949
1000,2461,111696.52840891742
1001,2462,152847.1631607417
1002,2463,111696.52840891742
1003,2464,142993.06974193858
1004,2465,164548.9526557949
1005,2466,132711.8374061988
1006,2467,172671.17973501698
1007,2468,84889.74811356515
1008,2469,132711.8374061988
1009,2470,189934.65503633453
1010,2471,152762.24505741644
1011,2472,189934.65503633453
1012,2473,132711.8374061988
1013,2474,132711.8374061988
1014,2475,254979.488522171
1015,2476,84889.74811356515
1016,2477,129217.08608545615
1017,2478,152847.1631607417
1018,2479,129217.08608545615
1019,2480,129217.08608545615
1020,2481,132711.8374061988
1021,2482,129217.08608545615
1022,2483,129217.08608545615
1023,2484,129217.08608545615
1024,2485,129217.08608545615
1025,2486,152847.1631607417
1026,2487,152847.1631607417
1027,2488,172671.17973501698
1028,2489,164548.9526557949
1029,2490,152847.1631607417
1030,2491,84889.74811356515
1031,2492,164548.9526557949
1032,2493,111696.52840891742
1033,2494,152847.1631607417
1034,2495,84889.74811356515
1035,2496,189934.65503633453
1036,2497,142993.06974193858
1037,2498,129217.08608545615
1038,2499,84889.74811356515
1039,2500,132711.8374061988
1040,2501,132711.8374061988
1041,2502,152847.1631607417
1042,2503,132711.8374061988
1043,2504,189934.65503633453
1044,2505,214014.16942368765
1045,2506,254979.488522171
1046,2507,304732.7300126854
1047,2508,254979.488522171
1048,2509,214014.16942368765
1049,2510,214014.16942368765
1050,2511,214014.16942368765
1051,2512,214014.16942368765
1052,2513,214014.16942368765
1053,2514,214014.16942368765
1054,2515,129217.08608545615
1055,2516,129217.08608545615
1056,2517,129217.08608545615
1057,2518,132711.8374061988
1058,2519,214014.16942368765
1059,2520,214014.16942368765
1060,2521,214014.16942368765
1061,2522,214014.16942368765
1062,2523,129217.08608545615
1063,2524,129217.08608545615
1064,2525,129217.08608545615
1065,2526,132711.8374061988
1066,2527,129217.08608545615
1067,2528,129217.08608545615
1068,2529,129217.08608545615
1069,2530,129217.08608545615
1070,2531,254979.488522171
1071,2532,214014.16942368765
1072,2533,214014.16942368765
1073,2534,254979.488522171
1074,2535,304732.7300126854
1075,2536,214014.16942368765
1076,2537,214014.16942368765
1077,2538,172671.17973501698
1078,2539,172671.17973501698
1079,2540,164548.9526557949
1080,2541,172671.17973501698
1081,2542,132711.8374061988
1082,2543,129217.08608545615
1083,2544,132711.8374061988
1084,2545,152847.1631607417
1085,2546,164548.9526557949
1086,2547,129217.08608545615
1087,2548,132711.8374061988
1088,2549,132711.8374061988
1089,2550,453930.76346228673
1090,2551,129217.08608545615
1091,2552,129217.08608545615
1092,2553,84889.74811356515
1093,2554,132711.8374061988
1094,2555,94624.82903157463
1095,2556,129217.08608545615
1096,2557,129217.08608545615
1097,2558,132711.8374061988
1098,2559,132711.8374061988
1099,2560,111696.52840891742
1100,2561,172671.17973501698
1101,2562,84889.74811356515
1102,2563,142993.06974193858
1103,2564,214014.16942368765
1104,2565,111696.52840891742
1105,2566,152847.1631607417
1106,2567,132711.8374061988
1107,2568,164548.9526557949
1108,2569,164548.9526557949
1109,2570,111696.52840891742
1110,2571,132711.8374061988
1111,2572,172671.17973501698
1112,2573,254979.488522171
1113,2574,214014.16942368765
1114,2575,129217.08608545615
1115,2576,132711.8374061988
1116,2577,132711.8374061988
1117,2578,94624.82903157463
1118,2579,111696.52840891742
1119,2580,132711.8374061988
1120,2581,132711.8374061988
1121,2582,94624.82903157463
1122,2583,254979.488522171
1123,2584,164548.9526557949
1124,2585,152847.1631607417
1125,2586,214014.16942368765
1126,2587,214014.16942368765
1127,2588,172671.17973501698
1128,2589,129217.08608545615
1129,2590,214014.16942368765
1130,2591,189934.65503633453
1131,2592,254979.488522171
1132,2593,214014.16942368765
1133,2594,172671.17973501698
1134,2595,214014.16942368765
1135,2596,304732.7300126854
1136,2597,164548.9526557949
1137,2598,304732.7300126854
1138,2599,329633.9098210963
1139,2600,111696.52840891742
1140,2601,129217.08608545615
1141,2602,111696.52840891742
1142,2603,129217.08608545615
1143,2604,94624.82903157463
1144,2605,111696.52840891742
1145,2606,129217.08608545615
1146,2607,164548.9526557949
1147,2608,152847.1631607417
1148,2609,152847.1631607417
1149,2610,94624.82903157463
1150,2611,132711.8374061988
1151,2612,132711.8374061988
1152,2613,129217.08608545615
1153,2614,129217.08608545615
1154,2615,164548.9526557949
1155,2616,129217.08608545615
1156,2617,152847.1631607417
1157,2618,164548.9526557949
1158,2619,304732.7300126854
1159,2620,164548.9526557949
1160,2621,189934.65503633453
1161,2622,189934.65503633453
1162,2623,254979.488522171
1163,2624,304732.7300126854
1164,2625,304732.7300126854
1165,2626,164548.9526557949
1166,2627,172671.17973501698
1167,2628,453930.76346228673
1168,2629,453930.76346228673
1169,2630,329633.9098210963
1170,2631,453930.76346228673
1171,2632,453930.76346228673
1172,2633,329633.9098210963
1173,2634,329633.9098210963
1174,2635,164548.9526557949
1175,2636,214014.16942368765
1176,2637,172671.17973501698
1177,2638,254979.488522171
1178,2639,189934.65503633453
1179,2640,164548.9526557949
1180,2641,129217.08608545615
1181,2642,164548.9526557949
1182,2643,111696.52840891742
1183,2644,152847.1631607417
1184,2645,111696.52840891742
1185,2646,111696.52840891742
1186,2647,129217.08608545615
1187,2648,164548.9526557949
1188,2649,152847.1631607417
1189,2650,172671.17973501698
1190,2651,164548.9526557949
1191,2652,453930.76346228673
1192,2653,254979.488522171
1193,2654,254979.488522171
1194,2655,329633.9098210963
1195,2656,329633.9098210963
1196,2657,329633.9098210963
1197,2658,254979.488522171
1198,2659,254979.488522171
1199,2660,304732.7300126854
1200,2661,329633.9098210963
1201,2662,329633.9098210963
1202,2663,254979.488522171
1203,2664,329633.9098210963
1204,2665,329633.9098210963
1205,2666,329633.9098210963
1206,2667,164548.9526557949
1207,2668,172671.17973501698
1208,2669,164548.9526557949
1209,2670,254979.488522171
1210,2671,172671.17973501698
1211,2672,214014.16942368765
1212,2673,214014.16942368765
1213,2674,152762.24505741644
1214,2675,172671.17973501698
1215,2676,172671.17973501698
1216,2677,189934.65503633453
1217,2678,254979.488522171
1218,2679,214014.16942368765
1219,2680,254979.488522171
1220,2681,453930.76346228673
1221,2682,304732.7300126854
1222,2683,453930.76346228673
1223,2684,304732.7300126854
1224,2685,304732.7300126854
1225,2686,214014.16942368765
1226,2687,254979.488522171
1227,2688,214014.16942368765
1228,2689,214014.16942368765
1229,2690,453930.76346228673
1230,2691,189934.65503633453
1231,2692,142993.06974193858
1232,2693,214014.16942368765
1233,2694,142993.06974193858
1234,2695,214014.16942368765
1235,2696,172671.17973501698
1236,2697,189934.65503633453
1237,2698,189934.65503633453
1238,2699,164548.9526557949
1239,2700,164548.9526557949
1240,2701,111696.52840891742
1241,2702,111696.52840891742
1242,2703,111696.52840891742
1243,2704,152847.1631607417
1244,2705,129217.08608545615
1245,2706,129217.08608545615
1246,2707,111696.52840891742
1247,2708,132711.8374061988
1248,2709,84889.74811356515
1249,2710,129217.08608545615
1250,2711,304732.7300126854
1251,2712,304732.7300126854
1252,2713,172671.17973501698
1253,2714,172671.17973501698
1254,2715,164548.9526557949
1255,2716,172671.17973501698
1256,2717,172671.17973501698
1257,2718,254979.488522171
1258,2719,132711.8374061988
1259,2720,214014.16942368765
1260,2721,132711.8374061988
1261,2722,132711.8374061988
1262,2723,129217.08608545615
1263,2724,129217.08608545615
1264,2725,132711.8374061988
1265,2726,132711.8374061988
1266,2727,142993.06974193858
1267,2728,164548.9526557949
1268,2729,152847.1631607417
1269,2730,132711.8374061988
1270,2731,129217.08608545615
1271,2732,111696.52840891742
1272,2733,152847.1631607417
1273,2734,152847.1631607417
1274,2735,132711.8374061988
1275,2736,152847.1631607417
1276,2737,129217.08608545615
1277,2738,132711.8374061988
1278,2739,164548.9526557949
1279,2740,111696.52840891742
1280,2741,152847.1631607417
1281,2742,164548.9526557949
1282,2743,152847.1631607417
1283,2744,142993.06974193858
1284,2745,142993.06974193858
1285,2746,129217.08608545615
1286,2747,111696.52840891742
1287,2748,111696.52840891742
1288,2749,129217.08608545615
1289,2750,132711.8374061988
1290,2751,129217.08608545615
1291,2752,214014.16942368765
1292,2753,132711.8374061988
1293,2754,152847.1631607417
1294,2755,164548.9526557949
1295,2756,111696.52840891742
1296,2757,84889.74811356515
1297,2758,111696.52840891742
1298,2759,189934.65503633453
1299,2760,152847.1631607417
1300,2761,142993.06974193858
1301,2762,142993.06974193858
1302,2763,189934.65503633453
1303,2764,172671.17973501698
1304,2765,304732.7300126854
1305,2766,132711.8374061988
1306,2767,84889.74811356515
1307,2768,132711.8374061988
1308,2769,132711.8374061988
1309,2770,172671.17973501698
1310,2771,129217.08608545615
1311,2772,132711.8374061988
1312,2773,132711.8374061988
1313,2774,132711.8374061988
1314,2775,152847.1631607417
1315,2776,164548.9526557949
1316,2777,172671.17973501698
1317,2778,172671.17973501698
1318,2779,132711.8374061988
1319,2780,142993.06974193858
1320,2781,94624.82903157463
1321,2782,111696.52840891742
1322,2783,132711.8374061988
1323,2784,129217.08608545615
1324,2785,132711.8374061988
1325,2786,94624.82903157463
1326,2787,111696.52840891742
1327,2788,111696.52840891742
1328,2789,254979.488522171
1329,2790,84889.74811356515
1330,2791,111696.52840891742
1331,2792,40759.84062409099
1332,2793,142993.06974193858
1333,2794,111696.52840891742
1334,2795,132711.8374061988
1335,2796,94624.82903157463
1336,2797,189934.65503633453
1337,2798,111696.52840891742
1338,2799,111696.52840891742
1339,2800,84889.74811356515
1340,2801,111696.52840891742
1341,2802,152847.1631607417
1342,2803,189934.65503633453
1343,2804,111696.52840891742
1344,2805,84889.74811356515
1345,2806,94624.82903157463
1346,2807,172671.17973501698
1347,2808,152847.1631607417
1348,2809,129217.08608545615
1349,2810,132711.8374061988
1350,2811,152847.1631607417
1351,2812,129217.08608545615
1352,2813,132711.8374061988
1353,2814,132711.8374061988
1354,2815,84889.74811356515
1355,2816,304732.7300126854
1356,2817,129217.08608545615
1357,2818,129217.08608545615
1358,2819,172671.17973501698
1359,2820,152847.1631607417
1360,2821,84889.74811356515
1361,2822,189934.65503633453
1362,2823,189934.65503633453
1363,2824,152847.1631607417
1364,2825,111696.52840891742
1365,2826,132711.8374061988
1366,2827,142993.06974193858
1367,2828,189934.65503633453
1368,2829,164548.9526557949
1369,2830,254979.488522171
1370,2831,172671.17973501698
1371,2832,189934.65503633453
1372,2833,254979.488522171
1373,2834,214014.16942368765
1374,2835,254979.488522171
1375,2836,172671.17973501698
1376,2837,164548.9526557949
1377,2838,132711.8374061988
1378,2839,164548.9526557949
1379,2840,214014.16942368765
1380,2841,214014.16942368765
1381,2842,214014.16942368765
1382,2843,142993.06974193858
1383,2844,164548.9526557949
1384,2845,129217.08608545615
1385,2846,214014.16942368765
1386,2847,189934.65503633453
1387,2848,214014.16942368765
1388,2849,214014.16942368765
1389,2850,254979.488522171
1390,2851,254979.488522171
1391,2852,214014.16942368765
1392,2853,214014.16942368765
1393,2854,129217.08608545615
1394,2855,214014.16942368765
1395,2856,214014.16942368765
1396,2857,172671.17973501698
1397,2858,214014.16942368765
1398,2859,132711.8374061988
1399,2860,94624.82903157463
1400,2861,132711.8374061988
1401,2862,172671.17973501698
1402,2863,94624.82903157463
1403,2864,254979.488522171
1404,2865,129217.08608545615
1405,2866,152762.24505741644
1406,2867,111696.52840891742
1407,2868,164548.9526557949
1408,2869,132711.8374061988
1409,2870,152847.1631607417
1410,2871,152847.1631607417
1411,2872,84889.74811356515
1412,2873,84889.74811356515
1413,2874,132711.8374061988
1414,2875,142993.06974193858
1415,2876,172671.17973501698
1416,2877,142993.06974193858
1417,2878,172671.17973501698
1418,2879,152847.1631607417
1419,2880,132711.8374061988
1420,2881,142993.06974193858
1421,2882,152847.1631607417
1422,2883,214014.16942368765
1423,2884,172671.17973501698
1424,2885,189934.65503633453
1425,2886,152847.1631607417
1426,2887,84889.74811356515
1427,2888,164548.9526557949
1428,2889,84889.74811356515
1429,2890,111696.52840891742
1430,2891,142993.06974193858
1431,2892,40759.84062409099
1432,2893,132711.8374061988
1433,2894,40759.84062409099
1434,2895,254979.488522171
1435,2896,254979.488522171
1436,2897,189934.65503633453
1437,2898,189934.65503633453
1438,2899,214014.16942368765
1439,2900,164548.9526557949
1440,2901,189934.65503633453
1441,2902,164548.9526557949
1442,2903,304732.7300126854
1443,2904,329633.9098210963
1444,2905,111696.52840891742
1445,2906,152762.24505741644
1446,2907,111696.52840891742
1447,2908,129217.08608545615
1448,2909,132711.8374061988
1449,2910,94624.82903157463
1450,2911,111696.52840891742
1451,2912,152847.1631607417
1452,2913,129217.08608545615
1453,2914,94624.82903157463
1454,2915,94624.82903157463
1455,2916,111696.52840891742
1456,2917,152847.1631607417
1457,2918,94624.82903157463
1458,2919,214014.16942368765
