,name,sex,number
0,Mary,F,16707
1,Helen,F,6343
2,Anna,F,6114
3,Margaret,F,5306
4,Ruth,F,4765
5,Elizabeth,F,4096
6,Florence,F,3920
7,Ethel,F,3896
8,Marie,F,3856
9,Lillian,F,3414
10,Annie,F,3324
11,Edna,F,3102
12,Emma,F,3095
13,Alice,F,3059
14,Bessie,F,3044
15,Bertha,F,3019
16,Grace,F,2942
17,Rose,F,2845
18,Clara,F,2826
19,Mildred,F,2800
20,Gladys,F,2733
21,Minnie,F,2673
22,Gertrude,F,2580
23,Pearl,F,2512
24,Mabel,F,2509
25,Frances,F,2495
26,Dorothy,F,2491
27,Martha,F,2437
28,Hazel,F,2425
29,Ida,F,2285
30,Irene,F,2264
31,Myrtle,F,2252
32,Eva,F,2089
33,Catherine,F,2081
34,Louise,F,2070
35,Edith,F,2068
36,Sarah,F,2055
37,Elsie,F,2045
38,Esther,F,2017
39,Lillie,F,2004
40,Agnes,F,1914
41,Ella,F,1911
42,Nellie,F,1850
43,Mattie,F,1834
44,Laura,F,1824
45,Julia,F,1766
46,Josephine,F,1743
47,Carrie,F,1711
48,Viola,F,1674
49,Hattie,F,1553
50,Ruby,F,1541
51,Lena,F,1506
52,Jessie,F,1422
53,Mae,F,1406
54,Cora,F,1389
55,Beatrice,F,1382
56,Alma,F,1372
57,Willie,F,1351
58,Mamie,F,1337
59,Blanche,F,1332
60,Lucy,F,1246
61,Lula,F,1237
62,Fannie,F,1236
63,Jennie,F,1204
64,Katherine,F,1201
65,Marion,F,1197
66,Lucille,F,1182
67,Stella,F,1177
68,Rosa,F,1118
69,Evelyn,F,1116
70,Pauline,F,1104
71,Ada,F,1101
72,Thelma,F,1094
73,Virginia,F,1068
74,Maggie,F,1045
75,Vera,F,1024
76,Maude,F,1013
77,Beulah,F,974
78,Dora,F,958
79,Susie,F,946
80,Daisy,F,931
81,Ellen,F,922
82,Nora,F,919
83,Sadie,F,895
84,Leona,F,825
85,Marguerite,F,786
86,Georgia,F,765
87,Eleanor,F,753
88,Effie,F,752
89,Della,F,748
90,May,F,744
91,Ann,F,736
92,Kathryn,F,722
93,Nettie,F,711
94,Olive,F,705
95,Bernice,F,702
96,Lottie,F,690
97,Sallie,F,676
98,Nancy,F,673
99,Betty,F,665
100,Hilda,F,663
101,Theresa,F,659
102,Lizzie,F,657
103,Lydia,F,644
104,Emily,F,626
105,Flora,F,623
106,Katie,F,618
107,Anne,F,614
108,Violet,F,614
109,Charlotte,F,602
110,Marjorie,F,601
111,Inez,F,588
112,Ollie,F,585
113,Lola,F,584
114,Lois,F,577
115,Rosie,F,576
116,Doris,F,557
117,Estelle,F,555
118,Addie,F,541
119,Alberta,F,541
120,Loretta,F,535
121,Lela,F,530
122,Etta,F,508
123,Mable,F,506
124,Eunice,F,503
125,Rebecca,F,503
126,Goldie,F,502
127,Jane,F,495
128,Essie,F,492
129,Henrietta,F,491
130,Iva,F,483
131,Jean,F,473
132,Ora,F,463
133,Harriet,F,461
134,Caroline,F,455
135,Nannie,F,446
136,Sylvia,F,446
137,Eula,F,437
138,Mollie,F,437
139,Opal,F,432
140,Velma,F,426
141,Genevieve,F,420
142,Verna,F,412
143,Susan,F,411
144,Marian,F,408
145,Amelia,F,398
146,Lucile,F,395
147,Victoria,F,391
148,Madeline,F,389
149,Maria,F,389
150,Christine,F,383
151,Vivian,F,383
152,Rachel,F,379
153,Amanda,F,377
154,Nina,F,376
155,Olga,F,376
156,Sara,F,375
157,Flossie,F,368
158,Estella,F,365
159,Ola,F,352
160,Matilda,F,348
161,Barbara,F,341
162,Sophie,F,338
163,Alta,F,337
164,Amy,F,335
165,Eliza,F,335
166,Janie,F,330
167,Irma,F,326
168,Hannah,F,325
169,Freda,F,321
170,Kathleen,F,321
171,Geneva,F,319
172,Celia,F,316
173,Norma,F,316
174,Callie,F,310
175,Naomi,F,307
176,Winifred,F,302
177,Elva,F,301
178,Frieda,F,300
179,Kate,F,297
180,Belle,F,291
181,Ina,F,288
182,Sally,F,288
183,Allie,F,286
184,Isabel,F,286
185,Maud,F,286
186,Wilma,F,285
187,Erma,F,275
188,Juanita,F,273
189,Winnie,F,271
190,Lila,F,268
191,Luella,F,268
192,Josie,F,267
193,Fern,F,266
194,Cecelia,F,264
195,Virgie,F,260
196,Sophia,F,259
197,Nell,F,256
198,Cecilia,F,249
199,Augusta,F,245
200,Selma,F,239
201,Adeline,F,237
202,Gussie,F,236
203,Leola,F,235
204,Rena,F,235
205,Jeanette,F,233
206,Delia,F,231
207,Mayme,F,229
208,Millie,F,229
209,Isabelle,F,224
210,Muriel,F,224
211,Bonnie,F,220
212,Veronica,F,218
213,Miriam,F,214
214,Roxie,F,208
215,Lelia,F,206
216,Margie,F,206
217,Dollie,F,205
218,Birdie,F,204
219,Teresa,F,204
220,Bertie,F,203
221,Regina,F,201
222,Tillie,F,201
223,Cornelia,F,200
224,Roberta,F,199
225,Cleo,F,198
226,Audrey,F,196
227,Lulu,F,196
228,Faye,F,194
229,Adele,F,186
230,Carolyn,F,185
231,Madge,F,184
232,Adelaide,F,183
233,Hester,F,183
234,Elma,F,182
235,Elnora,F,182
236,Letha,F,182
237,Leila,F,178
238,Lorena,F,178
239,Anita,F,177
240,Ila,F,177
241,Jewell,F,177
242,Lessie,F,176
243,Lora,F,176
244,Maudie,F,176
245,Cecile,F,175
246,Zella,F,171
247,Fay,F,170
248,Jeannette,F,170
249,Bettie,F,167
250,Olivia,F,167
251,Leah,F,166
252,Johnnie,F,164
253,Myra,F,164
254,Jewel,F,162
255,Rita,F,162
256,Francis,F,159
257,Gracie,F,158
258,Hallie,F,157
259,Neva,F,157
260,Sue,F,157
261,Claire,F,156
262,Dovie,F,154
263,Lilly,F,154
264,Lenora,F,153
265,Rhoda,F,151
266,Harriett,F,150
267,Ophelia,F,150
268,Geraldine,F,145
269,Johanna,F,144
270,Louisa,F,144
271,Lettie,F,143
272,Katharine,F,141
273,Dorothea,F,140
274,Lou,F,140
275,Pearlie,F,140
276,Helene,F,138
277,Lee,F,138
278,Elvira,F,135
279,Antoinette,F,134
280,Bess,F,134
281,Angeline,F,133
282,Christina,F,132
283,Hettie,F,132
284,Nona,F,132
285,Rosetta,F,132
286,Zelma,F,131
287,Cecil,F,129
288,Nola,F,129
289,Isabella,F,128
290,June,F,126
291,Lily,F,126
292,Linda,F,126
293,Phyllis,F,126
294,Claudia,F,125
295,Dessie,F,125
296,Marcella,F,125
297,Lucinda,F,123
298,Corinne,F,122
299,Rosalie,F,121
300,Edythe,F,119
301,Lorraine,F,119
302,Gertie,F,117
303,Oma,F,116
304,Reba,F,116
305,Alvina,F,115
306,Angelina,F,115
307,Erna,F,115
308,Wilhelmina,F,114
309,Annette,F,113
310,Blanch,F,113
311,Clarice,F,113
312,Linnie,F,113
313,Mathilda,F,113
314,Merle,F,113
315,Abbie,F,112
316,Constance,F,112
317,Eugenia,F,112
318,Helena,F,112
319,Vesta,F,112
320,Louella,F,111
321,Hulda,F,110
322,Priscilla,F,110
323,Shirley,F,110
324,Corine,F,109
325,Janet,F,108
326,Angela,F,107
327,Eloise,F,107
328,Mittie,F,107
329,Golda,F,106
330,Jannie,F,105
331,Catharine,F,104
332,Lorene,F,104
333,Lona,F,103
334,Elsa,F,102
335,Minerva,F,101
336,Leota,F,99
337,Zora,F,99
338,Jimmie,F,98
339,Meta,F,96
340,Dolly,F,94
341,Orpha,F,94
342,Rosella,F,94
343,Tessie,F,94
344,Wanda,F,94
345,Eddie,F,93
346,Ernestine,F,93
347,Leta,F,93
348,Evie,F,92
349,Isabell,F,92
350,Mina,F,92
351,Carmen,F,91
352,Dolores,F,91
353,Maybelle,F,91
354,Nelle,F,91
355,Odessa,F,91
356,Pansy,F,90
357,Yvonne,F,90
358,Patricia,F,89
359,Artie,F,88
360,Cynthia,F,88
361,Lura,F,87
362,Fanny,F,86
363,Georgie,F,86
364,Aline,F,85
365,Cassie,F,85
366,Eileen,F,85
367,Floy,F,85
368,Willa,F,84
369,Iona,F,83
370,Lauretta,F,83
371,Donna,F,81
372,Lenore,F,81
373,Malinda,F,81
374,Vida,F,81
375,Cordelia,F,79
376,Mazie,F,79
377,Alpha,F,78
378,Polly,F,78
379,Peggy,F,77
380,Billie,F,76
381,Elise,F,76
382,Ivy,F,76
383,Jeanne,F,76
384,Mandy,F,76
385,Ona,F,75
386,Era,F,74
387,Annabelle,F,73
388,Bella,F,73
389,Chloe,F,72
390,Ester,F,72
391,Frankie,F,71
392,Iola,F,71
393,Leora,F,71
394,Phoebe,F,71
395,Zula,F,71
396,Carol,F,70
397,Una,F,70
398,Angie,F,69
399,Mona,F,69
400,Verda,F,69
401,Evangeline,F,68
402,Ione,F,68
403,Maxine,F,68
404,Myrtie,F,68
405,Rae,F,68
406,Aileen,F,67
407,Alva,F,67
408,Leatha,F,67
409,Leone,F,67
410,Molly,F,67
411,Natalie,F,67
412,Ocie,F,67
413,Queen,F,67
414,Aurelia,F,66
415,Estell,F,66
416,Agatha,F,65
417,Ava,F,65
418,Clyde,F,65
419,Ellie,F,65
420,Lina,F,65
421,Sybil,F,64
422,Bell,F,63
423,Clare,F,63
424,Sudie,F,63
425,Iris,F,62
426,Belva,F,61
427,Vada,F,61
428,Hortense,F,60
429,Idella,F,60
430,Beryl,F,59
431,Connie,F,59
432,Florine,F,59
433,Imogene,F,59
434,Joyce,F,59
435,Vina,F,59
436,Emilie,F,58
437,Madeleine,F,58
438,Reva,F,58
439,Avis,F,57
440,Carmela,F,57
441,Florida,F,57
442,Joan,F,57
443,Lilla,F,57
444,Lovie,F,57
445,Marietta,F,57
446,Pinkie,F,57
447,Tommie,F,57
448,Corrine,F,56
449,Esta,F,56
450,Judith,F,56
451,Pearle,F,56
452,Berta,F,55
453,Gretchen,F,55
454,Lida,F,55
455,Mabelle,F,55
456,Claudie,F,54
457,Dixie,F,54
458,Donnie,F,54
459,Elisabeth,F,54
460,Lue,F,54
461,Octavia,F,54
462,Dena,F,53
463,Nan,F,53
464,Savannah,F,53
465,Tina,F,53
466,Tressie,F,53
467,Antonia,F,52
468,Elda,F,52
469,Elinor,F,52
470,Lavina,F,52
471,Lennie,F,52
472,Pattie,F,52
473,Veda,F,52
474,Ferne,F,51
475,Rhea,F,51
476,Tennie,F,51
477,Adelia,F,50
478,Celeste,F,50
479,Elaine,F,50
480,Ira,F,50
481,Adell,F,49
482,Albina,F,49
483,Ludie,F,49
484,Margret,F,49
485,Mercedes,F,49
486,Patsy,F,49
487,Tena,F,49
488,Easter,F,48
489,Emmie,F,48
490,Maurine,F,48
491,Wilda,F,48
492,Zola,F,48
493,Arlene,F,47
494,Bernadette,F,47
495,Camille,F,47
496,Paula,F,47
497,Robbie,F,47
498,Dona,F,46
499,Georgiana,F,46
500,Harriette,F,46
501,John,F,46
502,Zelda,F,46
503,Alyce,F,45
504,Elna,F,45
505,Glenna,F,45
506,Melvina,F,45
507,Rilla,F,45
508,Charity,F,44
509,Kattie,F,44
510,Lyda,F,44
511,Melba,F,44
512,Rachael,F,44
513,William,F,44
514,Zona,F,44
515,Julie,F,43
516,Magnolia,F,43
517,Vinnie,F,43
518,Loraine,F,42
519,Lucia,F,42
520,Luvenia,F,42
521,Marvel,F,42
522,Rowena,F,42
523,Bennie,F,41
524,Eleanora,F,41
525,James,F,41
526,Lavinia,F,41
527,Manuela,F,41
528,Nadine,F,41
529,Ursula,F,41
530,Bridget,F,40
531,Camilla,F,40
532,Carolina,F,40
533,Cordie,F,40
534,Leonora,F,40
535,Melissa,F,40
536,Petra,F,40
537,Retta,F,40
538,Rosemary,F,40
539,Vallie,F,40
540,Vernie,F,40
541,Winnifred,F,40
542,Evalyn,F,39
543,George,F,39
544,Gloria,F,39
545,Guadalupe,F,39
546,Jenny,F,39
547,Jettie,F,39
548,Kitty,F,39
549,Laverne,F,39
550,Madelyn,F,39
551,Mallie,F,39
552,Minna,F,39
553,Monica,F,39
554,Myrtis,F,39
555,Vergie,F,39
556,Adela,F,38
557,Allene,F,38
558,Clemmie,F,38
559,Emilia,F,38
560,Francisca,F,38
561,Hilma,F,38
562,Madie,F,38
563,Mammie,F,38
564,Margery,F,38
565,Philomena,F,38
566,Adah,F,37
567,Annabel,F,37
568,Bernadine,F,37
569,Eleanore,F,37
570,Gwendolyn,F,37
571,Janice,F,37
572,Joanna,F,37
573,Lonie,F,37
574,Vena,F,37
575,Annis,F,36
576,Arvilla,F,36
577,Beaulah,F,36
578,Berniece,F,36
579,Bulah,F,36
580,Delphia,F,36
581,Delphine,F,36
582,Eda,F,36
583,Elenora,F,36
584,Ima,F,36
585,Marcia,F,36
586,Maye,F,36
587,Sadye,F,36
588,Alda,F,35
589,Althea,F,35
590,Arline,F,35
591,Bobbie,F,35
592,Eve,F,35
593,Freddie,F,35
594,Hope,F,35
595,Johnie,F,35
596,Margarita,F,35
597,Mellie,F,35
598,Novella,F,35
599,Queenie,F,35
600,Ray,F,35
601,Sibyl,F,35
602,Susanna,F,35
603,Viva,F,35
604,Icie,F,34
605,Inga,F,34
606,Juana,F,34
607,Katheryn,F,34
608,Kittie,F,34
609,Mertie,F,34
610,Adella,F,33
611,Anastasia,F,33
612,Birtha,F,33
613,Elmira,F,33
614,Eura,F,33
615,Faith,F,33
616,Joe,F,33
617,Lelah,F,33
618,Lonnie,F,33
619,Meda,F,33
620,Reta,F,33
621,Rubie,F,33
622,Sophronia,F,33
623,Valeria,F,33
624,Altha,F,32
625,Greta,F,32
626,Justine,F,32
627,Magdalena,F,32
628,Magdalene,F,32
629,Maxie,F,32
630,Maybell,F,32
631,Ossie,F,32
632,Verdie,F,32
633,Albertine,F,31
634,Etha,F,31
635,Exie,F,31
636,Osie,F,31
637,Serena,F,31
638,Almeda,F,30
639,Bethel,F,30
640,Celestine,F,30
641,Elvera,F,30
642,Ettie,F,30
643,Grayce,F,30
644,Hildegarde,F,30
645,Leslie,F,30
646,Letitia,F,30
647,Lilian,F,30
648,Lorine,F,30
649,Lorna,F,30
650,Luna,F,30
651,Malissa,F,30
652,Myrna,F,30
653,Veva,F,30
654,Yetta,F,30
655,Albertha,F,29
656,Berenice,F,29
657,Beth,F,29
658,Clementine,F,29
659,Diana,F,29
660,Ethelyn,F,29
661,Ethyl,F,29
662,Garnet,F,29
663,Kathrine,F,29
664,Lea,F,29
665,Louvenia,F,29
666,Margarette,F,29
667,Mariah,F,29
668,Nita,F,29
669,Nova,F,29
670,Odell,F,29
671,Onie,F,29
672,Ramona,F,29
673,Roma,F,29
674,Rosia,F,29
675,Charles,F,28
676,Enid,F,28
677,Florrie,F,28
678,Freida,F,28
679,Gail,F,28
680,Lucie,F,28
681,Lucretia,F,28
682,Madaline,F,28
683,Odie,F,28
684,Prudence,F,28
685,Sena,F,28
686,Signe,F,28
687,Amalia,F,27
688,Audie,F,27
689,Cathrine,F,27
690,Charlie,F,27
691,Crystal,F,27
692,Delma,F,27
693,Georgianna,F,27
694,Joy,F,27
695,Millicent,F,27
696,Monnie,F,27
697,Nelda,F,27
698,Rosalia,F,27
699,Rossie,F,27
700,Samantha,F,27
701,Selina,F,27
702,Sula,F,27
703,Velva,F,27
704,Aggie,F,26
705,Alida,F,26
706,Deborah,F,26
707,Elvie,F,26
708,Eulah,F,26
709,Gene,F,26
710,Golden,F,26
711,Hassie,F,26
712,Idell,F,26
713,Kay,F,26
714,Lenna,F,26
715,Liza,F,26
716,Lossie,F,26
717,Marjory,F,26
718,Neta,F,26
719,Ouida,F,26
720,Portia,F,26
721,Therese,F,26
722,Treva,F,26
723,Zoe,F,26
724,Aletha,F,25
725,Ara,F,25
726,Audra,F,25
727,Carmella,F,25
728,Edwina,F,25
729,Elfrieda,F,25
730,Emelia,F,25
731,Emmer,F,25
732,Euna,F,25
733,Filomena,F,25
734,Henry,F,25
735,Kathryne,F,25
736,Lady,F,25
737,Lala,F,25
738,Loma,F,25
739,Myrl,F,25
740,Stephanie,F,25
741,Zada,F,25
742,Amie,F,24
743,Augustine,F,24
744,Berdie,F,24
745,Betsy,F,24
746,Corrie,F,24
747,Dinah,F,24
748,Dorthy,F,24
749,Elizebeth,F,24
750,Fairy,F,24
751,Hertha,F,24
752,Ines,F,24
753,Jo,F,24
754,Mathilde,F,24
755,Missouri,F,24
756,Robert,F,24
757,Rosalee,F,24
758,Theodora,F,24
759,Alene,F,23
760,Arrie,F,23
761,Cordia,F,23
762,Corene,F,23
763,Ebba,F,23
764,Elena,F,23
765,Eugenie,F,23
766,Hazle,F,23
767,Hildegard,F,23
768,Huldah,F,23
769,Jessica,F,23
770,Libbie,F,23
771,Melva,F,23
772,Nevada,F,23
773,Retha,F,23
774,Rosina,F,23
775,Rubye,F,23
776,Sidney,F,23
777,Thora,F,23
778,Trudie,F,23
779,Alfreda,F,22
780,Arlie,F,22
781,Delpha,F,22
782,Docia,F,22
783,Dottie,F,22
784,Eldora,F,22
785,Emeline,F,22
786,Hanna,F,22
787,Hessie,F,22
788,Leda,F,22
789,Leontine,F,22
790,Libby,F,22
791,Manda,F,22
792,Norine,F,22
793,Oda,F,22
794,Phebe,F,22
795,Sammie,F,22
796,Tempie,F,22
797,Theo,F,22
798,Vella,F,22
799,Verla,F,22
800,Verona,F,22
801,Versie,F,22
802,Adrienne,F,21
803,Ammie,F,21
804,Annetta,F,21
805,Aurora,F,21
806,Clora,F,21
807,Delilah,F,21
808,Dellar,F,21
809,Delta,F,21
810,Elberta,F,21
811,Elisa,F,21
812,Ether,F,21
813,Frona,F,21
814,Garnett,F,21
815,Gena,F,21
816,Josefina,F,21
817,Louie,F,21
818,Macie,F,21
819,Margarett,F,21
820,Martina,F,21
821,Mossie,F,21
822,Myrle,F,21
823,Myrtice,F,21
824,Nonie,F,21
825,Ressie,F,21
826,Ruthie,F,21
827,Tilda,F,21
828,Tressa,F,21
829,Valerie,F,21
830,Verlie,F,21
831,Zena,F,21
832,Ardella,F,20
833,Arie,F,20
834,Besse,F,20
835,Clarissa,F,20
836,Concetta,F,20
837,Dana,F,20
838,Elta,F,20
839,Felicia,F,20
840,Glenn,F,20
841,Hildred,F,20
842,Jacqueline,F,20
843,Jamie,F,20
844,Josiephine,F,20
845,Juliette,F,20
846,Lavada,F,20
847,Lelar,F,20
848,Leonore,F,20
849,Lutie,F,20
850,Maryann,F,20
851,Melinda,F,20
852,Mettie,F,20
853,Rosalind,F,20
854,Sabina,F,20
855,Selena,F,20
856,Vernice,F,20
857,Zadie,F,20
858,Zita,F,20
859,Adelina,F,19
860,Almira,F,19
861,Aurore,F,19
862,Berneice,F,19
863,Carmel,F,19
864,Delores,F,19
865,Dorris,F,19
866,Eloisa,F,19
867,Enola,F,19
868,Eulalia,F,19
869,Fleta,F,19
870,Frank,F,19
871,Goldia,F,19
872,Janette,F,19
873,Josefa,F,19
874,Leanna,F,19
875,Marry,F,19
876,Mavis,F,19
877,Ottie,F,19
878,Pollie,F,19
879,Reatha,F,19
880,Rosanna,F,19
881,Tomasa,F,19
882,Violette,F,19
883,Zettie,F,19
884,Adaline,F,18
885,Adelle,F,18
886,Alicia,F,18
887,Ana,F,18
888,Arlena,F,18
889,Carmelita,F,18
890,Christena,F,18
891,Dell,F,18
892,Earline,F,18
893,Elmer,F,18
894,Gay,F,18
895,Hedwig,F,18
896,Helga,F,18
897,Hellen,F,18
898,Henriette,F,18
899,Hermina,F,18
900,Hildur,F,18
901,India,F,18
902,Isa,F,18
903,Kizzie,F,18
904,Leonia,F,18
905,Lera,F,18
906,Lovina,F,18
907,Lupe,F,18
908,Magdalen,F,18
909,Maymie,F,18
910,Mozelle,F,18
911,Norah,F,18
912,Ova,F,18
913,Ozella,F,18
914,Palma,F,18
915,Rosamond,F,18
916,Winona,F,18
917,Aleen,F,17
918,Almeta,F,17
919,Annabell,F,17
920,Antonette,F,17
921,Arthur,F,17
922,Cara,F,17
923,Cathryn,F,17
924,Classie,F,17
925,Daphne,F,17
926,Edyth,F,17
927,Evelina,F,17
928,Katy,F,17
929,Leo,F,17
930,Lilyan,F,17
931,Loretto,F,17
932,Mahala,F,17
933,Margaretta,F,17
934,Neoma,F,17
935,Odelia,F,17
936,Olevia,F,17
937,Otelia,F,17
938,Sofia,F,17
939,Zetta,F,17
940,Adline,F,16
941,Aimee,F,16
942,Atha,F,16
943,Beula,F,16
944,Concepcion,F,16
945,Dale,F,16
946,Dessa,F,16
947,Electa,F,16
948,Florance,F,16
949,Freeda,F,16
950,Henretta,F,16
951,Icy,F,16
952,Jonnie,F,16
953,Juliet,F,16
954,Lacy,F,16
955,Lannie,F,16
956,Lockie,F,16
957,Marianna,F,16
958,Nena,F,16
959,Paralee,F,16
960,Salome,F,16
961,Theda,F,16
962,Thomas,F,16
963,Twila,F,16
964,Vassie,F,16
965,Vernon,F,16
966,Vertie,F,16
967,Vira,F,16
968,Virgil,F,16
969,Alvira,F,15
970,Amber,F,15
971,America,F,15
972,Angelita,F,15
973,Bina,F,15
974,Bula,F,15
975,Caldonia,F,15
976,Celesta,F,15
977,Christie,F,15
978,Clella,F,15
979,Clifford,F,15
980,Dicie,F,15
981,Dorcas,F,15
982,Dortha,F,15
983,Dulcie,F,15
984,Ellar,F,15
985,Elvina,F,15
986,Ena,F,15
987,Erie,F,15
988,Evaline,F,15
989,Eveline,F,15
990,Fae,F,15
991,Isadora,F,15
992,Ivory,F,15
993,Jaunita,F,15
994,Jerry,F,15
995,Jossie,F,15
996,Lexie,F,15
997,Luvinia,F,15
998,Macy,F,15
999,Malvina,F,15
1000,Metta,F,15
1001,Otis,F,15
1002,Suzanne,F,15
1003,Syble,F,15
1004,Unknown,F,15
1005,Venus,F,15
1006,Vivien,F,15
1007,Abigail,F,14
1008,Ader,F,14
1009,Allean,F,14
1010,Alverta,F,14
1011,Anner,F,14
1012,Ardis,F,14
1013,Blanchie,F,14
1014,Celina,F,14
1015,Claribel,F,14
1016,Clemence,F,14
1017,Coletta,F,14
1018,Consuelo,F,14
1019,Donie,F,14
1020,Ellamae,F,14
1021,Elouise,F,14
1022,Fleeta,F,14
1023,Flo,F,14
1024,Floyd,F,14
1025,Fred,F,14
1026,Glennie,F,14
1027,Izetta,F,14
1028,Izora,F,14
1029,Jesusa,F,14
1030,Joseph,F,14
1031,Liddie,F,14
1032,Lilie,F,14
1033,Lollie,F,14
1034,Louis,F,14
1035,Luciel,F,14
1036,Luetta,F,14
1037,Lyla,F,14
1038,Mabell,F,14
1039,Maebelle,F,14
1040,Maida,F,14
1041,Mariam,F,14
1042,Melda,F,14
1043,Mira,F,14
1044,Miranda,F,14
1045,Nella,F,14
1046,Pinkey,F,14
1047,Rella,F,14
1048,Sarrah,F,14
1049,Sina,F,14
1050,Tiny,F,14
1051,Velda,F,14
1052,Alvena,F,13
1053,Andrea,F,13
1054,Ardell,F,13
1055,Bee,F,13
1056,Beverly,F,13
1057,Buelah,F,13
1058,Ceola,F,13
1059,Charlsie,F,13
1060,Cherry,F,13
1061,Coral,F,13
1062,Corda,F,13
1063,Corean,F,13
1064,Dagmar,F,13
1065,Dean,F,13
1066,Delfina,F,13
1067,Eleonora,F,13
1068,Eudora,F,13
1069,Eulalie,F,13
1070,Exa,F,13
1071,Flonnie,F,13
1072,Fronie,F,13
1073,Germaine,F,13
1074,Hasel,F,13
1075,Imelda,F,13
1076,Irine,F,13
1077,Isla,F,13
1078,Ivah,F,13
1079,Lallie,F,13
1080,Laurie,F,13
1081,Lavera,F,13
1082,Leana,F,13
1083,Letty,F,13
1084,Lugenia,F,13
1085,Lular,F,13
1086,Madgie,F,13
1087,Melanie,F,13
1088,Mozella,F,13
1089,Nealie,F,13
1090,Noma,F,13
1091,Oral,F,13
1092,Osa,F,13
1093,Ottilie,F,13
1094,Pearline,F,13
1095,Philomene,F,13
1096,Rissie,F,13
1097,Roena,F,13
1098,Tinnie,F,13
1099,Tishie,F,13
1100,Vannie,F,13
1101,Vashti,F,13
1102,Vennie,F,13
1103,Verena,F,13
1104,Villa,F,13
1105,Albert,F,12
1106,Alethia,F,12
1107,Alline,F,12
1108,Alverda,F,12
1109,Arizona,F,12
1110,Arletta,F,12
1111,Avie,F,12
1112,Belvia,F,12
1113,Buena,F,12
1114,Buna,F,12
1115,Carlotta,F,12
1116,Carry,F,12
1117,Claude,F,12
1118,Cleda,F,12
1119,Clydia,F,12
1120,Colette,F,12
1121,Daisey,F,12
1122,Daisie,F,12
1123,Dola,F,12
1124,Doshie,F,12
1125,Dove,F,12
1126,Earl,F,12
1127,Elfie,F,12
1128,Etter,F,12
1129,Evalena,F,12
1130,Gennie,F,12
1131,Gretta,F,12
1132,Herma,F,12
1133,Jackie,F,12
1134,Josefita,F,12
1135,Judy,F,12
1136,Kathlyn,F,12
1137,Leoma,F,12
1138,Leonie,F,12
1139,Lethia,F,12
1140,Lissie,F,12
1141,Lota,F,12
1142,Luberta,F,12
1143,Luisa,F,12
1144,Madelene,F,12
1145,Marceline,F,12
1146,Marge,F,12
1147,Marilyn,F,12
1148,Maryellen,F,12
1149,Matie,F,12
1150,Mignon,F,12
1151,Mintie,F,12
1152,Mozell,F,12
1153,Oleta,F,12
1154,Otha,F,12
1155,Ozie,F,12
1156,Pearly,F,12
1157,Roselle,F,12
1158,Roxanna,F,12
1159,Sabra,F,12
1160,Savanah,F,12
1161,Silvia,F,12
1162,Texie,F,12
1163,Theodosia,F,12
1164,Ula,F,12
1165,Venie,F,12
1166,Veola,F,12
1167,Vincenza,F,12
1168,Violetta,F,12
1169,Will,F,12
1170,Azalee,F,11
1171,Bernie,F,11
1172,Bert,F,11
1173,Burnice,F,11
1174,Cammie,F,11
1175,Capitola,F,11
1176,Carlota,F,11
1177,Ceil,F,11
1178,Clair,F,11
1179,Clarence,F,11
1180,Dagny,F,11
1181,Delcie,F,11
1182,Dina,F,11
1183,Dot,F,11
1184,Drucilla,F,11
1185,Earlie,F,11
1186,Earnestine,F,11
1187,Ethyle,F,11
1188,Florie,F,11
1189,Fredericka,F,11
1190,Fronia,F,11
1191,Gaynell,F,11
1192,Georgette,F,11
1193,Gertha,F,11
1194,Gwen,F,11
1195,Irena,F,11
1196,Ivie,F,11
1197,Jemima,F,11
1198,Lavenia,F,11
1199,Lilah,F,11
1200,Mada,F,11
1201,Margot,F,11
1202,Marina,F,11
1203,Marye,F,11
1204,Minta,F,11
1205,Nanie,F,11
1206,Narcissus,F,11
1207,Nathalie,F,11
1208,Neola,F,11
1209,Nezzie,F,11
1210,Nila,F,11
1211,Pernie,F,11
1212,Prudie,F,11
1213,Rene,F,11
1214,Sam,F,11
1215,Santos,F,11
1216,Sigrid,F,11
1217,Stasia,F,11
1218,Tess,F,11
1219,Thresa,F,11
1220,Vela,F,11
1221,Viney,F,11
1222,Walter,F,11
1223,Wava,F,11
1224,Weltha,F,11
1225,Wilhelmine,F,11
1226,Williemae,F,11
1227,Zenobia,F,11
1228,Zeta,F,11
1229,Zilpha,F,11
1230,Adda,F,10
1231,Ardena,F,10
1232,Ary,F,10
1233,Aura,F,10
1234,Birtie,F,10
1235,Byrdie,F,10
1236,Carl,F,10
1237,Carlie,F,10
1238,Celestia,F,10
1239,Chanie,F,10
1240,Cleora,F,10
1241,Cleta,F,10
1242,Clotilda,F,10
1243,Clotilde,F,10
1244,Corena,F,10
1245,Courtney,F,10
1246,Curtis,F,10
1247,Dee,F,10
1248,Delila,F,10
1249,Delsie,F,10
1250,Drusilla,F,10
1251,Elfreda,F,10
1252,Elia,F,10
1253,Elizbeth,F,10
1254,Emmaline,F,10
1255,Emogene,F,10
1256,Ermon,F,10
1257,Ever,F,10
1258,Everlena,F,10
1259,Fannye,F,10
1260,Francies,F,10
1261,Gale,F,10
1262,Georgina,F,10
1263,Hilaria,F,10
1264,Imo,F,10
1265,Jeane,F,10
1266,Jesse,F,10
1267,Joann,F,10
1268,Jodie,F,10
1269,Junie,F,10
1270,Katharyn,F,10
1271,Lana,F,10
1272,Laurel,F,10
1273,Laurine,F,10
1274,Lella,F,10
1275,Leon,F,10
1276,Lester,F,10
1277,Leva,F,10
1278,Lotta,F,10
1279,Luda,F,10
1280,Lurline,F,10
1281,Maisie,F,10
1282,Manila,F,10
1283,Manilla,F,10
1284,Mannie,F,10
1285,Maranda,F,10
1286,Margeret,F,10
1287,Margueritte,F,10
1288,Milda,F,10
1289,Montie,F,10
1290,Nada,F,10
1291,Nonnie,F,10
1292,Norene,F,10
1293,Olie,F,10
1294,Omie,F,10
1295,Parthenia,F,10
1296,Patience,F,10
1297,Paulina,F,10
1298,Pecola,F,10
1299,Pennie,F,10
1300,Romaine,F,10
1301,Rosaline,F,10
1302,Ruthe,F,10
1303,Savilla,F,10
1304,Signa,F,10
1305,Sister,F,10
1306,Tresa,F,10
1307,Trixie,F,10
1308,Vadie,F,10
1309,Valma,F,10
1310,Vara,F,10
1311,Venice,F,10
1312,Versa,F,10
1313,Vester,F,10
1314,Veta,F,10
1315,Virdie,F,10
1316,Vivienne,F,10
1317,Vonnie,F,10
1318,Zelpha,F,10
1319,Agness,F,9
1320,Aida,F,9
1321,Aldora,F,9
1322,Aleta,F,9
1323,Alla,F,9
1324,Arlean,F,9
1325,Attie,F,9
1326,Azzie,F,9
1327,Babe,F,9
1328,Bamma,F,9
1329,Beatriz,F,9
1330,Benita,F,9
1331,Bernita,F,9
1332,Bettye,F,9
1333,Beuna,F,9
1334,Blossom,F,9
1335,Candace,F,9
1336,Carie,F,9
1337,Channie,F,9
1338,Chessie,F,9
1339,Clarinda,F,9
1340,Claudine,F,9
1341,Cliffie,F,9
1342,Creola,F,9
1343,Dallas,F,9
1344,David,F,9
1345,Davie,F,9
1346,Dewey,F,9
1347,Diane,F,9
1348,Dimple,F,9
1349,Eathel,F,9
1350,Elvia,F,9
1351,Erin,F,9
1352,Erva,F,9
1353,Esma,F,9
1354,Eugene,F,9
1355,Eupha,F,9
1356,Evia,F,9
1357,Ferol,F,9
1358,Garnette,F,9
1359,Gayle,F,9
1360,Gladyce,F,9
1361,Gregoria,F,9
1362,Gusta,F,9
1363,Hetty,F,9
1364,Honora,F,9
1365,Ilo,F,9
1366,Ingeborg,F,9
1367,Jetta,F,9
1368,Jim,F,9
1369,Juliana,F,9
1370,Justina,F,9
1371,Karen,F,9
1372,Kathern,F,9
1373,Laurette,F,9
1374,Laverna,F,9
1375,Lavon,F,9
1376,Lear,F,9
1377,Leathia,F,9
1378,Lesta,F,9
1379,Levada,F,9
1380,Lillia,F,9
1381,Littie,F,9
1382,Lu,F,9
1383,Luevenia,F,9
1384,Madalene,F,9
1385,Madalyn,F,9
1386,Maebell,F,9
1387,Malissie,F,9
1388,Margarete,F,9
1389,Margaretha,F,9
1390,Margrett,F,9
1391,Mariana,F,9
1392,Marianne,F,9
1393,Maryanna,F,9
1394,Medora,F,9
1395,Naoma,F,9
1396,Natalia,F,9
1397,Noelie,F,9
1398,Odette,F,9
1399,Oliva,F,9
1400,Olympia,F,9
1401,Oneida,F,9
1402,Opha,F,9
1403,Orrie,F,9
1404,Patty,F,9
1405,Paul,F,9
1406,Pearley,F,9
1407,Peggie,F,9
1408,Perlie,F,9
1409,Quincy,F,9
1410,Rina,F,9
1411,Rosabel,F,9
1412,Rosebud,F,9
1413,Roxy,F,9
1414,Salena,F,9
1415,Shellie,F,9
1416,Texas,F,9
1417,Thekla,F,9
1418,Theresia,F,9
1419,Theressa,F,9
1420,Trudy,F,9
1421,Tula,F,9
1422,Vicie,F,9
1423,Vinie,F,9
1424,Virgia,F,9
1425,Vita,F,9
1426,Vlasta,F,9
1427,Willard,F,9
1428,Willia,F,9
1429,Wilmer,F,9
1430,Zara,F,9
1431,Zelia,F,9
1432,Adel,F,8
1433,Adelaida,F,8
1434,Alba,F,8
1435,Aldea,F,8
1436,Alease,F,8
1437,Aleda,F,8
1438,Allen,F,8
1439,Allice,F,8
1440,Altie,F,8
1441,Anabel,F,8
1442,Angella,F,8
1443,Annice,F,8
1444,Antonetta,F,8
1445,Arabelle,F,8
1446,Argie,F,8
1447,Artha,F,8
1448,Beadie,F,8
1449,Beda,F,8
1450,Bernardine,F,8
1451,Betha,F,8
1452,Bonita,F,8
1453,Brownie,F,8
1454,Celie,F,8
1455,Charlotta,F,8
1456,Charlottie,F,8
1457,Cinda,F,8
1458,Cleola,F,8
1459,Clorinda,F,8
1460,Clyda,F,8
1461,Clydie,F,8
1462,Corrinne,F,8
1463,Coy,F,8
1464,Cressie,F,8
1465,Cuba,F,8
1466,Deloris,F,8
1467,Desta,F,8
1468,Doretta,F,8
1469,Dorotha,F,8
1470,Dosha,F,8
1471,Doshia,F,8
1472,Dossie,F,8
1473,Dura,F,8
1474,Edla,F,8
1475,Edmonia,F,8
1476,Edward,F,8
1477,Elenor,F,8
1478,Elza,F,8
1479,Elzora,F,8
1480,Emaline,F,8
1481,Emelie,F,8
1482,Erline,F,8
1483,Ersie,F,8
1484,Evelena,F,8
1485,Evelyne,F,8
1486,Fabiola,F,8
1487,Fontella,F,8
1488,Francine,F,8
1489,Gabrielle,F,8
1490,Genie,F,8
1491,Glada,F,8
1492,Gladis,F,8
1493,Gunda,F,8
1494,Gustava,F,8
1495,Hazelle,F,8
1496,Hildreth,F,8
1497,Ilah,F,8
1498,Ilda,F,8
1499,Iza,F,8
1500,Jeannetta,F,8
1501,Jennette,F,8
1502,Johnsie,F,8
1503,Judie,F,8
1504,Jule,F,8
1505,Lassie,F,8
1506,Leaner,F,8
1507,Leanora,F,8
1508,Leita,F,8
1509,Leitha,F,8
1510,Linnea,F,8
1511,Lolita,F,8
1512,Lorretta,F,8
1513,Love,F,8
1514,Lovella,F,8
1515,Lynn,F,8
1516,Mahalie,F,8
1517,Manie,F,8
1518,Marrie,F,8
1519,Media,F,8
1520,Mima,F,8
1521,Minda,F,8
1522,Mineola,F,8
1523,Mirtie,F,8
1524,Mora,F,8
1525,Necie,F,8
1526,Nelia,F,8
1527,Nolia,F,8
1528,Nolie,F,8
1529,Odile,F,8
1530,Ofelia,F,8
1531,Olla,F,8
1532,Oneita,F,8
1533,Orlena,F,8
1534,Otillia,F,8
1535,Ottilia,F,8
1536,Pluma,F,8
1537,Princess,F,8
1538,Rea,F,8
1539,Refugia,F,8
1540,Robena,F,8
1541,Rosita,F,8
1542,Rutha,F,8
1543,Salina,F,8
1544,Sedonia,F,8
1545,Sonia,F,8
1546,Stellar,F,8
1547,Tassie,F,8
1548,Teckla,F,8
1549,Tennessee,F,8
1550,Tera,F,8
1551,Thera,F,8
1552,Trannie,F,8
1553,Velna,F,8
1554,Verne,F,8
1555,Vienna,F,8
1556,Virgina,F,8
1557,Vola,F,8
1558,Zera,F,8
1559,Zina,F,8
1560,Abby,F,7
1561,Agusta,F,7
1562,Albertina,F,7
1563,Albie,F,7
1564,Albirta,F,7
1565,Alean,F,7
1566,Alena,F,7
1567,Alvie,F,7
1568,Alys,F,7
1569,Amalie,F,7
1570,Amma,F,7
1571,Anastacia,F,7
1572,Anise,F,7
1573,Annamae,F,7
1574,Antionette,F,7
1575,Antonina,F,7
1576,Arabella,F,7
1577,Archie,F,7
1578,Ardelia,F,7
1579,Arilla,F,7
1580,Arminta,F,7
1581,Arnetta,F,7
1582,Augustina,F,7
1583,Avo,F,7
1584,Beata,F,7
1585,Becky,F,7
1586,Bera,F,7
1587,Bertrice,F,7
1588,Birda,F,7
1589,Birdella,F,7
1590,Brooksie,F,7
1591,Calla,F,7
1592,Candelaria,F,7
1593,Candida,F,7
1594,Catalina,F,7
1595,Catarina,F,7
1596,Catherina,F,7
1597,Cecila,F,7
1598,Celestina,F,7
1599,Cherrie,F,7
1600,Chester,F,7
1601,China,F,7
1602,Chloie,F,7
1603,Christiana,F,7
1604,Cloie,F,7
1605,Collie,F,7
1606,Corina,F,7
1607,Corinna,F,7
1608,Daniel,F,7
1609,Delina,F,7
1610,Dellia,F,7
1611,Denise,F,7
1612,Dezzie,F,7
1613,Dicy,F,7
1614,Donia,F,7
1615,Dosia,F,7
1616,Dovey,F,7
1617,Ela,F,7
1618,Eleonore,F,7
1619,Eller,F,7
1620,Else,F,7
1621,Emmeline,F,7
1622,Emmy,F,7
1623,Ermine,F,7
1624,Erminia,F,7
1625,Eular,F,7
1626,Felipa,F,7
1627,Flavia,F,7
1628,Fleda,F,7
1629,Florene,F,7
1630,Florentine,F,7
1631,Floretta,F,7
1632,Gerda,F,7
1633,Gertude,F,7
1634,Gola,F,7
1635,Gustie,F,7
1636,Harold,F,7
1637,Harry,F,7
1638,Helma,F,7
1639,Herminia,F,7
1640,Hixie,F,7
1641,Hollie,F,7
1642,Idelle,F,7
1643,Ilene,F,7
1644,Isobel,F,7
1645,Janey,F,7
1646,Jeanetta,F,7
1647,Jeanie,F,7
1648,Jeffie,F,7
1649,Jinnie,F,7
1650,Julian,F,7
1651,Lanie,F,7
1652,Lara,F,7
1653,Larue,F,7
1654,Lattie,F,7
1655,Launa,F,7
1656,Lavern,F,7
1657,Lealer,F,7
1658,Leonor,F,7
1659,Levie,F,7
1660,Lilia,F,7
1661,Loie,F,7
1662,Loree,F,7
1663,Louetta,F,7
1664,Louisiana,F,7
1665,Loyola,F,7
1666,Lucetta,F,7
1667,Lucyle,F,7
1668,Luddie,F,7
1669,Luz,F,7
1670,Mackie,F,7
1671,Madelon,F,7
1672,Madolin,F,7
1673,Maie,F,7
1674,Malissia,F,7
1675,Manuelita,F,7
1676,Margarite,F,7
1677,Margurite,F,7
1678,Marine,F,7
1679,Maryetta,F,7
1680,Mattye,F,7
1681,Mennie,F,7
1682,Mercy,F,7
1683,Merna,F,7
1684,Modena,F,7
1685,Monie,F,7
1686,Mozel,F,7
1687,Nana,F,7
1688,Nicy,F,7
1689,Odessie,F,7
1690,Olar,F,7
1691,Olinda,F,7
1692,Orah,F,7
1693,Ovie,F,7
1694,Perle,F,7
1695,Permelia,F,7
1696,Persis,F,7
1697,Phillis,F,7
1698,Renee,F,7
1699,Roseanna,F,7
1700,Rosemarie,F,7
1701,Rosena,F,7
1702,Rue,F,7
1703,Ruie,F,7
1704,Saddie,F,7
1705,Santina,F,7
1706,Stacie,F,7
1707,Stanley,F,7
1708,Susanne,F,7
1709,Sylva,F,7
1710,Sylvester,F,7
1711,Talitha,F,7
1712,Terese,F,7
1713,Thea,F,7
1714,Thressa,F,7
1715,Ura,F,7
1716,Vern,F,7
1717,Vernita,F,7
1718,Vinita,F,7
1719,Virda,F,7
1720,Zelphia,F,7
1721,Zenia,F,7
1722,Zillie,F,7
1723,Alcie,F,6
1724,Alejandra,F,6
1725,Alfrieda,F,6
1726,Alleen,F,6
1727,Allena,F,6
1728,Alsie,F,6
1729,Alvah,F,6
1730,Ambrosia,F,6
1731,Anice,F,6
1732,Antonietta,F,6
1733,Ardath,F,6
1734,Armanda,F,6
1735,Arrena,F,6
1736,Arzella,F,6
1737,Ason,F,6
1738,Astrid,F,6
1739,Aurilla,F,6
1740,Australia,F,6
1741,Avery,F,6
1742,Avice,F,6
1743,Azelie,F,6
1744,Bama,F,6
1745,Bea,F,6
1746,Beckie,F,6
1747,Bernetta,F,6
1748,Berthe,F,6
1749,Betsey,F,6
1750,Bette,F,6
1751,Birdia,F,6
1752,Carita,F,6
1753,Carla,F,6
1754,Carmelite,F,6
1755,Carra,F,6
1756,Carrye,F,6
1757,Caryl,F,6
1758,Cathleen,F,6
1759,Celine,F,6
1760,Cellie,F,6
1761,Cenie,F,6
1762,Chaney,F,6
1763,Charlene,F,6
1764,Chrystal,F,6
1765,Claris,F,6
1766,Climmie,F,6
1767,Clothilde,F,6
1768,Coila,F,6
1769,Coralie,F,6
1770,Cornelius,F,6
1771,Cruz,F,6
1772,Cyrena,F,6
1773,Dallie,F,6
1774,Dannie,F,6
1775,Doreen,F,6
1776,Doretha,F,6
1777,Doxie,F,6
1778,Dula,F,6
1779,Ebbie,F,6
1780,Edrie,F,6
1781,Effa,F,6
1782,Elba,F,6
1783,Elease,F,6
1784,Elenore,F,6
1785,Elfa,F,6
1786,Elmina,F,6
1787,Elmire,F,6
1788,Elzadie,F,6
1789,Elzie,F,6
1790,Emer,F,6
1791,Enna,F,6
1792,Enriqueta,F,6
1793,Eola,F,6
1794,Eppie,F,6
1795,Ercell,F,6
1796,Estellar,F,6
1797,Ethal,F,6
1798,Ethlyn,F,6
1799,Eutha,F,6
1800,Evalee,F,6
1801,Evalina,F,6
1802,Famie,F,6
1803,Fawn,F,6
1804,Felice,F,6
1805,Felicitas,F,6
1806,Fidelia,F,6
1807,Floda,F,6
1808,Floria,F,6
1809,Floye,F,6
1810,Forrest,F,6
1811,Frederica,F,6
1812,Fredonia,F,6
1813,Gaynelle,F,6
1814,Genieve,F,6
1815,Gillie,F,6
1816,Gina,F,6
1817,Girtie,F,6
1818,Glen,F,6
1819,Gracia,F,6
1820,Guy,F,6
1821,Henrettia,F,6
1822,Herlinda,F,6
1823,Hila,F,6
1824,Idabelle,F,6
1825,Inda,F,6
1826,Ingrid,F,6
1827,Isola,F,6
1828,Jess,F,6
1829,Jocelyn,F,6
1830,Juliann,F,6
1831,Julianna,F,6
1832,Junia,F,6
1833,Lacie,F,6
1834,Lakie,F,6
1835,Laurena,F,6
1836,Leler,F,6
1837,Lema,F,6
1838,Lempi,F,6
1839,Leolar,F,6
1840,Leotha,F,6
1841,Letta,F,6
1842,Lidia,F,6
1843,Liller,F,6
1844,Lilliam,F,6
1845,Loney,F,6
1846,Loreen,F,6
1847,Lorenza,F,6
1848,Loreta,F,6
1849,Lorina,F,6
1850,Lorinda,F,6
1851,Lovey,F,6
1852,Luellen,F,6
1853,Lulla,F,6
1854,Lyle,F,6
1855,Maple,F,6
1856,Maree,F,6
1857,Marguerita,F,6
1858,Mark,F,6
1859,Maryon,F,6
1860,Marzella,F,6
1861,Massie,F,6
1862,Matilde,F,6
1863,Mickey,F,6
1864,Minette,F,6
1865,Missie,F,6
1866,Mollye,F,6
1867,Myrta,F,6
1868,Nannette,F,6
1869,Nanny,F,6
1870,Nealy,F,6
1871,Nicie,F,6
1872,Nobie,F,6
1873,Oddie,F,6
1874,Odeal,F,6
1875,Olean,F,6
1876,Oler,F,6
1877,Oneda,F,6
1878,Orelia,F,6
1879,Orphia,F,6
1880,Otila,F,6
1881,Pamela,F,6
1882,Parilee,F,6
1883,Penelope,F,6
1884,Phebie,F,6
1885,Phylis,F,6
1886,Precious,F,6
1887,Rafaela,F,6
1888,Raquel,F,6
1889,Refugio,F,6
1890,Reka,F,6
1891,Rettie,F,6
1892,Reyes,F,6
1893,Rinda,F,6
1894,Rochelle,F,6
1895,Rosabelle,F,6
1896,Rosalyn,F,6
1897,Rosana,F,6
1898,Roselyn,F,6
1899,Rosine,F,6
1900,Roy,F,6
1901,Samuel,F,6
1902,Snow,F,6
1903,Susana,F,6
1904,Susannah,F,6
1905,Sussie,F,6
1906,Tallie,F,6
1907,Tellie,F,6
1908,Texana,F,6
1909,Theola,F,6
1910,Threasa,F,6
1911,Tiney,F,6
1912,Tracy,F,6
1913,Trinnie,F,6
1914,Trula,F,6
1915,Ursule,F,6
1916,Valborg,F,6
1917,Valeda,F,6
1918,Valentina,F,6
1919,Valentine,F,6
1920,Vanessa,F,6
1921,Velora,F,6
1922,Vessie,F,6
1923,Victorine,F,6
1924,Vincie,F,6
1925,Vinia,F,6
1926,Wave,F,6
1927,Wavie,F,6
1928,Wilna,F,6
1929,Yvette,F,6
1930,Zenna,F,6
1931,Zilda,F,6
1932,Zillah,F,6
1933,Zylpha,F,6
1934,Adabelle,F,5
1935,Afton,F,5
1936,Ailene,F,5
1937,Alfhild,F,5
1938,Algie,F,5
1939,Alleine,F,5
1940,Almeter,F,5
1941,Alzada,F,5
1942,Alzina,F,5
1943,Amada,F,5
1944,Amey,F,5
1945,Angele,F,5
1946,Angelyn,F,5
1947,Anie,F,5
1948,Ardie,F,5
1949,Aretha,F,5
1950,Aretta,F,5
1951,Aria,F,5
1952,Ariel,F,5
1953,Arla,F,5
1954,Arletha,F,5
1955,Armelia,F,5
1956,Arminda,F,5
1957,Arvella,F,5
1958,Asilee,F,5
1959,Atlanta,F,5
1960,Aubrey,F,5
1961,Auda,F,5
1962,Audry,F,5
1963,Barbra,F,5
1964,Bena,F,5
1965,Bernyce,F,5
1966,Bertina,F,5
1967,Bobby,F,5
1968,Burley,F,5
1969,Byrd,F,5
1970,Caledonia,F,5
1971,Calista,F,5
1972,Canary,F,5
1973,Carlyn,F,5
1974,Carmon,F,5
1975,Carola,F,5
1976,Carolyne,F,5
1977,Cary,F,5
1978,Cathern,F,5
1979,Cecille,F,5
1980,Chairty,F,5
1981,Charlott,F,5
1982,Chloa,F,5
1983,Christana,F,5
1984,Christeen,F,5
1985,Cinderella,F,5
1986,Cindy,F,5
1987,Clarine,F,5
1988,Cleotilde,F,5
1989,Clio,F,5
1990,Clotile,F,5
1991,Clover,F,5
1992,Clysta,F,5
1993,Clytee,F,5
1994,Clytie,F,5
1995,Coreen,F,5
1996,Crystel,F,5
1997,Curlie,F,5
1998,Darthula,F,5
1999,Dealie,F,5
2000,Debbie,F,5
2001,Deliah,F,5
2002,Delima,F,5
2003,Dellie,F,5
2004,Dema,F,5
2005,Dennie,F,5
2006,Dera,F,5
2007,Dicey,F,5
2008,Dollye,F,5
2009,Dorsie,F,5
2010,Dott,F,5
2011,Edia,F,5
2012,Edie,F,5
2013,Edwin,F,5
2014,Elgie,F,5
2015,Elina,F,5
2016,Elodia,F,5
2017,Elpha,F,5
2018,Elverda,F,5
2019,Elzada,F,5
2020,Ema,F,5
2021,Endie,F,5
2022,Erla,F,5
2023,Erlinda,F,5
2024,Ernest,F,5
2025,Essa,F,5
2026,Estefana,F,5
2027,Estel,F,5
2028,Etheline,F,5
2029,Etna,F,5
2030,Eufelia,F,5
2031,Euphemia,F,5
2032,Evadna,F,5
2033,Evah,F,5
2034,Faustina,F,5
2035,Fedora,F,5
2036,Felicie,F,5
2037,Ferrol,F,5
2038,Freada,F,5
2039,Genever,F,5
2040,Genevia,F,5
2041,Genevive,F,5
2042,Genia,F,5
2043,Genora,F,5
2044,Georgeanna,F,5
2045,Georgena,F,5
2046,Georgine,F,5
2047,Glenda,F,5
2048,Gradie,F,5
2049,Haley,F,5
2050,Hedda,F,5
2051,Helmi,F,5
2052,Heloise,F,5
2053,Hermine,F,5
2054,Hilder,F,5
2055,Hisayo,F,5
2056,Honor,F,5
2057,Howard,F,5
2058,Ileen,F,5
2059,Inza,F,5
2060,Ioma,F,5
2061,Irva,F,5
2062,Ita,F,5
2063,Iver,F,5
2064,Izola,F,5
2065,Jack,F,5
2066,Jacoba,F,5
2067,Jeannett,F,5
2068,Jena,F,5
2069,Jennetta,F,5
2070,Jessamine,F,5
2071,Jessye,F,5
2072,Johannah,F,5
2073,Junnie,F,5
2074,Kansas,F,5
2075,Katheryne,F,5
2076,Keith,F,5
2077,Kennie,F,5
2078,Laney,F,5
2079,Latha,F,5
2080,Laurence,F,5
2081,Lavonia,F,5
2082,Lavonne,F,5
2083,Leanner,F,5
2084,Leather,F,5
2085,Leeanna,F,5
2086,Leenora,F,5
2087,Lener,F,5
2088,Librada,F,5
2089,Lillar,F,5
2090,Lillias,F,5
2091,Linna,F,5
2092,Litha,F,5
2093,Lizie,F,5
2094,Loa,F,5
2095,Lonia,F,5
2096,Lorain,F,5
2097,Loula,F,5
2098,Louvina,F,5
2099,Lovena,F,5
2100,Luanna,F,5
2101,Luellar,F,5
2102,Luttie,F,5
2103,Luvina,F,5
2104,Macel,F,5
2105,Macey,F,5
2106,Madlyn,F,5
2107,Mahalia,F,5
2108,Maidie,F,5
2109,Majorie,F,5
2110,Manerva,F,5
2111,Marcelline,F,5
2112,Mareta,F,5
2113,Margert,F,5
2114,Marquerite,F,5
2115,Martie,F,5
2116,Marybelle,F,5
2117,Maryjane,F,5
2118,Marylee,F,5
2119,Marylou,F,5
2120,Mearl,F,5
2121,Melina,F,5
2122,Melita,F,5
2123,Melvie,F,5
2124,Melvinia,F,5
2125,Meredith,F,5
2126,Metha,F,5
2127,Micaela,F,5
2128,Mila,F,5
2129,Mimi,F,5
2130,Minnette,F,5
2131,Modie,F,5
2132,Monna,F,5
2133,Monta,F,5
2134,Murel,F,5
2135,Myrtha,F,5
2136,Nancie,F,5
2137,Neila,F,5
2138,Neita,F,5
2139,Nicey,F,5
2140,Noella,F,5
2141,Nomie,F,5
2142,Norman,F,5
2143,Obie,F,5
2144,Odella,F,5
2145,Odetta,F,5
2146,Okla,F,5
2147,Olene,F,5
2148,Olia,F,5
2149,Oneta,F,5
2150,Oney,F,5
2151,Orie,F,5
2152,Orlean,F,5
2153,Orva,F,5
2154,Oscar,F,5
2155,Ota,F,5
2156,Othella,F,5
2157,Otilia,F,5
2158,Ottis,F,5
2159,Ozzie,F,5
2160,Pairlee,F,5
2161,Parrie,F,5
2162,Patsie,F,5
2163,Paulita,F,5
2164,Peachie,F,5
2165,Penny,F,5
2166,Percy,F,5
2167,Pet,F,5
2168,Petrina,F,5
2169,Pina,F,5
2170,Pinky,F,5
2171,Princella,F,5
2172,Radie,F,5
2173,Rafaelita,F,5
2174,Ragnhild,F,5
2175,Raye,F,5
2176,Reah,F,5
2177,Recie,F,5
2178,Renata,F,5
2179,Rennie,F,5
2180,Rhodie,F,5
2181,Romana,F,5
2182,Rosaria,F,5
2183,Roslyn,F,5
2184,Rosy,F,5
2185,Roxey,F,5
2186,Sada,F,5
2187,Santa,F,5
2188,Senia,F,5
2189,Senora,F,5
2190,Severa,F,5
2191,Sharon,F,5
2192,Sidonia,F,5
2193,Soledad,F,5
2194,Sular,F,5
2195,Tessa,F,5
2196,Texanna,F,5
2197,Theckla,F,5
2198,Thecla,F,5
2199,Thula,F,5
2200,Tilla,F,5
2201,Vader,F,5
2202,Valera,F,5
2203,Van,F,5
2204,Vanda,F,5
2205,Venna,F,5
2206,Verdia,F,5
2207,Vernetta,F,5
2208,Vetta,F,5
2209,Victory,F,5
2210,Vila,F,5
2211,Violar,F,5
2212,Wauneta,F,5
2213,Wessie,F,5
2214,Willella,F,5
2215,Willette,F,5
2216,Yola,F,5
2217,Yolanda,F,5
2218,Ysabel,F,5
2219,Zaidee,F,5
2220,Zela,F,5
2221,Zimmie,F,5
2222,Zollie,F,5
2223,Zonie,F,5
2224,Zuma,F,5
2225,John,M,9829
2226,William,M,8578
2227,James,M,7245
2228,George,M,5403
2229,Charles,M,4101
2230,Robert,M,3823
2231,Joseph,M,3714
2232,Frank,M,3477
2233,Edward,M,2720
2234,Henry,M,2606
2235,Thomas,M,2557
2236,Walter,M,2298
2237,Harry,M,2272
2238,Willie,M,2113
2239,Arthur,M,1853
2240,Albert,M,1741
2241,Fred,M,1646
2242,Clarence,M,1483
2243,Paul,M,1288
2244,Harold,M,1246
2245,Roy,M,1215
2246,Joe,M,1179
2247,Raymond,M,1150
2248,Richard,M,1142
2249,Charlie,M,1124
2250,Louis,M,1098
2251,Jack,M,1053
2252,Earl,M,1037
2253,Carl,M,1016
2254,Ernest,M,1012
2255,Ralph,M,896
2256,David,M,885
2257,Samuel,M,877
2258,Sam,M,821
2259,Howard,M,780
2260,Herbert,M,751
2261,Andrew,M,718
2262,Elmer,M,699
2263,Lee,M,675
2264,Lawrence,M,659
2265,Francis,M,652
2266,Alfred,M,640
2267,Will,M,603
2268,Daniel,M,598
2269,Eugene,M,587
2270,Leo,M,570
2271,Oscar,M,563
2272,Floyd,M,555
2273,Herman,M,550
2274,Jesse,M,536
2275,Michael,M,497
2276,Lewis,M,469
2277,Tom,M,469
2278,Leonard,M,465
2279,Ray,M,457
2280,Clyde,M,451
2281,Benjamin,M,450
2282,Peter,M,443
2283,Claude,M,433
2284,Lester,M,432
2285,Theodore,M,429
2286,Russell,M,427
2287,Eddie,M,425
2288,Frederick,M,420
2289,Leroy,M,419
2290,Clifford,M,409
2291,Anthony,M,406
2292,Jim,M,399
2293,Jessie,M,397
2294,Martin,M,383
2295,Edgar,M,374
2296,Chester,M,364
2297,Ben,M,355
2298,Edwin,M,350
2299,Dewey,M,345
2300,Cecil,M,344
2301,Stanley,M,342
2302,Lloyd,M,337
2303,Donald,M,328
2304,Homer,M,326
2305,Harvey,M,322
2306,Luther,M,316
2307,Norman,M,316
2308,Johnnie,M,313
2309,Leon,M,310
2310,Bernard,M,308
2311,Ed,M,297
2312,Hugh,M,290
2313,Patrick,M,285
2314,Kenneth,M,279
2315,Leslie,M,275
2316,Victor,M,269
2317,Alexander,M,261
2318,Philip,M,259
2319,Oliver,M,256
2320,Mack,M,250
2321,Horace,M,244
2322,Milton,M,242
2323,Guy,M,240
2324,Everett,M,237
2325,Jacob,M,233
2326,Melvin,M,231
2327,Charley,M,224
2328,Allen,M,223
2329,Alvin,M,223
2330,Earnest,M,223
2331,Ira,M,218
2332,Sidney,M,218
2333,Archie,M,216
2334,Otis,M,212
2335,Virgil,M,212
2336,Julius,M,206
2337,Jerry,M,205
2338,Percy,M,201
2339,Otto,M,199
2340,Isaac,M,198
2341,Bill,M,196
2342,Glenn,M,194
2343,Maurice,M,193
2344,Alex,M,192
2345,Dan,M,192
2346,Warren,M,191
2347,Hubert,M,189
2348,Marion,M,189
2349,Lonnie,M,186
2350,Nathan,M,186
2351,Stephen,M,181
2352,Wesley,M,181
2353,Vincent,M,178
2354,Marvin,M,176
2355,Manuel,M,174
2356,Willard,M,172
2357,Vernon,M,170
2358,Willis,M,169
2359,Dave,M,166
2360,Morris,M,162
2361,Jose,M,161
2362,Wallace,M,161
2363,Wilbur,M,161
2364,Gerald,M,157
2365,Rufus,M,157
2366,Bennie,M,154
2367,Bert,M,153
2368,August,M,148
2369,Rudolph,M,147
2370,Gilbert,M,145
2371,Curtis,M,144
2372,Perry,M,142
2373,Max,M,141
2374,Steve,M,139
2375,Franklin,M,137
2376,Gordon,M,137
2377,Mark,M,137
2378,Nelson,M,135
2379,Glen,M,134
2380,Mckinley,M,133
2381,Roland,M,133
2382,Dennis,M,132
2383,Mike,M,132
2384,Sylvester,M,131
2385,Johnie,M,130
2386,Matthew,M,130
2387,Calvin,M,128
2388,Jess,M,128
2389,Emil,M,127
2390,Phillip,M,127
2391,Marshall,M,126
2392,Amos,M,125
2393,Elbert,M,125
2394,Felix,M,123
2395,Arnold,M,122
2396,Jake,M,121
2397,Ellis,M,120
2398,Gus,M,120
2399,Emmett,M,119
2400,Clayton,M,118
2401,Irvin,M,118
2402,Jimmie,M,118
2403,Nathaniel,M,118
2404,Adolph,M,117
2405,Moses,M,117
2406,Alonzo,M,116
2407,Cornelius,M,116
2408,Pete,M,116
2409,Irving,M,115
2410,Orville,M,112
2411,Adam,M,111
2412,Ollie,M,109
2413,Clifton,M,108
2414,Douglas,M,108
2415,Claud,M,107
2416,Jay,M,107
2417,Aaron,M,103
2418,Tony,M,101
2419,Abraham,M,100
2420,Bob,M,98
2421,Jasper,M,97
2422,Roscoe,M,96
2423,Levi,M,95
2424,Nicholas,M,95
2425,Sherman,M,95
2426,Edmund,M,94
2427,Owen,M,93
2428,Noah,M,92
2429,Clinton,M,91
2430,Ivan,M,90
2431,Monroe,M,89
2432,Wilson,M,89
2433,Ervin,M,88
2434,Bruce,M,87
2435,Elijah,M,86
2436,Reuben,M,86
2437,Jerome,M,85
2438,Wayne,M,85
2439,Juan,M,84
2440,Barney,M,83
2441,Ross,M,83
2442,Grant,M,82
2443,Don,M,81
2444,Laurence,M,81
2445,Roger,M,81
2446,Tommie,M,81
2447,Wilfred,M,81
2448,Grady,M,79
2449,Harley,M,79
2450,Julian,M,79
2451,Preston,M,78
2452,Timothy,M,77
2453,Leland,M,76
2454,Antonio,M,75
2455,Clark,M,75
2456,Karl,M,75
2457,Mary,M,75
2458,Mose,M,75
2459,Simon,M,75
2460,Ted,M,75
2461,Alva,M,73
2462,Dock,M,73
2463,Cleveland,M,72
2464,Johnny,M,72
2465,Roosevelt,M,72
2466,Solomon,M,72
2467,Luke,M,70
2468,Carroll,M,69
2469,Harrison,M,69
2470,Jeff,M,69
2471,Troy,M,69
2472,Millard,M,68
2473,Silas,M,68
2474,Fredrick,M,67
2475,Austin,M,66
2476,Forrest,M,66
2477,Ike,M,65
2478,Allan,M,64
2479,Loyd,M,64
2480,Freddie,M,63
2481,Myron,M,63
2482,Wilbert,M,63
2483,Aubrey,M,62
2484,Boyd,M,62
2485,Larry,M,62
2486,Byron,M,61
2487,Edd,M,61
2488,Louie,M,61
2489,Wiley,M,61
2490,Jackson,M,60
2491,Dwight,M,59
2492,Rex,M,59
2493,Anton,M,58
2494,Neal,M,58
2495,Hiram,M,57
2496,Mathew,M,57
2497,Van,M,57
2498,Abe,M,56
2499,Anderson,M,56
2500,Wade,M,56
2501,Bryan,M,55
2502,Christopher,M,55
2503,Malcolm,M,55
2504,Miles,M,55
2505,Andy,M,54
2506,Dale,M,54
2507,Merle,M,54
2508,Fletcher,M,53
2509,Forest,M,53
2510,Riley,M,53
2511,Emory,M,52
2512,Grover,M,52
2513,Mitchell,M,52
2514,Elwood,M,51
2515,Major,M,51
2516,Neil,M,50
2517,Newton,M,50
2518,Pat,M,50
2519,Randolph,M,50
2520,Ruben,M,50
2521,Jesus,M,49
2522,Lyle,M,49
2523,Murray,M,49
2524,Nick,M,49
2525,Clement,M,48
2526,Gene,M,48
2527,Marcus,M,48
2528,Taylor,M,48
2529,Ambrose,M,47
2530,Dean,M,47
2531,Edmond,M,47
2532,Booker,M,46
2533,Earle,M,46
2534,Ned,M,46
2535,Ramon,M,46
2536,Russel,M,46
2537,Augustus,M,45
2538,Chris,M,45
2539,Columbus,M,45
2540,Dick,M,45
2541,Eli,M,45
2542,Emanuel,M,45
2543,Delbert,M,44
2544,Freeman,M,44
2545,Isiah,M,44
2546,Loren,M,44
2547,Pedro,M,44
2548,Spencer,M,44
2549,Alton,M,43
2550,Erwin,M,43
2551,Jeremiah,M,43
2552,Ward,M,43
2553,Wilmer,M,43
2554,Emery,M,42
2555,Ezra,M,42
2556,Jimmy,M,42
2557,Lorenzo,M,42
2558,Ora,M,42
2559,Steven,M,42
2560,Tommy,M,42
2561,Clay,M,41
2562,Conrad,M,41
2563,Cyril,M,41
2564,Ferdinand,M,41
2565,Lynn,M,41
2566,Pearl,M,41
2567,Bud,M,40
2568,Dallas,M,40
2569,Elmo,M,40
2570,Francisco,M,40
2571,Lucius,M,40
2572,Ronald,M,40
2573,Stewart,M,40
2574,Clair,M,39
2575,Elton,M,39
2576,Lyman,M,39
2577,Scott,M,39
2578,Burton,M,38
2579,Carlton,M,38
2580,Sterling,M,38
2581,Al,M,37
2582,Aloysius,M,37
2583,Basil,M,37
2584,Carlos,M,37
2585,Dewitt,M,37
2586,Elisha,M,37
2587,Herschel,M,37
2588,Lemuel,M,37
2589,Billy,M,36
2590,Cyrus,M,36
2591,Enoch,M,36
2592,Garland,M,36
2593,Hobert,M,36
2594,Johnson,M,36
2595,Joshua,M,36
2596,Noble,M,36
2597,Orval,M,36
2598,Vern,M,36
2599,Alfonso,M,35
2600,Alphonso,M,35
2601,Christian,M,35
2602,Dee,M,35
2603,Hollis,M,35
2604,Joel,M,35
2605,Lowell,M,35
2606,Emerson,M,34
2607,Lon,M,34
2608,Ulysses,M,34
2609,Dudley,M,33
2610,Elliott,M,33
2611,General,M,33
2612,Harris,M,33
2613,Houston,M,33
2614,Kelly,M,33
2615,King,M,33
2616,Lacy,M,33
2617,Buck,M,32
2618,Cleo,M,32
2619,Garfield,M,32
2620,Irwin,M,32
2621,Isaiah,M,32
2622,Junius,M,32
2623,Mason,M,32
2624,Napoleon,M,32
2625,Sammie,M,32
2626,Shirley,M,32
2627,Benny,M,31
2628,Carter,M,31
2629,Elmore,M,31
2630,Emile,M,31
2631,Jennings,M,31
2632,Jonas,M,31
2633,Matt,M,31
2634,Morgan,M,31
2635,Raleigh,M,31
2636,Wilber,M,31
2637,Arther,M,30
2638,Asa,M,30
2639,Clarance,M,30
2640,Fay,M,30
2641,Gustave,M,30
2642,Wendell,M,30
2643,Early,M,29
2644,Foster,M,29
2645,Garrett,M,29
2646,Odell,M,29
2647,Zack,M,29
2648,Clem,M,28
2649,Green,M,28
2650,Haywood,M,28
2651,Odis,M,28
2652,Sol,M,28
2653,Washington,M,28
2654,Adrian,M,27
2655,Alan,M,27
2656,Allie,M,27
2657,Alphonse,M,27
2658,Angelo,M,27
2659,Coy,M,27
2660,Ellsworth,M,27
2661,Emmet,M,27
2662,Hobart,M,27
2663,Judge,M,27
2664,Reginald,M,27
2665,Rupert,M,27
2666,Seth,M,27
2667,Travis,M,27
2668,Walker,M,27
2669,Winfield,M,27
2670,Bruno,M,26
2671,Carey,M,26
2672,Chas,M,26
2673,Coleman,M,26
2674,Hardy,M,26
2675,Lionel,M,26
2676,Lucious,M,26
2677,Maynard,M,26
2678,Smith,M,26
2679,Anna,M,25
2680,Buster,M,25
2681,Dominick,M,25
2682,Dorsey,M,25
2683,Hal,M,25
2684,Ivory,M,25
2685,Josh,M,25
2686,Judson,M,25
2687,Lige,M,25
2688,Olin,M,25
2689,Porter,M,25
2690,Royal,M,25
2691,Sim,M,25
2692,Truman,M,25
2693,Billie,M,24
2694,Bryant,M,24
2695,Elvin,M,24
2696,Evan,M,24
2697,Ford,M,24
2698,Isadore,M,24
2699,Jefferson,M,24
2700,Wilford,M,24
2701,Benjiman,M,23
2702,Buford,M,23
2703,Crawford,M,23
2704,Elias,M,23
2705,Emmitt,M,23
2706,Fritz,M,23
2707,Harmon,M,23
2708,Hugo,M,23
2709,Merrill,M,23
2710,Rubin,M,23
2711,Saul,M,23
2712,Webster,M,23
2713,Wilburn,M,23
2714,Alford,M,22
2715,Berry,M,22
2716,Bertha,M,22
2717,Chauncey,M,22
2718,Clint,M,22
2719,Florence,M,22
2720,Furman,M,22
2721,Henery,M,22
2722,Hyman,M,22
2723,Jean,M,22
2724,Jewel,M,22
2725,Logan,M,22
2726,Lonzo,M,22
2727,Maxwell,M,22
2728,Milford,M,22
2729,Milo,M,22
2730,Oren,M,22
2731,Pablo,M,22
2732,Phil,M,22
2733,Pink,M,22
2734,Prince,M,22
2735,Ruby,M,22
2736,Salvatore,M,22
2737,Sandy,M,22
2738,Son,M,22
2739,Stuart,M,22
2740,Tim,M,22
2741,Waldo,M,22
2742,Abner,M,21
2743,Emma,M,21
2744,Eric,M,21
2745,Granville,M,21
2746,Lucian,M,21
2747,Luis,M,21
2748,Murphy,M,21
2749,Norbert,M,21
2750,Omer,M,21
2751,Otha,M,21
2752,Otho,M,21
2753,Palmer,M,21
2754,Rodney,M,21
2755,Sanford,M,21
2756,Terry,M,21
2757,Thurman,M,21
2758,Bertram,M,20
2759,Connie,M,20
2760,Davis,M,20
2761,Eldon,M,20
2762,Elzie,M,20
2763,Ethel,M,20
2764,Hallie,M,20
2765,Henderson,M,20
2766,Hezekiah,M,20
2767,Israel,M,20
2768,Lenard,M,20
2769,Lincoln,M,20
2770,Lonie,M,20
2771,Micheal,M,20
2772,Pasquale,M,20
2773,Roman,M,20
2774,Rosevelt,M,20
2775,Sampson,M,20
2776,Shelby,M,20
2777,Warner,M,20
2778,Wm,M,20
2779,Adolphus,M,19
2780,Annie,M,19
2781,Bailey,M,19
2782,Bernie,M,19
2783,Bonnie,M,19
2784,Dana,M,19
2785,Elie,M,19
2786,Ezekiel,M,19
2787,Frances,M,19
2788,Gabriel,M,19
2789,Gustav,M,19
2790,Hamilton,M,19
2791,Harlan,M,19
2792,Hector,M,19
2793,Ivy,M,19
2794,Lambert,M,19
2795,Lindsey,M,19
2796,Mervin,M,19
2797,Meyer,M,19
2798,Toney,M,19
2799,Verne,M,19
2800,Vernie,M,19
2801,Wash,M,19
2802,Abram,M,18
2803,Admiral,M,18
2804,Arch,M,18
2805,Art,M,18
2806,Bishop,M,18
2807,Boyce,M,18
2808,Burl,M,18
2809,Burt,M,18
2810,Cicero,M,18
2811,Doc,M,18
2812,Ennis,M,18
2813,Guss,M,18
2814,Hans,M,18
2815,Helen,M,18
2816,Hosea,M,18
2817,Joesph,M,18
2818,Justin,M,18
2819,Nat,M,18
2820,Noel,M,18
2821,Norris,M,18
2822,Odie,M,18
2823,Rolland,M,18
2824,Tillman,M,18
2825,Turner,M,18
2826,Vivian,M,18
2827,Albin,M,17
2828,Artie,M,17
2829,Cliff,M,17
2830,Dillard,M,17
2831,Duncan,M,17
2832,Eldridge,M,17
2833,Kelley,M,17
2834,Lafayette,M,17
2835,Lawson,M,17
2836,Levy,M,17
2837,Linwood,M,17
2838,Madison,M,17
2839,Mannie,M,17
2840,Marie,M,17
2841,Miguel,M,17
2842,Ole,M,17
2843,Parker,M,17
2844,Randall,M,17
2845,Thaddeus,M,17
2846,Wylie,M,17
2847,Alvie,M,16
2848,Arlie,M,16
2849,Armand,M,16
2850,Aron,M,16
2851,Bennett,M,16
2852,Carson,M,16
2853,Cleve,M,16
2854,Collins,M,16
2855,Dalton,M,16
2856,Elizabeth,M,16
2857,Elza,M,16
2858,Everette,M,16
2859,Gaston,M,16
2860,Gladys,M,16
2861,Gust,M,16
2862,Keith,M,16
2863,Lamar,M,16
2864,Leander,M,16
2865,Margaret,M,16
2866,Nolan,M,16
2867,Quincy,M,16
2868,Rowland,M,16
2869,Ruth,M,16
2870,Teddy,M,16
2871,Tomas,M,16
2872,Unknown,M,16
2873,Abel,M,15
2874,Alec,M,15
2875,Bradley,M,15
2876,Cletus,M,15
2877,Doyle,M,15
2878,Elsie,M,15
2879,Emilio,M,15
2880,Fate,M,15
2881,Giles,M,15
2882,Graham,M,15
2883,Hayes,M,15
2884,Hazel,M,15
2885,Hermon,M,15
2886,Isidore,M,15
2887,Jason,M,15
2888,Jewell,M,15
2889,Jonnie,M,15
2890,Junior,M,15
2891,Lindsay,M,15
2892,Louise,M,15
2893,Loy,M,15
2894,Obie,M,15
2895,Oral,M,15
2896,Orlando,M,15
2897,Ossie,M,15
2898,Pierce,M,15
2899,Richmond,M,15
2900,Rollie,M,15
2901,Valentine,M,15
2902,Vance,M,15
2903,Williams,M,15
2904,Angus,M,14
2905,Antoine,M,14
2906,Archibald,M,14
2907,Burley,M,14
2908,Casper,M,14
2909,Curley,M,14
2910,Dominic,M,14
2911,Felipe,M,14
2912,Howell,M,14
2913,Jule,M,14
2914,Lillie,M,14
2915,Miller,M,14
2916,Monte,M,14
2917,Olen,M,14
2918,Reed,M,14
2919,Thad,M,14
2920,Theo,M,14
2921,Walton,M,14
2922,Wyatt,M,14
2923,Alden,M,13
2924,Alma,M,13
2925,Benton,M,13
2926,Bradford,M,13
2927,Casey,M,13
2928,Denis,M,13
2929,Denver,M,13
2930,Edna,M,13
2931,Effie,M,13
2932,Eunice,M,13
2933,Golden,M,13
2934,Hamp,M,13
2935,Harland,M,13
2936,Hershel,M,13
2937,Hobson,M,13
2938,Ida,M,13
2939,Jules,M,13
2940,Kirby,M,13
2941,Less,M,13
2942,Lou,M,13
2943,Lucien,M,13
2944,Mildred,M,13
2945,Morton,M,13
2946,Myles,M,13
2947,Price,M,13
2948,Roderick,M,13
2949,Rollin,M,13
2950,Rudy,M,13
2951,Sheldon,M,13
2952,Sonny,M,13
2953,Sydney,M,13
2954,Talmadge,M,13
2955,Theadore,M,13
2956,Tracy,M,13
2957,Vester,M,13
2958,Watson,M,13
2959,Waverly,M,13
2960,Wayman,M,13
2961,Weldon,M,13
2962,West,M,13
2963,Westley,M,13
2964,Winfred,M,13
2965,Winston,M,13
2966,Worth,M,13
2967,Alberto,M,12
2968,Ammon,M,12
2969,Antone,M,12
2970,Augustine,M,12
2971,Avery,M,12
2972,Beatrice,M,12
2973,Brooks,M,12
2974,Butler,M,12
2975,Carleton,M,12
2976,Cary,M,12
2977,Clara,M,12
2978,Ella,M,12
2979,Emmit,M,12
2980,Ernie,M,12
2981,Evans,M,12
2982,Fernando,M,12
2983,Gregory,M,12
2984,Hollie,M,12
2985,Hunter,M,12
2986,Junious,M,12
2987,Mac,M,12
2988,Melton,M,12
2989,Minnie,M,12
2990,Murry,M,12
2991,Nellie,M,12
2992,Ocie,M,12
2993,Oran,M,12
2994,Orie,M,12
2995,Orin,M,12
2996,Osie,M,12
2997,Patsy,M,12
2998,Rafael,M,12
2999,Ransom,M,12
3000,Raymon,M,12
3001,Rocco,M,12
3002,Rube,M,12
3003,Santiago,M,12
3004,Sylvan,M,12
3005,Vaughn,M,12
3006,Webb,M,12
3007,Wheeler,M,12
3008,Wilton,M,12
3009,Addison,M,11
3010,Alfredo,M,11
3011,Auther,M,11
3012,Axel,M,11
3013,Benedict,M,11
3014,Bessie,M,11
3015,Brady,M,11
3016,Buddie,M,11
3017,Burnett,M,11
3018,Caleb,M,11
3019,Christ,M,11
3020,Conley,M,11
3021,Damon,M,11
3022,Duke,M,11
3023,Earlie,M,11
3024,Eduardo,M,11
3025,Elder,M,11
3026,Ellie,M,11
3027,Ewell,M,11
3028,Farris,M,11
3029,Geo,M,11
3030,Gerard,M,11
3031,Gideon,M,11
3032,Grace,M,11
3033,Gregorio,M,11
3034,Guadalupe,M,11
3035,Hampton,M,11
3036,Hoyt,M,11
3037,Ignatius,M,11
3038,Isom,M,11
3039,Issac,M,11
3040,Jodie,M,11
3041,Jonah,M,11
3042,Jonathan,M,11
3043,Jordan,M,11
3044,Laurie,M,11
3045,Laverne,M,11
3046,Leeroy,M,11
3047,Lemmie,M,11
3048,Lillian,M,11
3049,Marcellus,M,11
3050,Marlin,M,11
3051,Pierre,M,11
3052,Rose,M,11
3053,Royce,M,11
3054,Stanford,M,11
3055,Thornton,M,11
3056,Thurston,M,11
3057,Tobe,M,11
3058,Tyler,M,11
3059,Verner,M,11
3060,Acie,M,10
3061,Addie,M,10
3062,Alvah,M,10
3063,Barry,M,10
3064,Bartley,M,10
3065,Barton,M,10
3066,Baxter,M,10
3067,Bee,M,10
3068,Benito,M,10
3069,Bernice,M,10
3070,Blair,M,10
3071,Buddy,M,10
3072,Cal,M,10
3073,Carmen,M,10
3074,Carmine,M,10
3075,Clare,M,10
3076,Claudie,M,10
3077,Collis,M,10
3078,Courtney,M,10
3079,Dell,M,10
3080,Delmar,M,10
3081,Eliga,M,10
3082,Eligah,M,10
3083,Elwin,M,10
3084,Estell,M,10
3085,Eston,M,10
3086,Foy,M,10
3087,Frederic,M,10
3088,French,M,10
3089,Gale,M,10
3090,Garnett,M,10
3091,Godfrey,M,10
3092,Goebel,M,10
3093,Gray,M,10
3094,Harlow,M,10
3095,Hayden,M,10
3096,Helmer,M,10
3097,Hilliard,M,10
3098,Joy,M,10
3099,Julious,M,10
3100,Lemon,M,10
3101,Len,M,10
3102,Leopold,M,10
3103,Lesley,M,10
3104,Lois,M,10
3105,Loran,M,10
3106,Ludwig,M,10
3107,Luster,M,10
3108,Mae,M,10
3109,Melville,M,10
3110,Moody,M,10
3111,Norval,M,10
3112,Omar,M,10
3113,Orrin,M,10
3114,Pleas,M,10
3115,Reese,M,10
3116,Rene,M,10
3117,Rolla,M,10
3118,Rossie,M,10
3119,Sanders,M,10
3120,Seward,M,10
3121,Seymour,M,10
3122,Sullivan,M,10
3123,Tallie,M,10
3124,Urban,M,10
3125,Wong,M,10
3126,Alfonzo,M,9
3127,Allison,M,9
3128,Alois,M,9
3129,Alvis,M,9
3130,Arlo,M,9
3131,Artis,M,9
3132,Arvid,M,9
3133,Barnie,M,9
3134,Bart,M,9
3135,Brown,M,9
3136,Callie,M,9
3137,Cameron,M,9
3138,Casimer,M,9
3139,Cloyd,M,9
3140,Collin,M,9
3141,Colonel,M,9
3142,Craig,M,9
3143,Darrell,M,9
3144,Delmer,M,9
3145,Eddy,M,9
3146,Edith,M,9
3147,Elige,M,9
3148,Elliot,M,9
3149,Enos,M,9
3150,Enrique,M,9
3151,Erich,M,9
3152,Ernst,M,9
3153,Evert,M,9
3154,Fabian,M,9
3155,Ferris,M,9
3156,Fitzhugh,M,9
3157,Gail,M,9
3158,Gary,M,9
3159,Gorge,M,9
3160,Harvie,M,9
3161,Hester,M,9
3162,Hosie,M,9
3163,Hudson,M,9
3164,Irene,M,9
3165,Jennie,M,9
3166,June,M,9
3167,Lauren,M,9
3168,Lupe,M,9
3169,Martha,M,9
3170,Mathias,M,9
3171,Mearl,M,9
3172,Milburn,M,9
3173,Newell,M,9
3174,Newt,M,9
3175,Nora,M,9
3176,Oswald,M,9
3177,Ozie,M,9
3178,Paris,M,9
3179,Pinkney,M,9
3180,Pleasant,M,9
3181,Rush,M,9
3182,Salvador,M,9
3183,Santos,M,9
3184,Schuyler,M,9
3185,Shedrick,M,9
3186,Shelley,M,9
3187,Shellie,M,9
3188,Spurgeon,M,9
3189,Wellington,M,9
3190,Wilfrid,M,9
3191,Zollie,M,9
3192,Ace,M,8
3193,Adolf,M,8
3194,Agnes,M,8
3195,Alf,M,8
3196,Alice,M,8
3197,Almon,M,8
3198,Arley,M,8
3199,Arturo,M,8
3200,Arvel,M,8
3201,Beverly,M,8
3202,Brice,M,8
3203,Byrd,M,8
3204,Ceasar,M,8
3205,Cora,M,8
3206,Doctor,M,8
3207,Donovan,M,8
3208,Dorothy,M,8
3209,Drew,M,8
3210,Elden,M,8
3211,Elvis,M,8
3212,Ephraim,M,8
3213,Essie,M,8
3214,Eva,M,8
3215,Felton,M,8
3216,Finley,M,8
3217,Fleming,M,8
3218,Gaylord,M,8
3219,Gerhard,M,8
3220,Gertrude,M,8
3221,Heber,M,8
3222,Hillard,M,8
3223,Holly,M,8
3224,Hughie,M,8
3225,Huston,M,8
3226,Iva,M,8
3227,Ivey,M,8
3228,Jacques,M,8
3229,Jarvis,M,8
3230,Knox,M,8
3231,Lance,M,8
3232,Lawerence,M,8
3233,Lea,M,8
3234,Levie,M,8
3235,Lonzie,M,8
3236,Lucille,M,8
3237,Lum,M,8
3238,Mabel,M,8
3239,Maceo,M,8
3240,Manley,M,8
3241,Marian,M,8
3242,Mariano,M,8
3243,Merlin,M,8
3244,Minor,M,8
3245,Nels,M,8
3246,Norton,M,8
3247,Norwood,M,8
3248,Olaf,M,8
3249,Olie,M,8
3250,Oneal,M,8
3251,Orange,M,8
3252,Ottis,M,8
3253,Owens,M,8
3254,Park,M,8
3255,Raphael,M,8
3256,Rayfield,M,8
3257,Reid,M,8
3258,Rich,M,8
3259,Rogers,M,8
3260,Romeo,M,8
3261,Selmer,M,8
3262,Shafter,M,8
3263,Shelly,M,8
3264,Sinclair,M,8
3265,Solon,M,8
3266,Stonewall,M,8
3267,Terrell,M,8
3268,Theron,M,8
3269,Volney,M,8
3270,Woodrow,M,8
3271,Yancy,M,8
3272,Young,M,8
3273,Zeb,M,8
3274,Adelbert,M,7
3275,Ananias,M,7
3276,Arlington,M,7
3277,Arron,M,7
3278,Author,M,7
3279,Authur,M,7
3280,Bayard,M,7
3281,Belford,M,7
3282,Benjaman,M,7
3283,Bertrand,M,7
3284,Beulah,M,7
3285,Bobby,M,7
3286,Caesar,M,7
3287,Casimir,M,7
3288,Cephus,M,7
3289,Christy,M,7
3290,Claire,M,7
3291,Clemon,M,7
3292,Cordie,M,7
3293,Danny,M,7
3294,Darrel,M,7
3295,Dayton,M,7
3296,Denny,M,7
3297,Denzil,M,7
3298,Dessie,M,7
3299,Donnie,M,7
3300,Eligha,M,7
3301,Elihu,M,7
3302,Ellery,M,7
3303,Ely,M,7
3304,Emit,M,7
3305,Esau,M,7
3306,Ester,M,7
3307,Evelyn,M,7
3308,Ewald,M,7
3309,Ezell,M,7
3310,Frazier,M,7
3311,Fredie,M,7
3312,Gaines,M,7
3313,Galen,M,7
3314,Garnet,M,7
3315,Gayle,M,7
3316,Georgia,M,7
3317,Griffin,M,7
3318,Gussie,M,7
3319,Harper,M,7
3320,Hattie,M,7
3321,Hayward,M,7
3322,Hebert,M,7
3323,Heyward,M,7
3324,Hilbert,M,7
3325,Hilton,M,7
3326,Hoke,M,7
3327,Hosey,M,7
3328,Humbert,M,7
3329,Ignacio,M,7
3330,Isreal,M,7
3331,Jethro,M,7
3332,Jhon,M,7
3333,Johny,M,7
3334,Josiah,M,7
3335,Kay,M,7
3336,Ken,M,7
3337,Kyle,M,7
3338,Landon,M,7
3339,Laura,M,7
3340,Lawton,M,7
3341,Lawyer,M,7
3342,Lazarus,M,7
3343,Lew,M,7
3344,Librado,M,7
3345,Lim,M,7
3346,Linnie,M,7
3347,Lorin,M,7
3348,Love,M,7
3349,Lovell,M,7
3350,Lowry,M,7
3351,Loyal,M,7
3352,Luciano,M,7
3353,Mace,M,7
3354,Manny,M,7
3355,Mathis,M,7
3356,Maxie,M,7
3357,Merritt,M,7
3358,Nickolas,M,7
3359,Octave,M,7
3360,Olive,M,7
3361,Orion,M,7
3362,Ozzie,M,7
3363,Pascal,M,7
3364,Pearlie,M,7
3365,Percival,M,7
3366,Phill,M,7
3367,Prentice,M,7
3368,Robinson,M,7
3369,Roe,M,7
3370,Roma,M,7
3371,Ruel,M,7
3372,Sammy,M,7
3373,Shelton,M,7
3374,Thos,M,7
3375,Todd,M,7
3376,Tomie,M,7
3377,Trinidad,M,7
3378,Val,M,7
3379,Virgle,M,7
3380,Waymon,M,7
3381,Whitney,M,7
3382,Willam,M,7
3383,Woody,M,7
3384,Wright,M,7
3385,Zenas,M,7
3386,Acy,M,6
3387,Adelard,M,6
3388,Alberta,M,6
3389,Alcide,M,6
3390,Alejandro,M,6
3391,Algie,M,6
3392,Alonza,M,6
3393,Alpha,M,6
3394,Angel,M,6
3395,Anson,M,6
3396,Antony,M,6
3397,Arvin,M,6
3398,Asberry,M,6
3399,Ashton,M,6
3400,Audie,M,6
3401,Augusta,M,6
3402,Azel,M,6
3403,Babe,M,6
3404,Bobbie,M,6
3405,Bonifacio,M,6
3406,Boss,M,6
3407,Burke,M,6
3408,Burr,M,6
3409,Carlo,M,6
3410,Carlyle,M,6
3411,Carol,M,6
3412,Carrie,M,6
3413,Cephas,M,6
3414,Charls,M,6
3415,Chin,M,6
3416,Clearence,M,6
3417,Clovis,M,6
3418,Cole,M,6
3419,Coley,M,6
3420,Comer,M,6
3421,Cooper,M,6
3422,Corbett,M,6
3423,Corwin,M,6
3424,Dempsey,M,6
3425,Dollie,M,6
3426,Dolphus,M,6
3427,Douglass,M,6
3428,Duane,M,6
3429,Ebbie,M,6
3430,Eben,M,6
3431,Edson,M,6
3432,Elroy,M,6
3433,Elsworth,M,6
3434,Emitt,M,6
3435,Erving,M,6
3436,Esker,M,6
3437,Esther,M,6
3438,Estill,M,6
3439,Eugenio,M,6
3440,Evertt,M,6
3441,Federico,M,6
3442,Ferdie,M,6
3443,Finis,M,6
3444,Fong,M,6
3445,Fulton,M,6
3446,Gardner,M,6
3447,Genie,M,6
3448,Governor,M,6
3449,Guillermo,M,6
3450,Hanson,M,6
3451,Hardie,M,6
3452,Hartley,M,6
3453,Harve,M,6
3454,Harvy,M,6
3455,Haskell,M,6
3456,Hazen,M,6
3457,Horatio,M,6
3458,Hurbert,M,6
3459,Hurley,M,6
3460,Iley,M,6
3461,Jamie,M,6
3462,Jeffie,M,6
3463,Jones,M,6
3464,Josef,M,6
3465,Josephine,M,6
3466,Julia,M,6
3467,Kermit,M,6
3468,Lacey,M,6
3469,Lavern,M,6
3470,Leamon,M,6
3471,Leighton,M,6
3472,Lem,M,6
3473,Lemar,M,6
3474,Lennie,M,6
3475,Letcher,M,6
3476,Lilburn,M,6
3477,Linus,M,6
3478,Loney,M,6
3479,Lonza,M,6
3480,Lorn,M,6
3481,Lue,M,6
3482,Lynwood,M,6
3483,Mahlon,M,6
3484,Mallie,M,6
3485,Manford,M,6
3486,Mat,M,6
3487,Mattie,M,6
3488,Meredith,M,6
3489,Merton,M,6
3490,Mills,M,6
3491,Mortimer,M,6
3492,Murl,M,6
3493,Murrell,M,6
3494,Nevin,M,6
3495,Oakley,M,6
3496,Oda,M,6
3497,Onie,M,6
3498,Onnie,M,6
3499,Orla,M,6
3500,Osborne,M,6
3501,Perley,M,6
3502,Raoul,M,6
3503,Rayford,M,6
3504,Reece,M,6
3505,Reinhold,M,6
3506,Rosario,M,6
3507,Samson,M,6
3508,Silvester,M,6
3509,Simmie,M,6
3510,Sims,M,6
3511,Stacy,M,6
3512,Stella,M,6
3513,Sumner,M,6
3514,Susie,M,6
3515,Sylvanus,M,6
3516,Toy,M,6
3517,Tully,M,6
3518,Vicente,M,6
3519,Vito,M,6
3520,Wardell,M,6
3521,Waymond,M,6
3522,Wells,M,6
3523,Welton,M,6
3524,Werner,M,6
3525,Wess,M,6
3526,Weston,M,6
3527,Willian,M,6
3528,Williard,M,6
3529,Winford,M,6
3530,Winslow,M,6
3531,Woodson,M,6
3532,Yee,M,6
3533,Zachary,M,6
3534,Abron,M,5
3535,Agustus,M,5
3536,Albertus,M,5
3537,Albino,M,5
3538,Alfons,M,5
3539,Algot,M,5
3540,Aloys,M,5
3541,Alphonsus,M,5
3542,Alto,M,5
3543,Andres,M,5
3544,Anne,M,5
3545,Ansel,M,5
3546,Arnett,M,5
3547,Asbury,M,5
3548,Ashley,M,5
3549,Augustin,M,5
3550,Baker,M,5
3551,Ballard,M,5
3552,Barnett,M,5
3553,Bartholomew,M,5
3554,Belton,M,5
3555,Benjamine,M,5
3556,Bernhard,M,5
3557,Bethel,M,5
3558,Blaine,M,5
3559,Blake,M,5
3560,Bluford,M,5
3561,Boy,M,5
3562,Braxton,M,5
3563,Broadus,M,5
3564,Bruster,M,5
3565,Brutus,M,5
3566,Bub,M,5
3567,Bubber,M,5
3568,Burney,M,5
3569,Cap,M,5
3570,Carlie,M,5
3571,Cass,M,5
3572,Catherine,M,5
3573,Champ,M,5
3574,Chandler,M,5
3575,Claudia,M,5
3576,Cleave,M,5
3577,Clemens,M,5
3578,Cline,M,5
3579,Clive,M,5
3580,Curry,M,5
3581,Darwin,M,5
3582,Dawson,M,5
3583,Dolph,M,5
3584,Donato,M,5
3585,Dora,M,5
3586,Doris,M,5
3587,Ebb,M,5
3588,Edger,M,5
3589,Edison,M,5
3590,Edmon,M,5
3591,Einar,M,5
3592,Elbridge,M,5
3593,Elex,M,5
3594,Elgin,M,5
3595,Elizah,M,5
3596,Ellwood,M,5
3597,Elva,M,5
3598,Elver,M,5
3599,Elvie,M,5
3600,Elzear,M,5
3601,Emmanuel,M,5
3602,Erastus,M,5
3603,Erskine,M,5
3604,Eustace,M,5
3605,Evie,M,5
3606,Ewing,M,5
3607,Fannie,M,5
3608,Fenton,M,5
3609,Ferd,M,5
3610,Fernand,M,5
3611,Festus,M,5
3612,Florencio,M,5
3613,Fordyce,M,5
3614,Gaither,M,5
3615,Garret,M,5
3616,Geoffrey,M,5
3617,Gifford,M,5
3618,Gillis,M,5
3619,Girard,M,5
3620,Glover,M,5
3621,Gobel,M,5
3622,Goble,M,5
3623,Goldie,M,5
3624,Halsey,M,5
3625,Henri,M,5
3626,Herald,M,5
3627,Herschell,M,5
3628,Hilario,M,5
3629,Hilmer,M,5
3630,Humphrey,M,5
3631,Isidor,M,5
3632,Ivo,M,5
3633,Joeseph,M,5
3634,Joyce,M,5
3635,Kennie,M,5
3636,Kent,M,5
3637,Kinnie,M,5
3638,Kirk,M,5
3639,Larue,M,5
3640,Lenord,M,5
3641,Leory,M,5
3642,Les,M,5
3643,Lewie,M,5
3644,Lillard,M,5
3645,Linzy,M,5
3646,London,M,5
3647,Lucy,M,5
3648,Lugene,M,5
3649,Luigi,M,5
3650,Maggie,M,5
3651,Malachi,M,5
3652,Man,M,5
3653,Manning,M,5
3654,Marcelino,M,5
3655,March,M,5
3656,Mario,M,5
3657,Maude,M,5
3658,May,M,5
3659,Mont,M,5
3660,Montie,M,5
3661,Monty,M,5
3662,Myrl,M,5
3663,Neely,M,5
3664,Nell,M,5
3665,Newman,M,5
3666,Nicolas,M,5
3667,Niles,M,5
3668,Nolen,M,5
3669,Okey,M,5
3670,Ola,M,5
3671,Orris,M,5
3672,Orvis,M,5
3673,Ott,M,5
3674,Ottie,M,5
3675,Overton,M,5
3676,Page,M,5
3677,Payne,M,5
3678,Pet,M,5
3679,Ples,M,5
3680,Prentiss,M,5
3681,Presley,M,5
3682,Purvis,M,5
3683,Quentin,M,5
3684,Rachel,M,5
3685,Radford,M,5
3686,Randle,M,5
3687,Refugio,M,5
3688,Regis,M,5
3689,Rexford,M,5
3690,Reyes,M,5
3691,Robt,M,5
3692,Roby,M,5
3693,Rodger,M,5
3694,Rome,M,5
3695,Rosa,M,5
3696,Rosendo,M,5
3697,Royden,M,5
3698,Sallie,M,5
3699,Samual,M,5
3700,Sarah,M,5
3701,Sid,M,5
3702,Sie,M,5
3703,Sigmund,M,5
3704,Smiley,M,5
3705,Stanislaus,M,5
3706,Steward,M,5
3707,Sunny,M,5
3708,Teddie,M,5
3709,Terrence,M,5
3710,Theresa,M,5
3711,Tip,M,5
3712,Tobias,M,5
3713,Toby,M,5
3714,Tolbert,M,5
3715,Tollie,M,5
3716,Vergil,M,5
3717,Vernard,M,5
3718,Versie,M,5
3719,Vincenzo,M,5
3720,Viola,M,5
3721,Virgie,M,5
3722,Vollie,M,5
3723,Weaver,M,5
3724,Wert,M,5
3725,Whit,M,5
3726,White,M,5
3727,Wilhelm,M,5
3728,Winifred,M,5
3729,Woodie,M,5
3730,Zeno,M,5
