,Year,Category,Nominee,Movie,Winner
5244,1968 (41st),Directing,Oliver!,Carol Reed,YES
5363,1967 (40th),Directing,The Graduate,Mike Nichols,YES
5492,1966 (39th),Directing,A Man for All Seasons,Fred Zinnemann,YES
5622,1965 (38th),Directing,The Sound of Music,Robert Wise,YES
5749,1964 (37th),Directing,My Fair Lady,George Cukor,YES
5882,1963 (36th),Directing,Tom Jones,Tony Richardson,YES
6005,1962 (35th),Directing,Lawrence of Arabia,David Lean,YES
6131,1961 (34th),Directing,West Side Story,"Robert Wise, Jerome Robbins",YES
6257,1960 (33rd),Directing,The Apartment,Billy Wilder,YES
6383,1959 (32nd),Directing,Ben-Hur,William Wyler,YES
6501,1958 (31st),Directing,Gigi,Vincente Minnelli,YES
6609,1957 (30th),Directing,The Bridge on the River Kwai,David Lean,YES
6732,1956 (29th),Directing,Giant,George Stevens,YES
6866,1955 (28th),Directing,Marty,Delbert Mann,YES
7000,1954 (27th),Directing,On the Waterfront,Elia Kazan,YES
7137,1953 (26th),Directing,From Here to Eternity,Fred Zinnemann,YES
7276,1952 (25th),Directing,The Quiet Man,John Ford,YES
7413,1951 (24th),Directing,A Place in the Sun,George Stevens,YES
7529,1950 (23rd),Directing,All about Eve,Joseph L. Mankiewicz,YES
7648,1949 (22nd),Directing,A Letter to Three Wives,Joseph L. Mankiewicz,YES
7767,1948 (21st),Directing,The Treasure of the Sierra Madre,John Huston,YES
7874,1947 (20th),Directing,Gentleman's Agreement,Elia Kazan,YES
7986,1946 (19th),Directing,The Best Years of Our Lives,William Wyler,YES
8111,1945 (18th),Directing,The Lost Weekend,Billy Wilder,YES
8286,1944 (17th),Directing,Going My Way,Leo McCarey,YES
8460,1943 (16th),Directing,Casablanca,Michael Curtiz,YES
8653,1942 (15th),Directing,Mrs. Miniver,William Wyler,YES
8844,1941 (14th),Directing,How Green Was My Valley,John Ford,YES
9036,1940 (13th),Directing,The Grapes of Wrath,John Ford,YES
9195,1939 (12th),Directing,Gone with the Wind,Victor Fleming,YES
9347,1938 (11th),Directing,You Can't Take It with You,Frank Capra,YES
9479,1937 (10th),Directing,The Awful Truth,Leo McCarey,YES
9611,1936 (9th),Directing,Mr. Deeds Goes to Town,Frank Capra,YES
9712,1935 (8th),Directing,The Informer,John Ford,YES
9802,1934 (7th),Directing,It Happened One Night,Frank Capra,YES
9868,1932/33 (6th),Directing,Cavalcade,Frank Lloyd,YES
9933,1931/32 (5th),Directing,Bad Girl,Frank Borzage,YES
9992,1930/31 (4th),Directing,Skippy,Norman Taurog,YES
10043,1929/30 (3rd),Directing,Lewis Milestone,All Quiet on the Western Front,YES
10084,1928/29 (2nd),Directing,Frank Lloyd,The Divine Lady,YES
10111,1927/28 (1st),Directing,Lewis Milestone,Two Arabian Knights,YES
10113,1927/28 (1st),Directing,Frank Borzage,7th Heaven,YES
10116,1927/28 (1st),Directing,"To Charles Chaplin, for acting, writing, directing and producing The Circus.[NOTE: The Academy Board of Judges on merit awards for individual achievements in motion picture arts during the year ending August 1, 1928, unanimously decided that your name should be removed from the competitive classes, and that a special first award be conferred upon you for writing, acting, directing and producing The Circus. The collective accomplishments thus displayed place you in a class by yourself. (Letter from the Academy to Mr. Chaplin, dated February 19, 1929.)]",,YES
