,Date,Water Use,Power Use
0,Apr_2006,4351.099999999999,25274
1,Apr_2007,6148.879999999999,34389
2,Apr_2008,4618.79,31594
3,Apr_2009,3742.9099999999994,32715
4,Apr_2010,4811.050000000001,26682
5,Apr_2011,3771.7200000000003,30445
6,Apr_2012,2666.36,25277
7,Apr_2013,749.73,22071
8,Aug_2005,7045.650000000003,43065
9,Aug_2006,6740.959999999999,42392
10,Aug_2007,5514.359999999999,43665
11,Aug_2008,5873.54,37212
12,Aug_2009,3590.379999999999,40631
13,Aug_2010,3906.840000000001,33184
14,Aug_2011,2684.3200000000006,36429
15,Aug_2012,1148.5600000000002,35932
16,Dec_2005,4335.499999999999,34879
17,Dec_2006,4007.299999999999,30821
18,Dec_2007,3770.3899999999994,33868
19,Dec_2008,3412.3099999999995,31053
20,Dec_2009,3059.28,36262
21,Dec_2010,3087.9599999999996,34252
22,Dec_2011,2858.95,29523
23,Dec_2013,714.5100000000001,33254
24,Feb_2006,3737.62,35571
25,Feb_2007,3510.1099999999997,26085
26,Feb_2008,2847.149999999999,30837
27,Feb_2009,3103.03,27880
28,Feb_2010,2811.999999999999,30864
29,Feb_2011,2357.3399999999997,29745
30,Feb_2012,3112.1199999999994,31340
31,Feb_2013,720.7999999999998,29284
32,Jan_2006,3964.4199999999996,30640
33,Jan_2007,3285.0499999999997,38043
34,Jan_2008,3885.8099999999995,37461
35,Jan_2009,4014.15,37345
36,Jan_2010,2346.2099999999996,30032
37,Jan_2011,3225.5900000000006,30530
38,Jan_2012,1886.3799999999999,28437
39,Jan_2013,684.24,32230
40,Jul_2005,5832.719999999999,36875
41,Jul_2006,6420.1500000000015,45586
42,Jul_2007,4169.700000000001,42916
43,Jul_2008,4275.879999999998,41239
44,Jul_2009,6673.799999999999,33333
45,Jul_2010,3921.33,42206
46,Jul_2011,3583.0599999999986,34723
47,Jul_2012,1102.6599999999999,36590
48,Jun_2006,3238.2699999999995,35759
49,Jun_2007,6278.3,33980
50,Jun_2008,4234.219999999999,35830
51,Jun_2009,4963.239999999999,32332
52,Jun_2010,3656.8200000000006,29835
53,Jun_2011,4554.01,29702
54,Jun_2012,3598.8600000000006,36406
55,Jun_2013,1067.0299999999995,29305
56,Mar_2006,3564.8600000000006,34013
57,Mar_2007,4157.450000000001,33991
58,Mar_2008,6871.2599999999975,30829
59,Mar_2009,4914.33,30796
60,Mar_2010,3114.0000000000005,33722
61,Mar_2011,2896.7200000000003,35976
62,Mar_2012,2823.9499999999994,30449
63,Mar_2013,755.5099999999996,26314
64,May_2006,5152.449999999998,35114
65,May_2007,6954.72,38081
66,May_2008,7822.59,37170
67,May_2009,4630.62,29492
68,May_2010,3063.8700000000003,33749
69,May_2011,4511.849999999999,30276
70,May_2012,3449.1800000000003,32340
71,May_2013,1263.0799999999997,34251
72,Nov_2005,2810.4300000000003,30314
73,Nov_2006,4992.759999999998,33068
74,Nov_2007,2924.5699999999993,32746
75,Nov_2008,5394.16,31214
76,Nov_2009,6499.58,32486
77,Nov_2010,3112.49,31632
78,Nov_2011,2941.059999999999,24693
79,Nov_2012,965.8100000000005,35598
80,Oct_2005,4596.68,35892
81,Oct_2006,6127.4299999999985,36708
82,Oct_2007,3861.6600000000008,29210
83,Oct_2008,3666.219999999999,38301
84,Oct_2009,3910.45,37472
85,Oct_2010,3926.5700000000006,35357
86,Oct_2011,2401.109999999999,26651
87,Oct_2012,1015.6199999999999,36607
88,Sep_2005,6097.870000000001,41589
89,Sep_2006,6948.670000000002,31943
90,Sep_2007,3836.11,36095
91,Sep_2008,4036.2899999999995,35680
92,Sep_2009,5850.610000000001,41946
93,Sep_2010,4804.360000000002,38230
94,Sep_2011,4602.7699999999995,34557
95,Sep_2012,856.5099999999999,29750
