,ULCS_NO,SCHOOL_YEAR,INCIDENT_TYPE,INCIDENT_COUNT,SCHOOL_ID
2057,5440,2015-2016,GRAFFITI,0,544
2058,5440,2015-2016,ASSAULTS,4,544
2059,5440,2015-2016,SUICIDE - ATTEMPTS & THREATS,0,544
2060,5440,2015-2016,DRUG & ALCOHOL OFFENSES,0,544
2061,5440,2015-2016,HARASSMENT,0,544
2062,5440,2015-2016,VANDALISM,5,544
2063,5440,2015-2016,THREATS,2,544
2064,5440,2015-2016,ROBBERY,0,544
2065,5440,2015-2016,WEAPONS,0,544
2066,5440,2015-2016,BULLYING,0,544
2067,5440,2015-2016,FIRE - INCENDIARY,0,544
2068,5440,2015-2016,BURGLARY,0,544
2069,5440,2015-2016,DISORDERLY CONDUCT,7,544
2070,5440,2015-2016,MORALS OFFENSES,0,544
2071,5440,2015-2016,BOMB SCARES,0,544
2072,5440,2015-2016,THEFTS,1,544
2073,5440,2015-2016,TRESPASSING,0,544
2074,5470,2015-2016,VANDALISM,0,547
2075,5470,2015-2016,THREATS,1,547
2076,5470,2015-2016,MORALS OFFENSES,0,547
2077,5470,2015-2016,BURGLARY,0,547
2078,5470,2015-2016,DRUG & ALCOHOL OFFENSES,0,547
2079,5470,2015-2016,HARASSMENT,0,547
2080,5470,2015-2016,WEAPONS,3,547
2081,5470,2015-2016,SUICIDE - ATTEMPTS & THREATS,0,547
2082,5470,2015-2016,BULLYING,0,547
2083,5470,2015-2016,ROBBERY,0,547
2084,5470,2015-2016,DISORDERLY CONDUCT,6,547
2085,5470,2015-2016,ASSAULTS,1,547
2086,5470,2015-2016,BOMB SCARES,0,547
2087,5470,2015-2016,THEFTS,0,547
2088,5470,2015-2016,TRESPASSING,0,547
2089,5470,2015-2016,GRAFFITI,0,547
2090,5470,2015-2016,FIRE - INCENDIARY,0,547
2091,5480,2015-2016,WEAPONS,0,548
2092,5480,2015-2016,TRESPASSING,0,548
2093,5480,2015-2016,BULLYING,0,548
2094,5480,2015-2016,MORALS OFFENSES,2,548
2095,5480,2015-2016,ROBBERY,0,548
2096,5480,2015-2016,FIRE - INCENDIARY,0,548
2097,5480,2015-2016,HARASSMENT,0,548
2098,5480,2015-2016,SUICIDE - ATTEMPTS & THREATS,0,548
2099,5480,2015-2016,VANDALISM,0,548
2100,5480,2015-2016,GRAFFITI,0,548
2101,5480,2015-2016,ASSAULTS,1,548
2102,5480,2015-2016,DISORDERLY CONDUCT,2,548
2103,5480,2015-2016,THREATS,2,548
2104,5480,2015-2016,BOMB SCARES,0,548
2105,5480,2015-2016,THEFTS,0,548
2106,5480,2015-2016,DRUG & ALCOHOL OFFENSES,0,548
2107,5480,2015-2016,BURGLARY,0,548
2108,5490,2015-2016,FIRE - INCENDIARY,0,549
2109,5490,2015-2016,VANDALISM,0,549
2110,5490,2015-2016,ROBBERY,0,549
2111,5490,2015-2016,HARASSMENT,0,549
2112,5490,2015-2016,GRAFFITI,0,549
2113,5490,2015-2016,MORALS OFFENSES,0,549
2114,5490,2015-2016,THREATS,0,549
2115,5490,2015-2016,TRESPASSING,0,549
2116,5490,2015-2016,SUICIDE - ATTEMPTS & THREATS,0,549
2117,5490,2015-2016,BULLYING,0,549
2118,5490,2015-2016,DISORDERLY CONDUCT,5,549
2119,5490,2015-2016,ASSAULTS,3,549
2120,5490,2015-2016,WEAPONS,1,549
2121,5490,2015-2016,DRUG & ALCOHOL OFFENSES,1,549
2122,5490,2015-2016,THEFTS,1,549
2123,5490,2015-2016,BOMB SCARES,0,549
2124,5490,2015-2016,BURGLARY,0,549
2125,5500,2015-2016,BULLYING,0,550
2126,5500,2015-2016,ROBBERY,0,550
2127,5500,2015-2016,HARASSMENT,0,550
2128,5500,2015-2016,DISORDERLY CONDUCT,2,550
2129,5500,2015-2016,WEAPONS,5,550
2130,5500,2015-2016,MORALS OFFENSES,1,550
2131,5500,2015-2016,ASSAULTS,2,550
2132,5500,2015-2016,BOMB SCARES,0,550
2133,5500,2015-2016,SUICIDE - ATTEMPTS & THREATS,0,550
2134,5500,2015-2016,VANDALISM,1,550
2135,5500,2015-2016,GRAFFITI,0,550
2136,5500,2015-2016,FIRE - INCENDIARY,0,550
2137,5500,2015-2016,BURGLARY,0,550
2138,5500,2015-2016,TRESPASSING,0,550
2139,5500,2015-2016,THEFTS,2,550
2140,5500,2015-2016,DRUG & ALCOHOL OFFENSES,0,550
2141,5500,2015-2016,THREATS,1,550
2142,5510,2015-2016,ROBBERY,0,551
2143,5510,2015-2016,MORALS OFFENSES,0,551
2144,5510,2015-2016,SUICIDE - ATTEMPTS & THREATS,0,551
2145,5510,2015-2016,FIRE - INCENDIARY,0,551
2146,5510,2015-2016,BOMB SCARES,0,551
2147,5510,2015-2016,BULLYING,0,551
2148,5510,2015-2016,THREATS,0,551
2149,5510,2015-2016,WEAPONS,0,551
2150,5510,2015-2016,GRAFFITI,0,551
2151,5510,2015-2016,HARASSMENT,0,551
2152,5510,2015-2016,THEFTS,0,551
2153,5510,2015-2016,ASSAULTS,0,551
2154,5510,2015-2016,DISORDERLY CONDUCT,0,551
2155,5510,2015-2016,TRESPASSING,0,551
2156,5510,2015-2016,VANDALISM,0,551
2157,5510,2015-2016,DRUG & ALCOHOL OFFENSES,0,551
2158,5510,2015-2016,BURGLARY,0,551
2159,5520,2015-2016,FIRE - INCENDIARY,0,552
2160,5520,2015-2016,BOMB SCARES,0,552
2161,5520,2015-2016,HARASSMENT,0,552
2162,5520,2015-2016,ROBBERY,0,552
2163,5520,2015-2016,BULLYING,0,552
2164,5520,2015-2016,SUICIDE - ATTEMPTS & THREATS,0,552
2165,5520,2015-2016,DRUG & ALCOHOL OFFENSES,0,552
2166,5520,2015-2016,BURGLARY,0,552
2167,5520,2015-2016,ASSAULTS,10,552
2168,5520,2015-2016,GRAFFITI,0,552
2169,5520,2015-2016,MORALS OFFENSES,0,552
2170,5520,2015-2016,THEFTS,1,552
2171,5520,2015-2016,TRESPASSING,0,552
2172,5520,2015-2016,THREATS,4,552
2173,5520,2015-2016,VANDALISM,1,552
2174,5520,2015-2016,WEAPONS,5,552
2175,5520,2015-2016,DISORDERLY CONDUCT,21,552
2176,5530,2015-2016,MORALS OFFENSES,1,553
2177,5530,2015-2016,HARASSMENT,0,553
2178,5530,2015-2016,FIRE - INCENDIARY,0,553
2179,5530,2015-2016,ASSAULTS,0,553
2180,5530,2015-2016,WEAPONS,0,553
2181,5530,2015-2016,ROBBERY,0,553
2182,5530,2015-2016,BULLYING,0,553
2183,5530,2015-2016,VANDALISM,5,553
2184,5530,2015-2016,THEFTS,3,553
2185,5530,2015-2016,BURGLARY,0,553
2186,5530,2015-2016,DRUG & ALCOHOL OFFENSES,0,553
2187,5530,2015-2016,GRAFFITI,0,553
2188,5530,2015-2016,SUICIDE - ATTEMPTS & THREATS,1,553
2189,5530,2015-2016,THREATS,3,553
2190,5530,2015-2016,DISORDERLY CONDUCT,13,553
2191,5530,2015-2016,BOMB SCARES,0,553
2192,5530,2015-2016,TRESPASSING,0,553
2193,5550,2015-2016,TRESPASSING,0,555
2194,5550,2015-2016,GRAFFITI,0,555
2195,5550,2015-2016,VANDALISM,1,555
2196,5550,2015-2016,BOMB SCARES,0,555
2197,5550,2015-2016,BURGLARY,0,555
2198,5550,2015-2016,FIRE - INCENDIARY,0,555
2199,5550,2015-2016,THREATS,4,555
2200,5550,2015-2016,WEAPONS,0,555
2201,5550,2015-2016,DRUG & ALCOHOL OFFENSES,0,555
2202,5550,2015-2016,DISORDERLY CONDUCT,4,555
2203,5550,2015-2016,MORALS OFFENSES,0,555
2204,5550,2015-2016,SUICIDE - ATTEMPTS & THREATS,0,555
2205,5550,2015-2016,HARASSMENT,0,555
2206,5550,2015-2016,THEFTS,3,555
2207,5550,2015-2016,ROBBERY,0,555
2208,5550,2015-2016,BULLYING,0,555
2209,5550,2015-2016,ASSAULTS,2,555
2210,5560,2015-2016,VANDALISM,3,556
2211,5560,2015-2016,BOMB SCARES,0,556
2212,5560,2015-2016,GRAFFITI,0,556
2213,5560,2015-2016,DISORDERLY CONDUCT,1,556
2214,5560,2015-2016,SUICIDE - ATTEMPTS & THREATS,0,556
2215,5560,2015-2016,ROBBERY,0,556
2216,5560,2015-2016,HARASSMENT,0,556
2217,5560,2015-2016,BULLYING,0,556
2218,5560,2015-2016,FIRE - INCENDIARY,0,556
2219,5560,2015-2016,THREATS,0,556
2220,5560,2015-2016,BURGLARY,0,556
2221,5560,2015-2016,TRESPASSING,0,556
2222,5560,2015-2016,DRUG & ALCOHOL OFFENSES,0,556
2223,5560,2015-2016,WEAPONS,0,556
2224,5560,2015-2016,THEFTS,0,556
2225,5560,2015-2016,MORALS OFFENSES,0,556
2226,5560,2015-2016,ASSAULTS,3,556
2227,5590,2015-2016,MORALS OFFENSES,2,559
2228,5590,2015-2016,THREATS,2,559
2229,5590,2015-2016,ROBBERY,0,559
2230,5590,2015-2016,ASSAULTS,3,559
2231,5590,2015-2016,SUICIDE - ATTEMPTS & THREATS,0,559
2232,5590,2015-2016,WEAPONS,2,559
2233,5590,2015-2016,TRESPASSING,0,559
2234,5590,2015-2016,BURGLARY,0,559
2235,5590,2015-2016,FIRE - INCENDIARY,0,559
2236,5590,2015-2016,HARASSMENT,0,559
2237,5590,2015-2016,BULLYING,0,559
2238,5590,2015-2016,DRUG & ALCOHOL OFFENSES,0,559
2239,5590,2015-2016,GRAFFITI,0,559
2240,5590,2015-2016,DISORDERLY CONDUCT,15,559
2241,5590,2015-2016,THEFTS,1,559
2242,5590,2015-2016,BOMB SCARES,0,559
2243,5590,2015-2016,VANDALISM,2,559
2244,5600,2015-2016,GRAFFITI,0,560
2245,5600,2015-2016,ASSAULTS,0,560
2246,5600,2015-2016,DRUG & ALCOHOL OFFENSES,0,560
2247,5600,2015-2016,BOMB SCARES,0,560
2248,5600,2015-2016,WEAPONS,0,560
2249,5600,2015-2016,HARASSMENT,0,560
2250,5600,2015-2016,MORALS OFFENSES,0,560
2251,5600,2015-2016,THEFTS,0,560
2252,5600,2015-2016,FIRE - INCENDIARY,0,560
2253,5600,2015-2016,SUICIDE - ATTEMPTS & THREATS,0,560
2254,5600,2015-2016,TRESPASSING,0,560
2255,5600,2015-2016,ROBBERY,0,560
2256,5600,2015-2016,VANDALISM,0,560
2257,5600,2015-2016,BULLYING,0,560
2258,5600,2015-2016,BURGLARY,0,560
2259,5600,2015-2016,THREATS,0,560
2260,5600,2015-2016,DISORDERLY CONDUCT,0,560
2261,5610,2015-2016,ASSAULTS,11,561
2262,5610,2015-2016,VANDALISM,1,561
2263,5610,2015-2016,MORALS OFFENSES,0,561
2264,5610,2015-2016,SUICIDE - ATTEMPTS & THREATS,0,561
2265,5610,2015-2016,DISORDERLY CONDUCT,12,561
2266,5610,2015-2016,BOMB SCARES,0,561
2267,5610,2015-2016,THREATS,1,561
2268,5610,2015-2016,TRESPASSING,0,561
2269,5610,2015-2016,ROBBERY,0,561
2270,5610,2015-2016,FIRE - INCENDIARY,0,561
2271,5610,2015-2016,THEFTS,3,561
2272,5610,2015-2016,HARASSMENT,1,561
2273,5610,2015-2016,BURGLARY,0,561
2274,5610,2015-2016,DRUG & ALCOHOL OFFENSES,2,561
2275,5610,2015-2016,GRAFFITI,0,561
2276,5610,2015-2016,WEAPONS,1,561
2277,5610,2015-2016,BULLYING,0,561
2278,5620,2015-2016,VANDALISM,0,562
2279,5620,2015-2016,SUICIDE - ATTEMPTS & THREATS,2,562
2280,5620,2015-2016,ASSAULTS,2,562
2281,5620,2015-2016,MORALS OFFENSES,0,562
2282,5620,2015-2016,THEFTS,0,562
2283,5620,2015-2016,GRAFFITI,0,562
2284,5620,2015-2016,BOMB SCARES,0,562
2285,5620,2015-2016,BURGLARY,0,562
2286,5620,2015-2016,DISORDERLY CONDUCT,0,562
2287,5620,2015-2016,BULLYING,0,562
2288,5620,2015-2016,WEAPONS,0,562
2289,5620,2015-2016,DRUG & ALCOHOL OFFENSES,3,562
2290,5620,2015-2016,HARASSMENT,0,562
2291,5620,2015-2016,TRESPASSING,0,562
2292,5620,2015-2016,THREATS,0,562
2293,5620,2015-2016,FIRE - INCENDIARY,0,562
2294,5620,2015-2016,ROBBERY,0,562
2295,5660,2015-2016,BURGLARY,0,566
2296,5660,2015-2016,TRESPASSING,0,566
2297,5660,2015-2016,VANDALISM,1,566
2298,5660,2015-2016,FIRE - INCENDIARY,0,566
2299,5660,2015-2016,THREATS,6,566
2300,5660,2015-2016,DISORDERLY CONDUCT,8,566
2301,5660,2015-2016,SUICIDE - ATTEMPTS & THREATS,0,566
2302,5660,2015-2016,ASSAULTS,10,566
2303,5660,2015-2016,THEFTS,0,566
2304,5660,2015-2016,BULLYING,0,566
2305,5660,2015-2016,BOMB SCARES,0,566
2306,5660,2015-2016,MORALS OFFENSES,0,566
2307,5660,2015-2016,HARASSMENT,0,566
2308,5660,2015-2016,WEAPONS,3,566
2309,5660,2015-2016,GRAFFITI,0,566
2310,5660,2015-2016,ROBBERY,0,566
2311,5660,2015-2016,DRUG & ALCOHOL OFFENSES,1,566
2312,5680,2015-2016,ROBBERY,0,568
2313,5680,2015-2016,BULLYING,1,568
2314,5680,2015-2016,ASSAULTS,10,568
2315,5680,2015-2016,THEFTS,0,568
2316,5680,2015-2016,VANDALISM,1,568
2317,5680,2015-2016,SUICIDE - ATTEMPTS & THREATS,0,568
2318,5680,2015-2016,HARASSMENT,0,568
2319,5680,2015-2016,MORALS OFFENSES,0,568
2320,5680,2015-2016,BOMB SCARES,0,568
2321,5680,2015-2016,THREATS,2,568
2322,5680,2015-2016,TRESPASSING,0,568
2323,5680,2015-2016,DISORDERLY CONDUCT,5,568
2324,5680,2015-2016,BURGLARY,0,568
2325,5680,2015-2016,WEAPONS,2,568
2326,5680,2015-2016,FIRE - INCENDIARY,0,568
2327,5680,2015-2016,DRUG & ALCOHOL OFFENSES,0,568
2328,5680,2015-2016,GRAFFITI,1,568
2329,6010,2015-2016,TRESPASSING,1,601
2330,6010,2015-2016,THREATS,2,601
2331,6010,2015-2016,BURGLARY,0,601
2332,6010,2015-2016,HARASSMENT,0,601
2333,6010,2015-2016,BULLYING,0,601
2334,6010,2015-2016,DISORDERLY CONDUCT,6,601
2335,6010,2015-2016,THEFTS,4,601
2336,6010,2015-2016,SUICIDE - ATTEMPTS & THREATS,0,601
2337,6010,2015-2016,VANDALISM,2,601
2338,6010,2015-2016,GRAFFITI,1,601
2339,6010,2015-2016,ROBBERY,1,601
2340,6010,2015-2016,WEAPONS,0,601
2341,6010,2015-2016,ASSAULTS,1,601
2342,6010,2015-2016,MORALS OFFENSES,0,601
2343,6010,2015-2016,BOMB SCARES,1,601
2344,6010,2015-2016,DRUG & ALCOHOL OFFENSES,2,601
2345,6010,2015-2016,FIRE - INCENDIARY,1,601
2346,6030,2015-2016,ROBBERY,3,603
2347,6030,2015-2016,DISORDERLY CONDUCT,17,603
2348,6030,2015-2016,BOMB SCARES,0,603
2349,6030,2015-2016,WEAPONS,6,603
2350,6030,2015-2016,MORALS OFFENSES,1,603
2351,6030,2015-2016,ASSAULTS,11,603
2352,6030,2015-2016,THEFTS,2,603
2353,6030,2015-2016,SUICIDE - ATTEMPTS & THREATS,0,603
2354,6030,2015-2016,DRUG & ALCOHOL OFFENSES,14,603
2355,6030,2015-2016,THREATS,3,603
2356,6030,2015-2016,HARASSMENT,3,603
2357,6030,2015-2016,VANDALISM,1,603
2358,6030,2015-2016,GRAFFITI,0,603
2359,6030,2015-2016,TRESPASSING,0,603
2360,6030,2015-2016,BURGLARY,0,603
2361,6030,2015-2016,BULLYING,0,603
2362,6030,2015-2016,FIRE - INCENDIARY,0,603
2363,6040,2015-2016,MORALS OFFENSES,1,604
2364,6040,2015-2016,WEAPONS,1,604
2365,6040,2015-2016,BULLYING,0,604
2366,6040,2015-2016,VANDALISM,5,604
2367,6040,2015-2016,BURGLARY,0,604
2368,6040,2015-2016,FIRE - INCENDIARY,0,604
2369,6040,2015-2016,ROBBERY,0,604
2370,6040,2015-2016,GRAFFITI,0,604
2371,6040,2015-2016,SUICIDE - ATTEMPTS & THREATS,0,604
2372,6040,2015-2016,THREATS,0,604
2373,6040,2015-2016,TRESPASSING,0,604
2374,6040,2015-2016,ASSAULTS,0,604
2375,6040,2015-2016,THEFTS,1,604
2376,6040,2015-2016,HARASSMENT,0,604
2377,6040,2015-2016,DISORDERLY CONDUCT,3,604
2378,6040,2015-2016,BOMB SCARES,0,604
2379,6040,2015-2016,DRUG & ALCOHOL OFFENSES,1,604
2380,6050,2015-2016,THEFTS,1,605
2381,6050,2015-2016,DISORDERLY CONDUCT,4,605
2382,6050,2015-2016,SUICIDE - ATTEMPTS & THREATS,1,605
2383,6050,2015-2016,FIRE - INCENDIARY,0,605
2384,6050,2015-2016,MORALS OFFENSES,0,605
2385,6050,2015-2016,VANDALISM,0,605
2386,6050,2015-2016,TRESPASSING,0,605
2387,6050,2015-2016,ASSAULTS,3,605
2388,6050,2015-2016,GRAFFITI,0,605
2389,6050,2015-2016,BULLYING,0,605
2390,6050,2015-2016,BOMB SCARES,0,605
2391,6050,2015-2016,ROBBERY,1,605
2392,6050,2015-2016,HARASSMENT,0,605
2393,6050,2015-2016,DRUG & ALCOHOL OFFENSES,0,605
2394,6050,2015-2016,BURGLARY,1,605
2395,6050,2015-2016,THREATS,2,605
2396,6050,2015-2016,WEAPONS,1,605
2397,6060,2015-2016,ASSAULTS,6,606
2398,6060,2015-2016,THEFTS,3,606
2399,6060,2015-2016,THREATS,3,606
2400,6060,2015-2016,WEAPONS,12,606
2401,6060,2015-2016,BOMB SCARES,0,606
2402,6060,2015-2016,FIRE - INCENDIARY,0,606
2403,6060,2015-2016,BURGLARY,0,606
2404,6060,2015-2016,BULLYING,0,606
2405,6060,2015-2016,TRESPASSING,2,606
2406,6060,2015-2016,GRAFFITI,0,606
2407,6060,2015-2016,DISORDERLY CONDUCT,19,606
2408,6060,2015-2016,ROBBERY,2,606
2409,6060,2015-2016,MORALS OFFENSES,2,606
2410,6060,2015-2016,SUICIDE - ATTEMPTS & THREATS,1,606
2411,6060,2015-2016,HARASSMENT,0,606
2412,6060,2015-2016,VANDALISM,4,606
2413,6060,2015-2016,DRUG & ALCOHOL OFFENSES,8,606
2414,6090,2015-2016,VANDALISM,5,609
2415,6090,2015-2016,BURGLARY,1,609
2416,6090,2015-2016,SUICIDE - ATTEMPTS & THREATS,0,609
2417,6090,2015-2016,ASSAULTS,5,609
2418,6090,2015-2016,DRUG & ALCOHOL OFFENSES,1,609
2419,6090,2015-2016,BULLYING,0,609
2420,6090,2015-2016,TRESPASSING,0,609
2421,6090,2015-2016,MORALS OFFENSES,0,609
2422,6090,2015-2016,BOMB SCARES,0,609
2423,6090,2015-2016,THREATS,0,609
2424,6090,2015-2016,FIRE - INCENDIARY,0,609
2425,6090,2015-2016,THEFTS,1,609
2426,6090,2015-2016,GRAFFITI,0,609
2427,6090,2015-2016,ROBBERY,1,609
2428,6090,2015-2016,HARASSMENT,0,609
2429,6090,2015-2016,WEAPONS,3,609
2430,6090,2015-2016,DISORDERLY CONDUCT,9,609
2431,6100,2015-2016,FIRE - INCENDIARY,0,610
2432,6100,2015-2016,ROBBERY,0,610
2433,6100,2015-2016,TRESPASSING,0,610
2434,6100,2015-2016,BULLYING,0,610
2435,6100,2015-2016,SUICIDE - ATTEMPTS & THREATS,0,610
2436,6100,2015-2016,DRUG & ALCOHOL OFFENSES,0,610
2437,6100,2015-2016,WEAPONS,0,610
2438,6100,2015-2016,DISORDERLY CONDUCT,0,610
2439,6100,2015-2016,BOMB SCARES,0,610
2440,6100,2015-2016,VANDALISM,0,610
2441,6100,2015-2016,GRAFFITI,0,610
2442,6100,2015-2016,THEFTS,0,610
2443,6100,2015-2016,THREATS,0,610
2444,6100,2015-2016,HARASSMENT,0,610
2445,6100,2015-2016,MORALS OFFENSES,0,610
2446,6100,2015-2016,ASSAULTS,0,610
2447,6100,2015-2016,BURGLARY,0,610
2448,6200,2015-2016,HARASSMENT,0,620
2449,6200,2015-2016,DISORDERLY CONDUCT,5,620
2450,6200,2015-2016,GRAFFITI,0,620
2451,6200,2015-2016,VANDALISM,0,620
2452,6200,2015-2016,THREATS,0,620
2453,6200,2015-2016,MORALS OFFENSES,0,620
2454,6200,2015-2016,DRUG & ALCOHOL OFFENSES,0,620
2455,6200,2015-2016,BOMB SCARES,0,620
2456,6200,2015-2016,ROBBERY,0,620
2457,6200,2015-2016,WEAPONS,1,620
2458,6200,2015-2016,ASSAULTS,2,620
2459,6200,2015-2016,THEFTS,0,620
2460,6200,2015-2016,FIRE - INCENDIARY,0,620
2461,6200,2015-2016,TRESPASSING,0,620
2462,6200,2015-2016,BURGLARY,0,620
2463,6200,2015-2016,BULLYING,0,620
2464,6200,2015-2016,SUICIDE - ATTEMPTS & THREATS,0,620
2465,6210,2015-2016,ROBBERY,0,621
2466,6210,2015-2016,MORALS OFFENSES,0,621
2467,6210,2015-2016,THEFTS,0,621
2468,6210,2015-2016,WEAPONS,0,621
2469,6210,2015-2016,TRESPASSING,0,621
2470,6210,2015-2016,GRAFFITI,0,621
2471,6210,2015-2016,ASSAULTS,8,621
2472,6210,2015-2016,DRUG & ALCOHOL OFFENSES,0,621
2473,6210,2015-2016,VANDALISM,0,621
2474,6210,2015-2016,SUICIDE - ATTEMPTS & THREATS,0,621
2475,6210,2015-2016,HARASSMENT,3,621
2476,6210,2015-2016,BULLYING,0,621
2477,6210,2015-2016,THREATS,2,621
2478,6210,2015-2016,DISORDERLY CONDUCT,26,621
2479,6210,2015-2016,BOMB SCARES,0,621
2480,6210,2015-2016,FIRE - INCENDIARY,0,621
2481,6210,2015-2016,BURGLARY,0,621
2482,6220,2015-2016,WEAPONS,1,622
2483,6220,2015-2016,BURGLARY,0,622
2484,6220,2015-2016,SUICIDE - ATTEMPTS & THREATS,0,622
2485,6220,2015-2016,ROBBERY,0,622
2486,6220,2015-2016,TRESPASSING,0,622
2487,6220,2015-2016,BULLYING,0,622
2488,6220,2015-2016,DISORDERLY CONDUCT,11,622
2489,6220,2015-2016,ASSAULTS,1,622
2490,6220,2015-2016,MORALS OFFENSES,2,622
2491,6220,2015-2016,THEFTS,0,622
2492,6220,2015-2016,FIRE - INCENDIARY,0,622
2493,6220,2015-2016,GRAFFITI,0,622
2494,6220,2015-2016,HARASSMENT,0,622
2495,6220,2015-2016,THREATS,0,622
2496,6220,2015-2016,VANDALISM,1,622
2497,6220,2015-2016,BOMB SCARES,0,622
2498,6220,2015-2016,DRUG & ALCOHOL OFFENSES,0,622
2499,6230,2015-2016,SUICIDE - ATTEMPTS & THREATS,0,623
2500,6230,2015-2016,THEFTS,0,623
2501,6230,2015-2016,HARASSMENT,0,623
2502,6230,2015-2016,FIRE - INCENDIARY,0,623
2503,6230,2015-2016,BULLYING,0,623
2504,6230,2015-2016,DRUG & ALCOHOL OFFENSES,0,623
2505,6230,2015-2016,VANDALISM,0,623
2506,6230,2015-2016,THREATS,0,623
2507,6230,2015-2016,WEAPONS,0,623
2508,6230,2015-2016,BURGLARY,0,623
2509,6230,2015-2016,BOMB SCARES,0,623
2510,6230,2015-2016,ASSAULTS,0,623
2511,6230,2015-2016,GRAFFITI,0,623
2512,6230,2015-2016,ROBBERY,0,623
2513,6230,2015-2016,TRESPASSING,0,623
2514,6230,2015-2016,DISORDERLY CONDUCT,0,623
2515,6230,2015-2016,MORALS OFFENSES,0,623
2516,6250,2015-2016,HARASSMENT,1,625
2517,6250,2015-2016,BOMB SCARES,0,625
2518,6250,2015-2016,ASSAULTS,2,625
2519,6250,2015-2016,ROBBERY,0,625
2520,6250,2015-2016,GRAFFITI,0,625
2521,6250,2015-2016,DISORDERLY CONDUCT,6,625
2522,6250,2015-2016,SUICIDE - ATTEMPTS & THREATS,1,625
2523,6250,2015-2016,THREATS,0,625
2524,6250,2015-2016,FIRE - INCENDIARY,1,625
2525,6250,2015-2016,MORALS OFFENSES,0,625
2526,6250,2015-2016,VANDALISM,0,625
2527,6250,2015-2016,THEFTS,0,625
2528,6250,2015-2016,DRUG & ALCOHOL OFFENSES,0,625
2529,6250,2015-2016,TRESPASSING,0,625
2530,6250,2015-2016,WEAPONS,0,625
2531,6250,2015-2016,BULLYING,0,625
2532,6250,2015-2016,BURGLARY,0,625
2533,6260,2015-2016,ASSAULTS,6,626
2534,6260,2015-2016,BULLYING,1,626
2535,6260,2015-2016,THEFTS,2,626
2536,6260,2015-2016,FIRE - INCENDIARY,0,626
2537,6260,2015-2016,DRUG & ALCOHOL OFFENSES,0,626
2538,6260,2015-2016,THREATS,1,626
2539,6260,2015-2016,WEAPONS,1,626
2540,6260,2015-2016,VANDALISM,3,626
2541,6260,2015-2016,BOMB SCARES,0,626
2542,6260,2015-2016,TRESPASSING,0,626
2543,6260,2015-2016,BURGLARY,0,626
2544,6260,2015-2016,ROBBERY,0,626
2545,6260,2015-2016,SUICIDE - ATTEMPTS & THREATS,0,626
2546,6260,2015-2016,HARASSMENT,0,626
2547,6260,2015-2016,DISORDERLY CONDUCT,9,626
2548,6260,2015-2016,MORALS OFFENSES,2,626
2549,6260,2015-2016,GRAFFITI,0,626
2550,6270,2015-2016,DISORDERLY CONDUCT,3,627
2551,6270,2015-2016,WEAPONS,0,627
2552,6270,2015-2016,MORALS OFFENSES,0,627
2553,6270,2015-2016,VANDALISM,0,627
2554,6270,2015-2016,THREATS,2,627
2555,6270,2015-2016,THEFTS,0,627
2556,6270,2015-2016,BOMB SCARES,0,627
2557,6270,2015-2016,GRAFFITI,0,627
2558,6270,2015-2016,HARASSMENT,0,627
2559,6270,2015-2016,BURGLARY,0,627
2560,6270,2015-2016,FIRE - INCENDIARY,0,627
2561,6270,2015-2016,BULLYING,0,627
2562,6270,2015-2016,SUICIDE - ATTEMPTS & THREATS,0,627
2563,6270,2015-2016,ROBBERY,0,627
2564,6270,2015-2016,TRESPASSING,0,627
2565,6270,2015-2016,DRUG & ALCOHOL OFFENSES,0,627
2566,6270,2015-2016,ASSAULTS,0,627
2567,6300,2015-2016,VANDALISM,0,630
2568,6300,2015-2016,DISORDERLY CONDUCT,1,630
2569,6300,2015-2016,BOMB SCARES,0,630
2570,6300,2015-2016,WEAPONS,0,630
2571,6300,2015-2016,ASSAULTS,0,630
2572,6300,2015-2016,ROBBERY,0,630
2573,6300,2015-2016,THEFTS,0,630
2574,6300,2015-2016,TRESPASSING,0,630
2575,6300,2015-2016,FIRE - INCENDIARY,0,630
2576,6300,2015-2016,BURGLARY,0,630
2577,6300,2015-2016,GRAFFITI,0,630
2578,6300,2015-2016,SUICIDE - ATTEMPTS & THREATS,0,630
2579,6300,2015-2016,MORALS OFFENSES,0,630
2580,6300,2015-2016,HARASSMENT,0,630
2581,6300,2015-2016,DRUG & ALCOHOL OFFENSES,0,630
2582,6300,2015-2016,BULLYING,1,630
2583,6300,2015-2016,THREATS,1,630
2584,6310,2015-2016,ROBBERY,0,631
2585,6310,2015-2016,GRAFFITI,0,631
2586,6310,2015-2016,BURGLARY,0,631
2587,6310,2015-2016,MORALS OFFENSES,0,631
2588,6310,2015-2016,DISORDERLY CONDUCT,5,631
2589,6310,2015-2016,VANDALISM,4,631
2590,6310,2015-2016,FIRE - INCENDIARY,0,631
2591,6310,2015-2016,SUICIDE - ATTEMPTS & THREATS,0,631
2592,6310,2015-2016,WEAPONS,1,631
2593,6310,2015-2016,THREATS,1,631
2594,6310,2015-2016,HARASSMENT,0,631
2595,6310,2015-2016,BOMB SCARES,0,631
2596,6310,2015-2016,ASSAULTS,2,631
2597,6310,2015-2016,DRUG & ALCOHOL OFFENSES,0,631
2598,6310,2015-2016,BULLYING,0,631
2599,6310,2015-2016,THEFTS,0,631
2600,6310,2015-2016,TRESPASSING,0,631
2601,6320,2015-2016,DISORDERLY CONDUCT,6,632
2602,6320,2015-2016,BURGLARY,0,632
2603,6320,2015-2016,FIRE - INCENDIARY,0,632
2604,6320,2015-2016,THREATS,0,632
2605,6320,2015-2016,MORALS OFFENSES,1,632
2606,6320,2015-2016,WEAPONS,0,632
2607,6320,2015-2016,TRESPASSING,0,632
2608,6320,2015-2016,ROBBERY,0,632
2609,6320,2015-2016,HARASSMENT,1,632
2610,6320,2015-2016,GRAFFITI,1,632
2611,6320,2015-2016,VANDALISM,1,632
2612,6320,2015-2016,SUICIDE - ATTEMPTS & THREATS,0,632
2613,6320,2015-2016,DRUG & ALCOHOL OFFENSES,0,632
2614,6320,2015-2016,THEFTS,0,632
2615,6320,2015-2016,BOMB SCARES,0,632
2616,6320,2015-2016,BULLYING,0,632
2617,6320,2015-2016,ASSAULTS,1,632
2618,6340,2015-2016,ASSAULTS,0,634
2619,6340,2015-2016,BOMB SCARES,0,634
2620,6340,2015-2016,TRESPASSING,0,634
2621,6340,2015-2016,ROBBERY,0,634
2622,6340,2015-2016,THREATS,0,634
2623,6340,2015-2016,WEAPONS,0,634
2624,6340,2015-2016,SUICIDE - ATTEMPTS & THREATS,0,634
2625,6340,2015-2016,FIRE - INCENDIARY,0,634
2626,6340,2015-2016,GRAFFITI,0,634
2627,6340,2015-2016,MORALS OFFENSES,0,634
2628,6340,2015-2016,BURGLARY,0,634
2629,6340,2015-2016,DRUG & ALCOHOL OFFENSES,0,634
2630,6340,2015-2016,VANDALISM,3,634
2631,6340,2015-2016,DISORDERLY CONDUCT,11,634
2632,6340,2015-2016,THEFTS,1,634
2633,6340,2015-2016,BULLYING,1,634
2634,6340,2015-2016,HARASSMENT,0,634
2635,6350,2015-2016,THEFTS,0,635
2636,6350,2015-2016,BOMB SCARES,0,635
2637,6350,2015-2016,BULLYING,0,635
2638,6350,2015-2016,ASSAULTS,3,635
2639,6350,2015-2016,DISORDERLY CONDUCT,16,635
2640,6350,2015-2016,ROBBERY,0,635
2641,6350,2015-2016,TRESPASSING,1,635
2642,6350,2015-2016,DRUG & ALCOHOL OFFENSES,0,635
2643,6350,2015-2016,SUICIDE - ATTEMPTS & THREATS,0,635
2644,6350,2015-2016,MORALS OFFENSES,2,635
2645,6350,2015-2016,GRAFFITI,0,635
2646,6350,2015-2016,BURGLARY,0,635
2647,6350,2015-2016,THREATS,1,635
2648,6350,2015-2016,WEAPONS,2,635
2649,6350,2015-2016,VANDALISM,5,635
2650,6350,2015-2016,HARASSMENT,0,635
2651,6350,2015-2016,FIRE - INCENDIARY,1,635
2652,6360,2015-2016,HARASSMENT,3,636
2653,6360,2015-2016,BURGLARY,1,636
2654,6360,2015-2016,THREATS,8,636
2655,6360,2015-2016,DRUG & ALCOHOL OFFENSES,5,636
2656,6360,2015-2016,TRESPASSING,4,636
2657,6360,2015-2016,WEAPONS,7,636
2658,6360,2015-2016,SUICIDE - ATTEMPTS & THREATS,0,636
2659,6360,2015-2016,DISORDERLY CONDUCT,36,636
2660,6360,2015-2016,VANDALISM,9,636
2661,6360,2015-2016,ASSAULTS,25,636
2662,6360,2015-2016,BOMB SCARES,0,636
2663,6360,2015-2016,FIRE - INCENDIARY,4,636
2664,6360,2015-2016,BULLYING,0,636
2665,6360,2015-2016,THEFTS,5,636
2666,6360,2015-2016,ROBBERY,1,636
2667,6360,2015-2016,MORALS OFFENSES,3,636
2668,6360,2015-2016,GRAFFITI,0,636
2669,6380,2015-2016,BOMB SCARES,0,638
2670,6380,2015-2016,TRESPASSING,0,638
2671,6380,2015-2016,DISORDERLY CONDUCT,3,638
2672,6380,2015-2016,MORALS OFFENSES,0,638
2673,6380,2015-2016,THREATS,0,638
2674,6380,2015-2016,SUICIDE - ATTEMPTS & THREATS,0,638
2675,6380,2015-2016,THEFTS,0,638
2676,6380,2015-2016,DRUG & ALCOHOL OFFENSES,0,638
2677,6380,2015-2016,FIRE - INCENDIARY,0,638
2678,6380,2015-2016,HARASSMENT,0,638
2679,6380,2015-2016,ASSAULTS,2,638
2680,6380,2015-2016,VANDALISM,1,638
2681,6380,2015-2016,BULLYING,0,638
2682,6380,2015-2016,ROBBERY,0,638
2683,6380,2015-2016,BURGLARY,0,638
2684,6380,2015-2016,WEAPONS,0,638
2685,6380,2015-2016,GRAFFITI,0,638
2686,6390,2015-2016,SUICIDE - ATTEMPTS & THREATS,0,639
2687,6390,2015-2016,MORALS OFFENSES,0,639
2688,6390,2015-2016,GRAFFITI,0,639
2689,6390,2015-2016,TRESPASSING,0,639
2690,6390,2015-2016,HARASSMENT,0,639
2691,6390,2015-2016,WEAPONS,2,639
2692,6390,2015-2016,VANDALISM,10,639
2693,6390,2015-2016,DRUG & ALCOHOL OFFENSES,0,639
2694,6390,2015-2016,THREATS,0,639
2695,6390,2015-2016,ASSAULTS,4,639
2696,6390,2015-2016,BOMB SCARES,0,639
2697,6390,2015-2016,BULLYING,0,639
2698,6390,2015-2016,THEFTS,0,639
2699,6390,2015-2016,BURGLARY,1,639
2700,6390,2015-2016,ROBBERY,0,639
2701,6390,2015-2016,FIRE - INCENDIARY,0,639
2702,6390,2015-2016,DISORDERLY CONDUCT,8,639
2703,6400,2015-2016,BOMB SCARES,0,640
2704,6400,2015-2016,DRUG & ALCOHOL OFFENSES,0,640
2705,6400,2015-2016,BULLYING,0,640
2706,6400,2015-2016,SUICIDE - ATTEMPTS & THREATS,0,640
2707,6400,2015-2016,FIRE - INCENDIARY,0,640
2708,6400,2015-2016,DISORDERLY CONDUCT,3,640
2709,6400,2015-2016,TRESPASSING,0,640
2710,6400,2015-2016,GRAFFITI,0,640
2711,6400,2015-2016,THREATS,0,640
2712,6400,2015-2016,ROBBERY,0,640
2713,6400,2015-2016,WEAPONS,0,640
2714,6400,2015-2016,HARASSMENT,0,640
2715,6400,2015-2016,MORALS OFFENSES,0,640
2716,6400,2015-2016,VANDALISM,0,640
2717,6400,2015-2016,BURGLARY,0,640
2718,6400,2015-2016,THEFTS,0,640
2719,6400,2015-2016,ASSAULTS,0,640
2720,6410,2015-2016,ASSAULTS,0,641
2721,6410,2015-2016,TRESPASSING,0,641
2722,6410,2015-2016,THREATS,1,641
2723,6410,2015-2016,VANDALISM,2,641
2724,6410,2015-2016,BURGLARY,0,641
2725,6410,2015-2016,HARASSMENT,0,641
2726,6410,2015-2016,FIRE - INCENDIARY,0,641
2727,6410,2015-2016,BOMB SCARES,0,641
2728,6410,2015-2016,ROBBERY,0,641
2729,6410,2015-2016,WEAPONS,0,641
2730,6410,2015-2016,DRUG & ALCOHOL OFFENSES,0,641
2731,6410,2015-2016,MORALS OFFENSES,0,641
2732,6410,2015-2016,BULLYING,0,641
2733,6410,2015-2016,THEFTS,0,641
2734,6410,2015-2016,DISORDERLY CONDUCT,3,641
2735,6410,2015-2016,SUICIDE - ATTEMPTS & THREATS,0,641
2736,6410,2015-2016,GRAFFITI,0,641
2737,6430,2015-2016,HARASSMENT,0,643
2738,6430,2015-2016,SUICIDE - ATTEMPTS & THREATS,0,643
2739,6430,2015-2016,BOMB SCARES,0,643
2740,6430,2015-2016,VANDALISM,1,643
2741,6430,2015-2016,ROBBERY,0,643
2742,6430,2015-2016,THREATS,0,643
2743,6430,2015-2016,THEFTS,0,643
2744,6430,2015-2016,TRESPASSING,0,643
2745,6430,2015-2016,GRAFFITI,0,643
2746,6430,2015-2016,BURGLARY,1,643
2747,6430,2015-2016,DISORDERLY CONDUCT,3,643
2748,6430,2015-2016,BULLYING,0,643
2749,6430,2015-2016,FIRE - INCENDIARY,0,643
2750,6430,2015-2016,DRUG & ALCOHOL OFFENSES,0,643
2751,6430,2015-2016,WEAPONS,0,643
2752,6430,2015-2016,ASSAULTS,0,643
2753,6430,2015-2016,MORALS OFFENSES,0,643
2754,6440,2015-2016,ROBBERY,0,644
2755,6440,2015-2016,THREATS,1,644
2756,6440,2015-2016,TRESPASSING,0,644
2757,6440,2015-2016,HARASSMENT,0,644
2758,6440,2015-2016,FIRE - INCENDIARY,0,644
2759,6440,2015-2016,BOMB SCARES,0,644
2760,6440,2015-2016,DISORDERLY CONDUCT,8,644
2761,6440,2015-2016,VANDALISM,0,644
2762,6440,2015-2016,GRAFFITI,0,644
2763,6440,2015-2016,BURGLARY,0,644
2764,6440,2015-2016,THEFTS,0,644
2765,6440,2015-2016,MORALS OFFENSES,2,644
2766,6440,2015-2016,BULLYING,0,644
2767,6440,2015-2016,SUICIDE - ATTEMPTS & THREATS,0,644
2768,6440,2015-2016,DRUG & ALCOHOL OFFENSES,0,644
2769,6440,2015-2016,ASSAULTS,1,644
2770,6440,2015-2016,WEAPONS,1,644
2771,6450,2015-2016,GRAFFITI,0,645
2772,6450,2015-2016,THEFTS,0,645
2773,6450,2015-2016,SUICIDE - ATTEMPTS & THREATS,1,645
2774,6450,2015-2016,ASSAULTS,5,645
2775,6450,2015-2016,DRUG & ALCOHOL OFFENSES,1,645
2776,6450,2015-2016,TRESPASSING,0,645
2777,6450,2015-2016,MORALS OFFENSES,0,645
2778,6450,2015-2016,BOMB SCARES,0,645
2779,6450,2015-2016,HARASSMENT,1,645
2780,6450,2015-2016,THREATS,1,645
2781,6450,2015-2016,WEAPONS,0,645
2782,6450,2015-2016,VANDALISM,3,645
2783,6450,2015-2016,FIRE - INCENDIARY,1,645
2784,6450,2015-2016,DISORDERLY CONDUCT,13,645
2785,6450,2015-2016,BURGLARY,0,645
2786,6450,2015-2016,BULLYING,0,645
2787,6450,2015-2016,ROBBERY,0,645
2788,6460,2015-2016,VANDALISM,0,646
2789,6460,2015-2016,FIRE - INCENDIARY,0,646
2790,6460,2015-2016,ROBBERY,2,646
2791,6460,2015-2016,SUICIDE - ATTEMPTS & THREATS,0,646
2792,6460,2015-2016,TRESPASSING,0,646
2793,6460,2015-2016,BOMB SCARES,0,646
2794,6460,2015-2016,THEFTS,0,646
2795,6460,2015-2016,THREATS,0,646
2796,6460,2015-2016,BULLYING,0,646
2797,6460,2015-2016,MORALS OFFENSES,0,646
2798,6460,2015-2016,BURGLARY,0,646
2799,6460,2015-2016,GRAFFITI,0,646
2800,6460,2015-2016,ASSAULTS,1,646
2801,6460,2015-2016,HARASSMENT,1,646
2802,6460,2015-2016,DRUG & ALCOHOL OFFENSES,0,646
2803,6460,2015-2016,WEAPONS,0,646
2804,6460,2015-2016,DISORDERLY CONDUCT,9,646
2805,6470,2015-2016,MORALS OFFENSES,0,647
2806,6470,2015-2016,THEFTS,0,647
2807,6470,2015-2016,VANDALISM,0,647
2808,6470,2015-2016,THREATS,0,647
2809,6470,2015-2016,FIRE - INCENDIARY,0,647
2810,6470,2015-2016,DRUG & ALCOHOL OFFENSES,1,647
2811,6470,2015-2016,SUICIDE - ATTEMPTS & THREATS,0,647
2812,6470,2015-2016,GRAFFITI,0,647
2813,6470,2015-2016,ASSAULTS,4,647
2814,6470,2015-2016,BURGLARY,1,647
2815,6470,2015-2016,BULLYING,0,647
2816,6470,2015-2016,TRESPASSING,0,647
2817,6470,2015-2016,HARASSMENT,0,647
2818,6470,2015-2016,DISORDERLY CONDUCT,13,647
2819,6470,2015-2016,ROBBERY,0,647
2820,6470,2015-2016,BOMB SCARES,0,647
2821,6470,2015-2016,WEAPONS,0,647
2822,6480,2015-2016,TRESPASSING,1,648
2823,6480,2015-2016,BULLYING,0,648
2824,6480,2015-2016,BOMB SCARES,0,648
2825,6480,2015-2016,HARASSMENT,0,648
2826,6480,2015-2016,FIRE - INCENDIARY,0,648
2827,6480,2015-2016,MORALS OFFENSES,0,648
2828,6480,2015-2016,SUICIDE - ATTEMPTS & THREATS,0,648
2829,6480,2015-2016,DISORDERLY CONDUCT,0,648
2830,6480,2015-2016,DRUG & ALCOHOL OFFENSES,0,648
2831,6480,2015-2016,ROBBERY,0,648
2832,6480,2015-2016,BURGLARY,0,648
2833,6480,2015-2016,VANDALISM,2,648
2834,6480,2015-2016,WEAPONS,4,648
2835,6480,2015-2016,THEFTS,0,648
2836,6480,2015-2016,THREATS,1,648
2837,6480,2015-2016,GRAFFITI,0,648
2838,6480,2015-2016,ASSAULTS,2,648
2839,6540,2015-2016,BULLYING,0,654
2840,6540,2015-2016,FIRE - INCENDIARY,0,654
2841,6540,2015-2016,DISORDERLY CONDUCT,2,654
2842,6540,2015-2016,DRUG & ALCOHOL OFFENSES,0,654
2843,6540,2015-2016,MORALS OFFENSES,0,654
2844,6540,2015-2016,BURGLARY,1,654
2845,6540,2015-2016,VANDALISM,1,654
2846,6540,2015-2016,BOMB SCARES,0,654
2847,6540,2015-2016,THREATS,1,654
2848,6540,2015-2016,THEFTS,0,654
2849,6540,2015-2016,ROBBERY,1,654
2850,6540,2015-2016,GRAFFITI,0,654
2851,6540,2015-2016,HARASSMENT,0,654
2852,6540,2015-2016,ASSAULTS,0,654
2853,6540,2015-2016,SUICIDE - ATTEMPTS & THREATS,0,654
2854,6540,2015-2016,TRESPASSING,0,654
2855,6540,2015-2016,WEAPONS,0,654
2856,7010,2015-2016,BOMB SCARES,0,701
2857,7010,2015-2016,FIRE - INCENDIARY,2,701
2858,7010,2015-2016,HARASSMENT,0,701
2859,7010,2015-2016,VANDALISM,7,701
2860,7010,2015-2016,BULLYING,0,701
2861,7010,2015-2016,TRESPASSING,4,701
2862,7010,2015-2016,SUICIDE - ATTEMPTS & THREATS,0,701
2863,7010,2015-2016,WEAPONS,15,701
2864,7010,2015-2016,DISORDERLY CONDUCT,44,701
2865,7010,2015-2016,BURGLARY,0,701
2866,7010,2015-2016,DRUG & ALCOHOL OFFENSES,15,701
2867,7010,2015-2016,ROBBERY,4,701
2868,7010,2015-2016,MORALS OFFENSES,2,701
2869,7010,2015-2016,THEFTS,8,701
2870,7010,2015-2016,GRAFFITI,2,701
2871,7010,2015-2016,THREATS,9,701
2872,7010,2015-2016,ASSAULTS,36,701
2873,7100,2015-2016,THREATS,1,710
2874,7100,2015-2016,ASSAULTS,11,710
2875,7100,2015-2016,THEFTS,2,710
2876,7100,2015-2016,BULLYING,0,710
2877,7100,2015-2016,GRAFFITI,0,710
2878,7100,2015-2016,DRUG & ALCOHOL OFFENSES,0,710
2879,7100,2015-2016,BOMB SCARES,0,710
2880,7100,2015-2016,DISORDERLY CONDUCT,18,710
2881,7100,2015-2016,ROBBERY,1,710
2882,7100,2015-2016,TRESPASSING,0,710
2883,7100,2015-2016,BURGLARY,0,710
2884,7100,2015-2016,HARASSMENT,2,710
2885,7100,2015-2016,VANDALISM,19,710
2886,7100,2015-2016,FIRE - INCENDIARY,0,710
2887,7100,2015-2016,MORALS OFFENSES,4,710
2888,7100,2015-2016,SUICIDE - ATTEMPTS & THREATS,0,710
2889,7100,2015-2016,WEAPONS,2,710
2890,7110,2015-2016,GRAFFITI,0,711
2891,7110,2015-2016,TRESPASSING,2,711
2892,7110,2015-2016,HARASSMENT,6,711
2893,7110,2015-2016,VANDALISM,12,711
2894,7110,2015-2016,BOMB SCARES,0,711
2895,7110,2015-2016,DRUG & ALCOHOL OFFENSES,2,711
2896,7110,2015-2016,FIRE - INCENDIARY,1,711
2897,7110,2015-2016,SUICIDE - ATTEMPTS & THREATS,0,711
2898,7110,2015-2016,THREATS,20,711
2899,7110,2015-2016,WEAPONS,5,711
2900,7110,2015-2016,THEFTS,6,711
2901,7110,2015-2016,BULLYING,0,711
2902,7110,2015-2016,BURGLARY,0,711
2903,7110,2015-2016,MORALS OFFENSES,6,711
2904,7110,2015-2016,ROBBERY,1,711
2905,7110,2015-2016,DISORDERLY CONDUCT,103,711
2906,7110,2015-2016,ASSAULTS,45,711
2907,7120,2015-2016,SUICIDE - ATTEMPTS & THREATS,0,712
2908,7120,2015-2016,HARASSMENT,1,712
2909,7120,2015-2016,GRAFFITI,0,712
2910,7120,2015-2016,TRESPASSING,0,712
2911,7120,2015-2016,ROBBERY,4,712
2912,7120,2015-2016,DRUG & ALCOHOL OFFENSES,6,712
2913,7120,2015-2016,ASSAULTS,22,712
2914,7120,2015-2016,BURGLARY,1,712
2915,7120,2015-2016,BULLYING,0,712
2916,7120,2015-2016,BOMB SCARES,0,712
2917,7120,2015-2016,FIRE - INCENDIARY,1,712
2918,7120,2015-2016,THEFTS,4,712
2919,7120,2015-2016,MORALS OFFENSES,2,712
2920,7120,2015-2016,VANDALISM,4,712
2921,7120,2015-2016,THREATS,4,712
2922,7120,2015-2016,WEAPONS,6,712
2923,7120,2015-2016,DISORDERLY CONDUCT,14,712
2924,7130,2015-2016,ASSAULTS,9,713
2925,7130,2015-2016,VANDALISM,10,713
2926,7130,2015-2016,SUICIDE - ATTEMPTS & THREATS,1,713
2927,7130,2015-2016,BULLYING,0,713
2928,7130,2015-2016,HARASSMENT,0,713
2929,7130,2015-2016,GRAFFITI,0,713
2930,7130,2015-2016,DRUG & ALCOHOL OFFENSES,1,713
2931,7130,2015-2016,ROBBERY,0,713
2932,7130,2015-2016,THEFTS,0,713
2933,7130,2015-2016,BOMB SCARES,0,713
2934,7130,2015-2016,WEAPONS,0,713
2935,7130,2015-2016,FIRE - INCENDIARY,0,713
2936,7130,2015-2016,BURGLARY,3,713
2937,7130,2015-2016,TRESPASSING,0,713
2938,7130,2015-2016,THREATS,0,713
2939,7130,2015-2016,DISORDERLY CONDUCT,13,713
2940,7130,2015-2016,MORALS OFFENSES,0,713
2941,7150,2015-2016,BULLYING,0,715
2942,7150,2015-2016,DISORDERLY CONDUCT,9,715
2943,7150,2015-2016,ROBBERY,0,715
2944,7150,2015-2016,THREATS,1,715
2945,7150,2015-2016,MORALS OFFENSES,0,715
2946,7150,2015-2016,HARASSMENT,0,715
2947,7150,2015-2016,WEAPONS,4,715
2948,7150,2015-2016,VANDALISM,0,715
2949,7150,2015-2016,DRUG & ALCOHOL OFFENSES,1,715
2950,7150,2015-2016,FIRE - INCENDIARY,0,715
2951,7150,2015-2016,THEFTS,2,715
2952,7150,2015-2016,BOMB SCARES,0,715
2953,7150,2015-2016,BURGLARY,0,715
2954,7150,2015-2016,TRESPASSING,0,715
2955,7150,2015-2016,SUICIDE - ATTEMPTS & THREATS,1,715
2956,7150,2015-2016,GRAFFITI,0,715
2957,7150,2015-2016,ASSAULTS,5,715
2958,7200,2015-2016,ROBBERY,0,720
2959,7200,2015-2016,THREATS,3,720
2960,7200,2015-2016,ASSAULTS,0,720
2961,7200,2015-2016,VANDALISM,0,720
2962,7200,2015-2016,DISORDERLY CONDUCT,6,720
2963,7200,2015-2016,SUICIDE - ATTEMPTS & THREATS,0,720
2964,7200,2015-2016,BOMB SCARES,0,720
2965,7200,2015-2016,MORALS OFFENSES,1,720
2966,7200,2015-2016,WEAPONS,3,720
2967,7200,2015-2016,BURGLARY,1,720
2968,7200,2015-2016,BULLYING,0,720
2969,7200,2015-2016,GRAFFITI,0,720
2970,7200,2015-2016,HARASSMENT,0,720
2971,7200,2015-2016,THEFTS,0,720
2972,7200,2015-2016,DRUG & ALCOHOL OFFENSES,0,720
2973,7200,2015-2016,TRESPASSING,0,720
2974,7200,2015-2016,FIRE - INCENDIARY,1,720
2975,7220,2015-2016,VANDALISM,2,722
2976,7220,2015-2016,HARASSMENT,0,722
2977,7220,2015-2016,BURGLARY,0,722
2978,7220,2015-2016,GRAFFITI,0,722
2979,7220,2015-2016,THREATS,4,722
2980,7220,2015-2016,SUICIDE - ATTEMPTS & THREATS,0,722
2981,7220,2015-2016,TRESPASSING,1,722
2982,7220,2015-2016,DISORDERLY CONDUCT,16,722
2983,7220,2015-2016,BULLYING,0,722
2984,7220,2015-2016,FIRE - INCENDIARY,0,722
2985,7220,2015-2016,MORALS OFFENSES,0,722
2986,7220,2015-2016,BOMB SCARES,0,722
2987,7220,2015-2016,ASSAULTS,5,722
2988,7220,2015-2016,ROBBERY,0,722
2989,7220,2015-2016,THEFTS,3,722
2990,7220,2015-2016,DRUG & ALCOHOL OFFENSES,1,722
2991,7220,2015-2016,WEAPONS,3,722
2992,7260,2015-2016,HARASSMENT,0,726
2993,7260,2015-2016,THEFTS,0,726
2994,7260,2015-2016,MORALS OFFENSES,2,726
2995,7260,2015-2016,BOMB SCARES,0,726
2996,7260,2015-2016,TRESPASSING,0,726
2997,7260,2015-2016,THREATS,1,726
2998,7260,2015-2016,DRUG & ALCOHOL OFFENSES,0,726
2999,7260,2015-2016,ROBBERY,0,726
3000,7260,2015-2016,BURGLARY,0,726
3001,7260,2015-2016,WEAPONS,0,726
3002,7260,2015-2016,DISORDERLY CONDUCT,17,726
3003,7260,2015-2016,ASSAULTS,2,726
3004,7260,2015-2016,VANDALISM,1,726
3005,7260,2015-2016,SUICIDE - ATTEMPTS & THREATS,0,726
3006,7260,2015-2016,FIRE - INCENDIARY,0,726
3007,7260,2015-2016,BULLYING,0,726
3008,7260,2015-2016,GRAFFITI,0,726
3009,7270,2015-2016,MORALS OFFENSES,1,727
3010,7270,2015-2016,SUICIDE - ATTEMPTS & THREATS,0,727
3011,7270,2015-2016,BURGLARY,0,727
3012,7270,2015-2016,DISORDERLY CONDUCT,23,727
3013,7270,2015-2016,THEFTS,3,727
3014,7270,2015-2016,ROBBERY,0,727
3015,7270,2015-2016,HARASSMENT,0,727
3016,7270,2015-2016,GRAFFITI,0,727
3017,7270,2015-2016,BOMB SCARES,0,727
3018,7270,2015-2016,BULLYING,0,727
3019,7270,2015-2016,VANDALISM,7,727
3020,7270,2015-2016,ASSAULTS,4,727
3021,7270,2015-2016,DRUG & ALCOHOL OFFENSES,2,727
3022,7270,2015-2016,THREATS,7,727
3023,7270,2015-2016,FIRE - INCENDIARY,0,727
3024,7270,2015-2016,TRESPASSING,0,727
3025,7270,2015-2016,WEAPONS,0,727
3026,7280,2015-2016,ASSAULTS,18,728
3027,7280,2015-2016,BOMB SCARES,0,728
3028,7280,2015-2016,MORALS OFFENSES,1,728
3029,7280,2015-2016,FIRE - INCENDIARY,1,728
3030,7280,2015-2016,THEFTS,2,728
3031,7280,2015-2016,SUICIDE - ATTEMPTS & THREATS,0,728
3032,7280,2015-2016,DRUG & ALCOHOL OFFENSES,0,728
3033,7280,2015-2016,TRESPASSING,4,728
3034,7280,2015-2016,BULLYING,1,728
3035,7280,2015-2016,VANDALISM,8,728
3036,7280,2015-2016,DISORDERLY CONDUCT,16,728
3037,7280,2015-2016,ROBBERY,0,728
3038,7280,2015-2016,GRAFFITI,0,728
3039,7280,2015-2016,THREATS,4,728
3040,7280,2015-2016,BURGLARY,0,728
3041,7280,2015-2016,HARASSMENT,1,728
3042,7280,2015-2016,WEAPONS,6,728
3043,7290,2015-2016,DRUG & ALCOHOL OFFENSES,0,729
3044,7290,2015-2016,THREATS,2,729
3045,7290,2015-2016,HARASSMENT,0,729
3046,7290,2015-2016,SUICIDE - ATTEMPTS & THREATS,0,729
3047,7290,2015-2016,BURGLARY,0,729
3048,7290,2015-2016,DISORDERLY CONDUCT,16,729
3049,7290,2015-2016,FIRE - INCENDIARY,0,729
3050,7290,2015-2016,BOMB SCARES,0,729
3051,7290,2015-2016,GRAFFITI,0,729
3052,7290,2015-2016,WEAPONS,0,729
3053,7290,2015-2016,ROBBERY,1,729
3054,7290,2015-2016,THEFTS,0,729
3055,7290,2015-2016,VANDALISM,0,729
3056,7290,2015-2016,TRESPASSING,0,729
3057,7290,2015-2016,MORALS OFFENSES,1,729
3058,7290,2015-2016,BULLYING,0,729
3059,7290,2015-2016,ASSAULTS,2,729
3060,7300,2015-2016,ASSAULTS,2,730
3061,7300,2015-2016,BOMB SCARES,1,730
3062,7300,2015-2016,BURGLARY,0,730
3063,7300,2015-2016,THEFTS,0,730
3064,7300,2015-2016,BULLYING,0,730
3065,7300,2015-2016,GRAFFITI,0,730
3066,7300,2015-2016,MORALS OFFENSES,2,730
3067,7300,2015-2016,THREATS,2,730
3068,7300,2015-2016,FIRE - INCENDIARY,0,730
3069,7300,2015-2016,TRESPASSING,0,730
3070,7300,2015-2016,DRUG & ALCOHOL OFFENSES,0,730
3071,7300,2015-2016,ROBBERY,0,730
3072,7300,2015-2016,HARASSMENT,0,730
3073,7300,2015-2016,SUICIDE - ATTEMPTS & THREATS,0,730
3074,7300,2015-2016,WEAPONS,0,730
3075,7300,2015-2016,DISORDERLY CONDUCT,2,730
3076,7300,2015-2016,VANDALISM,2,730
3077,7310,2015-2016,FIRE - INCENDIARY,0,731
3078,7310,2015-2016,MORALS OFFENSES,0,731
3079,7310,2015-2016,HARASSMENT,0,731
3080,7310,2015-2016,BULLYING,0,731
3081,7310,2015-2016,TRESPASSING,0,731
3082,7310,2015-2016,ROBBERY,0,731
3083,7310,2015-2016,BURGLARY,0,731
3084,7310,2015-2016,THEFTS,1,731
3085,7310,2015-2016,BOMB SCARES,0,731
3086,7310,2015-2016,THREATS,2,731
3087,7310,2015-2016,DRUG & ALCOHOL OFFENSES,0,731
3088,7310,2015-2016,DISORDERLY CONDUCT,6,731
3089,7310,2015-2016,VANDALISM,1,731
3090,7310,2015-2016,WEAPONS,1,731
3091,7310,2015-2016,GRAFFITI,0,731
3092,7310,2015-2016,SUICIDE - ATTEMPTS & THREATS,0,731
3093,7310,2015-2016,ASSAULTS,2,731
3094,7320,2015-2016,SUICIDE - ATTEMPTS & THREATS,0,732
3095,7320,2015-2016,FIRE - INCENDIARY,0,732
3096,7320,2015-2016,THEFTS,1,732
3097,7320,2015-2016,BULLYING,0,732
3098,7320,2015-2016,GRAFFITI,0,732
3099,7320,2015-2016,HARASSMENT,0,732
3100,7320,2015-2016,TRESPASSING,0,732
3101,7320,2015-2016,BOMB SCARES,0,732
3102,7320,2015-2016,ASSAULTS,1,732
3103,7320,2015-2016,MORALS OFFENSES,2,732
3104,7320,2015-2016,THREATS,0,732
3105,7320,2015-2016,VANDALISM,1,732
3106,7320,2015-2016,DRUG & ALCOHOL OFFENSES,0,732
3107,7320,2015-2016,DISORDERLY CONDUCT,10,732
3108,7320,2015-2016,BURGLARY,0,732
3109,7320,2015-2016,ROBBERY,0,732
3110,7320,2015-2016,WEAPONS,0,732
3111,7330,2015-2016,TRESPASSING,0,733
3112,7330,2015-2016,HARASSMENT,0,733
3113,7330,2015-2016,BULLYING,0,733
3114,7330,2015-2016,ROBBERY,0,733
3115,7330,2015-2016,GRAFFITI,0,733
3116,7330,2015-2016,DRUG & ALCOHOL OFFENSES,0,733
3117,7330,2015-2016,THREATS,0,733
3118,7330,2015-2016,SUICIDE - ATTEMPTS & THREATS,0,733
3119,7330,2015-2016,VANDALISM,1,733
3120,7330,2015-2016,BOMB SCARES,0,733
3121,7330,2015-2016,BURGLARY,0,733
3122,7330,2015-2016,FIRE - INCENDIARY,0,733
3123,7330,2015-2016,WEAPONS,2,733
3124,7330,2015-2016,MORALS OFFENSES,0,733
3125,7330,2015-2016,ASSAULTS,0,733
3126,7330,2015-2016,THEFTS,0,733
3127,7330,2015-2016,DISORDERLY CONDUCT,4,733
3128,7350,2015-2016,THREATS,1,735
3129,7350,2015-2016,VANDALISM,1,735
3130,7350,2015-2016,ASSAULTS,1,735
3131,7350,2015-2016,HARASSMENT,0,735
3132,7350,2015-2016,SUICIDE - ATTEMPTS & THREATS,0,735
3133,7350,2015-2016,FIRE - INCENDIARY,0,735
3134,7350,2015-2016,DRUG & ALCOHOL OFFENSES,0,735
3135,7350,2015-2016,DISORDERLY CONDUCT,4,735
3136,7350,2015-2016,BURGLARY,0,735
3137,7350,2015-2016,MORALS OFFENSES,0,735
3138,7350,2015-2016,GRAFFITI,0,735
3139,7350,2015-2016,TRESPASSING,0,735
3140,7350,2015-2016,ROBBERY,0,735
3141,7350,2015-2016,BOMB SCARES,0,735
3142,7350,2015-2016,THEFTS,0,735
3143,7350,2015-2016,WEAPONS,0,735
3144,7350,2015-2016,BULLYING,0,735
3145,7360,2015-2016,ROBBERY,0,736
3146,7360,2015-2016,THREATS,1,736
3147,7360,2015-2016,TRESPASSING,0,736
3148,7360,2015-2016,BULLYING,0,736
3149,7360,2015-2016,SUICIDE - ATTEMPTS & THREATS,1,736
3150,7360,2015-2016,BURGLARY,0,736
3151,7360,2015-2016,WEAPONS,0,736
3152,7360,2015-2016,VANDALISM,1,736
3153,7360,2015-2016,GRAFFITI,0,736
3154,7360,2015-2016,DRUG & ALCOHOL OFFENSES,1,736
3155,7360,2015-2016,FIRE - INCENDIARY,0,736
3156,7360,2015-2016,HARASSMENT,0,736
3157,7360,2015-2016,THEFTS,0,736
3158,7360,2015-2016,DISORDERLY CONDUCT,6,736
3159,7360,2015-2016,BOMB SCARES,0,736
3160,7360,2015-2016,MORALS OFFENSES,0,736
3161,7360,2015-2016,ASSAULTS,1,736
3162,7370,2015-2016,DISORDERLY CONDUCT,5,737
3163,7370,2015-2016,MORALS OFFENSES,3,737
3164,7370,2015-2016,BOMB SCARES,0,737
3165,7370,2015-2016,DRUG & ALCOHOL OFFENSES,3,737
3166,7370,2015-2016,SUICIDE - ATTEMPTS & THREATS,0,737
3167,7370,2015-2016,ROBBERY,0,737
3168,7370,2015-2016,VANDALISM,1,737
3169,7370,2015-2016,WEAPONS,4,737
3170,7370,2015-2016,FIRE - INCENDIARY,0,737
3171,7370,2015-2016,BURGLARY,0,737
3172,7370,2015-2016,GRAFFITI,0,737
3173,7370,2015-2016,HARASSMENT,2,737
3174,7370,2015-2016,THREATS,7,737
3175,7370,2015-2016,ASSAULTS,15,737
3176,7370,2015-2016,TRESPASSING,0,737
3177,7370,2015-2016,BULLYING,0,737
3178,7370,2015-2016,THEFTS,2,737
3179,7380,2015-2016,FIRE - INCENDIARY,1,738
3180,7380,2015-2016,MORALS OFFENSES,1,738
3181,7380,2015-2016,THREATS,2,738
3182,7380,2015-2016,WEAPONS,1,738
3183,7380,2015-2016,VANDALISM,8,738
3184,7380,2015-2016,BURGLARY,0,738
3185,7380,2015-2016,GRAFFITI,0,738
3186,7380,2015-2016,ASSAULTS,0,738
3187,7380,2015-2016,DISORDERLY CONDUCT,4,738
3188,7380,2015-2016,HARASSMENT,0,738
3189,7380,2015-2016,DRUG & ALCOHOL OFFENSES,0,738
3190,7380,2015-2016,THEFTS,3,738
3191,7380,2015-2016,ROBBERY,2,738
3192,7380,2015-2016,BOMB SCARES,0,738
3193,7380,2015-2016,TRESPASSING,0,738
3194,7380,2015-2016,BULLYING,0,738
3195,7380,2015-2016,SUICIDE - ATTEMPTS & THREATS,0,738
3196,7390,2015-2016,GRAFFITI,0,739
3197,7390,2015-2016,ROBBERY,0,739
3198,7390,2015-2016,DRUG & ALCOHOL OFFENSES,1,739
3199,7390,2015-2016,WEAPONS,0,739
3200,7390,2015-2016,TRESPASSING,0,739
3201,7390,2015-2016,VANDALISM,1,739
3202,7390,2015-2016,BURGLARY,1,739
3203,7390,2015-2016,BULLYING,0,739
3204,7390,2015-2016,THEFTS,0,739
3205,7390,2015-2016,FIRE - INCENDIARY,1,739
3206,7390,2015-2016,THREATS,1,739
3207,7390,2015-2016,DISORDERLY CONDUCT,10,739
3208,7390,2015-2016,SUICIDE - ATTEMPTS & THREATS,0,739
3209,7390,2015-2016,MORALS OFFENSES,2,739
3210,7390,2015-2016,HARASSMENT,0,739
3211,7390,2015-2016,ASSAULTS,6,739
3212,7390,2015-2016,BOMB SCARES,0,739
3213,7400,2015-2016,BOMB SCARES,0,740
3214,7400,2015-2016,HARASSMENT,0,740
3215,7400,2015-2016,ASSAULTS,2,740
3216,7400,2015-2016,GRAFFITI,0,740
3217,7400,2015-2016,DISORDERLY CONDUCT,10,740
3218,7400,2015-2016,BURGLARY,0,740
3219,7400,2015-2016,THREATS,5,740
3220,7400,2015-2016,BULLYING,0,740
3221,7400,2015-2016,VANDALISM,1,740
3222,7400,2015-2016,THEFTS,0,740
3223,7400,2015-2016,SUICIDE - ATTEMPTS & THREATS,0,740
3224,7400,2015-2016,DRUG & ALCOHOL OFFENSES,1,740
3225,7400,2015-2016,MORALS OFFENSES,1,740
3226,7400,2015-2016,WEAPONS,1,740
3227,7400,2015-2016,ROBBERY,0,740
3228,7400,2015-2016,FIRE - INCENDIARY,0,740
3229,7400,2015-2016,TRESPASSING,0,740
3230,7430,2015-2016,ASSAULTS,3,743
3231,7430,2015-2016,BURGLARY,0,743
3232,7430,2015-2016,GRAFFITI,0,743
3233,7430,2015-2016,ROBBERY,0,743
3234,7430,2015-2016,DISORDERLY CONDUCT,2,743
3235,7430,2015-2016,BULLYING,0,743
3236,7430,2015-2016,HARASSMENT,0,743
3237,7430,2015-2016,FIRE - INCENDIARY,0,743
3238,7430,2015-2016,BOMB SCARES,0,743
3239,7430,2015-2016,MORALS OFFENSES,0,743
3240,7430,2015-2016,VANDALISM,0,743
3241,7430,2015-2016,TRESPASSING,1,743
3242,7430,2015-2016,WEAPONS,1,743
3243,7430,2015-2016,DRUG & ALCOHOL OFFENSES,0,743
3244,7430,2015-2016,THREATS,1,743
3245,7430,2015-2016,THEFTS,0,743
3246,7430,2015-2016,SUICIDE - ATTEMPTS & THREATS,0,743
3247,7440,2015-2016,THREATS,0,744
3248,7440,2015-2016,FIRE - INCENDIARY,0,744
3249,7440,2015-2016,HARASSMENT,0,744
3250,7440,2015-2016,THEFTS,2,744
3251,7440,2015-2016,BULLYING,0,744
3252,7440,2015-2016,BURGLARY,0,744
3253,7440,2015-2016,ROBBERY,0,744
3254,7440,2015-2016,GRAFFITI,1,744
3255,7440,2015-2016,ASSAULTS,1,744
3256,7440,2015-2016,DISORDERLY CONDUCT,4,744
3257,7440,2015-2016,WEAPONS,0,744
3258,7440,2015-2016,TRESPASSING,0,744
3259,7440,2015-2016,BOMB SCARES,0,744
3260,7440,2015-2016,DRUG & ALCOHOL OFFENSES,0,744
3261,7440,2015-2016,SUICIDE - ATTEMPTS & THREATS,0,744
3262,7440,2015-2016,MORALS OFFENSES,0,744
3263,7440,2015-2016,VANDALISM,8,744
3264,7460,2015-2016,BULLYING,0,746
3265,7460,2015-2016,WEAPONS,3,746
3266,7460,2015-2016,ROBBERY,0,746
3267,7460,2015-2016,DISORDERLY CONDUCT,4,746
3268,7460,2015-2016,VANDALISM,0,746
3269,7460,2015-2016,GRAFFITI,0,746
3270,7460,2015-2016,HARASSMENT,0,746
3271,7460,2015-2016,DRUG & ALCOHOL OFFENSES,0,746
3272,7460,2015-2016,FIRE - INCENDIARY,0,746
3273,7460,2015-2016,BOMB SCARES,0,746
3274,7460,2015-2016,MORALS OFFENSES,0,746
3275,7460,2015-2016,SUICIDE - ATTEMPTS & THREATS,0,746
3276,7460,2015-2016,BURGLARY,0,746
3277,7460,2015-2016,ASSAULTS,2,746
3278,7460,2015-2016,THREATS,2,746
3279,7460,2015-2016,TRESPASSING,0,746
3280,7460,2015-2016,THEFTS,0,746
3281,7470,2015-2016,VANDALISM,0,747
3282,7470,2015-2016,WEAPONS,0,747
3283,7470,2015-2016,SUICIDE - ATTEMPTS & THREATS,0,747
3284,7470,2015-2016,BURGLARY,0,747
3285,7470,2015-2016,HARASSMENT,0,747
3286,7470,2015-2016,FIRE - INCENDIARY,0,747
3287,7470,2015-2016,GRAFFITI,0,747
3288,7470,2015-2016,ROBBERY,0,747
3289,7470,2015-2016,BOMB SCARES,0,747
3290,7470,2015-2016,THEFTS,0,747
3291,7470,2015-2016,DRUG & ALCOHOL OFFENSES,0,747
3292,7470,2015-2016,DISORDERLY CONDUCT,2,747
3293,7470,2015-2016,THREATS,0,747
3294,7470,2015-2016,BULLYING,0,747
3295,7470,2015-2016,TRESPASSING,0,747
3296,7470,2015-2016,MORALS OFFENSES,0,747
3297,7470,2015-2016,ASSAULTS,2,747
3298,7490,2015-2016,WEAPONS,0,749
3299,7490,2015-2016,VANDALISM,1,749
3300,7490,2015-2016,DISORDERLY CONDUCT,7,749
3301,7490,2015-2016,HARASSMENT,0,749
3302,7490,2015-2016,THEFTS,2,749
3303,7490,2015-2016,BOMB SCARES,0,749
3304,7490,2015-2016,FIRE - INCENDIARY,0,749
3305,7490,2015-2016,MORALS OFFENSES,0,749
3306,7490,2015-2016,ASSAULTS,1,749
3307,7490,2015-2016,SUICIDE - ATTEMPTS & THREATS,0,749
3308,7490,2015-2016,GRAFFITI,0,749
3309,7490,2015-2016,TRESPASSING,0,749
3310,7490,2015-2016,THREATS,0,749
3311,7490,2015-2016,ROBBERY,0,749
3312,7490,2015-2016,BURGLARY,0,749
3313,7490,2015-2016,DRUG & ALCOHOL OFFENSES,1,749
3314,7490,2015-2016,BULLYING,0,749
3315,7500,2015-2016,DISORDERLY CONDUCT,8,750
3316,7500,2015-2016,GRAFFITI,0,750
3317,7500,2015-2016,BURGLARY,0,750
3318,7500,2015-2016,ASSAULTS,6,750
3319,7500,2015-2016,THEFTS,0,750
3320,7500,2015-2016,HARASSMENT,3,750
3321,7500,2015-2016,BOMB SCARES,0,750
3322,7500,2015-2016,TRESPASSING,0,750
3323,7500,2015-2016,WEAPONS,1,750
3324,7500,2015-2016,MORALS OFFENSES,2,750
3325,7500,2015-2016,VANDALISM,3,750
3326,7500,2015-2016,THREATS,4,750
3327,7500,2015-2016,SUICIDE - ATTEMPTS & THREATS,0,750
3328,7500,2015-2016,BULLYING,0,750
3329,7500,2015-2016,ROBBERY,1,750
3330,7500,2015-2016,DRUG & ALCOHOL OFFENSES,2,750
3331,7500,2015-2016,FIRE - INCENDIARY,0,750
3332,7510,2015-2016,WEAPONS,0,751
3333,7510,2015-2016,SUICIDE - ATTEMPTS & THREATS,0,751
3334,7510,2015-2016,BURGLARY,0,751
3335,7510,2015-2016,THEFTS,1,751
3336,7510,2015-2016,ASSAULTS,3,751
3337,7510,2015-2016,VANDALISM,3,751
3338,7510,2015-2016,DRUG & ALCOHOL OFFENSES,2,751
3339,7510,2015-2016,THREATS,1,751
3340,7510,2015-2016,TRESPASSING,0,751
3341,7510,2015-2016,ROBBERY,0,751
3342,7510,2015-2016,MORALS OFFENSES,0,751
3343,7510,2015-2016,BOMB SCARES,0,751
3344,7510,2015-2016,FIRE - INCENDIARY,0,751
3345,7510,2015-2016,BULLYING,0,751
3346,7510,2015-2016,GRAFFITI,0,751
3347,7510,2015-2016,HARASSMENT,1,751
3348,7510,2015-2016,DISORDERLY CONDUCT,7,751
3349,7530,2015-2016,THEFTS,0,753
3350,7530,2015-2016,ROBBERY,0,753
3351,7530,2015-2016,ASSAULTS,3,753
3352,7530,2015-2016,FIRE - INCENDIARY,0,753
3353,7530,2015-2016,THREATS,3,753
3354,7530,2015-2016,DRUG & ALCOHOL OFFENSES,0,753
3355,7530,2015-2016,GRAFFITI,0,753
3356,7530,2015-2016,BULLYING,0,753
3357,7530,2015-2016,HARASSMENT,0,753
3358,7530,2015-2016,TRESPASSING,0,753
3359,7530,2015-2016,WEAPONS,1,753
3360,7530,2015-2016,MORALS OFFENSES,0,753
3361,7530,2015-2016,DISORDERLY CONDUCT,0,753
3362,7530,2015-2016,BOMB SCARES,0,753
3363,7530,2015-2016,BURGLARY,0,753
3364,7530,2015-2016,SUICIDE - ATTEMPTS & THREATS,0,753
3365,7530,2015-2016,VANDALISM,0,753
3366,7730,2015-2016,ROBBERY,0,773
3367,7730,2015-2016,VANDALISM,3,773
3368,7730,2015-2016,MORALS OFFENSES,1,773
3369,7730,2015-2016,WEAPONS,4,773
3370,7730,2015-2016,HARASSMENT,2,773
3371,7730,2015-2016,SUICIDE - ATTEMPTS & THREATS,0,773
3372,7730,2015-2016,BOMB SCARES,0,773
3373,7730,2015-2016,BURGLARY,0,773
3374,7730,2015-2016,THREATS,1,773
3375,7730,2015-2016,DRUG & ALCOHOL OFFENSES,3,773
3376,7730,2015-2016,DISORDERLY CONDUCT,27,773
3377,7730,2015-2016,THEFTS,3,773
3378,7730,2015-2016,FIRE - INCENDIARY,1,773
3379,7730,2015-2016,ASSAULTS,21,773
3380,7730,2015-2016,TRESPASSING,0,773
3381,7730,2015-2016,GRAFFITI,0,773
3382,7730,2015-2016,BULLYING,0,773
3383,8010,2015-2016,DISORDERLY CONDUCT,27,801
3384,8010,2015-2016,SUICIDE - ATTEMPTS & THREATS,1,801
3385,8010,2015-2016,WEAPONS,2,801
3386,8010,2015-2016,FIRE - INCENDIARY,0,801
3387,8010,2015-2016,ROBBERY,5,801
3388,8010,2015-2016,BULLYING,0,801
3389,8010,2015-2016,HARASSMENT,0,801
3390,8010,2015-2016,DRUG & ALCOHOL OFFENSES,6,801
3391,8010,2015-2016,GRAFFITI,1,801
3392,8010,2015-2016,ASSAULTS,25,801
3393,8010,2015-2016,MORALS OFFENSES,4,801
3394,8010,2015-2016,VANDALISM,12,801
3395,8010,2015-2016,THEFTS,6,801
3396,8010,2015-2016,THREATS,3,801
3397,8010,2015-2016,BURGLARY,0,801
3398,8010,2015-2016,BOMB SCARES,1,801
3399,8010,2015-2016,TRESPASSING,0,801
3400,8020,2015-2016,BURGLARY,1,802
3401,8020,2015-2016,WEAPONS,3,802
3402,8020,2015-2016,BULLYING,0,802
3403,8020,2015-2016,SUICIDE - ATTEMPTS & THREATS,0,802
3404,8020,2015-2016,ROBBERY,5,802
3405,8020,2015-2016,FIRE - INCENDIARY,3,802
3406,8020,2015-2016,DRUG & ALCOHOL OFFENSES,4,802
3407,8020,2015-2016,THEFTS,4,802
3408,8020,2015-2016,ASSAULTS,20,802
3409,8020,2015-2016,HARASSMENT,0,802
3410,8020,2015-2016,VANDALISM,0,802
3411,8020,2015-2016,BOMB SCARES,0,802
3412,8020,2015-2016,THREATS,4,802
3413,8020,2015-2016,MORALS OFFENSES,1,802
3414,8020,2015-2016,DISORDERLY CONDUCT,18,802
3415,8020,2015-2016,TRESPASSING,1,802
3416,8020,2015-2016,GRAFFITI,0,802
3417,8030,2015-2016,THREATS,9,803
3418,8030,2015-2016,SUICIDE - ATTEMPTS & THREATS,2,803
3419,8030,2015-2016,FIRE - INCENDIARY,3,803
3420,8030,2015-2016,MORALS OFFENSES,5,803
3421,8030,2015-2016,VANDALISM,23,803
3422,8030,2015-2016,ASSAULTS,28,803
3423,8030,2015-2016,BURGLARY,2,803
3424,8030,2015-2016,BOMB SCARES,2,803
3425,8030,2015-2016,BULLYING,0,803
3426,8030,2015-2016,THEFTS,13,803
3427,8030,2015-2016,ROBBERY,7,803
3428,8030,2015-2016,HARASSMENT,3,803
3429,8030,2015-2016,GRAFFITI,2,803
3430,8030,2015-2016,TRESPASSING,1,803
3431,8030,2015-2016,DRUG & ALCOHOL OFFENSES,5,803
3432,8030,2015-2016,WEAPONS,5,803
3433,8030,2015-2016,DISORDERLY CONDUCT,41,803
3434,8040,2015-2016,HARASSMENT,0,804
3435,8040,2015-2016,WEAPONS,1,804
3436,8040,2015-2016,GRAFFITI,0,804
3437,8040,2015-2016,TRESPASSING,0,804
3438,8040,2015-2016,BURGLARY,0,804
3439,8040,2015-2016,FIRE - INCENDIARY,0,804
3440,8040,2015-2016,ASSAULTS,0,804
3441,8040,2015-2016,BOMB SCARES,0,804
3442,8040,2015-2016,DRUG & ALCOHOL OFFENSES,0,804
3443,8040,2015-2016,DISORDERLY CONDUCT,4,804
3444,8040,2015-2016,THREATS,1,804
3445,8040,2015-2016,VANDALISM,0,804
3446,8040,2015-2016,ROBBERY,0,804
3447,8040,2015-2016,MORALS OFFENSES,0,804
3448,8040,2015-2016,BULLYING,0,804
3449,8040,2015-2016,SUICIDE - ATTEMPTS & THREATS,0,804
3450,8040,2015-2016,THEFTS,5,804
3451,8070,2015-2016,HARASSMENT,0,807
3452,8070,2015-2016,WEAPONS,0,807
3453,8070,2015-2016,THREATS,0,807
3454,8070,2015-2016,BURGLARY,0,807
3455,8070,2015-2016,ASSAULTS,0,807
3456,8070,2015-2016,BULLYING,0,807
3457,8070,2015-2016,MORALS OFFENSES,0,807
3458,8070,2015-2016,SUICIDE - ATTEMPTS & THREATS,0,807
3459,8070,2015-2016,THEFTS,0,807
3460,8070,2015-2016,BOMB SCARES,0,807
3461,8070,2015-2016,DRUG & ALCOHOL OFFENSES,0,807
3462,8070,2015-2016,GRAFFITI,0,807
3463,8070,2015-2016,DISORDERLY CONDUCT,0,807
3464,8070,2015-2016,FIRE - INCENDIARY,0,807
3465,8070,2015-2016,TRESPASSING,0,807
3466,8070,2015-2016,VANDALISM,0,807
3467,8070,2015-2016,ROBBERY,0,807
3468,8080,2015-2016,GRAFFITI,0,808
3469,8080,2015-2016,BURGLARY,0,808
3470,8080,2015-2016,VANDALISM,0,808
3471,8080,2015-2016,DISORDERLY CONDUCT,0,808
3472,8080,2015-2016,TRESPASSING,0,808
3473,8080,2015-2016,SUICIDE - ATTEMPTS & THREATS,0,808
3474,8080,2015-2016,ASSAULTS,1,808
3475,8080,2015-2016,HARASSMENT,0,808
3476,8080,2015-2016,WEAPONS,0,808
3477,8080,2015-2016,MORALS OFFENSES,0,808
3478,8080,2015-2016,FIRE - INCENDIARY,0,808
3479,8080,2015-2016,ROBBERY,0,808
3480,8080,2015-2016,BULLYING,0,808
3481,8080,2015-2016,DRUG & ALCOHOL OFFENSES,0,808
3482,8080,2015-2016,BOMB SCARES,0,808
3483,8080,2015-2016,THREATS,0,808
3484,8080,2015-2016,THEFTS,0,808
3485,8090,2015-2016,MORALS OFFENSES,1,809
3486,8090,2015-2016,VANDALISM,0,809
3487,8090,2015-2016,DRUG & ALCOHOL OFFENSES,1,809
3488,8090,2015-2016,WEAPONS,2,809
3489,8090,2015-2016,TRESPASSING,0,809
3490,8090,2015-2016,GRAFFITI,0,809
3491,8090,2015-2016,ROBBERY,0,809
3492,8090,2015-2016,BURGLARY,0,809
3493,8090,2015-2016,BULLYING,0,809
3494,8090,2015-2016,HARASSMENT,0,809
3495,8090,2015-2016,FIRE - INCENDIARY,0,809
3496,8090,2015-2016,THREATS,2,809
3497,8090,2015-2016,THEFTS,1,809
3498,8090,2015-2016,DISORDERLY CONDUCT,8,809
3499,8090,2015-2016,ASSAULTS,3,809
3500,8090,2015-2016,BOMB SCARES,0,809
3501,8090,2015-2016,SUICIDE - ATTEMPTS & THREATS,1,809
3502,8100,2015-2016,FIRE - INCENDIARY,0,810
3503,8100,2015-2016,BURGLARY,0,810
3504,8100,2015-2016,WEAPONS,0,810
3505,8100,2015-2016,HARASSMENT,0,810
3506,8100,2015-2016,THREATS,0,810
3507,8100,2015-2016,MORALS OFFENSES,0,810
3508,8100,2015-2016,VANDALISM,0,810
3509,8100,2015-2016,ASSAULTS,0,810
3510,8100,2015-2016,SUICIDE - ATTEMPTS & THREATS,0,810
3511,8100,2015-2016,DISORDERLY CONDUCT,0,810
3512,8100,2015-2016,BULLYING,0,810
3513,8100,2015-2016,GRAFFITI,0,810
3514,8100,2015-2016,TRESPASSING,0,810
3515,8100,2015-2016,THEFTS,0,810
3516,8100,2015-2016,BOMB SCARES,0,810
3517,8100,2015-2016,DRUG & ALCOHOL OFFENSES,0,810
3518,8100,2015-2016,ROBBERY,0,810
3519,8120,2015-2016,ROBBERY,1,812
3520,8120,2015-2016,SUICIDE - ATTEMPTS & THREATS,0,812
3521,8120,2015-2016,WEAPONS,5,812
3522,8120,2015-2016,FIRE - INCENDIARY,0,812
3523,8120,2015-2016,BULLYING,0,812
3524,8120,2015-2016,GRAFFITI,0,812
3525,8120,2015-2016,DISORDERLY CONDUCT,42,812
3526,8120,2015-2016,BOMB SCARES,0,812
3527,8120,2015-2016,THEFTS,3,812
3528,8120,2015-2016,BURGLARY,1,812
3529,8120,2015-2016,TRESPASSING,2,812
3530,8120,2015-2016,VANDALISM,25,812
3531,8120,2015-2016,HARASSMENT,1,812
3532,8120,2015-2016,THREATS,8,812
3533,8120,2015-2016,MORALS OFFENSES,6,812
3534,8120,2015-2016,ASSAULTS,16,812
3535,8120,2015-2016,DRUG & ALCOHOL OFFENSES,0,812
3536,8140,2015-2016,THREATS,4,814
3537,8140,2015-2016,GRAFFITI,3,814
3538,8140,2015-2016,BOMB SCARES,0,814
3539,8140,2015-2016,ROBBERY,0,814
3540,8140,2015-2016,HARASSMENT,2,814
3541,8140,2015-2016,SUICIDE - ATTEMPTS & THREATS,0,814
3542,8140,2015-2016,DRUG & ALCOHOL OFFENSES,0,814
3543,8140,2015-2016,THEFTS,0,814
3544,8140,2015-2016,WEAPONS,3,814
3545,8140,2015-2016,MORALS OFFENSES,5,814
3546,8140,2015-2016,FIRE - INCENDIARY,2,814
3547,8140,2015-2016,ASSAULTS,10,814
3548,8140,2015-2016,BURGLARY,0,814
3549,8140,2015-2016,VANDALISM,5,814
3550,8140,2015-2016,DISORDERLY CONDUCT,16,814
3551,8140,2015-2016,TRESPASSING,0,814
3552,8140,2015-2016,BULLYING,0,814
3553,8160,2015-2016,ASSAULTS,5,816
3554,8160,2015-2016,MORALS OFFENSES,1,816
3555,8160,2015-2016,BULLYING,0,816
3556,8160,2015-2016,BURGLARY,1,816
3557,8160,2015-2016,VANDALISM,1,816
3558,8160,2015-2016,TRESPASSING,1,816
3559,8160,2015-2016,THREATS,2,816
3560,8160,2015-2016,GRAFFITI,0,816
3561,8160,2015-2016,FIRE - INCENDIARY,0,816
3562,8160,2015-2016,SUICIDE - ATTEMPTS & THREATS,0,816
3563,8160,2015-2016,WEAPONS,1,816
3564,8160,2015-2016,ROBBERY,0,816
3565,8160,2015-2016,DISORDERLY CONDUCT,11,816
3566,8160,2015-2016,THEFTS,3,816
3567,8160,2015-2016,DRUG & ALCOHOL OFFENSES,1,816
3568,8160,2015-2016,BOMB SCARES,0,816
3569,8160,2015-2016,HARASSMENT,0,816
3570,8180,2015-2016,BOMB SCARES,0,818
3571,8180,2015-2016,SUICIDE - ATTEMPTS & THREATS,0,818
3572,8180,2015-2016,DISORDERLY CONDUCT,0,818
3573,8180,2015-2016,WEAPONS,0,818
3574,8180,2015-2016,MORALS OFFENSES,0,818
3575,8180,2015-2016,VANDALISM,0,818
3576,8180,2015-2016,BURGLARY,0,818
3577,8180,2015-2016,BULLYING,0,818
3578,8180,2015-2016,THEFTS,0,818
3579,8180,2015-2016,DRUG & ALCOHOL OFFENSES,0,818
3580,8180,2015-2016,HARASSMENT,0,818
3581,8180,2015-2016,GRAFFITI,0,818
3582,8180,2015-2016,ROBBERY,0,818
3583,8180,2015-2016,ASSAULTS,0,818
3584,8180,2015-2016,THREATS,0,818
3585,8180,2015-2016,TRESPASSING,0,818
3586,8180,2015-2016,FIRE - INCENDIARY,0,818
3587,8190,2015-2016,ROBBERY,0,819
3588,8190,2015-2016,THEFTS,0,819
3589,8190,2015-2016,BOMB SCARES,0,819
3590,8190,2015-2016,BULLYING,0,819
3591,8190,2015-2016,SUICIDE - ATTEMPTS & THREATS,0,819
3592,8190,2015-2016,BURGLARY,0,819
3593,8190,2015-2016,FIRE - INCENDIARY,0,819
3594,8190,2015-2016,GRAFFITI,0,819
3595,8190,2015-2016,TRESPASSING,0,819
3596,8190,2015-2016,WEAPONS,0,819
3597,8190,2015-2016,DRUG & ALCOHOL OFFENSES,0,819
3598,8190,2015-2016,VANDALISM,0,819
3599,8190,2015-2016,ASSAULTS,0,819
3600,8190,2015-2016,THREATS,0,819
3601,8190,2015-2016,DISORDERLY CONDUCT,0,819
3602,8190,2015-2016,MORALS OFFENSES,0,819
3603,8190,2015-2016,HARASSMENT,0,819
3604,8200,2015-2016,VANDALISM,2,820
3605,8200,2015-2016,BURGLARY,0,820
3606,8200,2015-2016,ROBBERY,0,820
3607,8200,2015-2016,GRAFFITI,0,820
3608,8200,2015-2016,WEAPONS,2,820
3609,8200,2015-2016,ASSAULTS,4,820
3610,8200,2015-2016,THREATS,0,820
3611,8200,2015-2016,MORALS OFFENSES,0,820
3612,8200,2015-2016,FIRE - INCENDIARY,0,820
3613,8200,2015-2016,TRESPASSING,0,820
3614,8200,2015-2016,DRUG & ALCOHOL OFFENSES,0,820
3615,8200,2015-2016,DISORDERLY CONDUCT,9,820
3616,8200,2015-2016,BOMB SCARES,1,820
3617,8200,2015-2016,THEFTS,0,820
3618,8200,2015-2016,HARASSMENT,0,820
3619,8200,2015-2016,SUICIDE - ATTEMPTS & THREATS,0,820
3620,8200,2015-2016,BULLYING,0,820
3621,8210,2015-2016,MORALS OFFENSES,0,821
3622,8210,2015-2016,WEAPONS,0,821
3623,8210,2015-2016,HARASSMENT,0,821
3624,8210,2015-2016,ROBBERY,0,821
3625,8210,2015-2016,DISORDERLY CONDUCT,2,821
3626,8210,2015-2016,SUICIDE - ATTEMPTS & THREATS,0,821
3627,8210,2015-2016,GRAFFITI,0,821
3628,8210,2015-2016,TRESPASSING,0,821
3629,8210,2015-2016,THREATS,1,821
3630,8210,2015-2016,FIRE - INCENDIARY,0,821
3631,8210,2015-2016,DRUG & ALCOHOL OFFENSES,0,821
3632,8210,2015-2016,VANDALISM,0,821
3633,8210,2015-2016,ASSAULTS,0,821
3634,8210,2015-2016,THEFTS,0,821
3635,8210,2015-2016,BURGLARY,0,821
3636,8210,2015-2016,BULLYING,0,821
3637,8210,2015-2016,BOMB SCARES,0,821
3638,8230,2015-2016,ROBBERY,0,823
3639,8230,2015-2016,BULLYING,0,823
3640,8230,2015-2016,BOMB SCARES,0,823
3641,8230,2015-2016,THEFTS,0,823
3642,8230,2015-2016,SUICIDE - ATTEMPTS & THREATS,0,823
3643,8230,2015-2016,BURGLARY,0,823
3644,8230,2015-2016,HARASSMENT,0,823
3645,8230,2015-2016,DISORDERLY CONDUCT,1,823
3646,8230,2015-2016,ASSAULTS,0,823
3647,8230,2015-2016,MORALS OFFENSES,0,823
3648,8230,2015-2016,DRUG & ALCOHOL OFFENSES,0,823
3649,8230,2015-2016,THREATS,0,823
3650,8230,2015-2016,TRESPASSING,0,823
3651,8230,2015-2016,VANDALISM,0,823
3652,8230,2015-2016,WEAPONS,0,823
3653,8230,2015-2016,GRAFFITI,0,823
3654,8230,2015-2016,FIRE - INCENDIARY,0,823
3655,8240,2015-2016,DISORDERLY CONDUCT,5,824
3656,8240,2015-2016,HARASSMENT,0,824
3657,8240,2015-2016,THEFTS,0,824
3658,8240,2015-2016,BOMB SCARES,0,824
3659,8240,2015-2016,MORALS OFFENSES,1,824
3660,8240,2015-2016,WEAPONS,1,824
3661,8240,2015-2016,BURGLARY,0,824
3662,8240,2015-2016,FIRE - INCENDIARY,2,824
3663,8240,2015-2016,TRESPASSING,0,824
3664,8240,2015-2016,GRAFFITI,0,824
3665,8240,2015-2016,DRUG & ALCOHOL OFFENSES,1,824
3666,8240,2015-2016,ASSAULTS,2,824
3667,8240,2015-2016,THREATS,4,824
3668,8240,2015-2016,BULLYING,0,824
3669,8240,2015-2016,ROBBERY,0,824
3670,8240,2015-2016,SUICIDE - ATTEMPTS & THREATS,0,824
3671,8240,2015-2016,VANDALISM,4,824
3672,8250,2015-2016,BURGLARY,0,825
3673,8250,2015-2016,BULLYING,0,825
3674,8250,2015-2016,GRAFFITI,0,825
3675,8250,2015-2016,TRESPASSING,0,825
3676,8250,2015-2016,SUICIDE - ATTEMPTS & THREATS,1,825
3677,8250,2015-2016,ROBBERY,0,825
3678,8250,2015-2016,BOMB SCARES,0,825
3679,8250,2015-2016,MORALS OFFENSES,0,825
3680,8250,2015-2016,DISORDERLY CONDUCT,8,825
3681,8250,2015-2016,DRUG & ALCOHOL OFFENSES,0,825
3682,8250,2015-2016,FIRE - INCENDIARY,0,825
3683,8250,2015-2016,WEAPONS,0,825
3684,8250,2015-2016,VANDALISM,2,825
3685,8250,2015-2016,ASSAULTS,1,825
3686,8250,2015-2016,THREATS,1,825
3687,8250,2015-2016,THEFTS,0,825
3688,8250,2015-2016,HARASSMENT,0,825
3689,8260,2015-2016,BOMB SCARES,0,826
3690,8260,2015-2016,BURGLARY,0,826
3691,8260,2015-2016,WEAPONS,0,826
3692,8260,2015-2016,FIRE - INCENDIARY,0,826
3693,8260,2015-2016,THEFTS,0,826
3694,8260,2015-2016,DRUG & ALCOHOL OFFENSES,0,826
3695,8260,2015-2016,DISORDERLY CONDUCT,1,826
3696,8260,2015-2016,HARASSMENT,0,826
3697,8260,2015-2016,BULLYING,0,826
3698,8260,2015-2016,ROBBERY,0,826
3699,8260,2015-2016,GRAFFITI,0,826
3700,8260,2015-2016,ASSAULTS,0,826
3701,8260,2015-2016,THREATS,1,826
3702,8260,2015-2016,VANDALISM,0,826
3703,8260,2015-2016,TRESPASSING,0,826
3704,8260,2015-2016,SUICIDE - ATTEMPTS & THREATS,0,826
3705,8260,2015-2016,MORALS OFFENSES,0,826
3706,8270,2015-2016,HARASSMENT,0,827
3707,8270,2015-2016,ASSAULTS,0,827
3708,8270,2015-2016,MORALS OFFENSES,0,827
3709,8270,2015-2016,TRESPASSING,0,827
3710,8270,2015-2016,BURGLARY,0,827
3711,8270,2015-2016,SUICIDE - ATTEMPTS & THREATS,0,827
3712,8270,2015-2016,DISORDERLY CONDUCT,2,827
3713,8270,2015-2016,GRAFFITI,0,827
3714,8270,2015-2016,THREATS,0,827
3715,8270,2015-2016,VANDALISM,1,827
3716,8270,2015-2016,WEAPONS,2,827
3717,8270,2015-2016,BULLYING,0,827
3718,8270,2015-2016,ROBBERY,0,827
3719,8270,2015-2016,DRUG & ALCOHOL OFFENSES,0,827
3720,8270,2015-2016,THEFTS,0,827
3721,8270,2015-2016,FIRE - INCENDIARY,0,827
3722,8270,2015-2016,BOMB SCARES,0,827
3723,8300,2015-2016,DISORDERLY CONDUCT,37,830
3724,8300,2015-2016,WEAPONS,3,830
3725,8300,2015-2016,THEFTS,2,830
3726,8300,2015-2016,THREATS,1,830
3727,8300,2015-2016,ROBBERY,0,830
3728,8300,2015-2016,DRUG & ALCOHOL OFFENSES,0,830
3729,8300,2015-2016,BOMB SCARES,0,830
3730,8300,2015-2016,GRAFFITI,0,830
3731,8300,2015-2016,HARASSMENT,0,830
3732,8300,2015-2016,BULLYING,0,830
3733,8300,2015-2016,MORALS OFFENSES,7,830
3734,8300,2015-2016,VANDALISM,2,830
3735,8300,2015-2016,TRESPASSING,0,830
3736,8300,2015-2016,BURGLARY,0,830
3737,8300,2015-2016,SUICIDE - ATTEMPTS & THREATS,1,830
3738,8300,2015-2016,ASSAULTS,3,830
3739,8300,2015-2016,FIRE - INCENDIARY,1,830
3740,8310,2015-2016,BULLYING,0,831
3741,8310,2015-2016,GRAFFITI,0,831
3742,8310,2015-2016,ASSAULTS,1,831
3743,8310,2015-2016,VANDALISM,1,831
3744,8310,2015-2016,BOMB SCARES,0,831
3745,8310,2015-2016,ROBBERY,0,831
3746,8310,2015-2016,DRUG & ALCOHOL OFFENSES,0,831
3747,8310,2015-2016,BURGLARY,0,831
3748,8310,2015-2016,MORALS OFFENSES,0,831
3749,8310,2015-2016,THEFTS,1,831
3750,8310,2015-2016,FIRE - INCENDIARY,1,831
3751,8310,2015-2016,DISORDERLY CONDUCT,7,831
3752,8310,2015-2016,HARASSMENT,0,831
3753,8310,2015-2016,SUICIDE - ATTEMPTS & THREATS,0,831
3754,8310,2015-2016,WEAPONS,1,831
3755,8310,2015-2016,TRESPASSING,1,831
3756,8310,2015-2016,THREATS,2,831
3757,8320,2015-2016,ROBBERY,0,832
3758,8320,2015-2016,HARASSMENT,0,832
3759,8320,2015-2016,WEAPONS,0,832
3760,8320,2015-2016,THEFTS,0,832
3761,8320,2015-2016,BOMB SCARES,0,832
3762,8320,2015-2016,BULLYING,0,832
3763,8320,2015-2016,BURGLARY,0,832
3764,8320,2015-2016,VANDALISM,0,832
3765,8320,2015-2016,GRAFFITI,0,832
3766,8320,2015-2016,FIRE - INCENDIARY,0,832
3767,8320,2015-2016,MORALS OFFENSES,0,832
3768,8320,2015-2016,TRESPASSING,0,832
3769,8320,2015-2016,ASSAULTS,0,832
3770,8320,2015-2016,THREATS,0,832
3771,8320,2015-2016,SUICIDE - ATTEMPTS & THREATS,1,832
3772,8320,2015-2016,DRUG & ALCOHOL OFFENSES,0,832
3773,8320,2015-2016,DISORDERLY CONDUCT,0,832
3774,8340,2015-2016,DISORDERLY CONDUCT,26,834
3775,8340,2015-2016,BULLYING,0,834
3776,8340,2015-2016,THEFTS,1,834
3777,8340,2015-2016,THREATS,1,834
3778,8340,2015-2016,WEAPONS,2,834
3779,8340,2015-2016,DRUG & ALCOHOL OFFENSES,0,834
3780,8340,2015-2016,ROBBERY,0,834
3781,8340,2015-2016,ASSAULTS,0,834
3782,8340,2015-2016,FIRE - INCENDIARY,1,834
3783,8340,2015-2016,VANDALISM,5,834
3784,8340,2015-2016,GRAFFITI,0,834
3785,8340,2015-2016,BURGLARY,0,834
3786,8340,2015-2016,TRESPASSING,0,834
3787,8340,2015-2016,SUICIDE - ATTEMPTS & THREATS,0,834
3788,8340,2015-2016,BOMB SCARES,0,834
3789,8340,2015-2016,MORALS OFFENSES,0,834
3790,8340,2015-2016,HARASSMENT,0,834
3791,8350,2015-2016,THEFTS,3,835
3792,8350,2015-2016,BURGLARY,2,835
3793,8350,2015-2016,ROBBERY,0,835
3794,8350,2015-2016,SUICIDE - ATTEMPTS & THREATS,0,835
3795,8350,2015-2016,TRESPASSING,0,835
3796,8350,2015-2016,VANDALISM,4,835
3797,8350,2015-2016,WEAPONS,1,835
3798,8350,2015-2016,BOMB SCARES,1,835
3799,8350,2015-2016,DISORDERLY CONDUCT,13,835
3800,8350,2015-2016,ASSAULTS,3,835
3801,8350,2015-2016,BULLYING,0,835
3802,8350,2015-2016,GRAFFITI,0,835
3803,8350,2015-2016,THREATS,0,835
3804,8350,2015-2016,DRUG & ALCOHOL OFFENSES,0,835
3805,8350,2015-2016,HARASSMENT,0,835
3806,8350,2015-2016,MORALS OFFENSES,0,835
3807,8350,2015-2016,FIRE - INCENDIARY,1,835
3808,8360,2015-2016,DRUG & ALCOHOL OFFENSES,0,836
3809,8360,2015-2016,THEFTS,0,836
3810,8360,2015-2016,ROBBERY,0,836
3811,8360,2015-2016,BURGLARY,0,836
3812,8360,2015-2016,DISORDERLY CONDUCT,0,836
3813,8360,2015-2016,MORALS OFFENSES,0,836
3814,8360,2015-2016,BOMB SCARES,0,836
3815,8360,2015-2016,THREATS,0,836
3816,8360,2015-2016,WEAPONS,0,836
3817,8360,2015-2016,HARASSMENT,0,836
3818,8360,2015-2016,TRESPASSING,0,836
3819,8360,2015-2016,BULLYING,0,836
3820,8360,2015-2016,SUICIDE - ATTEMPTS & THREATS,0,836
3821,8360,2015-2016,VANDALISM,0,836
3822,8360,2015-2016,ASSAULTS,0,836
3823,8360,2015-2016,FIRE - INCENDIARY,0,836
3824,8360,2015-2016,GRAFFITI,0,836
3825,8370,2015-2016,MORALS OFFENSES,1,837
3826,8370,2015-2016,THEFTS,3,837
3827,8370,2015-2016,WEAPONS,0,837
3828,8370,2015-2016,SUICIDE - ATTEMPTS & THREATS,0,837
3829,8370,2015-2016,THREATS,1,837
3830,8370,2015-2016,BULLYING,1,837
3831,8370,2015-2016,HARASSMENT,0,837
3832,8370,2015-2016,TRESPASSING,0,837
3833,8370,2015-2016,BOMB SCARES,0,837
3834,8370,2015-2016,GRAFFITI,0,837
3835,8370,2015-2016,DRUG & ALCOHOL OFFENSES,0,837
3836,8370,2015-2016,ROBBERY,0,837
3837,8370,2015-2016,ASSAULTS,2,837
3838,8370,2015-2016,BURGLARY,0,837
3839,8370,2015-2016,DISORDERLY CONDUCT,6,837
3840,8370,2015-2016,FIRE - INCENDIARY,1,837
3841,8370,2015-2016,VANDALISM,0,837
3842,8380,2015-2016,VANDALISM,3,838
3843,8380,2015-2016,BULLYING,0,838
3844,8380,2015-2016,THREATS,0,838
3845,8380,2015-2016,BOMB SCARES,0,838
3846,8380,2015-2016,MORALS OFFENSES,1,838
3847,8380,2015-2016,BURGLARY,0,838
3848,8380,2015-2016,ROBBERY,1,838
3849,8380,2015-2016,SUICIDE - ATTEMPTS & THREATS,0,838
3850,8380,2015-2016,WEAPONS,2,838
3851,8380,2015-2016,ASSAULTS,1,838
3852,8380,2015-2016,HARASSMENT,0,838
3853,8380,2015-2016,FIRE - INCENDIARY,0,838
3854,8380,2015-2016,THEFTS,0,838
3855,8380,2015-2016,DRUG & ALCOHOL OFFENSES,0,838
3856,8380,2015-2016,DISORDERLY CONDUCT,8,838
3857,8380,2015-2016,GRAFFITI,2,838
3858,8380,2015-2016,TRESPASSING,0,838
3859,8390,2015-2016,THEFTS,0,839
3860,8390,2015-2016,WEAPONS,1,839
3861,8390,2015-2016,THREATS,6,839
3862,8390,2015-2016,HARASSMENT,0,839
3863,8390,2015-2016,GRAFFITI,1,839
3864,8390,2015-2016,MORALS OFFENSES,0,839
3865,8390,2015-2016,BURGLARY,0,839
3866,8390,2015-2016,VANDALISM,0,839
3867,8390,2015-2016,DRUG & ALCOHOL OFFENSES,0,839
3868,8390,2015-2016,SUICIDE - ATTEMPTS & THREATS,0,839
3869,8390,2015-2016,BULLYING,0,839
3870,8390,2015-2016,ASSAULTS,1,839
3871,8390,2015-2016,ROBBERY,0,839
3872,8390,2015-2016,TRESPASSING,0,839
3873,8390,2015-2016,BOMB SCARES,0,839
3874,8390,2015-2016,FIRE - INCENDIARY,0,839
3875,8390,2015-2016,DISORDERLY CONDUCT,24,839
3876,8400,2015-2016,GRAFFITI,0,840
3877,8400,2015-2016,DISORDERLY CONDUCT,3,840
3878,8400,2015-2016,BULLYING,0,840
3879,8400,2015-2016,THREATS,1,840
3880,8400,2015-2016,ROBBERY,0,840
3881,8400,2015-2016,BOMB SCARES,0,840
3882,8400,2015-2016,MORALS OFFENSES,0,840
3883,8400,2015-2016,BURGLARY,0,840
3884,8400,2015-2016,ASSAULTS,0,840
3885,8400,2015-2016,VANDALISM,0,840
3886,8400,2015-2016,FIRE - INCENDIARY,0,840
3887,8400,2015-2016,DRUG & ALCOHOL OFFENSES,0,840
3888,8400,2015-2016,SUICIDE - ATTEMPTS & THREATS,0,840
3889,8400,2015-2016,TRESPASSING,0,840
3890,8400,2015-2016,HARASSMENT,0,840
3891,8400,2015-2016,THEFTS,1,840
3892,8400,2015-2016,WEAPONS,0,840
3893,8410,2015-2016,MORALS OFFENSES,1,841
3894,8410,2015-2016,DISORDERLY CONDUCT,11,841
3895,8410,2015-2016,THEFTS,0,841
3896,8410,2015-2016,DRUG & ALCOHOL OFFENSES,1,841
3897,8410,2015-2016,SUICIDE - ATTEMPTS & THREATS,1,841
3898,8410,2015-2016,ASSAULTS,1,841
3899,8410,2015-2016,BURGLARY,0,841
3900,8410,2015-2016,FIRE - INCENDIARY,0,841
3901,8410,2015-2016,GRAFFITI,0,841
3902,8410,2015-2016,BOMB SCARES,0,841
3903,8410,2015-2016,VANDALISM,1,841
3904,8410,2015-2016,TRESPASSING,0,841
3905,8410,2015-2016,WEAPONS,0,841
3906,8410,2015-2016,BULLYING,0,841
3907,8410,2015-2016,THREATS,0,841
3908,8410,2015-2016,HARASSMENT,0,841
3909,8410,2015-2016,ROBBERY,0,841
3910,8420,2015-2016,DRUG & ALCOHOL OFFENSES,0,842
3911,8420,2015-2016,BURGLARY,0,842
3912,8420,2015-2016,BULLYING,0,842
3913,8420,2015-2016,SUICIDE - ATTEMPTS & THREATS,0,842
3914,8420,2015-2016,DISORDERLY CONDUCT,9,842
3915,8420,2015-2016,MORALS OFFENSES,1,842
3916,8420,2015-2016,GRAFFITI,0,842
3917,8420,2015-2016,ASSAULTS,1,842
3918,8420,2015-2016,VANDALISM,0,842
3919,8420,2015-2016,ROBBERY,0,842
3920,8420,2015-2016,WEAPONS,1,842
3921,8420,2015-2016,HARASSMENT,0,842
3922,8420,2015-2016,TRESPASSING,0,842
3923,8420,2015-2016,THREATS,1,842
3924,8420,2015-2016,FIRE - INCENDIARY,0,842
3925,8420,2015-2016,THEFTS,0,842
3926,8420,2015-2016,BOMB SCARES,0,842
3927,8430,2015-2016,GRAFFITI,0,843
3928,8430,2015-2016,FIRE - INCENDIARY,0,843
3929,8430,2015-2016,ROBBERY,0,843
3930,8430,2015-2016,WEAPONS,0,843
3931,8430,2015-2016,BOMB SCARES,0,843
3932,8430,2015-2016,HARASSMENT,0,843
3933,8430,2015-2016,BULLYING,0,843
3934,8430,2015-2016,VANDALISM,0,843
3935,8430,2015-2016,ASSAULTS,0,843
3936,8430,2015-2016,TRESPASSING,0,843
3937,8430,2015-2016,THREATS,1,843
3938,8430,2015-2016,MORALS OFFENSES,1,843
3939,8430,2015-2016,BURGLARY,0,843
3940,8430,2015-2016,THEFTS,0,843
3941,8430,2015-2016,SUICIDE - ATTEMPTS & THREATS,0,843
3942,8430,2015-2016,DRUG & ALCOHOL OFFENSES,0,843
3943,8430,2015-2016,DISORDERLY CONDUCT,3,843
3944,8440,2015-2016,DISORDERLY CONDUCT,7,844
3945,8440,2015-2016,ASSAULTS,0,844
3946,8440,2015-2016,GRAFFITI,0,844
3947,8440,2015-2016,THEFTS,1,844
3948,8440,2015-2016,SUICIDE - ATTEMPTS & THREATS,1,844
3949,8440,2015-2016,BOMB SCARES,0,844
3950,8440,2015-2016,ROBBERY,0,844
3951,8440,2015-2016,HARASSMENT,0,844
3952,8440,2015-2016,WEAPONS,0,844
3953,8440,2015-2016,BULLYING,0,844
3954,8440,2015-2016,FIRE - INCENDIARY,0,844
3955,8440,2015-2016,VANDALISM,0,844
3956,8440,2015-2016,BURGLARY,1,844
3957,8440,2015-2016,TRESPASSING,1,844
3958,8440,2015-2016,THREATS,0,844
3959,8440,2015-2016,DRUG & ALCOHOL OFFENSES,0,844
3960,8440,2015-2016,MORALS OFFENSES,1,844
3961,8450,2015-2016,WEAPONS,0,845
3962,8450,2015-2016,ROBBERY,0,845
3963,8450,2015-2016,ASSAULTS,0,845
3964,8450,2015-2016,DRUG & ALCOHOL OFFENSES,0,845
3965,8450,2015-2016,SUICIDE - ATTEMPTS & THREATS,0,845
3966,8450,2015-2016,MORALS OFFENSES,0,845
3967,8450,2015-2016,THEFTS,0,845
3968,8450,2015-2016,BULLYING,0,845
3969,8450,2015-2016,THREATS,0,845
3970,8450,2015-2016,TRESPASSING,0,845
3971,8450,2015-2016,HARASSMENT,0,845
3972,8450,2015-2016,VANDALISM,0,845
3973,8450,2015-2016,FIRE - INCENDIARY,0,845
3974,8450,2015-2016,BURGLARY,0,845
3975,8450,2015-2016,BOMB SCARES,0,845
3976,8450,2015-2016,DISORDERLY CONDUCT,0,845
3977,8450,2015-2016,GRAFFITI,0,845
3978,8460,2015-2016,GRAFFITI,0,846
3979,8460,2015-2016,HARASSMENT,0,846
3980,8460,2015-2016,THEFTS,1,846
3981,8460,2015-2016,VANDALISM,0,846
3982,8460,2015-2016,ASSAULTS,4,846
3983,8460,2015-2016,DRUG & ALCOHOL OFFENSES,5,846
3984,8460,2015-2016,WEAPONS,2,846
3985,8460,2015-2016,SUICIDE - ATTEMPTS & THREATS,1,846
3986,8460,2015-2016,FIRE - INCENDIARY,0,846
3987,8460,2015-2016,TRESPASSING,0,846
3988,8460,2015-2016,ROBBERY,0,846
3989,8460,2015-2016,BULLYING,0,846
3990,8460,2015-2016,BURGLARY,0,846
3991,8460,2015-2016,BOMB SCARES,0,846
3992,8460,2015-2016,MORALS OFFENSES,0,846
3993,8460,2015-2016,THREATS,0,846
3994,8460,2015-2016,DISORDERLY CONDUCT,2,846
3995,8470,2015-2016,GRAFFITI,0,847
3996,8470,2015-2016,BURGLARY,0,847
3997,8470,2015-2016,SUICIDE - ATTEMPTS & THREATS,0,847
3998,8470,2015-2016,FIRE - INCENDIARY,0,847
3999,8470,2015-2016,HARASSMENT,0,847
4000,8470,2015-2016,VANDALISM,0,847
4001,8470,2015-2016,ASSAULTS,0,847
4002,8470,2015-2016,THREATS,3,847
4003,8470,2015-2016,DISORDERLY CONDUCT,2,847
4004,8470,2015-2016,TRESPASSING,0,847
4005,8470,2015-2016,DRUG & ALCOHOL OFFENSES,0,847
4006,8470,2015-2016,WEAPONS,0,847
4007,8470,2015-2016,BULLYING,0,847
4008,8470,2015-2016,THEFTS,1,847
4009,8470,2015-2016,BOMB SCARES,0,847
4010,8470,2015-2016,MORALS OFFENSES,0,847
4011,8470,2015-2016,ROBBERY,0,847
4012,8480,2015-2016,ASSAULTS,0,848
4013,8480,2015-2016,HARASSMENT,0,848
4014,8480,2015-2016,SUICIDE - ATTEMPTS & THREATS,0,848
4015,8480,2015-2016,FIRE - INCENDIARY,0,848
4016,8480,2015-2016,BULLYING,0,848
4017,8480,2015-2016,BOMB SCARES,0,848
4018,8480,2015-2016,GRAFFITI,0,848
4019,8480,2015-2016,DISORDERLY CONDUCT,0,848
4020,8480,2015-2016,ROBBERY,0,848
4021,8480,2015-2016,THEFTS,0,848
4022,8480,2015-2016,VANDALISM,0,848
4023,8480,2015-2016,WEAPONS,0,848
4024,8480,2015-2016,BURGLARY,0,848
4025,8480,2015-2016,DRUG & ALCOHOL OFFENSES,0,848
4026,8480,2015-2016,THREATS,0,848
4027,8480,2015-2016,MORALS OFFENSES,0,848
4028,8480,2015-2016,TRESPASSING,0,848
4029,8540,2015-2016,HARASSMENT,0,854
4030,8540,2015-2016,ASSAULTS,0,854
4031,8540,2015-2016,DISORDERLY CONDUCT,0,854
4032,8540,2015-2016,ROBBERY,0,854
4033,8540,2015-2016,BURGLARY,0,854
4034,8540,2015-2016,GRAFFITI,0,854
4035,8540,2015-2016,THEFTS,0,854
4036,8540,2015-2016,FIRE - INCENDIARY,0,854
4037,8540,2015-2016,DRUG & ALCOHOL OFFENSES,0,854
4038,8540,2015-2016,BULLYING,0,854
4039,8540,2015-2016,TRESPASSING,0,854
4040,8540,2015-2016,THREATS,0,854
4041,8540,2015-2016,SUICIDE - ATTEMPTS & THREATS,0,854
4042,8540,2015-2016,WEAPONS,0,854
4043,8540,2015-2016,MORALS OFFENSES,0,854
4044,8540,2015-2016,BOMB SCARES,0,854
4045,8540,2015-2016,VANDALISM,0,854
4046,8560,2015-2016,MORALS OFFENSES,0,856
4047,8560,2015-2016,ROBBERY,0,856
4048,8560,2015-2016,BOMB SCARES,0,856
4049,8560,2015-2016,ASSAULTS,0,856
4050,8560,2015-2016,DRUG & ALCOHOL OFFENSES,0,856
4051,8560,2015-2016,THREATS,0,856
4052,8560,2015-2016,HARASSMENT,0,856
4053,8560,2015-2016,WEAPONS,0,856
4054,8560,2015-2016,SUICIDE - ATTEMPTS & THREATS,0,856
4055,8560,2015-2016,BULLYING,0,856
4056,8560,2015-2016,DISORDERLY CONDUCT,1,856
4057,8560,2015-2016,BURGLARY,0,856
4058,8560,2015-2016,TRESPASSING,0,856
4059,8560,2015-2016,THEFTS,0,856
4060,8560,2015-2016,FIRE - INCENDIARY,0,856
4061,8560,2015-2016,GRAFFITI,0,856
4062,8560,2015-2016,VANDALISM,0,856
4063,8600,2015-2016,DISORDERLY CONDUCT,0,860
4064,8600,2015-2016,DRUG & ALCOHOL OFFENSES,0,860
4065,8600,2015-2016,MORALS OFFENSES,0,860
4066,8600,2015-2016,THEFTS,0,860
4067,8600,2015-2016,WEAPONS,0,860
4068,8600,2015-2016,BULLYING,0,860
4069,8600,2015-2016,GRAFFITI,0,860
4070,8600,2015-2016,BOMB SCARES,0,860
4071,8600,2015-2016,HARASSMENT,0,860
4072,8600,2015-2016,VANDALISM,0,860
4073,8600,2015-2016,TRESPASSING,0,860
4074,8600,2015-2016,BURGLARY,0,860
4075,8600,2015-2016,SUICIDE - ATTEMPTS & THREATS,0,860
4076,8600,2015-2016,FIRE - INCENDIARY,0,860
4077,8600,2015-2016,THREATS,0,860
4078,8600,2015-2016,ROBBERY,0,860
4079,8600,2015-2016,ASSAULTS,0,860
4080,8690,2015-2016,HARASSMENT,2,869
4081,8690,2015-2016,GRAFFITI,0,869
4082,8690,2015-2016,FIRE - INCENDIARY,0,869
4083,8690,2015-2016,BURGLARY,0,869
4084,8690,2015-2016,BULLYING,0,869
4085,8690,2015-2016,BOMB SCARES,0,869
4086,8690,2015-2016,ASSAULTS,2,869
4087,8690,2015-2016,TRESPASSING,0,869
4088,8690,2015-2016,THEFTS,3,869
4089,8690,2015-2016,SUICIDE - ATTEMPTS & THREATS,0,869
4090,8690,2015-2016,MORALS OFFENSES,0,869
4091,8690,2015-2016,WEAPONS,2,869
4092,8690,2015-2016,THREATS,4,869
4093,8690,2015-2016,DRUG & ALCOHOL OFFENSES,2,869
4094,8690,2015-2016,DISORDERLY CONDUCT,6,869
4095,8690,2015-2016,ROBBERY,0,869
4096,8690,2015-2016,VANDALISM,0,869
4097,8780,2015-2016,THEFTS,0,878
4098,8780,2015-2016,MORALS OFFENSES,0,878
4099,8780,2015-2016,HARASSMENT,0,878
4100,8780,2015-2016,TRESPASSING,0,878
4101,8780,2015-2016,BURGLARY,0,878
4102,8780,2015-2016,THREATS,0,878
4103,8780,2015-2016,DRUG & ALCOHOL OFFENSES,0,878
4104,8780,2015-2016,BOMB SCARES,0,878
4105,8780,2015-2016,VANDALISM,0,878
4106,8780,2015-2016,WEAPONS,0,878
4107,8780,2015-2016,BULLYING,0,878
4108,8780,2015-2016,SUICIDE - ATTEMPTS & THREATS,0,878
4109,8780,2015-2016,DISORDERLY CONDUCT,1,878
4110,8780,2015-2016,ROBBERY,0,878
4111,8780,2015-2016,FIRE - INCENDIARY,0,878
4112,8780,2015-2016,GRAFFITI,0,878
4113,8780,2015-2016,ASSAULTS,0,878
