,Wrestler,2013 Wins,2013 Losses,2013 Draws,2014 Wins,2014 Losses,2014 Draws,2015 Wins,2015 Losses,2015 Draws,2016 Wins,2016 Losses,2016 Draws
0,Dean Ambrose,70,134,4,129,36,2,150,63,5,133,67,4
1,Seth Rollins,50,150,4,87,105,4,51,124,1,39,75,4
2,Randy Orton,129,63,8,33,87,5,81,10,1,39,21,0
3,Roman Reigns,49,140,5,118,28,4,187,19,7,142,12,5
4,Ryback,103,88,3,43,114,1,138,34,2,37,17,1
5,Damien Sandow,39,147,3,3,113,0,50,9,2,11,18,0
6,Alberto Del Rio,126,53,4,31,82,1,26,13,2,24,65,2
7,Dolph Ziggler,62,117,1,134,60,2,115,52,2,114,56,2
8,Jack Swagger,56,96,2,49,123,1,65,65,0,73,70,0
9,Kofi Kingston,66,79,4,82,72,1,86,90,1,95,39,1
10,Zack Ryder,66,80,0,8,53,0,88,45,0,119,51,2
11,Jey Uso,85,54,1,139,42,4,37,28,1,76,90,0
12,Sheamus,110,25,5,141,29,2,58,86,1,44,115,5
13,Jimmy Uso,85,52,1,143,43,4,82,36,3,70,80,0
14,Titus O'Neil,29,108,1,29,132,1,92,61,0,47,73,1
15,The Miz,61,71,5,40,92,1,17,115,1,43,103,1
16,Heath Slater,5,129,1,11,106,1,1,131,0,62,64,0
17,John Cena,127,6,1,141,23,0,125,11,0,29,21,0
18,Darren Young,28,100,1,26,8,0,87,47,2,74,28,2
19,R-Truth,76,51,1,61,49,0,94,44,1,96,21,1
20,Fandango,58,66,1,20,124,1,69,75,1,24,111,0
21,Kane,98,26,0,10,126,1,44,92,0,103,15,0
22,The Big Show,64,53,3,107,21,2,30,94,1,60,16,1
23,Curtis Axel,50,58,3,22,132,1,58,68,2,11,114,0
24,Natalya,78,26,1,80,47,0,82,18,0,37,109,0
25,Luke Harper,64,37,0,31,140,1,55,122,3,20,51,1
26,Bo Dallas,65,26,0,52,60,1,15,141,1,17,104,1
27,Brie Bella,30,59,2,51,19,1,41,58,0,7,9,0
28,Naomi,70,15,2,71,16,2,55,92,1,41,43,0
29,Erick Rowan,56,30,0,38,124,2,53,44,1,14,72,1
30,Mark Henry,50,31,1,49,22,1,17,23,1,20,12,0
31,Bray Wyatt,56,23,0,49,129,0,28,133,2,24,107,2
32,Alicia Fox,18,48,0,27,116,0,36,74,0,49,25,1
33,Chris Jericho,35,23,1,25,5,1,42,4,0,38,77,0
34,Paige,41,16,0,84,47,2,68,62,2,30,15,0
35,Aiden English,18,37,0,37,37,0,57,40,0,12,118,2
36,Emma,28,26,0,74,26,0,62,62,0,14,30,0
37,Sami Zayn,26,26,0,54,52,0,22,11,1,111,59,6
38,Sasha Banks,23,29,0,26,46,0,62,87,2,101,28,5
39,Xavier Woods,30,20,0,33,45,1,53,59,1,83,26,1
40,Sin Cara,26,20,2,81,49,0,115,50,1,69,62,2
41,Colin Cassady,11,33,0,47,23,1,69,24,0,38,7,2
42,Bayley,22,21,0,46,31,0,99,19,1,126,11,2
43,Nikki Bella,21,22,0,75,39,0,68,43,0,34,13,1
44,Scott Dawson,10,32,0,12,29,0,38,58,0,34,63,3
45,Summer Rae,15,25,0,19,55,2,11,50,0,12,42,0
46,Goldust,25,13,1,101,77,1,22,40,0,96,26,0
47,Baron Corbin,8,28,0,55,16,0,61,54,0,103,59,3
48,Mojo Rawley,29,7,0,23,9,0,41,11,0,113,31,2
49,Charlotte,17,16,0,40,36,0,108,35,3,86,42,1
