,Wrestler,Wins,Losses,Draws
84,Christian,22,11,0
85,Yoshi Tatsu,13,17,2
86,Jason Jordan,11,20,0
87,Danny Burch,6,22,0
88,Diego,27,1,0
89,Fernando,27,1,0
90,Curt Hawkins,0,26,1
91,Jake Carter,12,15,0
92,Hunico,2,24,0
93,Tyler Breeze,7,19,0
94,Dante Dash,10,15,0
95,Tyson Kidd,12,13,0
96,Sawyer Fulton,10,14,0
97,Angelo Dawkins,10,13,0
98,Knuckles Madsen,4,19,0
99,Billy Gunn,18,2,1
100,Brad Maddox,3,18,0
101,Enzo Amore,3,15,1
102,JTG,0,19,0
103,Rey Mysterio,14,5,0
104,Travis Tyler,1,18,0
105,Axl Keegan,3,15,0
106,Camacho,5,13,0
107,Garrett Dylan,16,2,0
108,Mike Dalton,3,15,0
109,Road Dogg,17,0,1
110,Briley Pierce,1,14,1
111,David Otunga,0,16,0
112,Audrey Marie,6,9,0
113,Paul Heyman,2,11,0
114,Ricardo Rodriguez,6,6,1
115,Rosa Mendes,1,12,0
116,Sakamoto,3,9,1
117,Eva Marie,5,7,0
118,Percy Watson,3,9,0
119,Derrick Bateman,2,9,0
120,Kendall Skye,7,4,0
121,Troy McClain,1,10,0
122,William Regal,5,6,0
123,Malik Omari,3,6,1
124,Oliver Grey,7,3,0
125,Tye Dillinger,0,10,0
126,Konnor O'Brian,7,2,0
127,Sin Cara,9,0,0
128,Slate Randall,2,6,1
129,Cal Bishop,2,5,1
130,El Local,0,8,0
131,Mickey Keegan,1,7,0
132,Wesley Blake,5,3,0
133,Kalisto,3,4,0
134,Tamina,1,5,1
135,Viktor,6,1,0
136,Brandon Traven,1,5,0
137,Bull Dempsey,1,5,0
138,Judas Devlin,1,5,0
139,Rick Viktor,5,1,0
140,Zeb Colter,0,5,1
141,Adam Rose,4,1,0
142,El Torito,5,0,0
143,Eve Torres,3,2,0
144,JoJo,3,2,0
145,Konnor,5,0,0
146,Rami Sebei,2,3,0
147,Triple H,1,3,1
148,Alexa Bliss,1,3,0
149,Becky Lynch,0,4,0
150,El Local #1,0,4,0
151,El Local #2,0,4,0
152,Sylvester Lefort,1,3,0
153,The Undertaker,3,1,0
154,Bad News Barrett,3,0,0
155,Brock Lesnar,2,1,0
156,Hornswoggle,3,0,0
157,Luther Ward,2,1,0
158,Simon Gotch,1,2,0
159,Solomon Crowe,2,1,0
160,The Rock,2,1,0
161,Veronica Lane,0,3,0
162,Buddy Murphy,0,2,0
163,Denton Blackwell,0,2,0
164,Jamie Noble,2,0,0
165,Marcus Louis,0,2,0
166,Memo Montenegro,0,2,0
167,Vickie Guerrero,0,2,0
