,movie_display_name,movie_production_year,movie_genre_display_name,movie_financial_summary_production_budget,movie_financial_summary_international_box_office,movie_annual_summary_tickets_sold,movie_video_summary_domestic_dvd_units,movie_acting_role_display_name,movie_theatrical_release_release_date,movie_creative_type_display_name,movie_production_method_display_name,movie_source_display_name,movie_running_time,movie_technical_role_display_name,movie_production_company_display_name,movie_sequel
0,Ender's Game,2012,Adventure,110000000,28000000,7583868.0,847264.0,Asa Butterfield,2013-11-01,Science Fiction,Live Action,Based on Fiction Book/Short Story,114.0,Gavin Hood,Summit Entertainment,0
1,Foodfight!,2012,Comedy,45000000,73706,,,Wayne Brady,,Kids Fiction,Digital Animation,Original Screenplay,,,Threshold Entertainment,0
2,Madagascar 3: Europe's Most Wanted,2012,Adventure,145000000,530529789,27184859.0,3511489.0,Eric Darnell,2012-06-08,Kids Fiction,Digital Animation,Original Screenplay,85.0,Eric Darnell,DreamWorks Animation,1
3,Pompeii,2012,Drama,80000000,85300000,2835866.0,239403.0,Kit Harington,2014-02-21,Historical Fiction,Live Action,Original Screenplay,102.0,Paul W.S. Anderson,Constantin Film International,0
4,The Avengers,2012,Adventure,225000000,896200000,78301450.0,6025168.0,Scarlett Johansson,2012-05-04,Super Hero,Animation/Live Action,Based on Comic/Graphic Novel,143.0,Joss Whedon,Marvel Studios,0
5,Brave,2012,Adventure,185000000,317324350,29808677.0,7265553.0,Emma Thompson,2012-06-22,Kids Fiction,Digital Animation,Original Screenplay,93.0,Mark Andrews,Disney-Pixar,0
6,Man of Steel,2012,Action,225000000,376954000,35798956.0,2575890.0,Henry Cavill,2013-06-14,Super Hero,Live Action,Based on Comic/Graphic Novel,142.0,Emma Thomas,Warner Bros.,1
7,The Amazing Spider-Man,2012,Adventure,220000000,495859604,32918425.0,2413452.0,Andrew Garfield,2012-07-03,Super Hero,Live Action,Based on Comic/Graphic Novel,136.0,Steve Kloves,Columbia Pictures,1
8,The Hobbit: An Unexpected Journey,2012,Adventure,250000000,714000000,33145087.0,4379272.0,Hugo Weaving,2012-12-14,Fantasy,Animation/Live Action,Based on Fiction Book/Short Story,169.0,Peter Jackson,New Line Cinema,1
9,The Croods,2012,Adventure,135000000,385900000,23021946.0,2666130.0,Ryan Reynolds,2013-03-22,Kids Fiction,Digital Animation,Original Screenplay,98.0,Chris Sanders,Dreamworks Animation,0
10,Rise of the Guardians,2012,Adventure,145000000,203488144,12214531.0,2331566.0,Chris Pine,2012-11-21,Kids Fiction,Digital Animation,Based on Fiction Book/Short Story,97.0,Peter Ramsey,DreamWorks Animation,0
11,Star Trek Into Darkness,2012,Adventure,190000000,238200000,28140056.0,1844489.0,Chris Pine,2013-05-16,Science Fiction,Live Action,Based on TV,132.0,J.J. Abrams,Bad Robot,1
12,Monsters University,2012,Adventure,200000000,475100000,33024394.0,3527191.0,Billy Crystal,2013-06-21,Kids Fiction,Digital Animation,Original Screenplay,102.0,Dan Scanlon,Disney-Pixar,1
13,"The Twilight Saga: Breaking Dawn, Part 2",2012,Drama,136200000,537400000,36323285.0,5866258.0,Kristen Stewart,2012-11-16,Fantasy,Live Action,Based on Fiction Book/Short Story,115.0,Bill Condon,Temple Hill Entertainment,1
14,Elysium,2012,Action,120000000,193141974,11445278.0,902086.0,Wagner Moura,2013-08-09,Science Fiction,Live Action,Original Screenplay,109.0,Neill Blomkamp,TriStar Pictures,0
15,The Dark Knight Rises,2012,Action,275000000,636300000,56298881.0,6158956.0,Christian Bale,2012-07-20,Super Hero,Live Action,Based on Comic/Graphic Novel,164.0,Christopher Nolan,Warner Bros,1
16,Wrath of the Titans,2012,Adventure,150000000,221600000,10511316.0,1400711.0,Sam Worthington,2012-03-30,Fantasy,Animation/Live Action,Based on Folk Tale/Legend/Fairytale,99.0,Jonathan Liebesman,Warner Bros,1
17,A Good Day to Die Hard,2012,Action,92000000,236900000,8284034.0,916105.0,Bruce Willis,2013-02-14,Contemporary Fiction,Live Action,Original Screenplay,98.0,John Moore,20th Century Fox,1
18,The Secret Life of Walter Mitty,2012,Comedy,91000000,130300000,5592983.0,651523.0,Ben Stiller,2013-12-25,Contemporary Fiction,Live Action,Based on Fiction Book/Short Story,114.0,Ben Stiller,Samuel Goldwyn Films,0
19,The Host,2012,Thriller/Suspense,50000000,37853350,3274747.0,396448.0,Saorise Ronan,2013-03-29,Science Fiction,Live Action,Based on Fiction Book/Short Story,88.0,Stephenie Meyer,Open Road Films,0
20,Kill Your Darlings,2012,Drama,0,1054866,93543.0,,Daniel Radcliffe,2013-10-18,Historical Fiction,Live Action,Based on Fiction Book/Short Story,102.0,John Krokidas,Killer Films,0
21,Escape Plan,2012,Thriller/Suspense,70000000,78600000,3082848.0,626000.0,Sylvester Stallone,2013-10-18,Contemporary Fiction,Live Action,Original Screenplay,115.0,Mikael Hafstrom,Summit Entertainment,0
22,Total Recall,2012,Action,125000000,152978119,7396729.0,799739.0,Colin Farrell,2012-08-03,Science Fiction,Live Action,Based on Fiction Book/Short Story,117.0,Kurt Wimmer,Sony Pictures,0
23,Gravity,2012,Thriller/Suspense,110000000,442300000,31441779.0,1668580.0,George Clooney,2013-10-04,Contemporary Fiction,Live Action,Original Screenplay,91.0,Alfonso Cuaron,Warner Bros.,0
24,Evil Dead,2012,Horror,17000000,43538500,6671569.0,480612.0,Jane Levy,2013-04-05,Fantasy,Live Action,Remake,91.0,Fede Alverez,TriStar Pictures,0
25,The Great Gatsby,2012,Drama,190000000,206200000,17815549.0,2028725.0,Leonardo DiCaprio,2013-05-10,Historical Fiction,Live Action,Based on Fiction Book/Short Story,141.0,Baz Luhrmann,Warner Bros.,0
26,G.I. Joe: Retaliation,2012,Action,140000000,249400000,15070487.0,1125760.0,Ray Stevenson,2013-03-27,Contemporary Fiction,Animation/Live Action,Based on Toy,110.0,Jon M. Chu,Paramount Pictures,1
27,Iron Man 3,2012,Action,200000000,806400000,50306552.0,1266101.0,"Robert Downey, Jr.",2013-05-03,Super Hero,Animation/Live Action,Based on Comic/Graphic Novel,130.0,Shane Black,Marvel Studios,1
28,Pain & Gain,2012,Action,26000000,31400000,6134722.0,679755.0,Mark Wahlberg,2013-04-26,Contemporary Fiction,Live Action,Based on Real Life Events,129.0,Michael Bay,De Line Pictures,0
29,Ice Age: Continental Drift,2012,Adventure,95000000,718443294,20251769.0,2735688.0,Ray Romano,2012-07-13,Fantasy,Digital Animation,Original Screenplay,87.0,Steve Martino,20th Century Fox,1
30,Skyfall,2012,Action,200000000,806166704,37286980.0,2905594.0,Daniel Craig,2012-11-09,Contemporary Fiction,Live Action,Based on Fiction Book/Short Story,143.0,Micheal G. Wilson,Eon Productions,1
31,Resident Evil: Retribution,2012,Action,65000000,196595466,5319790.0,941284.0,Milla Jovovich,2012-09-14,Science Fiction,Live Action,Based on Game,95.0,Paul W.S. Anderson,Screen Gems,1
32,Wreck-It Ralph,2012,Adventure,165000000,284000000,22424829.0,3252448.0,John C. Reilly,2012-11-02,Kids Fiction,Digital Animation,Original Screenplay,101.0,Rich Moore,Walt Disney Animation Studios,0
33,The Expendables 2,2012,Action,100000000,226951064,10681933.0,1674632.0,Sylvester Stallone,2012-08-17,Contemporary Fiction,Live Action,Original Screenplay,103.0,Simon West,Lionsgate,1
34,Mirror Mirror,2012,Adventure,85000000,108678315,8157684.0,1456896.0,Mark Povinelli ,2012-03-30,Fantasy,Live Action,Based on Folk Tale/Legend/Fairytale,95.0,Tarsem Singh,Relativity Media,0
35,Trance,2012,Thriller/Suspense,16000000,20271459,285681.0,,James McAvoy,2013-04-05,Contemporary Fiction,Live Action,Original Screenplay,101.0,Danny Boyle,Pathe of a Cloud Eight,0
36,American Reunion,2012,Comedy,50000000,180040376,7130506.0,1080433.0,Jason Biggs,2012-04-06,Contemporary Fiction,Live Action,Original Screenplay,112.0,Jon Hurwitz,Universal Pictures,1
37,Think Like a Man,2012,Romantic Comedy,12000000,4607919,11500905.0,1081662.0,Michael Ealy,2012-04-20,Contemporary Fiction,Live Action,Based on Factual Book/Article,122.0,Tim Story,Screen Gems,0
38,What to Expect When You're Expecting,2012,Romantic Comedy,37500000,39500000,5169874.0,461676.0,Cameron Diaz,2012-05-18,Contemporary Fiction,Live Action,Based on Factual Book/Article,109.0,Kirk Jones,Lionsgate,0
39,Zero Dark Thirty,2012,Drama,52500000,38891719,11231805.0,867093.0,Jessica Chastain,2012-12-19,Dramatization,Live Action,Based on Real Life Events,137.0,Kathryn Bigelow,Columbia Pictures,0
40,Mama,2012,Horror,15000000,76467386,8810354.0,456283.0,Jessica Chastain,2013-01-18,Fantasy,Live Action,Based on Short Film,109.0,Andres Muschietti,Universal Pictures,0
41,Oblivion,2012,Thriller/Suspense,120000000,198809398,10960299.0,1016281.0,Tom Cruise,2013-04-19,Science Fiction,Live Action,Based on Comic/Graphic Novel,125.0,Joseph Kosinski,Universal Pictures,0
42,Savages,2012,Thriller/Suspense,45000000,31696956,5945113.0,632930.0,Blake Lively,2012-07-06,Contemporary Fiction,Live Action,Based on Fiction Book/Short Story,130.0,Oliver Stone,Universal Pictures,0
43,Fast and Furious 6,2012,Action,160000000,551272961,29357915.0,3462137.0,Vin Diesel,2013-05-24,Contemporary Fiction,Live Action,Based on Factual Book/Article,130.0,Justin Lin,Universal Pictures,1
44,Texas Chainsaw 3D,2012,Horror,20000000,13324068,1549504.0,246889.0,Gunnar Hansen,2013-01-04,Contemporary Fiction,Live Action,Original Screenplay,92.0,John Luessenhop,Lionsgate,1
