,code,name
1,4,Financial and private sector development
1,4,Financial and private sector development
0,4,Financial and private sector development
0,4,Financial and private sector development
1,4,Financial and private sector development
1,4,Financial and private sector development
2,4,Financial and private sector development
2,4,Financial and private sector development
1,4,Financial and private sector development
0,4,Financial and private sector development
2,4,Financial and private sector development
3,4,Financial and private sector development
0,4,Financial and private sector development
1,4,Financial and private sector development
1,4,Financial and private sector development
0,4,Financial and private sector development
1,4,Financial and private sector development
1,4,Financial and private sector development
0,4,Financial and private sector development
0,4,Financial and private sector development
1,4,Financial and private sector development
0,4,Financial and private sector development
1,4,Financial and private sector development
0,4,Financial and private sector development
1,4,Financial and private sector development
1,4,Financial and private sector development
1,4,Financial and private sector development
1,4,Financial and private sector development
0,4,Financial and private sector development
1,4,Financial and private sector development
2,4,Financial and private sector development
0,4,Financial and private sector development
2,4,Financial and private sector development
0,4,Financial and private sector development
1,4,Financial and private sector development
0,4,Financial and private sector development
0,4,Financial and private sector development
0,4,Financial and private sector development
1,4,Financial and private sector development
0,4,Financial and private sector development
0,4,Financial and private sector development
0,4,Financial and private sector development
0,4,Financial and private sector development
3,4,Financial and private sector development
0,4,Financial and private sector development
2,4,Financial and private sector development
3,4,Financial and private sector development
1,4,Financial and private sector development
2,4,Financial and private sector development
1,4,Financial and private sector development
0,4,Financial and private sector development
2,4,Financial and private sector development
0,4,Financial and private sector development
2,4,Financial and private sector development
2,4,Financial and private sector development
1,4,Financial and private sector development
2,4,Financial and private sector development
1,4,Financial and private sector development
1,4,Financial and private sector development
2,4,Financial and private sector development
1,4,Financial and private sector development
0,4,Financial and private sector development
0,4,Financial and private sector development
1,4,Financial and private sector development
1,4,Financial and private sector development
2,4,Financial and private sector development
0,4,Financial and private sector development
0,4,Financial and private sector development
0,4,Financial and private sector development
2,4,Financial and private sector development
3,4,Financial and private sector development
0,4,Financial and private sector development
1,4,Financial and private sector development
1,4,Financial and private sector development
2,4,Financial and private sector development
2,4,Financial and private sector development
0,4,Financial and private sector development
0,4,Financial and private sector development
0,4,Financial and private sector development
0,4,Financial and private sector development
1,4,Financial and private sector development
0,4,Financial and private sector development
0,4,Financial and private sector development
4,4,Financial and private sector development
1,4,Financial and private sector development
2,4,Financial and private sector development
2,4,Financial and private sector development
1,4,Financial and private sector development
0,4,Financial and private sector development
0,4,Financial and private sector development
3,4,Financial and private sector development
1,4,Financial and private sector development
4,4,Financial and private sector development
0,4,Financial and private sector development
1,4,Financial and private sector development
0,4,Financial and private sector development
1,4,Financial and private sector development
1,4,Financial and private sector development
0,4,Financial and private sector development
1,4,Financial and private sector development
1,4,Financial and private sector development
4,4,Financial and private sector development
1,4,Financial and private sector development
1,4,Financial and private sector development
0,4,Financial and private sector development
1,4,Financial and private sector development
0,4,Financial and private sector development
2,4,Financial and private sector development
4,4,Financial and private sector development
3,4,Financial and private sector development
4,4,Financial and private sector development
2,4,Financial and private sector development
0,4,Financial and private sector development
3,4,Financial and private sector development
0,4,Financial and private sector development
1,4,Financial and private sector development
0,4,Financial and private sector development
2,4,Financial and private sector development
3,4,Financial and private sector development
0,4,Financial and private sector development
1,4,Financial and private sector development
2,4,Financial and private sector development
1,4,Financial and private sector development
0,4,Financial and private sector development
0,4,Financial and private sector development
0,4,Financial and private sector development
1,4,Financial and private sector development
1,4,Financial and private sector development
0,4,Financial and private sector development
0,4,Financial and private sector development
2,4,Financial and private sector development
1,4,Financial and private sector development
1,4,Financial and private sector development
0,4,Financial and private sector development
2,4,Financial and private sector development
1,4,Financial and private sector development
1,4,Financial and private sector development
1,4,Financial and private sector development
1,4,Financial and private sector development
1,4,Financial and private sector development
0,4,Financial and private sector development
0,4,Financial and private sector development
1,4,Financial and private sector development
1,4,Financial and private sector development
0,4,Financial and private sector development
3,4,Financial and private sector development
