,code,name
0,10,Rural development
0,10,Rural development
0,10,Rural development
2,10,Rural development
0,10,Rural development
0,10,Rural development
0,10,Rural development
1,10,Rural development
2,10,Rural development
0,10,Rural development
1,10,Rural development
1,10,Rural development
0,10,Rural development
1,10,Rural development
1,10,Rural development
0,10,Rural development
2,10,Rural development
3,10,Rural development
1,10,Rural development
2,10,Rural development
3,10,Rural development
2,10,Rural development
2,10,Rural development
1,10,Rural development
1,10,Rural development
2,10,Rural development
3,10,Rural development
0,10,Rural development
1,10,Rural development
3,10,Rural development
4,10,Rural development
3,10,Rural development
1,10,Rural development
2,10,Rural development
3,10,Rural development
1,10,Rural development
1,10,Rural development
2,10,Rural development
1,10,Rural development
2,10,Rural development
0,10,Rural development
2,10,Rural development
3,10,Rural development
1,10,Rural development
1,10,Rural development
0,10,Rural development
1,10,Rural development
1,10,Rural development
1,10,Rural development
1,10,Rural development
2,10,Rural development
0,10,Rural development
4,10,Rural development
3,10,Rural development
3,10,Rural development
4,10,Rural development
3,10,Rural development
4,10,Rural development
3,10,Rural development
0,10,Rural development
1,10,Rural development
0,10,Rural development
3,10,Rural development
1,10,Rural development
0,10,Rural development
1,10,Rural development
4,10,Rural development
1,10,Rural development
0,10,Rural development
0,10,Rural development
1,10,Rural development
3,10,Rural development
0,10,Rural development
1,10,Rural development
2,10,Rural development
0,10,Rural development
2,10,Rural development
0,10,Rural development
3,10,Rural development
4,10,Rural development
1,10,Rural development
2,10,Rural development
1,10,Rural development
1,10,Rural development
0,10,Rural development
1,10,Rural development
2,10,Rural development
3,10,Rural development
4,10,Rural development
1,10,Rural development
2,10,Rural development
0,10,Rural development
1,10,Rural development
2,10,Rural development
3,10,Rural development
4,10,Rural development
0,10,Rural development
1,10,Rural development
2,10,Rural development
0,10,Rural development
1,10,Rural development
2,10,Rural development
1,10,Rural development
0,10,Rural development
3,10,Rural development
1,10,Rural development
1,10,Rural development
0,10,Rural development
0,10,Rural development
1,10,Rural development
1,10,Rural development
0,10,Rural development
0,10,Rural development
0,10,Rural development
1,10,Rural development
1,10,Rural development
2,10,Rural development
3,10,Rural development
1,10,Rural development
0,10,Rural development
2,10,Rural development
1,10,Rural development
2,10,Rural development
1,10,Rural development
0,10,Rural development
1,10,Rural development
0,10,Rural development
1,10,Rural development
2,10,Rural development
3,10,Rural development
1,10,Rural development
0,10,Rural development
1,10,Rural development
1,10,Rural development
2,10,Rural development
2,10,Rural development
2,10,Rural development
4,10,Rural development
1,10,Rural development
1,10,Rural development
2,10,Rural development
0,10,Rural development
2,10,Rural development
3,10,Rural development
1,10,Rural development
2,10,Rural development
1,10,Rural development
4,10,Rural development
0,10,Rural development
1,10,Rural development
3,10,Rural development
2,10,Rural development
3,10,Rural development
1,10,Rural development
4,10,Rural development
1,10,Rural development
3,10,Rural development
4,10,Rural development
1,10,Rural development
2,10,Rural development
4,10,Rural development
0,10,Rural development
1,10,Rural development
1,10,Rural development
3,10,Rural development
0,10,Rural development
0,10,Rural development
1,10,Rural development
2,10,Rural development
1,10,Rural development
0,10,Rural development
1,10,Rural development
2,10,Rural development
1,10,Rural development
0,10,Rural development
2,10,Rural development
1,10,Rural development
0,10,Rural development
3,10,Rural development
4,10,Rural development
0,10,Rural development
1,10,Rural development
0,10,Rural development
3,10,Rural development
4,10,Rural development
0,10,Rural development
1,10,Rural development
3,10,Rural development
4,10,Rural development
2,10,Rural development
0,10,Rural development
3,10,Rural development
0,10,Rural development
0,10,Rural development
1,10,Rural development
1,10,Rural development
2,10,Rural development
2,10,Rural development
0,10,Rural development
1,10,Rural development
1,10,Rural development
0,10,Rural development
0,10,Rural development
1,10,Rural development
0,10,Rural development
3,10,Rural development
2,10,Rural development
0,10,Rural development
3,10,Rural development
1,10,Rural development
2,10,Rural development
0,10,Rural development
0,10,Rural development
0,10,Rural development
1,10,Rural development
2,10,Rural development
