,nombre,n_concursados,n_aprobados,año
0,UNIV. DE CHILE,289,123,2015
1,PONT. UNIV. CATOLICA DE CHILE,225,108,2015
2,UNIV. DE CONCEPCION,112,46,2015
3,PONT. UNIV. CATOLICA DE VALPARAISO,70,33,2015
4,UNIV. TECNICA FEDERICO SANTA MARIA,50,24,2015
5,UNIV. DE SANTIAGO DE CHILE,77,31,2015
6,UNIV. AUSTRAL DE CHILE,68,30,2015
7,UNIV. CATOLICA DEL NORTE,37,10,2015
8,UNIV. DE VALPARAISO,33,9,2015
9,UNIV. DE ANTOFAGASTA,14,2,2015
10,UNIV. DE LA SERENA,16,3,2015
11,UNIV. DEL BIO-BIO,30,4,2015
12,UNIV. DE LA FRONTERA,34,16,2015
13,UNIV. DE PLAYA ANCHA CS. EDUCACION,6,1,2015
14,UNIV. FINIS TERRAE,2,1,2015
15,UNIV. ADOLFO IBANEZ,18,9,2015
16,UNIV. ANDRES BELLO,49,17,2015
17,UNIV. DE MAGALLANES,2,1,2015
18,UNIV. DE TALCA,40,18,2015
19,UNIV. DE ATACAMA,1,1,2015
20,UNIV. DE TARAPACA,22,5,2015
21,UNIV. SANTO TOMAS,6,1,2015
22,UNIV. ACADEMIA DE HUMANISMO CRISTIANO,11,1,2015
23,UNIV. MAYOR,3,2,2015
24,UNIV. ARTURO PRAT,5,3,2015
25,UNIV. DIEGO PORTALES,39,19,2015
26,UNIV. DE LOS ANDES,28,11,2015
27,UNIV. BERNARDO O'HIGGINS,6,0,2015
28,UNIV. AUTONOMA DE CHILE,48,6,2015
29,UNIV. UCINF,0,0,2015
30,UNIV. DEL DESARROLLO,15,5,2015
31,UNIV. SAN SEBASTIAN,5,0,2015
32,UNIV. CATOLICA DE TEMUCO,18,5,2015
33,UNIV. CATOLICA DE LA STMA. CONCEPCION,5,1,2015
34,UNIV. CATOLICA DEL MAULE,10,1,2015
35,UNIV. DE LOS LAGOS,17,5,2015
36,UNIV. TECNOLOGICA METROPOLITANA,4,1,2015
37,UNIV. ALBERTO HURTADO,17,9,2015
38,UNIV. CATOLICA CARDENAL SILVA HENRIQUEZ,7,0,2015
39,UNIV. METROPOLITANA DE CS.DE LA EDUCACION,6,0,2015
40,UNIV. CENTRAL DE CHILE,4,0,2015
41,UNIV. ADVENTISTA DE CHILE,1,0,2015
42,UNIV. ARTES Y CIENCIAS SOCIALES,1,0,2015
43,UNIV. DEL PACIFICO,1,0,2015
44,UNIV. VINA DEL MAR,1,0,2015
