,Baker,Age,Occupation,Hometown,Links
0,Alice Fevronia,28,Geography teacher,Essex,
1,Amelia Le Bruin,24,Fashion designer,Halifax,
2,Dan Chambers,32,Support worker,Rotherham,
3,David Atherton,36,International health adviser,Whitby,[4]
4,Helena Garcia,40,Online project manager,Leeds,
5,Henry Bird,20,Student,Durham,
6,Jamie Finn,20,Part-time waiter,Surrey,
7,Michael Chakraverty,26,Theatre manager/fitness instructor,Stratford-upon-Avon,
8,Michelle Evans-Fecci,35,Print shop administrator,"Tenby, Wales",
9,Phil Thorne,56,HGV driver,Rainham,
10,Priya O'Shea,34,Marketing consultant,Leicester,
11,Rosie Brandreth-Poynter,28,Veterinary surgeon,Somerset,
12,Steph Blackwell,28,Shop assistant,Chester,
