,zip_code
100xx,51
945xx,50
112xx,43
021xx,39
300xx,38
926xx,35
070xx,35
606xx,35
900xx,29
750xx,24
941xx,24
921xx,23
802xx,23
913xx,23
852xx,23
920xx,22
770xx,21
207xx,20
331xx,20
212xx,19
113xx,19
117xx,18
917xx,18
902xx,18
301xx,18
330xx,18
104xx,17
088xx,17
327xx,17
786xx,17
940xx,16
080xx,16
152xx,16
752xx,16
275xx,16
018xx,16
980xx,16
800xx,16
956xx,16
951xx,15
891xx,15
333xx,15
605xx,15
890xx,15
787xx,14
925xx,14
060xx,14
773xx,14
554xx,14
191xx,14
981xx,14
200xx,14
601xx,14
282xx,14
103xx,13
922xx,13
077xx,13
432xx,13
027xx,12
189xx,12
853xx,12
114xx,12
028xx,12
111xx,12
760xx,12
322xx,11
232xx,11
946xx,11
430xx,11
303xx,11
972xx,11
604xx,11
201xx,11
775xx,11
919xx,11
190xx,11
950xx,10
334xx,10
953xx,10
782xx,10
850xx,10
631xx,10
481xx,10
761xx,10
480xx,10
328xx,10
600xx,10
064xx,10
234xx,10
967xx,10
662xx,10
280xx,9
302xx,9
296xx,9
285xx,9
907xx,9
958xx,9
923xx,9
906xx,9
928xx,9
982xx,9
073xx,9
765xx,8
908xx,8
840xx,8
970xx,8
211xx,8
220xx,8
194xx,8
347xx,8
441xx,8
276xx,8
483xx,8
983xx,8
208xx,8
061xx,8
210xx,8
705xx,8
801xx,8
895xx,8
329xx,8
306xx,8
774xx,8
130xx,7
532xx,7
337xx,7
954xx,7
727xx,7
553xx,7
024xx,7
222xx,7
349xx,7
935xx,7
217xx,7
142xx,7
283xx,7
342xx,7
949xx,7
336xx,7
550xx,7
452xx,7
871xx,6
952xx,6
030xx,6
721xx,6
959xx,6
281xx,6
120xx,6
180xx,6
206xx,6
482xx,6
017xx,6
115xx,6
121xx,6
431xx,6
338xx,6
087xx,6
310xx,6
366xx,6
450xx,6
335xx,6
809xx,6
971xx,6
109xx,6
068xx,6
350xx,6
974xx,6
320xx,6
751xx,5
947xx,5
894xx,5
530xx,5
065xx,5
442xx,5
020xx,5
069xx,5
720xx,5
968xx,5
456xx,5
076xx,5
245xx,5
453xx,5
937xx,5
221xx,5
402xx,5
672xx,5
108xx,5
323xx,5
231xx,5
799xx,5
488xx,5
305xx,5
341xx,5
640xx,5
287xx,5
904xx,5
105xx,5
655xx,5
339xx,5
193xx,5
785xx,5
346xx,5
101xx,5
236xx,5
170xx,5
038xx,5
805xx,4
451xx,4
083xx,4
936xx,4
660xx,4
984xx,4
223xx,4
924xx,4
023xx,4
254xx,4
931xx,4
086xx,4
944xx,4
730xx,4
229xx,4
932xx,4
195xx,4
326xx,4
495xx,4
365xx,4
995xx,4
344xx,4
443xx,4
641xx,4
722xx,4
864xx,4
740xx,4
150xx,4
242xx,4
085xx,4
989xx,4
701xx,4
729xx,4
270xx,4
841xx,4
288xx,4
957xx,4
197xx,4
537xx,4
930xx,4
106xx,4
633xx,4
110xx,4
078xx,4
454xx,4
153xx,3
233xx,3
165xx,3
973xx,3
274xx,3
294xx,3
914xx,3
074xx,3
905xx,3
351xx,3
912xx,3
810xx,3
665xx,3
911xx,3
067xx,3
806xx,3
490xx,3
011xx,3
933xx,3
448xx,3
010xx,3
297xx,3
857xx,3
147xx,3
612xx,3
780xx,3
657xx,3
125xx,3
148xx,3
559xx,3
240xx,3
235xx,3
708xx,3
368xx,3
629xx,3
993xx,3
757xx,3
356xx,3
986xx,3
719xx,3
731xx,3
494xx,3
140xx,3
985xx,3
916xx,3
265xx,3
939xx,3
706xx,3
440xx,3
151xx,3
846xx,3
648xx,3
803xx,3
299xx,3
700xx,3
015xx,3
446xx,3
571xx,3
019xx,3
292xx,3
444xx,3
278xx,3
128xx,3
915xx,3
284xx,3
313xx,3
277xx,2
626xx,2
778xx,2
756xx,2
851xx,2
620xx,2
410xx,2
549xx,2
129xx,2
531xx,2
324xx,2
535xx,2
794xx,2
813xx,2
357xx,2
271xx,2
710xx,2
664xx,2
763xx,2
314xx,2
199xx,2
325xx,2
293xx,2
272xx,2
063xx,2
630xx,2
618xx,2
422xx,2
032xx,2
215xx,2
910xx,2
171xx,2
855xx,2
435xx,2
679xx,2
856xx,2
186xx,2
934xx,2
363xx,2
617xx,2
558xx,2
321xx,2
735xx,2
230xx,2
145xx,2
135xx,2
352xx,2
779xx,2
918xx,2
119xx,2
072xx,2
903xx,2
486xx,2
492xx,2
291xx,2
551xx,2
071xx,2
703xx,2
358xx,2
485xx,2
295xx,2
433xx,2
927xx,2
570xx,2
138xx,2
975xx,2
354xx,2
498xx,2
257xx,2
622xx,2
154xx,2
427xx,2
173xx,2
572xx,2
107xx,2
711xx,2
614xx,2
146xx,2
123xx,2
359xx,2
644xx,2
031xx,2
493xx,2
081xx,2
661xx,2
308xx,2
988xx,2
026xx,2
079xx,2
658xx,2
029xx,2
996xx,2
652xx,2
243xx,2
762xx,2
666xx,2
829xx,1
224xx,1
286xx,1
544xx,1
136xx,1
144xx,1
218xx,1
560xx,1
718xx,1
707xx,1
811xx,1
613xx,1
176xx,1
943xx,1
178xx,1
403xx,1
992xx,1
766xx,1
181xx,1
611xx,1
491xx,1
847xx,1
290xx,1
167xx,1
791xx,1
318xx,1
050xx,1
279xx,1
089xx,1
484xx,1
014xx,1
260xx,1
051xx,1
252xx,1
880xx,1
160xx,1
216xx,1
124xx,1
141xx,1
783xx,1
816xx,1
615xx,1
704xx,1
777xx,1
489xx,1
608xx,1
409xx,1
741xx,1
716xx,1
602xx,1
227xx,1
991xx,1
674xx,1
122xx,1
376xx,1
184xx,1
590xx,1
812xx,1
404xx,1
225xx,1
865xx,1
401xx,1
182xx,1
564xx,1
960xx,1
196xx,1
434xx,1
241xx,1
175xx,1
547xx,1
976xx,1
016xx,1
289xx,1
948xx,1
784xx,1
013xx,1
645xx,1
610xx,1
185xx,1
084xx,1
062xx,1
126xx,1
052xx,1
764xx,1
790xx,1
436xx,1
158xx,1
863xx,1
273xx,1
637xx,1
737xx,1
860xx,1
781xx,1
164xx,1
400xx,1
562xx,1
591xx,1
797xx,1
361xx,1
362xx,1
596xx,1
955xx,1
168xx,1
804xx,1
116xx,1
082xx,1
264xx,1
134xx,1
156xx,1
556xx,1
540xx,1
219xx,1
411xx,1
541xx,1
307xx,1
827xx,1
439xx,1
263xx,1
244xx,1
438xx,1
198xx,1
261xx,1
870xx,1
634xx,1
405xx,1
157xx,1
978xx,1
267xx,1
238xx,1
499xx,1
874xx,1
844xx,1
877xx,1
133xx,1
807xx,1
214xx,1
714xx,1
977xx,1
997xx,1
355xx,1
407xx,1
316xx,1
768xx,1
654xx,1
563xx,1
