,zip_code
606xx,47
070xx,40
100xx,38
331xx,37
945xx,34
112xx,33
891xx,31
917xx,29
921xx,27
750xx,25
920xx,24
021xx,24
900xx,22
080xx,22
117xx,22
925xx,22
923xx,21
926xx,21
212xx,20
928xx,20
770xx,20
330xx,19
190xx,19
980xx,19
303xx,19
773xx,18
282xx,18
300xx,18
207xx,18
941xx,18
328xx,17
600xx,17
852xx,17
950xx,17
958xx,16
432xx,16
940xx,16
301xx,15
064xx,15
760xx,15
640xx,15
850xx,15
853xx,15
902xx,15
208xx,14
787xx,14
109xx,14
913xx,14
113xx,14
604xx,14
930xx,14
201xx,13
334xx,13
223xx,13
802xx,13
906xx,13
553xx,13
441xx,13
956xx,13
210xx,12
077xx,12
951xx,12
774xx,12
551xx,12
191xx,12
775xx,12
982xx,12
908xx,12
554xx,12
088xx,11
194xx,11
919xx,11
302xx,11
104xx,11
601xx,11
347xx,11
142xx,11
060xx,10
335xx,10
336xx,10
430xx,10
857xx,10
346xx,10
927xx,10
074xx,10
809xx,10
329xx,10
981xx,10
200xx,10
801xx,10
028xx,10
972xx,9
232xx,9
480xx,9
967xx,9
152xx,9
085xx,9
019xx,9
953xx,9
935xx,9
782xx,9
327xx,9
206xx,9
231xx,9
752xx,9
731xx,8
631xx,8
076xx,8
402xx,8
910xx,8
922xx,8
276xx,8
949xx,8
125xx,8
450xx,8
115xx,8
730xx,8
871xx,8
285xx,8
799xx,8
322xx,8
305xx,8
010xx,8
333xx,8
018xx,8
352xx,8
073xx,7
326xx,7
272xx,7
222xx,7
705xx,7
786xx,7
481xx,7
337xx,7
907xx,7
932xx,7
114xx,7
103xx,7
220xx,7
180xx,7
338xx,7
275xx,7
130xx,7
193xx,6
290xx,6
295xx,6
740xx,6
221xx,6
641xx,6
349xx,6
895xx,6
890xx,6
320xx,6
105xx,6
937xx,6
660xx,6
170xx,6
015xx,6
765xx,6
984xx,6
605xx,5
762xx,5
708xx,5
986xx,5
946xx,5
140xx,5
283xx,5
931xx,5
245xx,5
805xx,5
325xx,5
490xx,5
240xx,5
905xx,5
440xx,5
933xx,5
840xx,5
700xx,5
111xx,5
229xx,5
014xx,5
609xx,5
234xx,5
761xx,5
294xx,5
816xx,5
934xx,5
973xx,5
286xx,5
701xx,5
211xx,5
146xx,5
431xx,5
952xx,5
968xx,5
724xx,4
851xx,4
226xx,4
357xx,4
217xx,4
754xx,4
785xx,4
107xx,4
435xx,4
079xx,4
071xx,4
306xx,4
297xx,4
829xx,4
974xx,4
106xx,4
751xx,4
023xx,4
278xx,4
273xx,4
662xx,4
296xx,4
532xx,4
083xx,4
916xx,4
024xx,4
030xx,4
939xx,4
633xx,4
446xx,4
971xx,4
027xx,4
136xx,4
292xx,4
410xx,4
066xx,4
707xx,4
936xx,4
914xx,4
630xx,4
304xx,4
160xx,4
983xx,4
225xx,4
655xx,4
442xx,4
026xx,4
704xx,4
841xx,4
310xx,4
274xx,4
800xx,4
366xx,4
530xx,4
864xx,4
985xx,4
341xx,4
087xx,4
970xx,4
954xx,4
293xx,4
488xx,4
078xx,4
148xx,3
998xx,3
780xx,3
238xx,3
436xx,3
482xx,3
535xx,3
086xx,3
489xx,3
912xx,3
260xx,3
924xx,3
151xx,3
189xx,3
636xx,3
904xx,3
244xx,3
911xx,3
363xx,3
153xx,3
235xx,3
860xx,3
610xx,3
011xx,3
628xx,3
280xx,3
062xx,3
975xx,3
721xx,3
550xx,3
360xx,3
960xx,3
404xx,3
882xx,3
483xx,3
339xx,3
081xx,3
957xx,3
597xx,3
756xx,3
439xx,3
563xx,3
168xx,3
725xx,3
324xx,3
549xx,3
110xx,3
558xx,3
737xx,3
101xx,3
321xx,3
172xx,3
591xx,3
116xx,3
948xx,3
531xx,3
287xx,3
067xx,3
368xx,3
038xx,3
356xx,3
199xx,3
174xx,3
657xx,3
224xx,3
703xx,3
350xx,3
307xx,3
284xx,3
620xx,2
666xx,2
961xx,2
209xx,2
186xx,2
741xx,2
143xx,2
227xx,2
537xx,2
915xx,2
670xx,2
494xx,2
129xx,2
298xx,2
175xx,2
150xx,2
141xx,2
815xx,2
645xx,2
179xx,2
672xx,2
783xx,2
187xx,2
025xx,2
254xx,2
619xx,2
182xx,2
281xx,2
233xx,2
075xx,2
444xx,2
959xx,2
365xx,2
031xx,2
726xx,2
452xx,2
315xx,2
156xx,2
496xx,2
061xx,2
323xx,2
247xx,2
359xx,2
544xx,2
082xx,2
759xx,2
735xx,2
668xx,2
400xx,2
577xx,2
716xx,2
486xx,2
744xx,2
131xx,2
317xx,2
068xx,2
875xx,2
420xx,2
622xx,2
995xx,2
020xx,2
405xx,2
342xx,2
706xx,2
880xx,2
255xx,2
720xx,2
230xx,2
898xx,2
433xx,2
243xx,2
159xx,2
319xx,2
996xx,2
722xx,2
487xx,2
089xx,2
029xx,2
492xx,2
495xx,2
198xx,2
629xx,2
277xx,2
216xx,2
318xx,1
183xx,1
139xx,1
406xx,1
237xx,1
102xx,1
056xx,1
728xx,1
344xx,1
176xx,1
847xx,1
065xx,1
822xx,1
570xx,1
195xx,1
167xx,1
453xx,1
796xx,1
455xx,1
413xx,1
178xx,1
268xx,1
279xx,1
678xx,1
119xx,1
547xx,1
169xx,1
138xx,1
434xx,1
749xx,1
253xx,1
069xx,1
427xx,1
154xx,1
571xx,1
299xx,1
542xx,1
712xx,1
121xx,1
271xx,1
124xx,1
498xx,1
615xx,1
989xx,1
132xx,1
270xx,1
351xx,1
165xx,1
166xx,1
865xx,1
032xx,1
758xx,1
717xx,1
171xx,1
808xx,1
560xx,1
454xx,1
811xx,1
625xx,1
993xx,1
161xx,1
812xx,1
714xx,1
561xx,1
184xx,1
497xx,1
766xx,1
173xx,1
856xx,1
548xx,1
825xx,1
675xx,1
676xx,1
438xx,1
944xx,1
362xx,1
408xx,1
312xx,1
316xx,1
671xx,1
355xx,1
546xx,1
214xx,1
844xx,1
667xx,1
977xx,1
781xx,1
562xx,1
648xx,1
421xx,1
897xx,1
574xx,1
990xx,1
557xx,1
358xx,1
647xx,1
607xx,1
219xx,1
665xx,1
122xx,1
120xx,1
155xx,1
669xx,1
602xx,1
309xx,1
746xx,1
613xx,1
197xx,1
188xx,1
308xx,1
806xx,1
057xx,1
181xx,1
992xx,1
991xx,1
422xx,1
034xx,1
288xx,1
658xx,1
259xx,1
164xx,1
797xx,1
445xx,1
820xx,1
456xx,1
713xx,1
017xx,1
656xx,1
157xx,1
745xx,1
054xx,1
484xx,1
997xx,1
813xx,1
618xx,1
177xx,1
947xx,1
559xx,1
598xx,1
541xx,1
145xx,1
540xx,1
748xx,1
617xx,1
236xx,1
918xx,1
072xx,1
013xx,1
423xx,1
943xx,1
451xx,1
037xx,1
242xx,1
804xx,1
764xx,1
499xx,1
534xx,1
710xx,1
128xx,1
784xx,1
870xx,1
763xx,1
539xx,1
614xx,1
416xx,1
185xx,1
603xx,1
