,Team,Opp
1848,3110,3124
1862,3110,3129
1855,3110,3173
1858,3110,3195
1859,3110,3211
1861,3110,3212
1860,3110,3251
1847,3110,3257
1845,3110,3263
1854,3110,3266
1853,3110,3276
1851,3110,3281
1856,3110,3294
1846,3110,3311
1852,3110,3333
1850,3110,3390
1849,3110,3397
1857,3110,3443
1697,3110,3113
1701,3113,3124
1715,3113,3129
1694,3113,3166
1708,3113,3173
1696,3113,3189
1711,3113,3195
1712,3113,3211
1714,3113,3212
1713,3113,3251
1700,3113,3257
1698,3113,3263
1707,3113,3266
1706,3113,3276
1704,3113,3281
1709,3113,3294
1693,3113,3304
1699,3113,3311
1692,3113,3329
1705,3113,3333
1695,3113,3343
1703,3113,3390
1691,3113,3393
1702,3113,3397
1710,3113,3443
772,3110,3114
765,3113,3114
776,3114,3124
790,3114,3129
753,3114,3141
769,3114,3166
758,3114,3169
783,3114,3173
747,3114,3177
755,3114,3179
771,3114,3189
786,3114,3195
756,3114,3203
787,3114,3211
789,3114,3212
764,3114,3234
788,3114,3251
775,3114,3257
748,3114,3261
773,3114,3263
782,3114,3266
763,3114,3268
781,3114,3276
752,3114,3278
759,3114,3280
779,3114,3281
784,3114,3294
741,3114,3299
762,3114,3301
768,3114,3304
774,3114,3311
743,3114,3323
745,3114,3326
754,3114,3328
767,3114,3329
744,3114,3332
780,3114,3333
770,3114,3343
750,3114,3355
757,3114,3370
742,3114,3384
778,3114,3390
766,3114,3393
777,3114,3397
760,3114,3400
746,3114,3401
761,3114,3417
751,3114,3437
785,3114,3443
749,3114,3453
1924,3124,3129
1917,3124,3173
1920,3124,3195
1921,3124,3211
1923,3124,3212
1922,3124,3251
1916,3124,3266
1915,3124,3276
1913,3124,3281
1918,3124,3294
1914,3124,3333
1912,3124,3390
1911,3124,3397
1919,3124,3443
671,3110,3125
664,3113,3125
639,3114,3125
675,3124,3125
689,3125,3129
652,3125,3141
668,3125,3166
657,3125,3169
682,3125,3173
646,3125,3177
654,3125,3179
670,3125,3189
685,3125,3195
655,3125,3203
686,3125,3211
688,3125,3212
663,3125,3234
687,3125,3251
674,3125,3257
647,3125,3261
672,3125,3263
681,3125,3266
662,3125,3268
638,3125,3273
680,3125,3276
651,3125,3278
658,3125,3280
678,3125,3281
683,3125,3294
640,3125,3299
661,3125,3301
667,3125,3304
673,3125,3311
642,3125,3323
644,3125,3326
653,3125,3328
666,3125,3329
643,3125,3332
679,3125,3333
669,3125,3343
649,3125,3355
656,3125,3370
641,3125,3384
677,3125,3390
665,3125,3393
676,3125,3397
659,3125,3400
645,3125,3401
660,3125,3417
650,3125,3437
684,3125,3443
648,3125,3453
619,3110,3138
612,3113,3138
587,3114,3138
623,3124,3138
585,3125,3138
637,3129,3138
600,3138,3141
616,3138,3166
605,3138,3169
630,3138,3173
594,3138,3177
602,3138,3179
618,3138,3189
633,3138,3195
603,3138,3203
634,3138,3211
636,3138,3212
611,3138,3234
635,3138,3251
622,3138,3257
595,3138,3261
620,3138,3263
629,3138,3266
610,3138,3268
586,3138,3273
628,3138,3276
599,3138,3278
606,3138,3280
626,3138,3281
631,3138,3294
588,3138,3299
609,3138,3301
615,3138,3304
621,3138,3311
590,3138,3323
592,3138,3326
601,3138,3328
614,3138,3329
591,3138,3332
627,3138,3333
617,3138,3343
597,3138,3355
604,3138,3370
589,3138,3384
625,3138,3390
613,3138,3393
624,3138,3397
607,3138,3400
593,3138,3401
608,3138,3417
598,3138,3437
632,3138,3443
596,3138,3453
1331,3110,3141
1324,3113,3141
1335,3124,3141
1349,3129,3141
1328,3141,3166
1317,3141,3169
1342,3141,3173
1314,3141,3179
1330,3141,3189
1345,3141,3195
1315,3141,3203
1346,3141,3211
1348,3141,3212
1323,3141,3234
1347,3141,3251
1334,3141,3257
1332,3141,3263
1341,3141,3266
1322,3141,3268
1340,3141,3276
1318,3141,3280
1338,3141,3281
1343,3141,3294
1321,3141,3301
1327,3141,3304
1333,3141,3311
1313,3141,3328
1326,3141,3329
1339,3141,3333
1329,3141,3343
1316,3141,3370
1337,3141,3390
1325,3141,3393
1336,3141,3397
1319,3141,3400
1320,3141,3417
1344,3141,3443
401,3110,3143
394,3113,3143
369,3114,3143
405,3124,3143
367,3125,3143
419,3129,3143
366,3138,3143
382,3141,3143
398,3143,3166
387,3143,3169
412,3143,3173
376,3143,3177
384,3143,3179
400,3143,3189
415,3143,3195
385,3143,3203
416,3143,3211
418,3143,3212
393,3143,3234
417,3143,3251
404,3143,3257
377,3143,3261
402,3143,3263
411,3143,3266
392,3143,3268
368,3143,3273
363,3143,3274
410,3143,3276
381,3143,3278
388,3143,3280
408,3143,3281
413,3143,3294
370,3143,3299
391,3143,3301
397,3143,3304
403,3143,3311
372,3143,3323
374,3143,3326
383,3143,3328
396,3143,3329
373,3143,3332
409,3143,3333
399,3143,3343
364,3143,3346
379,3143,3355
386,3143,3370
371,3143,3384
407,3143,3390
395,3143,3393
406,3143,3397
389,3143,3400
375,3143,3401
390,3143,3417
380,3143,3437
365,3143,3438
414,3143,3443
378,3143,3453
44,3110,3163
37,3113,3163
12,3114,3163
48,3124,3163
10,3125,3163
62,3129,3163
9,3138,3163
25,3141,3163
5,3143,3163
41,3163,3166
30,3163,3169
55,3163,3173
19,3163,3177
27,3163,3179
3,3163,3181
43,3163,3189
58,3163,3195
1,3163,3199
28,3163,3203
2,3163,3208
59,3163,3211
61,3163,3212
36,3163,3234
60,3163,3251
47,3163,3257
20,3163,3261
45,3163,3263
54,3163,3266
35,3163,3268
11,3163,3273
6,3163,3274
53,3163,3276
24,3163,3278
31,3163,3280
51,3163,3281
56,3163,3294
13,3163,3299
34,3163,3301
40,3163,3304
46,3163,3311
15,3163,3323
17,3163,3326
26,3163,3328
39,3163,3329
16,3163,3332
52,3163,3333
42,3163,3343
7,3163,3346
22,3163,3355
29,3163,3370
0,3163,3376
4,3163,3378
14,3163,3384
50,3163,3390
38,3163,3393
49,3163,3397
32,3163,3400
18,3163,3401
33,3163,3417
23,3163,3437
8,3163,3438
57,3163,3443
21,3163,3453
1787,3110,3166
1791,3124,3166
1805,3129,3166
1798,3166,3173
1786,3166,3189
1801,3166,3195
1802,3166,3211
1804,3166,3212
1803,3166,3251
1790,3166,3257
1788,3166,3263
1797,3166,3266
1796,3166,3276
1794,3166,3281
1799,3166,3294
1789,3166,3311
1795,3166,3333
1785,3166,3343
1793,3166,3390
1792,3166,3397
1800,3166,3443
1501,3110,3169
1494,3113,3169
1505,3124,3169
1519,3129,3169
1498,3166,3169
1512,3169,3173
1500,3169,3189
1515,3169,3195
1516,3169,3211
1518,3169,3212
1493,3169,3234
1517,3169,3251
1504,3169,3257
1502,3169,3263
1511,3169,3266
1492,3169,3268
1510,3169,3276
1488,3169,3280
1508,3169,3281
1513,3169,3294
1491,3169,3301
1497,3169,3304
1503,3169,3311
1496,3169,3329
1509,3169,3333
1499,3169,3343
1507,3169,3390
1495,3169,3393
1506,3169,3397
1489,3169,3400
1490,3169,3417
1514,3169,3443
1994,3129,3173
1990,3173,3195
1991,3173,3211
1993,3173,3212
1992,3173,3251
1988,3173,3294
1989,3173,3443
1094,3110,3177
1087,3113,3177
1098,3124,3177
1112,3129,3177
1075,3141,3177
1091,3166,3177
1080,3169,3177
1105,3173,3177
1077,3177,3179
1093,3177,3189
1108,3177,3195
1078,3177,3203
1109,3177,3211
1111,3177,3212
1086,3177,3234
1110,3177,3251
1097,3177,3257
1070,3177,3261
1095,3177,3263
1104,3177,3266
1085,3177,3268
1103,3177,3276
1074,3177,3278
1081,3177,3280
1101,3177,3281
1106,3177,3294
1084,3177,3301
1090,3177,3304
1096,3177,3311
1076,3177,3328
1089,3177,3329
1102,3177,3333
1092,3177,3343
1072,3177,3355
1079,3177,3370
1100,3177,3390
1088,3177,3393
1099,3177,3397
1082,3177,3400
1083,3177,3417
1073,3177,3437
1107,3177,3443
1071,3177,3453
1402,3110,3179
1395,3113,3179
1406,3124,3179
1420,3129,3179
1399,3166,3179
1388,3169,3179
1413,3173,3179
1401,3179,3189
1416,3179,3195
1386,3179,3203
1417,3179,3211
1419,3179,3212
1394,3179,3234
1418,3179,3251
1405,3179,3257
1403,3179,3263
1412,3179,3266
1393,3179,3268
1411,3179,3276
1389,3179,3280
1409,3179,3281
1414,3179,3294
1392,3179,3301
1398,3179,3304
1404,3179,3311
1397,3179,3329
1410,3179,3333
1400,3179,3343
1387,3179,3370
1408,3179,3390
1396,3179,3393
1407,3179,3397
1390,3179,3400
1391,3179,3417
1415,3179,3443
286,3110,3181
279,3113,3181
254,3114,3181
290,3124,3181
252,3125,3181
304,3129,3181
251,3138,3181
267,3141,3181
247,3143,3181
283,3166,3181
272,3169,3181
297,3173,3181
261,3177,3181
269,3179,3181
285,3181,3189
300,3181,3195
270,3181,3203
301,3181,3211
303,3181,3212
278,3181,3234
302,3181,3251
289,3181,3257
262,3181,3261
287,3181,3263
296,3181,3266
277,3181,3268
253,3181,3273
248,3181,3274
295,3181,3276
266,3181,3278
273,3181,3280
293,3181,3281
298,3181,3294
255,3181,3299
276,3181,3301
282,3181,3304
288,3181,3311
257,3181,3323
259,3181,3326
268,3181,3328
281,3181,3329
258,3181,3332
294,3181,3333
284,3181,3343
249,3181,3346
264,3181,3355
271,3181,3370
246,3181,3378
256,3181,3384
292,3181,3390
280,3181,3393
291,3181,3397
274,3181,3400
260,3181,3401
275,3181,3417
265,3181,3437
250,3181,3438
299,3181,3443
263,3181,3453
1826,3110,3189
1830,3124,3189
1844,3129,3189
1837,3173,3189
1840,3189,3195
1841,3189,3211
1843,3189,3212
1842,3189,3251
1829,3189,3257
1827,3189,3263
1836,3189,3266
1835,3189,3276
1833,3189,3281
1838,3189,3294
1828,3189,3311
1834,3189,3333
1832,3189,3390
1831,3189,3397
1839,3189,3443
2009,3129,3195
2006,3195,3211
2008,3195,3212
2007,3195,3251
167,3110,3199
160,3113,3199
135,3114,3199
171,3124,3199
133,3125,3199
185,3129,3199
132,3138,3199
148,3141,3199
128,3143,3199
164,3166,3199
153,3169,3199
178,3173,3199
142,3177,3199
150,3179,3199
126,3181,3199
166,3189,3199
181,3195,3199
151,3199,3203
125,3199,3208
182,3199,3211
184,3199,3212
159,3199,3234
183,3199,3251
170,3199,3257
143,3199,3261
168,3199,3263
177,3199,3266
158,3199,3268
134,3199,3273
129,3199,3274
176,3199,3276
147,3199,3278
154,3199,3280
174,3199,3281
179,3199,3294
136,3199,3299
157,3199,3301
163,3199,3304
169,3199,3311
138,3199,3323
140,3199,3326
149,3199,3328
162,3199,3329
139,3199,3332
175,3199,3333
165,3199,3343
130,3199,3346
145,3199,3355
152,3199,3370
127,3199,3378
137,3199,3384
173,3199,3390
161,3199,3393
172,3199,3397
155,3199,3400
141,3199,3401
156,3199,3417
146,3199,3437
131,3199,3438
180,3199,3443
144,3199,3453
1436,3110,3203
1429,3113,3203
1440,3124,3203
1454,3129,3203
1433,3166,3203
1422,3169,3203
1447,3173,3203
1435,3189,3203
1450,3195,3203
1451,3203,3211
1453,3203,3212
1428,3203,3234
1452,3203,3251
1439,3203,3257
1437,3203,3263
1446,3203,3266
1427,3203,3268
1445,3203,3276
1423,3203,3280
1443,3203,3281
1448,3203,3294
1426,3203,3301
1432,3203,3304
1438,3203,3311
1431,3203,3329
1444,3203,3333
1434,3203,3343
1421,3203,3370
1442,3203,3390
1430,3203,3393
1441,3203,3397
1424,3203,3400
1425,3203,3417
1449,3203,3443
227,3110,3208
220,3113,3208
195,3114,3208
231,3124,3208
193,3125,3208
245,3129,3208
192,3138,3208
208,3141,3208
188,3143,3208
224,3166,3208
213,3169,3208
238,3173,3208
202,3177,3208
210,3179,3208
186,3181,3208
226,3189,3208
241,3195,3208
211,3203,3208
242,3208,3211
244,3208,3212
219,3208,3234
243,3208,3251
230,3208,3257
203,3208,3261
228,3208,3263
237,3208,3266
218,3208,3268
194,3208,3273
189,3208,3274
236,3208,3276
207,3208,3278
214,3208,3280
234,3208,3281
239,3208,3294
196,3208,3299
217,3208,3301
223,3208,3304
229,3208,3311
198,3208,3323
200,3208,3326
209,3208,3328
222,3208,3329
199,3208,3332
235,3208,3333
225,3208,3343
190,3208,3346
205,3208,3355
212,3208,3370
187,3208,3378
197,3208,3384
233,3208,3390
221,3208,3393
232,3208,3397
215,3208,3400
201,3208,3401
216,3208,3417
206,3208,3437
191,3208,3438
240,3208,3443
204,3208,3453
2012,3129,3211
2011,3211,3212
2010,3211,3251
2015,3129,3212
1672,3110,3234
1665,3113,3234
1676,3124,3234
1690,3129,3234
1669,3166,3234
1683,3173,3234
1671,3189,3234
1686,3195,3234
1687,3211,3234
1689,3212,3234
1688,3234,3251
1675,3234,3257
1673,3234,3263
1682,3234,3266
1681,3234,3276
1679,3234,3281
1684,3234,3294
1668,3234,3304
1674,3234,3311
1667,3234,3329
1680,3234,3333
1670,3234,3343
1678,3234,3390
1666,3234,3393
1677,3234,3397
1685,3234,3443
2014,3129,3251
2013,3212,3251
1896,3124,3257
1910,3129,3257
1903,3173,3257
1906,3195,3257
1907,3211,3257
1909,3212,3257
1908,3251,3257
1902,3257,3266
1901,3257,3276
1899,3257,3281
1904,3257,3294
1900,3257,3333
1898,3257,3390
1897,3257,3397
1905,3257,3443
1136,3110,3261
1129,3113,3261
1140,3124,3261
1154,3129,3261
1117,3141,3261
1133,3166,3261
1122,3169,3261
1147,3173,3261
1119,3179,3261
1135,3189,3261
1150,3195,3261
1120,3203,3261
1151,3211,3261
1153,3212,3261
1128,3234,3261
1152,3251,3261
1139,3257,3261
1137,3261,3263
1146,3261,3266
1127,3261,3268
1145,3261,3276
1116,3261,3278
1123,3261,3280
1143,3261,3281
1148,3261,3294
1126,3261,3301
1132,3261,3304
1138,3261,3311
1118,3261,3328
1131,3261,3329
1144,3261,3333
1134,3261,3343
1114,3261,3355
1121,3261,3370
1142,3261,3390
1130,3261,3393
1141,3261,3397
1124,3261,3400
1125,3261,3417
1115,3261,3437
1149,3261,3443
1113,3261,3453
1865,3124,3263
1879,3129,3263
1872,3173,3263
1875,3195,3263
1876,3211,3263
1878,3212,3263
1877,3251,3263
1864,3257,3263
1871,3263,3266
1870,3263,3276
1868,3263,3281
1873,3263,3294
1863,3263,3311
1869,3263,3333
1867,3263,3390
1866,3263,3397
1874,3263,3443
1987,3129,3266
1980,3173,3266
1983,3195,3266
1984,3211,3266
1986,3212,3266
1985,3251,3266
1981,3266,3294
1982,3266,3443
1646,3110,3268
1639,3113,3268
1650,3124,3268
1664,3129,3268
1643,3166,3268
1657,3173,3268
1645,3189,3268
1660,3195,3268
1661,3211,3268
1663,3212,3268
1638,3234,3268
1662,3251,3268
1649,3257,3268
1647,3263,3268
1656,3266,3268
1655,3268,3276
1653,3268,3281
1658,3268,3294
1642,3268,3304
1648,3268,3311
1641,3268,3329
1654,3268,3333
1644,3268,3343
1652,3268,3390
1640,3268,3393
1651,3268,3397
1659,3268,3443
722,3110,3273
715,3113,3273
690,3114,3273
726,3124,3273
740,3129,3273
703,3141,3273
719,3166,3273
708,3169,3273
733,3173,3273
697,3177,3273
705,3179,3273
721,3189,3273
736,3195,3273
706,3203,3273
737,3211,3273
739,3212,3273
714,3234,3273
738,3251,3273
725,3257,3273
698,3261,3273
723,3263,3273
732,3266,3273
713,3268,3273
731,3273,3276
702,3273,3278
709,3273,3280
729,3273,3281
734,3273,3294
691,3273,3299
712,3273,3301
718,3273,3304
724,3273,3311
693,3273,3323
695,3273,3326
704,3273,3328
717,3273,3329
694,3273,3332
730,3273,3333
720,3273,3343
700,3273,3355
707,3273,3370
692,3273,3384
728,3273,3390
716,3273,3393
727,3273,3397
710,3273,3400
696,3273,3401
711,3273,3417
701,3273,3437
735,3273,3443
699,3273,3453
457,3110,3274
450,3113,3274
425,3114,3274
461,3124,3274
423,3125,3274
475,3129,3274
422,3138,3274
438,3141,3274
454,3166,3274
443,3169,3274
468,3173,3274
432,3177,3274
440,3179,3274
456,3189,3274
471,3195,3274
441,3203,3274
472,3211,3274
474,3212,3274
449,3234,3274
473,3251,3274
460,3257,3274
433,3261,3274
458,3263,3274
467,3266,3274
448,3268,3274
424,3273,3274
466,3274,3276
437,3274,3278
444,3274,3280
464,3274,3281
469,3274,3294
426,3274,3299
447,3274,3301
453,3274,3304
459,3274,3311
428,3274,3323
430,3274,3326
439,3274,3328
452,3274,3329
429,3274,3332
465,3274,3333
455,3274,3343
420,3274,3346
435,3274,3355
442,3274,3370
427,3274,3384
463,3274,3390
451,3274,3393
462,3274,3397
445,3274,3400
431,3274,3401
446,3274,3417
436,3274,3437
421,3274,3438
470,3274,3443
434,3274,3453
1979,3129,3276
1972,3173,3276
1975,3195,3276
1976,3211,3276
1978,3212,3276
1977,3251,3276
1971,3266,3276
1973,3276,3294
1974,3276,3443
1294,3110,3278
1287,3113,3278
1298,3124,3278
1312,3129,3278
1275,3141,3278
1291,3166,3278
1280,3169,3278
1305,3173,3278
1277,3179,3278
1293,3189,3278
1308,3195,3278
1278,3203,3278
1309,3211,3278
1311,3212,3278
1286,3234,3278
1310,3251,3278
1297,3257,3278
1295,3263,3278
1304,3266,3278
1285,3268,3278
1303,3276,3278
1281,3278,3280
1301,3278,3281
1306,3278,3294
1284,3278,3301
1290,3278,3304
1296,3278,3311
1276,3278,3328
1289,3278,3329
1302,3278,3333
1292,3278,3343
1279,3278,3370
1300,3278,3390
1288,3278,3393
1299,3278,3397
1282,3278,3400
1283,3278,3417
1307,3278,3443
1532,3110,3280
1525,3113,3280
1536,3124,3280
1550,3129,3280
1529,3166,3280
1543,3173,3280
1531,3189,3280
1546,3195,3280
1547,3211,3280
1549,3212,3280
1524,3234,3280
1548,3251,3280
1535,3257,3280
1533,3263,3280
1542,3266,3280
1523,3268,3280
1541,3276,3280
1539,3280,3281
1544,3280,3294
1522,3280,3301
1528,3280,3304
1534,3280,3311
1527,3280,3329
1540,3280,3333
1530,3280,3343
1538,3280,3390
1526,3280,3393
1537,3280,3397
1520,3280,3400
1521,3280,3417
1545,3280,3443
1960,3129,3281
1953,3173,3281
1956,3195,3281
1957,3211,3281
1959,3212,3281
1958,3251,3281
1952,3266,3281
1951,3276,3281
1954,3281,3294
1950,3281,3333
1955,3281,3443
2000,3129,3294
1996,3195,3294
1997,3211,3294
1999,3212,3294
1998,3251,3294
1995,3294,3443
821,3110,3299
814,3113,3299
825,3124,3299
839,3129,3299
802,3141,3299
818,3166,3299
807,3169,3299
832,3173,3299
796,3177,3299
804,3179,3299
820,3189,3299
835,3195,3299
805,3203,3299
836,3211,3299
838,3212,3299
813,3234,3299
837,3251,3299
824,3257,3299
797,3261,3299
822,3263,3299
831,3266,3299
812,3268,3299
830,3276,3299
801,3278,3299
808,3280,3299
828,3281,3299
833,3294,3299
811,3299,3301
817,3299,3304
823,3299,3311
792,3299,3323
794,3299,3326
803,3299,3328
816,3299,3329
793,3299,3332
829,3299,3333
819,3299,3343
799,3299,3355
806,3299,3370
791,3299,3384
827,3299,3390
815,3299,3393
826,3299,3397
809,3299,3400
795,3299,3401
810,3299,3417
800,3299,3437
834,3299,3443
798,3299,3453
1619,3110,3301
1612,3113,3301
1623,3124,3301
1637,3129,3301
1616,3166,3301
1630,3173,3301
1618,3189,3301
1633,3195,3301
1634,3211,3301
1636,3212,3301
1611,3234,3301
1635,3251,3301
1622,3257,3301
1620,3263,3301
1629,3266,3301
1610,3268,3301
1628,3276,3301
1626,3281,3301
1631,3294,3301
1615,3301,3304
1621,3301,3311
1614,3301,3329
1627,3301,3333
1617,3301,3343
1625,3301,3390
1613,3301,3393
1624,3301,3397
1632,3301,3443
1766,3110,3304
1770,3124,3304
1784,3129,3304
1763,3166,3304
1777,3173,3304
1765,3189,3304
1780,3195,3304
1781,3211,3304
1783,3212,3304
1782,3251,3304
1769,3257,3304
1767,3263,3304
1776,3266,3304
1775,3276,3304
1773,3281,3304
1778,3294,3304
1768,3304,3311
1774,3304,3333
1764,3304,3343
1772,3304,3390
1771,3304,3397
1779,3304,3443
1881,3124,3311
1895,3129,3311
1888,3173,3311
1891,3195,3311
1892,3211,3311
1894,3212,3311
1893,3251,3311
1880,3257,3311
1887,3266,3311
1886,3276,3311
1884,3281,3311
1889,3294,3311
1885,3311,3333
1883,3311,3390
1882,3311,3397
1890,3311,3443
916,3110,3323
909,3113,3323
920,3124,3323
934,3129,3323
897,3141,3323
913,3166,3323
902,3169,3323
927,3173,3323
891,3177,3323
899,3179,3323
915,3189,3323
930,3195,3323
900,3203,3323
931,3211,3323
933,3212,3323
908,3234,3323
932,3251,3323
919,3257,3323
892,3261,3323
917,3263,3323
926,3266,3323
907,3268,3323
925,3276,3323
896,3278,3323
903,3280,3323
923,3281,3323
928,3294,3323
906,3301,3323
912,3304,3323
918,3311,3323
889,3323,3326
898,3323,3328
911,3323,3329
888,3323,3332
924,3323,3333
914,3323,3343
894,3323,3355
901,3323,3370
922,3323,3390
910,3323,3393
921,3323,3397
904,3323,3400
890,3323,3401
905,3323,3417
895,3323,3437
929,3323,3443
893,3323,3453
1007,3110,3326
1000,3113,3326
1011,3124,3326
1025,3129,3326
988,3141,3326
1004,3166,3326
993,3169,3326
1018,3173,3326
982,3177,3326
990,3179,3326
1006,3189,3326
1021,3195,3326
991,3203,3326
1022,3211,3326
1024,3212,3326
999,3234,3326
1023,3251,3326
1010,3257,3326
983,3261,3326
1008,3263,3326
1017,3266,3326
998,3268,3326
1016,3276,3326
987,3278,3326
994,3280,3326
1014,3281,3326
1019,3294,3326
997,3301,3326
1003,3304,3326
1009,3311,3326
989,3326,3328
1002,3326,3329
1015,3326,3333
1005,3326,3343
985,3326,3355
992,3326,3370
1013,3326,3390
1001,3326,3393
1012,3326,3397
995,3326,3400
981,3326,3401
996,3326,3417
986,3326,3437
1020,3326,3443
984,3326,3453
1367,3110,3328
1360,3113,3328
1371,3124,3328
1385,3129,3328
1364,3166,3328
1353,3169,3328
1378,3173,3328
1350,3179,3328
1366,3189,3328
1381,3195,3328
1351,3203,3328
1382,3211,3328
1384,3212,3328
1359,3234,3328
1383,3251,3328
1370,3257,3328
1368,3263,3328
1377,3266,3328
1358,3268,3328
1376,3276,3328
1354,3280,3328
1374,3281,3328
1379,3294,3328
1357,3301,3328
1363,3304,3328
1369,3311,3328
1362,3328,3329
1375,3328,3333
1365,3328,3343
1352,3328,3370
1373,3328,3390
1361,3328,3393
1372,3328,3397
1355,3328,3400
1356,3328,3417
1380,3328,3443
1744,3110,3329
1748,3124,3329
1762,3129,3329
1741,3166,3329
1755,3173,3329
1743,3189,3329
1758,3195,3329
1759,3211,3329
1761,3212,3329
1760,3251,3329
1747,3257,3329
1745,3263,3329
1754,3266,3329
1753,3276,3329
1751,3281,3329
1756,3294,3329
1740,3304,3329
1746,3311,3329
1752,3329,3333
1742,3329,3343
1750,3329,3390
1749,3329,3397
1757,3329,3443
962,3110,3332
955,3113,3332
966,3124,3332
980,3129,3332
943,3141,3332
959,3166,3332
948,3169,3332
973,3173,3332
937,3177,3332
945,3179,3332
961,3189,3332
976,3195,3332
946,3203,3332
977,3211,3332
979,3212,3332
954,3234,3332
978,3251,3332
965,3257,3332
938,3261,3332
963,3263,3332
972,3266,3332
953,3268,3332
971,3276,3332
942,3278,3332
949,3280,3332
969,3281,3332
974,3294,3332
952,3301,3332
958,3304,3332
964,3311,3332
935,3326,3332
944,3328,3332
957,3329,3332
970,3332,3333
960,3332,3343
940,3332,3355
947,3332,3370
968,3332,3390
956,3332,3393
967,3332,3397
950,3332,3400
936,3332,3401
951,3332,3417
941,3332,3437
975,3332,3443
939,3332,3453
1970,3129,3333
1963,3173,3333
1966,3195,3333
1967,3211,3333
1969,3212,3333
1968,3251,3333
1962,3266,3333
1961,3276,3333
1964,3294,3333
1965,3333,3443
1807,3110,3343
1811,3124,3343
1825,3129,3343
1818,3173,3343
1806,3189,3343
1821,3195,3343
1822,3211,3343
1824,3212,3343
1823,3251,3343
1810,3257,3343
1808,3263,3343
1817,3266,3343
1816,3276,3343
1814,3281,3343
1819,3294,3343
1809,3311,3343
1815,3333,3343
1813,3343,3390
1812,3343,3397
1820,3343,3443
512,3110,3346
505,3113,3346
480,3114,3346
516,3124,3346
478,3125,3346
530,3129,3346
477,3138,3346
493,3141,3346
509,3166,3346
498,3169,3346
523,3173,3346
487,3177,3346
495,3179,3346
511,3189,3346
526,3195,3346
496,3203,3346
527,3211,3346
529,3212,3346
504,3234,3346
528,3251,3346
515,3257,3346
488,3261,3346
513,3263,3346
522,3266,3346
503,3268,3346
479,3273,3346
521,3276,3346
492,3278,3346
499,3280,3346
519,3281,3346
524,3294,3346
481,3299,3346
502,3301,3346
508,3304,3346
514,3311,3346
483,3323,3346
485,3326,3346
494,3328,3346
507,3329,3346
484,3332,3346
520,3333,3346
510,3343,3346
490,3346,3355
497,3346,3370
482,3346,3384
518,3346,3390
506,3346,3393
517,3346,3397
500,3346,3400
486,3346,3401
501,3346,3417
491,3346,3437
476,3346,3438
525,3346,3443
489,3346,3453
1217,3110,3355
1210,3113,3355
1221,3124,3355
1235,3129,3355
1198,3141,3355
1214,3166,3355
1203,3169,3355
1228,3173,3355
1200,3179,3355
1216,3189,3355
1231,3195,3355
1201,3203,3355
1232,3211,3355
1234,3212,3355
1209,3234,3355
1233,3251,3355
1220,3257,3355
1218,3263,3355
1227,3266,3355
1208,3268,3355
1226,3276,3355
1197,3278,3355
1204,3280,3355
1224,3281,3355
1229,3294,3355
1207,3301,3355
1213,3304,3355
1219,3311,3355
1199,3328,3355
1212,3329,3355
1225,3333,3355
1215,3343,3355
1202,3355,3370
1223,3355,3390
1211,3355,3393
1222,3355,3397
1205,3355,3400
1206,3355,3417
1196,3355,3437
1230,3355,3443
1469,3110,3370
1462,3113,3370
1473,3124,3370
1487,3129,3370
1466,3166,3370
1455,3169,3370
1480,3173,3370
1468,3189,3370
1483,3195,3370
1484,3211,3370
1486,3212,3370
1461,3234,3370
1485,3251,3370
1472,3257,3370
1470,3263,3370
1479,3266,3370
1460,3268,3370
1478,3276,3370
1456,3280,3370
1476,3281,3370
1481,3294,3370
1459,3301,3370
1465,3304,3370
1471,3311,3370
1464,3329,3370
1477,3333,3370
1467,3343,3370
1475,3370,3390
1463,3370,3393
1474,3370,3397
1457,3370,3400
1458,3370,3417
1482,3370,3443
106,3110,3376
99,3113,3376
74,3114,3376
110,3124,3376
72,3125,3376
124,3129,3376
71,3138,3376
87,3141,3376
67,3143,3376
103,3166,3376
92,3169,3376
117,3173,3376
81,3177,3376
89,3179,3376
65,3181,3376
105,3189,3376
120,3195,3376
63,3199,3376
90,3203,3376
64,3208,3376
121,3211,3376
123,3212,3376
98,3234,3376
122,3251,3376
109,3257,3376
82,3261,3376
107,3263,3376
116,3266,3376
97,3268,3376
73,3273,3376
68,3274,3376
115,3276,3376
86,3278,3376
93,3280,3376
113,3281,3376
118,3294,3376
75,3299,3376
96,3301,3376
102,3304,3376
108,3311,3376
77,3323,3376
79,3326,3376
88,3328,3376
101,3329,3376
78,3332,3376
114,3333,3376
104,3343,3376
69,3346,3376
84,3355,3376
91,3370,3376
66,3376,3378
76,3376,3384
112,3376,3390
100,3376,3393
111,3376,3397
94,3376,3400
80,3376,3401
95,3376,3417
85,3376,3437
70,3376,3438
119,3376,3443
83,3376,3453
344,3110,3378
337,3113,3378
312,3114,3378
348,3124,3378
310,3125,3378
362,3129,3378
309,3138,3378
325,3141,3378
305,3143,3378
341,3166,3378
330,3169,3378
355,3173,3378
319,3177,3378
327,3179,3378
343,3189,3378
358,3195,3378
328,3203,3378
359,3211,3378
361,3212,3378
336,3234,3378
360,3251,3378
347,3257,3378
320,3261,3378
345,3263,3378
354,3266,3378
335,3268,3378
311,3273,3378
306,3274,3378
353,3276,3378
324,3278,3378
331,3280,3378
351,3281,3378
356,3294,3378
313,3299,3378
334,3301,3378
340,3304,3378
346,3311,3378
315,3323,3378
317,3326,3378
326,3328,3378
339,3329,3378
316,3332,3378
352,3333,3378
342,3343,3378
307,3346,3378
322,3355,3378
329,3370,3378
314,3378,3384
350,3378,3390
338,3378,3393
349,3378,3397
332,3378,3400
318,3378,3401
333,3378,3417
323,3378,3437
308,3378,3438
357,3378,3443
321,3378,3453
869,3110,3384
862,3113,3384
873,3124,3384
887,3129,3384
850,3141,3384
866,3166,3384
855,3169,3384
880,3173,3384
844,3177,3384
852,3179,3384
868,3189,3384
883,3195,3384
853,3203,3384
884,3211,3384
886,3212,3384
861,3234,3384
885,3251,3384
872,3257,3384
845,3261,3384
870,3263,3384
879,3266,3384
860,3268,3384
878,3276,3384
849,3278,3384
856,3280,3384
876,3281,3384
881,3294,3384
859,3301,3384
865,3304,3384
871,3311,3384
840,3323,3384
842,3326,3384
851,3328,3384
864,3329,3384
841,3332,3384
877,3333,3384
867,3343,3384
847,3355,3384
854,3370,3384
875,3384,3390
863,3384,3393
874,3384,3397
857,3384,3400
843,3384,3401
858,3384,3417
848,3384,3437
882,3384,3443
846,3384,3453
1949,3129,3390
1942,3173,3390
1945,3195,3390
1946,3211,3390
1948,3212,3390
1947,3251,3390
1941,3266,3390
1940,3276,3390
1938,3281,3390
1943,3294,3390
1939,3333,3390
1944,3390,3443
1721,3110,3393
1725,3124,3393
1739,3129,3393
1718,3166,3393
1732,3173,3393
1720,3189,3393
1735,3195,3393
1736,3211,3393
1738,3212,3393
1737,3251,3393
1724,3257,3393
1722,3263,3393
1731,3266,3393
1730,3276,3393
1728,3281,3393
1733,3294,3393
1717,3304,3393
1723,3311,3393
1716,3329,3393
1729,3333,3393
1719,3343,3393
1727,3390,3393
1726,3393,3397
1734,3393,3443
1937,3129,3397
1930,3173,3397
1933,3195,3397
1934,3211,3397
1936,3212,3397
1935,3251,3397
1929,3266,3397
1928,3276,3397
1926,3281,3397
1931,3294,3397
1927,3333,3397
1925,3390,3397
1932,3397,3443
1562,3110,3400
1555,3113,3400
1566,3124,3400
1580,3129,3400
1559,3166,3400
1573,3173,3400
1561,3189,3400
1576,3195,3400
1577,3211,3400
1579,3212,3400
1554,3234,3400
1578,3251,3400
1565,3257,3400
1563,3263,3400
1572,3266,3400
1553,3268,3400
1571,3276,3400
1569,3281,3400
1574,3294,3400
1552,3301,3400
1558,3304,3400
1564,3311,3400
1557,3329,3400
1570,3333,3400
1560,3343,3400
1568,3390,3400
1556,3393,3400
1567,3397,3400
1551,3400,3417
1575,3400,3443
1051,3110,3401
1044,3113,3401
1055,3124,3401
1069,3129,3401
1032,3141,3401
1048,3166,3401
1037,3169,3401
1062,3173,3401
1026,3177,3401
1034,3179,3401
1050,3189,3401
1065,3195,3401
1035,3203,3401
1066,3211,3401
1068,3212,3401
1043,3234,3401
1067,3251,3401
1054,3257,3401
1027,3261,3401
1052,3263,3401
1061,3266,3401
1042,3268,3401
1060,3276,3401
1031,3278,3401
1038,3280,3401
1058,3281,3401
1063,3294,3401
1041,3301,3401
1047,3304,3401
1053,3311,3401
1033,3328,3401
1046,3329,3401
1059,3333,3401
1049,3343,3401
1029,3355,3401
1036,3370,3401
1057,3390,3401
1045,3393,3401
1056,3397,3401
1039,3400,3401
1040,3401,3417
1030,3401,3437
1064,3401,3443
1028,3401,3453
1591,3110,3417
1584,3113,3417
1595,3124,3417
1609,3129,3417
1588,3166,3417
1602,3173,3417
1590,3189,3417
1605,3195,3417
1606,3211,3417
1608,3212,3417
1583,3234,3417
1607,3251,3417
1594,3257,3417
1592,3263,3417
1601,3266,3417
1582,3268,3417
1600,3276,3417
1598,3281,3417
1603,3294,3417
1581,3301,3417
1587,3304,3417
1593,3311,3417
1586,3329,3417
1599,3333,3417
1589,3343,3417
1597,3390,3417
1585,3393,3417
1596,3397,3417
1604,3417,3443
1256,3110,3437
1249,3113,3437
1260,3124,3437
1274,3129,3437
1237,3141,3437
1253,3166,3437
1242,3169,3437
1267,3173,3437
1239,3179,3437
1255,3189,3437
1270,3195,3437
1240,3203,3437
1271,3211,3437
1273,3212,3437
1248,3234,3437
1272,3251,3437
1259,3257,3437
1257,3263,3437
1266,3266,3437
1247,3268,3437
1265,3276,3437
1236,3278,3437
1243,3280,3437
1263,3281,3437
1268,3294,3437
1246,3301,3437
1252,3304,3437
1258,3311,3437
1238,3328,3437
1251,3329,3437
1264,3333,3437
1254,3343,3437
1241,3370,3437
1262,3390,3437
1250,3393,3437
1261,3397,3437
1244,3400,3437
1245,3417,3437
1269,3437,3443
566,3110,3438
559,3113,3438
534,3114,3438
570,3124,3438
532,3125,3438
584,3129,3438
531,3138,3438
547,3141,3438
563,3166,3438
552,3169,3438
577,3173,3438
541,3177,3438
549,3179,3438
565,3189,3438
580,3195,3438
550,3203,3438
581,3211,3438
583,3212,3438
558,3234,3438
582,3251,3438
569,3257,3438
542,3261,3438
567,3263,3438
576,3266,3438
557,3268,3438
533,3273,3438
575,3276,3438
546,3278,3438
553,3280,3438
573,3281,3438
578,3294,3438
535,3299,3438
556,3301,3438
562,3304,3438
568,3311,3438
537,3323,3438
539,3326,3438
548,3328,3438
561,3329,3438
538,3332,3438
574,3333,3438
564,3343,3438
544,3355,3438
551,3370,3438
536,3384,3438
572,3390,3438
560,3393,3438
571,3397,3438
554,3400,3438
540,3401,3438
555,3417,3438
545,3437,3438
579,3438,3443
543,3438,3453
2005,3129,3443
2001,3195,3443
2002,3211,3443
2004,3212,3443
2003,3251,3443
1177,3110,3453
1170,3113,3453
1181,3124,3453
1195,3129,3453
1158,3141,3453
1174,3166,3453
1163,3169,3453
1188,3173,3453
1160,3179,3453
1176,3189,3453
1191,3195,3453
1161,3203,3453
1192,3211,3453
1194,3212,3453
1169,3234,3453
1193,3251,3453
1180,3257,3453
1178,3263,3453
1187,3266,3453
1168,3268,3453
1186,3276,3453
1157,3278,3453
1164,3280,3453
1184,3281,3453
1189,3294,3453
1167,3301,3453
1173,3304,3453
1179,3311,3453
1159,3328,3453
1172,3329,3453
1185,3333,3453
1175,3343,3453
1155,3355,3453
1162,3370,3453
1183,3390,3453
1171,3393,3453
1182,3397,3453
1165,3400,3453
1166,3417,3453
1156,3437,3453
1190,3443,3453
