,BusinessTravel_Non-Travel,BusinessTravel_Travel_Frequently,BusinessTravel_Travel_Rarely
367,0,0,1
368,0,0,1
369,0,0,1
370,0,0,1
371,0,0,1
372,0,0,1
373,0,0,1
374,0,0,1
375,0,0,1
376,0,0,1
377,0,0,1
378,1,0,0
379,0,0,1
380,0,0,1
381,0,0,1
382,0,1,0
383,0,0,1
384,0,0,1
385,0,1,0
386,0,0,1
387,0,0,1
388,0,0,1
389,0,0,1
390,0,0,1
391,0,0,1
392,0,0,1
393,1,0,0
394,0,0,1
395,0,1,0
396,0,0,1
397,0,0,1
398,1,0,0
399,0,0,1
400,0,1,0
401,0,1,0
402,0,0,1
403,0,0,1
404,0,0,1
405,0,0,1
406,0,0,1
407,0,0,1
408,0,0,1
409,0,1,0
410,0,0,1
411,0,0,1
412,0,0,1
413,0,1,0
414,0,0,1
415,0,1,0
416,0,1,0
417,0,0,1
418,0,0,1
419,1,0,0
420,0,0,1
421,0,0,1
422,0,0,1
423,1,0,0
424,0,0,1
425,0,0,1
426,1,0,0
427,0,1,0
428,0,0,1
429,0,0,1
430,0,0,1
431,0,0,1
432,0,0,1
433,0,0,1
434,0,0,1
435,0,0,1
436,0,0,1
437,0,0,1
438,0,0,1
439,0,1,0
440,0,1,0
441,0,1,0
442,1,0,0
443,0,1,0
444,0,0,1
445,0,0,1
446,1,0,0
447,0,0,1
448,0,0,1
449,0,1,0
450,0,0,1
451,0,0,1
452,0,0,1
453,0,1,0
454,0,0,1
455,0,0,1
456,0,0,1
457,0,1,0
458,1,0,0
459,1,0,0
460,0,0,1
461,0,0,1
462,0,0,1
463,0,0,1
464,0,0,1
465,0,1,0
466,0,0,1
467,1,0,0
468,0,0,1
469,1,0,0
470,0,1,0
471,0,0,1
472,0,0,1
473,0,0,1
474,0,0,1
475,0,0,1
476,0,0,1
477,0,1,0
478,0,0,1
479,0,1,0
480,0,1,0
481,0,0,1
482,0,0,1
483,0,0,1
484,0,0,1
485,0,0,1
486,0,0,1
487,0,0,1
488,0,0,1
489,0,0,1
490,0,0,1
491,0,1,0
492,0,0,1
493,0,0,1
494,0,0,1
495,0,0,1
496,0,0,1
497,0,0,1
498,0,0,1
499,0,0,1
500,0,0,1
501,0,1,0
502,0,0,1
503,0,0,1
504,0,1,0
505,0,0,1
506,0,0,1
507,0,0,1
508,0,0,1
509,0,1,0
510,0,0,1
511,0,0,1
512,0,0,1
513,0,0,1
514,0,1,0
515,1,0,0
516,0,0,1
517,0,0,1
518,0,0,1
519,0,1,0
520,0,0,1
521,0,1,0
522,0,0,1
523,0,0,1
524,0,0,1
525,0,0,1
526,0,0,1
527,0,0,1
528,0,1,0
529,0,0,1
530,0,0,1
531,0,0,1
532,0,0,1
533,0,1,0
534,0,0,1
535,0,0,1
536,0,0,1
537,0,1,0
538,0,0,1
539,0,0,1
540,0,0,1
541,1,0,0
542,0,0,1
543,1,0,0
544,0,1,0
545,0,0,1
546,0,0,1
547,0,1,0
548,0,1,0
549,0,0,1
550,0,0,1
551,0,0,1
552,0,0,1
553,0,0,1
554,0,0,1
555,0,0,1
556,0,0,1
557,1,0,0
558,0,1,0
559,0,0,1
560,0,0,1
561,0,0,1
562,0,0,1
563,0,0,1
564,0,0,1
565,0,0,1
566,0,1,0
567,0,0,1
568,0,0,1
569,1,0,0
570,1,0,0
571,0,1,0
572,0,0,1
573,0,0,1
574,0,0,1
575,0,0,1
576,0,1,0
577,0,0,1
578,0,1,0
579,0,0,1
580,0,0,1
581,0,0,1
582,0,1,0
583,0,0,1
584,0,1,0
585,0,0,1
586,1,0,0
587,0,0,1
588,0,0,1
589,0,0,1
590,0,0,1
591,0,0,1
592,0,0,1
593,0,0,1
594,0,0,1
595,0,0,1
596,0,0,1
597,0,0,1
598,0,0,1
599,0,0,1
600,0,0,1
601,0,1,0
602,0,0,1
603,0,0,1
604,0,0,1
605,0,1,0
606,0,1,0
607,0,0,1
608,0,0,1
609,0,0,1
610,0,0,1
611,0,0,1
612,0,0,1
613,0,0,1
614,0,1,0
615,1,0,0
616,0,0,1
617,0,0,1
618,0,0,1
619,0,0,1
620,0,0,1
621,0,0,1
622,0,0,1
623,0,1,0
624,0,0,1
625,0,0,1
626,0,0,1
627,0,1,0
628,0,0,1
629,0,0,1
630,0,0,1
631,0,0,1
632,0,1,0
633,0,0,1
634,0,0,1
635,0,0,1
636,0,1,0
637,1,0,0
638,0,0,1
639,0,0,1
640,1,0,0
641,0,1,0
642,0,0,1
643,0,0,1
644,0,0,1
645,0,0,1
646,0,0,1
647,0,0,1
648,0,1,0
649,0,0,1
650,0,1,0
651,0,0,1
652,1,0,0
653,1,0,0
654,0,0,1
655,0,0,1
656,0,0,1
657,0,0,1
658,0,0,1
659,0,0,1
660,0,1,0
661,0,0,1
662,0,0,1
663,0,0,1
664,0,0,1
665,0,0,1
666,0,0,1
667,0,0,1
668,0,0,1
669,0,0,1
670,0,0,1
671,0,0,1
672,0,0,1
673,0,0,1
674,0,0,1
675,0,0,1
676,0,0,1
677,0,0,1
678,0,0,1
679,1,0,0
680,0,0,1
681,0,0,1
682,1,0,0
683,0,0,1
684,0,0,1
685,0,1,0
686,0,0,1
687,0,0,1
688,0,0,1
689,0,0,1
690,0,0,1
691,0,1,0
692,0,0,1
693,0,0,1
694,0,0,1
695,0,0,1
696,1,0,0
697,0,1,0
698,0,0,1
699,0,0,1
700,0,0,1
701,0,0,1
702,0,0,1
703,1,0,0
704,0,0,1
705,0,0,1
706,1,0,0
707,0,1,0
708,1,0,0
709,1,0,0
710,1,0,0
711,0,0,1
712,0,0,1
713,0,0,1
714,0,0,1
715,0,1,0
716,0,1,0
717,0,0,1
718,1,0,0
719,0,0,1
720,0,0,1
721,0,0,1
722,0,1,0
723,0,0,1
724,0,0,1
725,0,0,1
726,0,1,0
727,1,0,0
728,0,0,1
729,0,0,1
730,0,0,1
731,0,0,1
732,0,1,0
733,0,0,1
734,0,0,1
