,Major_category,Median
0,Agriculture & Natural Resources,55000.0
1,Biology & Life Science,51833.333333333336
2,Communications & Journalism,49500.0
3,Computers & Mathematics,61571.42857142857
4,Education,43831.25
5,Engineering,77857.14285714286
6,Humanities & Liberal Arts,46712.5
7,Industrial Arts & Consumer Services,40250.0
8,Law & Public Policy,49000.0
