,username,date,retweets,favorites,text,geo,mentions,hashtags,id,permalink
0,,2009-05-01 16:54,0,0,"is watching the titans rookies go through their first workout. TE jared cook passes the eye test big time, as does WR Kenny Britt",,,,1673300446,https://twitter.com/brentdougherty/status/1673300446
1,,2009-05-01 09:54,0,0,"RT @ janesports: Sanchez looks accurate, throwing now to Marcus Henry, Huey Whittaker, Kenny O'Neal and Britt Davis. # nfl",,@,#,1669666431,https://twitter.com/Brian_Bassett/status/1669666431
2,,2009-05-01 09:52,0,0,"Sanchez looks accurate, throwing now to Marcus Henry, Huey Whittaker, Kenny O'Neal and Britt Davis. # nfl",,,#,1669646494,https://twitter.com/janesports/status/1669646494
3,,2009-05-01 01:38,0,0,[Titans] Ex-Broncos WR Rod Smith Persuaded Titans To Pick Kenny Britt http://tinyurl.com/cprf3l,,,,1667207124,https://twitter.com/GridironFans/status/1667207124
4,,2009-04-30 16:23,0,0,"SI: Larry English, Robert Ayers and Kenny Britt would have collected in between $1M and $3M in career-ending insurance if were hurt in NCAA.",,,,1662989531,https://twitter.com/darrenrovell/status/1662989531
5,,2009-04-30 11:07,0,0,Tennessee Titans Morning Links: Bespeaking Like A Mug Edition: Kenny Britt's dominating play didn't .. http://tinyurl.com/ddhfhs,,,,1660192725,https://twitter.com/TitansMCM/status/1660192725
6,,2009-04-30 08:24,0,0,Must Read Article On Kenny Britt * UPDATED*: Must Read Article On Kenny Britt * UPDATED* From the NY .. http://tinyurl.com/dngvkx,,,,1658755024,https://twitter.com/TitansMCM/status/1658755024
7,,2009-04-30 06:08,0,0,New Titan Kenny Britt made some powerful impressions while still a high school freshman-and on a former NFL Pro Bowler. http://n247.tv/z6g,,,,1657951351,https://twitter.com/nashville247/status/1657951351
8,,2009-04-29 15:17,0,0,"Go Titans!!! I am pretty excited about this Kenny Britt, WR.",,,,1652233920,https://twitter.com/Grams2be/status/1652233920
9,,2009-04-29 13:57,0,0,@ aplusk kenny britt will have bigger impact.,,@,,1651533368,https://twitter.com/volntitan/status/1651533368
10,,2009-04-29 06:11,0,0,7 spillere fra New Jersey blev valgt i 1. rd af draften. Kun WR Kenny Britt spillede collegebold i hjemstaten - for Rugters...,,,,1647940049,https://twitter.com/aroundthedraft/status/1647940049
11,,2009-04-28 22:30,0,0,"Good article on Kenny Britt, hopefully he can enjoy the same success Eddie Royal and Marshall have had- http://tinyurl.com/dm3rus",,,,1645733344,https://twitter.com/daviddickson/status/1645733344
12,,2009-04-28 21:02,0,0,so ima miss the crew! ruben kenny flight vic dee ky dub britt etc.... but damn it feels good to be going home tomorrow.. oh @kslade24 LUV YU,,@kslade24,,1644966746,https://twitter.com/_AquiredTaste/status/1644966746
13,,2009-04-28 14:17,0,0,"waiting to see if i can draft RB LeSean McCoy in my rookie draft. If not, its a tough choice between WR's Hakeem Nicks and Kenny Britt...",,,,1641735001,https://twitter.com/BeastOrBust/status/1641735001
14,,2009-04-28 06:37,0,0,"Titans Locker >> 1. (30) Kenny Britt, WR http://tinyurl.com/ca4c3z",,,,1638131392,https://twitter.com/titansbuzztap/status/1638131392
15,,2009-04-27 21:50,0,0,http://tinyurl.com/d4y6x3 My latest Titan Article on Kenny Britt,,,,1635456299,https://twitter.com/Felber45/status/1635456299
16,,2009-04-27 21:41,0,0,i hope Kenny Britt from Rutgers isnt a bust...he reminds me of TO a lil. 6'4 220 - 4 .4 can be a problem.,,,,1635377207,https://twitter.com/ALLPROALLDAY/status/1635377207
17,,2009-04-27 15:52,0,0,Welcoming 1st round draft pick Kenny Britt to the team.,,,,1632455634,https://twitter.com/tightesttitan34/status/1632455634
18,,2009-04-27 14:33,0,0,The Case for Kenny Britt of Rutgers - New York Times http://ow.ly/48kt,,,,1631772016,https://twitter.com/SheSmile/status/1631772016
19,,2009-04-27 14:30,0,0,# sports The Case for Kenny Britt of Rutgers - New York Times http://ow.ly/48nX,,,#,1631750732,https://twitter.com/Sportbuzz/status/1631750732
20,,2009-04-27 14:27,0,0,BobsBlitz.com learns The Case for Kenny Britt of Rutgers - New York Times: Rutgers Universit.. http://tinyurl.com/dhs2c3,,,,1631719472,https://twitter.com/MSPLinks/status/1631719472
21,,2009-04-27 13:48,0,0,[NYT]: The Case for Kenny Britt of Rutgers. http://tinyurl.com/cs7npc,,,,1631398777,https://twitter.com/nytriver/status/1631398777
22,,2009-04-27 12:36,0,0,@ AAAudette I wish we would have gone with Kenny Britt though or the OT from Virginia... I just dont know about Harvin and how he will fit in,,@,,1630788377,https://twitter.com/Batchers/status/1630788377
23,,2009-04-27 12:30,0,0,In case you missed them: Kenny Britt highlights at Rutgers. http://tinyurl.com/dn85yp,,,,1630735409,https://twitter.com/tnsports/status/1630735409
24,,2009-04-27 12:27,0,0,In case you missed it: a Kenny Britt crackback block. http://tinyurl.com/d7sydd,,,,1630718340,https://twitter.com/tnsports/status/1630718340
25,,2009-04-27 08:46,0,0,Protect R Turf >> Kenny Britt Introduced as a Titan http://tinyurl.com/cyr8ah,,,,1628902855,https://twitter.com/rutgersbuzztap/status/1628902855
26,,2009-04-27 00:43,0,0,Kenny Britt to Titans: Fantasy Spin: by Matt SnyderFiled under: NFL Draft AnalysisThe Tennessee Titans finally b.. http://tinyurl.com/d2ogtn,,,,1626772042,https://twitter.com/TheIncomeRush/status/1626772042
27,,2009-04-27 00:16,0,0,Kenny Britt to Titans: Fantasy Spin: by Matt SnyderFiled under: NFL Draft AnalysisThe Tennessee Titans finally b.. http://tinyurl.com/d2ogtn,,,,1626639203,https://twitter.com/myqkadoo4u/status/1626639203
28,,2009-04-26 23:06,0,0,"Kenny Britt, Mike Teel, Courtney Greene, Jason McCourty, Ti Underwood- Welcome to the NFL! Five Rutgers guys drafted. Who woulda Thunk it?",,,,1626243529,https://twitter.com/Hugh_Jee/status/1626243529
29,,2009-04-26 23:05,0,0,"Tiquan Underwood and Kenny Britt from RU got drafted and rightfully so...but QB Mike Teel?? no disrespect, but I didnt see that coming.",,,,1626237776,https://twitter.com/Whoootiz/status/1626237776
30,,2009-04-26 22:47,0,0,"Draft Fate Of The Underclassmen: Asher Allen, DB, Georgia: round three, pick 22 (Vikings). Kenny Britt, WR, Rutg.. http://tinyurl.com/cc8ob8",,,,1626117317,https://twitter.com/FootballUnis/status/1626117317
31,,2009-04-26 22:35,0,0,Music City Miracles >> Kenny Britt and Sen'Derrick Marks Introductory Press Conference http://tinyurl.com/dzz7zy,,,,1626035997,https://twitter.com/titansbuzztap/status/1626035997
32,,2009-04-26 22:30,0,0,Kenny Britt and Sen'Derrick Marks Introductory Press Conference: Kenny Britt and Sen'Derrick Marks Introductory .. http://tinyurl.com/dzz7zy,,,,1626005614,https://twitter.com/TitansMCM/status/1626005614
33,,2009-04-26 22:15,0,0,"Titans introduce top draft picks: Tennessee selected Rutgers' wide receiver Kenny Britt with its first pick, Aub.. http://tinyurl.com/cqxp93",,,,1625900004,https://twitter.com/wvlt/status/1625900004
34,,2009-04-26 22:11,0,0,@ Donny_Moore How does one justify Hakeem Nicks having a higher speed rating than Kenny Britt when Britt had a faster 40 time and better YAC,,@,,1625866188,https://twitter.com/MikaelBudil/status/1625866188
35,,2009-04-26 18:30,0,0,"Whoo Hoo! Rutgers did their thing in this years draft! Kenny Britt, Courtney Greene, Mike Teel and Tiquan Underwood! Love it!!",,,,1624300532,https://twitter.com/MissCeo_ICE/status/1624300532
36,,2009-04-26 17:50,0,0,congrats to rutgers WR kenny britt - 1st rd pick # nfl # rutgers,,,# #,1624038193,https://twitter.com/nickragone2/status/1624038193
37,,2009-04-26 17:31,0,0,[blog] - kenny britt http://tinyurl.com/c8uodk,,,,1623910549,https://twitter.com/Politicsdotcom/status/1623910549
38,,2009-04-26 16:35,0,0,"Good news continues, Jason McCourty joins Kenny Britt and the Titans. We're proud of #25! Tim P",,,#25,1623530832,https://twitter.com/RUAthletics/status/1623530832
39,,2009-04-26 14:49,0,0,[NYT]: Buyer's Remorse? Kenny Britt and Braylon Edwards. http://tinyurl.com/c7f83u,,,,1622757028,https://twitter.com/nytriver/status/1622757028
40,,2009-04-26 14:24,0,0,"Buyer's Remorse? Kenny Britt and Braylon Edwards: Earlier today, we looked at the comparison between wide receiv.. http://tinyurl.com/ck4nhv",,,,1622569715,https://twitter.com/mg_sports/status/1622569715
41,,2009-04-26 13:57,0,0,"NFL DRAFT party last for my lil' cousin KENNY BRITT"" was Crazy! He was picked by ""THE TITANS"" in the 1st round!!!""",,,,1622382416,https://twitter.com/MsMaryBrown/status/1622382416
42,,2009-04-26 13:41,0,0,BobsBlitz.com Heard Buyer's Remorse? Kenny Britt and Braylon Edwards - New York Times http://tinyurl.com/c3rjom,,,,1622265678,https://twitter.com/FakeBobsBlitz/status/1622265678
43,,2009-04-26 12:32,0,0,"Can't believe the Titans passed on Malaluga but Kenny Britt looks like a big target and a good blocking WR. Not too sure about rounds 2,3,4",,,,1621785994,https://twitter.com/Leifeezy/status/1621785994
44,,2009-04-26 12:31,0,0,Titans draft Rutgers receiver Kenny Britt - Philadelphia Inquirer: http://tinyurl.com/ccwev6,,,,1621779379,https://twitter.com/TitansNFLFans/status/1621779379
45,,2009-04-26 12:30,0,0,B/R >> Tennessee Titans Choose Size and Toughness in Kenny Britt: The Titans did something they have.. http://tinyurl.com/d9fbvs,,,,1621773991,https://twitter.com/BR_IndColts/status/1621773991
46,,2009-04-26 11:06,0,0,Mark my words kenny britt is da gem of dis draft class,,,,1621219317,https://twitter.com/Drewcifer89/status/1621219317
47,,2009-04-26 10:51,0,0,Kenny Britt's Tennessee Titans will play at the Jets on Sept. 27.,,,,1621129798,https://twitter.com/KSargeantNJ/status/1621129798
48,,2009-04-26 10:43,0,0,"MyTeamRivals.com Congrats to Kenny Britt!: With the 30th pick in the NFL draft, the Tennessee Ti.. http://tinyurl.com/cvvp8x",,,,1621080449,https://twitter.com/MyTeamRivals/status/1621080449
49,,2009-04-26 10:30,0,0,The Official MCM Kenny Britt Poll: More photos » by Jason DeCrow - AP This .. http://tinyurl.com/cc4x3c,,,,1621002098,https://twitter.com/TitansMCM/status/1621002098
50,,2009-04-26 10:12,0,0,Video of Kenny Britt highlights. http://tinyurl.com/dn85yp,,,,1620893843,https://twitter.com/tnsports/status/1620893843
51,,2009-04-26 10:07,0,0,Video of another Kenny Britt block. http://tinyurl.com/cqnlcd,,,,1620862005,https://twitter.com/tnsports/status/1620862005
52,,2009-04-26 10:03,0,0,Video of a Kenny Britt crackback block. http://tinyurl.com/d7sydd,,,,1620842325,https://twitter.com/tnsports/status/1620842325
53,,2009-04-26 09:50,0,0,who did the Titans pick in the first round…check out Kenny Britt http://is.gd/uG3i,,,,1620768686,https://twitter.com/sullied/status/1620768686
54,,2009-04-26 09:23,0,0,Music City Miracles >> The Official MCM Kenny Britt Poll http://tinyurl.com/cc4x3c,,,,1620623290,https://twitter.com/titansbuzztap/status/1620623290
55,,2009-04-26 09:15,0,0,Kenny Britt and Sen'Derrick Marks come to Nashville today to visit facility and greet media,,,,1620583100,https://twitter.com/Titans/status/1620583100
56,,2009-04-26 08:46,0,0,"DRAFT NFL: 29a escolha - New York Giants - Hakeem Nicks, WR, North Carolina; 30a escolha - Tennessee Titans - Kenny Britt, WR, Rutgers",,,,1620442570,https://twitter.com/CearaBowl/status/1620442570
57,,2009-04-26 08:19,0,0,The Official MCM Kenny Britt Poll: More photos » by Jason DeCrow - AP Thi.. http://tinyurl.com/cc4x3c,,,,1620319773,https://twitter.com/SBNationNFL/status/1620319773
58,,2009-04-26 08:18,0,0,Tennessee Titans Select Kenny Britt with 1st Round Pick: Britt becomes the 1st ever Knight to land in t.. http://tinyurl.com/dk4ewo,,,,1620315940,https://twitter.com/sbncollege/status/1620315940
59,,2009-04-26 07:16,0,0,Tennessee Titans Select Kenny Britt with 1st Round Pick - Protect R Turf: http://tinyurl.com/cnfgkl,,,,1620068368,https://twitter.com/TitansNFLFans/status/1620068368
60,,2009-04-26 07:11,0,0,Protect R Turf >> Tennessee Titans Select Kenny Britt with 1st Round Pick http://tinyurl.com/dk4ewo,,,,1620051661,https://twitter.com/rutgersbuzztap/status/1620051661
61,,2009-04-26 07:08,0,0,"Yea well, first day of the draft, we did okay. I thought we would get Kenny Britt first round but I guess we picked the better choice. Day 2",,,,1620039867,https://twitter.com/giantstalk/status/1620039867
62,,2009-04-26 06:50,0,0,"Meanwhile, I'm trying to find out who is Kenny Britt......",,,,1619976629,https://twitter.com/PictureMane/status/1619976629
63,,2009-04-26 02:31,0,0,Tennessee Titans Kenny Britt Links: Here is what they are saying around the internet about Kenny Britt: .. http://tinyurl.com/d96mur,,,,1619187517,https://twitter.com/TitansMCM/status/1619187517
64,,2009-04-26 02:31,0,0,Mike Heimerdinger Had Some Inside Info on Kenny Britt: Mike Heimerdinger Had Some Inside Info on Kenny Brit.. http://tinyurl.com/dfcv3y,,,,1619186980,https://twitter.com/TitansMCM/status/1619186980
65,,2009-04-26 01:57,0,0,Kenny Britt likely won't arrive in 2009 # nfl_stories,,,#,1619064492,https://twitter.com/espndev/status/1619064492
66,,2009-04-26 01:13,0,0,Kenny Britt likely won't arrive in 2009 # misc,,,#,1618886307,https://twitter.com/espndev/status/1618886307
67,,2009-04-26 01:07,0,0,@Paulystarbucks. Not yet he's still waiting on that call..WR Kenny Britt is on Titans,,@Paulystarbucks,,1618864557,https://twitter.com/Audio_Rydeout/status/1618864557
68,,2009-04-26 00:43,0,0,Music City Miracles >> Tennessee Titans Kenny Britt Links http://tinyurl.com/d96mur,,,,1618756666,https://twitter.com/titansbuzztap/status/1618756666
69,,2009-04-26 00:43,0,0,Music City Miracles >> Mike Heimerdinger Had Some Inside Info on Kenny Britt http://tinyurl.com/dfcv3y,,,,1618756446,https://twitter.com/titansbuzztap/status/1618756446
70,,2009-04-26 00:05,0,0,"Kenny Britt (born September 19, 1988) is a former wide receiver for the Rutgers Scarlet Knights who is now a NFL http://bit.ly/NzW1b",,,,1618574580,https://twitter.com/wikirage6/status/1618574580
71,,2009-04-26 00:05,0,0,"And the Giants should have drafted Kenny Britt, but overall they did OK.",,,,1618570332,https://twitter.com/spudsfan/status/1618570332
72,,2009-04-25 23:54,0,0,Really happy with the Giants draft. Filled a lot of holes. Really liked Kenny Britt's height and speed though. Could come back on us later.,,,,1618514418,https://twitter.com/RayCarsillo/status/1618514418
73,,2009-04-25 23:48,0,0,Ok bayonne kenny britt 1st rd 30th overall by the titans in the NFL draft,,,,1618482785,https://twitter.com/mr__anderson18/status/1618482785
74,,2009-04-25 23:35,0,0,"The Cutting Edge: Titans select Kenny Britt, tough-as-nails WR from Rutgers: Kenny Britt, selected in the first .. http://tinyurl.com/cuxbca",,,,1618414527,https://twitter.com/tennesseeBNN/status/1618414527
75,,2009-04-25 22:58,0,0,# RUTGERS: Britt relieved to hear his name called at No. 30: Here is the Kenny Britt NFL Draft story wri.. http://tinyurl.com/c6clk4,,,#,1618206383,https://twitter.com/MyCentralJersey/status/1618206383
76,,2009-04-25 22:45,0,0,Kenny Britt is going to be catching passes from Vince young lol.,,,,1618125239,https://twitter.com/jgroc/status/1618125239
77,,2009-04-25 22:38,0,0,Tennessee Titans Receiver Kenny Britt Highlights: He can also help in the run game: http://tinyurl.com/c9r3f9,,,,1618084321,https://twitter.com/TitansMCM/status/1618084321
78,,2009-04-25 22:38,0,0,"Your Tennessee Titans Select Kenny Britt, WR, Rutgers: More photos » by Mel.. http://tinyurl.com/dd2dhh",,,,1618083683,https://twitter.com/TitansMCM/status/1618083683
79,,2009-04-25 22:14,0,0,We break down the Titans draft picks- hear from Kenny Britt coming up in sports on News 2 @10,,@10,,1617938383,https://twitter.com/christnemaddela/status/1617938383
80,,2009-04-25 22:14,0,0,"Titans tap wide receiver Kenny Britt in the first round of the NFL draft, and defensive tackle Sen'Derrick Marks in the.. http://n247.tv/z5b",,,,1617935137,https://twitter.com/nashville247/status/1617935137
81,,2009-04-25 22:09,0,0,[NYT]: The Impact: Receiver Kenny Britt. http://tinyurl.com/c45ex8,,,,1617907362,https://twitter.com/nytriver/status/1617907362
82,,2009-04-25 21:48,0,0,@ ChrisCarlinSNY What did you think about the Giants passing on Kenny Britt for Nicks?,,@,,1617779048,https://twitter.com/SteveSlats/status/1617779048
83,,2009-04-25 21:47,0,0,> 2009 NFL Draft: Pick 30 - WR Kenny Britt (via KFFL.com - Fantasy Sports Blog) http://twurl.nl/co2c5d,,,,1617771351,https://twitter.com/ffootball/status/1617771351
84,,2009-04-25 21:44,0,0,KFFL.com Blog - 2009 NFL Draft: Pick 30 - WR Kenny Britt: The Tennessee Titans have selected Rutg.. http://tinyurl.com/dzwkk4,,,,1617748995,https://twitter.com/usatodayfantasy/status/1617748995
85,,2009-04-25 21:27,0,0,Tennessee Titans Select Kenny Britt « But The Game Is On http://bit.ly/185UmM,,,,1617644248,https://twitter.com/Titans_News/status/1617644248
86,,2009-04-25 21:14,0,0,@ lil_shawn KENNY BRITT..... BIG RECIEVER FROM RUTGERS..... YOU WILL LIKE HIM..... NO HOMO......,,@,,1617563201,https://twitter.com/JUSTCHILLY/status/1617563201
87,,2009-04-25 21:13,0,0,Good draft day one for the Tennessee Titans with Rutgers WR Kenny Britt in the first round and Auburn DT Sen'Derrick Marks in round two.,,,,1617555946,https://twitter.com/LouPickney/status/1617555946
88,,2009-04-25 21:12,0,0,"16. kenny britt: National Football League: NFL Draft 2009 - Kenny Britt, The NFL Draft 2009 Prospect page for Ken http://tinyurl.com/dge7dc",,,,1617550364,https://twitter.com/newstrendz/status/1617550364
89,,2009-04-25 21:09,0,0,Britt headed to Nashville: The 30th pick is WR Kenny Britt to Tennessee. Britt has a streak of prima donna in hi.. http://tinyurl.com/cs4jft,,,,1617527659,https://twitter.com/nfldraftdog/status/1617527659
90,,2009-04-25 21:01,0,0,Thinks the Titans got a steal in Kenny Britt in the first round.,,,,1617478113,https://twitter.com/ChrisSloan1972/status/1617478113
91,,2009-04-25 20:49,0,0,@ gavoweb Kenny Britt WR Rutgers,,@,,1617406696,https://twitter.com/BradS_80/status/1617406696
92,,2009-04-25 20:45,0,0,Very excited about the first ever Rutgers first round pick.. Kenny Britt to the Titans!!,,,,1617376419,https://twitter.com/theacks/status/1617376419
93,,2009-04-25 20:44,0,0,@ gavoweb Looks like they went with Kenny Britt / WR - Rutgers as they're first round pick.,,@,,1617371180,https://twitter.com/THEjeffbrown/status/1617371180
94,,2009-04-25 20:25,0,0,titans pick up kenny britt from Rutgers. I guess Anquan Bolden won't be a Titan:(,,,,1617252106,https://twitter.com/jeremyjohnson1/status/1617252106
95,,2009-04-25 20:24,0,0,kenny britt http://www.kinougo.com/kenny-britt/,,,,1617245899,https://twitter.com/kinougo/status/1617245899
96,,2009-04-25 20:20,0,0,Star-Ledger >> Rutgers WR Kenny Britt selected 30th overall by Tennessee Titans http://tinyurl.com/c7nx9o,,,,1617221331,https://twitter.com/rutgersbuzztap/status/1617221331
97,,2009-04-25 20:18,0,0,RT @tennesseetitans: Kenny Britt's high school mascot? The Bayonne (NJ) Fighting Bees (So that's the BUZZ so to speak?) :D,,@tennesseetitans,,1617210890,https://twitter.com/jenciTN/status/1617210890
98,,2009-04-25 20:06,0,0,Total Titans >> The Titans select WR Kenny Britt in first round http://tinyurl.com/c4zdaz,,,,1617134808,https://twitter.com/titansbuzztap/status/1617134808
99,,2009-04-25 20:06,0,0,"Music City Miracles >> Your Tennessee Titans Select Kenny Britt, WR, Rutgers http://tinyurl.com/dd2dhh",,,,1617134078,https://twitter.com/titansbuzztap/status/1617134078
100,,2009-04-25 20:06,0,0,Music City Miracles >> Tennessee Titans Receiver Kenny Britt Highlights http://tinyurl.com/c9r3f9,,,,1617133783,https://twitter.com/titansbuzztap/status/1617133783
101,,2009-04-25 20:05,0,0,New blog post: Rutgers WR Kenny Britt selected 30th overall by Tennessee Titans - The Star-Ledger - NJ.com http://www.akiranews.com/2009 ...,,,,1617129864,https://twitter.com/akiranews/status/1617129864
102,,2009-04-25 19:56,0,0,@ JeremyElrod Kenny Britts- Rutgers,,@,,1617074597,https://twitter.com/crash8130/status/1617074597
103,,2009-04-25 19:54,0,0,Rutgers WR Kenny Britt selected 30th overall by Tennessee Titans - The Star-Ledger - NJ.com http://ow.ly/3XcQ,,,,1617058432,https://twitter.com/BreakingTech/status/1617058432
104,,2009-04-25 19:52,0,0,Top News: Rutgers WR Kenny Britt selected 30th overall by Tennessee Titans - The Star-Ledger - NJ.com http://ow.ly/3X6a,,,,1617045161,https://twitter.com/tweetergreeter1/status/1617045161
105,,2009-04-25 19:52,0,0,Top News: Rutgers WR Kenny Britt selected 30th overall by Tennessee Titans - The Star-Ledger - NJ.com http://ow.ly/3X69,,,,1617045030,https://twitter.com/canoebuilding/status/1617045030
106,,2009-04-25 19:50,0,0,@ondecklou the titans picked kenny britt wr out of rutgers. he is nice 6'3 about to 220 nice target for kerry or vy.,,@ondecklou,,1617035078,https://twitter.com/theejameson/status/1617035078
107,,2009-04-25 19:49,0,0,"Kenny Britt says his favorite movie is The Bourne Ultimatum""""",,,,1617026294,https://twitter.com/Titans/status/1617026294
108,,2009-04-25 19:47,0,0,# sports Rutgers WR Kenny Britt selected 30th overall by Tennessee Titans - The Star-Ledger - NJ.com http://ow.ly/3Xco,,,#,1617018852,https://twitter.com/Sportbuzz/status/1617018852
109,,2009-04-25 19:46,0,0,# ESPN Trey Wingo hinted - WR Kenny Britt is notable for his precise routes rather than his speed. Hmm.. Reminds me of Derrick Mason. # Titans,,,# #,1617009296,https://twitter.com/JimG_Patriots/status/1617009296
110,,2009-04-25 19:42,0,0,My nigga KENNY BRITT IS NOW A TENNESEE TITAN...,,,,1616986462,https://twitter.com/6FO/status/1616986462
111,,2009-04-25 19:41,0,0,Kenny Britt's high school mascot? The Bayonne (NJ) Fighting Bees,,,,1616980821,https://twitter.com/Titans/status/1616980821
112,,2009-04-25 19:40,0,0,"yeaaa kenny britt, nate washington, justin gage, lavelle hawkins, alge crumpler, and bo scaife, kollins got targets now baby (((=",,,,1616970718,https://twitter.com/xX0rAnG3JuIc3x/status/1616970718
113,,2009-04-25 19:38,0,0,The Giants passing on Kenny Britt? Time will tell. But Britt can't complain -- he still lands with a contender that sorely leads a big WR.,,,,1616962504,https://twitter.com/StevePoliti/status/1616962504
114,,2009-04-25 19:36,0,0,\o/ Kenny Britt! First ever Rutgers 1st round draft pick!,,,,1616951083,https://twitter.com/notnadia/status/1616951083
115,,2009-04-25 19:34,0,0,"My draft thoughts so far: Kenny Britt will be a bright spot, trouble is the Titans don't throw the ball! A defensive pick made more sense!!",,,,1616936596,https://twitter.com/bryantparkerGCS/status/1616936596
116,,2009-04-25 19:31,0,0,Bayonne Now Impact: Bayonne's Kenny Britt chosen by Tennessee Titans in first round of the NFL Draft: AP file ph.. http://tinyurl.com/dkevk9,,,,1616915617,https://twitter.com/new_jerseyBNN/status/1616915617
117,,2009-04-25 19:25,0,0,Yippee! Kenny Britt drafted in the 1st round to the Titans. Great news for RU,,,,1616878801,https://twitter.com/RUfan225/status/1616878801
118,,2009-04-25 19:25,0,0,Rutgers WR Kenny Britt selected 30th overall by Tennessee Titans - The Star-Ledger - NJ.com http://ff.im/-2mIkq,,,,1616876809,https://twitter.com/virtaaj/status/1616876809
119,,2009-04-25 19:24,0,0,News: Rutgers WR Kenny Britt selected 30th overall by Tennessee Titans - The Star-Ledger - NJ.com http://cli.gs/ZqWPLD,,,,1616871148,https://twitter.com/EducatePlus/status/1616871148
120,,2009-04-25 19:23,0,0,"Scout >> Round 1: Tennessee Selects WR Kenny Britt: With Selection 30 in Round 1, Tennessee select.. http://tinyurl.com/c9mdzy",,,,1616864737,https://twitter.com/BR_Titans/status/1616864737
121,,2009-04-25 19:21,0,0,NFL Video >> 2009 Draft: Titans No. 30 pick: The Titans draft Rutgers WR Kenny Britt with the .. http://tinyurl.com/cwkyjn,,,,1616853795,https://twitter.com/BR_Titans/status/1616853795
122,,2009-04-25 19:18,0,0,But The Game Is On: Tennessee Titans Select Kenny Britt: http://tinyurl.com/dl4bn3,,,,1616837533,https://twitter.com/Mark_Travis/status/1616837533
123,,2009-04-25 19:12,0,0,BobsBlitz.com Heard Rutgers WR Kenny Britt selected 30th overall by Tennessee Titans - The St.. http://tinyurl.com/c8oxal,,,,1616800138,https://twitter.com/FakeBobsBlitz/status/1616800138
124,,2009-04-25 19:10,0,0,"GoTitans >> NFL Draft '09: Pick #30 - Kenny Britt, WR, Rutgers: With the 30th pick of the 2009 .. http://tinyurl.com/chaja7",,,#30,1616787807,https://twitter.com/BR_Titans/status/1616787807
125,,2009-04-25 19:10,0,0,Shout out to Kenny Britt of RU going in the first round! Dunno bout the titans tho.,,,,1616786622,https://twitter.com/shiv1/status/1616786622
126,,2009-04-25 19:10,0,0,Rutgers WR Kenny Britt selected 30th overall by Tennessee Titans - The Star-Ledger - NJ.com http://snipr.com/gq4fb,,,,1616786152,https://twitter.com/drahoslavsion/status/1616786152
127,,2009-04-25 19:09,0,0,GEN news Rutgers WR Kenny Britt selected 30th overall by Tennessee Titans - The Star-Ledger - NJ.com: NJ.. http://tinyurl.com/cs6rp9,,,,1616779016,https://twitter.com/davidpremier/status/1616779016
128,,2009-04-25 19:08,0,0,Rutgers WR Kenny Britt selected 30th overall by Tennessee Titans - The Star-Ledger - NJ.com: NJ.comRutgers WR Ke.. http://tinyurl.com/dd9klv,,,,1616772450,https://twitter.com/samaachar/status/1616772450
129,,2009-04-25 19:06,0,0,"@ gavoweb The Titans selected Kenny Britt, WR from Rutgers.",,@,,1616761262,https://twitter.com/KeithMcilwain/status/1616761262
130,,2009-04-25 19:04,0,0,Titans select Kenny Britt from Rutgers @30... I approve.,,@30,,1616746358,https://twitter.com/SpencerPatton/status/1616746358
131,,2009-04-25 19:00,0,0,Titans draft Rutgers receiver Kenny Britt - Philadelphia Inquirer: NJ.comTitans draft Rutgers receiver Kenny Bri.. http://tinyurl.com/cvlxml,,,,1616726065,https://twitter.com/AJHajian/status/1616726065
132,,2009-04-25 19:00,0,0,"Kenny Britt (born September 19, 1988) is a former wide receiver for the Rutgers Scarlet Knights who is now a NFL http://bit.ly/NzW1b",,,,1616724497,https://twitter.com/wikirage1/status/1616724497
133,,2009-04-25 18:59,0,0,@ orlandosports go Kenny Britt. But why did Kenny fall that far? Britt is easily top 3 WR on the charts.,,@,,1616718636,https://twitter.com/Rikers/status/1616718636
134,,2009-04-25 18:59,0,0,Titans pick Kenny Britt hope he isn't Kevin Dyson 2.0,,,,1616716220,https://twitter.com/pseudothugzlolz/status/1616716220
135,,2009-04-25 18:59,0,0,"Thank goodness we picked a wide receiver. Welcome to @tennesseetitans, Kenny Britt!",,@tennesseetitans,,1616714578,https://twitter.com/EmilyPetro/status/1616714578
136,,2009-04-25 18:57,0,0,Tennessee has to be happy to see WR Kenny Britt still around at No. 30. Titans have needed a young marquee receiver for a long time.,,,,1616705154,https://twitter.com/orlandosports/status/1616705154
137,,2009-04-25 18:56,0,0,WTG Kenny Britt,,,,1616699526,https://twitter.com/bobbyc_nj/status/1616699526
138,,2009-04-25 18:55,0,0,On with Tennessee Titans #30 Draft Pick Kenny Britt (WR from Rutgers),,,#30,1616691381,https://twitter.com/SiriusXMNFL/status/1616691381
139,,2009-04-25 18:52,0,0,Kenny Britt to the Titans with the 30th overall pick...yay Rutgers gets a first round selection.,,,,1616669272,https://twitter.com/Kreggo_Eats/status/1616669272
140,,2009-04-25 18:50,0,0,"Excited about the Titans picking Kenny Britt, a Scarlett Knight",,,,1616661058,https://twitter.com/noirsith/status/1616661058
141,,2009-04-25 18:46,0,0,Titans draft wide receiver: Tennessee picks Kenny Britt with its first-round selection in the 2009 NFL Draft http://tinyurl.com/cxcezj,,,,1616636174,https://twitter.com/wvlt/status/1616636174
142,,2009-04-25 18:45,0,0,Titans draft Rutgers WR Britt : The Tennessee Titans selected Rutgers wide receiver Kenny Britt with the 30th ov.. http://tinyurl.com/cza6vu,,,,1616628922,https://twitter.com/WBIRSports/status/1616628922
143,,2009-04-25 18:43,0,0,Titans draft Rutgers receiver Kenny Britt http://tr.im/jIjq And we're on to the second round.,,,,1616615010,https://twitter.com/JFTanner/status/1616615010
144,,2009-04-25 18:43,0,0,Kenny Britt chosen in first round of NFL Draft http://www.nj.com/bayonne/index.ssf/2009/04/bayonnes_kenny_britt_chosen_by.html,,,,1616612840,https://twitter.com/jerseyjournal/status/1616612840
145,,2009-04-25 18:42,0,0,Saints Beat >> Tennessee selects Rutgers receiver Kenny Britt No. 30 in the NFL draft http://tinyurl.com/dc5nvn,,,,1616606559,https://twitter.com/saintsbuzztap/status/1616606559
146,,2009-04-25 18:41,0,0,"# kenny britt, # donald brown, # harvin vikings, # mack browns, # eagles maclin, # brian cushing, # crabtree http://TwitPWR.com/beatfatigue/",,,# # # # # # #,1616603352,https://twitter.com/GeraldHall/status/1616603352
147,,2009-04-25 18:40,0,0,"(@taliasunset) Dear Kenny Britt, welcome to the winning team. With Love, Talia & the Tennessee Titans.",,@taliasunset,,1616593677,https://twitter.com/DearRobot/status/1616593677
148,,2009-04-25 18:39,0,0,"Dear Kenny Britt, welcome to the winning team. With Love, Talia & the Tennessee Titans.",,,,1616592864,https://twitter.com/nataljasun/status/1616592864
149,,2009-04-25 18:39,0,0,Titans tap wide receiver Kenny Britt in the first round of the NFL draft http://n247.tv/z5a,,,,1616587637,https://twitter.com/nashville247/status/1616587637
150,,2009-04-25 18:38,0,0,#30 Pick: Tennesse Titans WR Kenny Britt http://tinyurl.com/c9huu9,,,#30,1616586333,https://twitter.com/ChrisHallUK/status/1616586333
151,,2009-04-25 18:37,0,0,Britt headed to Nashville: The 30th pick is WR Kenny Britt to Tennessee. Britt has a streak of prima donna in hi.. http://tinyurl.com/cs4jft,,,,1616580789,https://twitter.com/nfldraftdog/status/1616580789
152,,2009-04-25 18:37,0,0,"Titans Draft Britt No. 30: Analysis: Tennessee Titans Kenny Britt Wide Receiver Rutgers Britt is a big,.. http://tinyurl.com/cafxt9",,,,1616580616,https://twitter.com/FootballPost/status/1616580616
153,,2009-04-25 18:34,0,0,29 Giants WR Hakeem Nicks 30 Titans WR Kenny Britt 31 Cardnails RB Beenie Wells 32 Steelers DT Evander Hood thats the end of the 1st round.,,,,1616561035,https://twitter.com/Mr_Paz/status/1616561035
154,,2009-04-25 18:34,0,0,Titans Draft Kenny Britt WR!!!,,,,1616560464,https://twitter.com/TheeNDFX/status/1616560464
155,,2009-04-25 18:34,0,0,RT @ raczilla Kenny Britt is rated 77 overall in Madden NFL 10. # maddendraft,,@,#,1616559308,https://twitter.com/EASPORTS/status/1616559308
156,,2009-04-25 18:34,0,0,Kenny Britt is rated 77 overall in Madden NFL 10. # maddendraft,,,#,1616558724,https://twitter.com/raczilla/status/1616558724
157,,2009-04-25 18:34,0,0,Kenny Britt- Rutgers WR picked #30 in 1st round by the Titans .. The first time a Rutgers player has been picked in 1st round! Go RU!,,,#30,1616556577,https://twitter.com/rurugby/status/1616556577
158,,2009-04-25 18:33,0,0,WOAH Kenny Britt went first round to the Titans. Yeah RU!,,,,1616554564,https://twitter.com/AnnieKay21/status/1616554564
159,,2009-04-25 18:33,0,0,Draft 28.BUF Eric Wood C L'ville 29.NYG Hakeem Nicks WR UNC 30.TN Kenny Britt WR Rutgers 31.AZ Beanie Wells RB OSU 32.PIT Ziggy Hood DT Mizu,,,,1616551208,https://twitter.com/athleticsite/status/1616551208
160,,2009-04-25 18:32,0,0,"30. Titans- Kenny Britt, WR, Rutgers. Decent WR, but I think Tenn reached for a need. Take the best when you pick late, but still. # nfldraft",,,#,1616546167,https://twitter.com/BRM/status/1616546167
161,,2009-04-25 18:32,0,0,"dbcotton: Looks like no Q in Nashville with the Titans drafting Rutgers WR Kenny Britt. At 6' 3 he'll be the tallest Titans WR in years.""",,,,1616544974,https://twitter.com/TitanFans/status/1616544974
162,,2009-04-25 18:31,0,0,"I like the Kenny Britt pick for Tennessee, look out for the offense this year, gonna turn some heads",,,,1616543519,https://twitter.com/SayYesToDougs/status/1616543519
163,,2009-04-25 18:31,0,0,"@ Titanfans Looks like no Q in Nashville with the Titans drafting Rutgers WR Kenny Britt. At 6' 3 he'll be the tallest Titans WR in years.""",,@,,1616543157,https://twitter.com/dbcotton/status/1616543157
164,,2009-04-25 18:31,0,0,"Okay, it's not Nicks, but I'm pumped for Kenny Britt.",,,,1616542368,https://twitter.com/TomKinslow/status/1616542368
165,,2009-04-25 18:31,0,0,28 BUF Eric Wood C-Lou 29NYG Hakeem Nicks WR - UNC 30TN Kenny Britt WR - Rut 31AZ Chris Wells RB OSU 32 PIT Evander Hood DT - Miss.,,,,1616542088,https://twitter.com/412sports/status/1616542088
166,,2009-04-25 18:31,0,0,Who in the world is Kenny Britt,,,,1616539305,https://twitter.com/Get_ner_dun/status/1616539305
167,,2009-04-25 18:31,0,0,"# Titans select a wideout who can't catch. Troy Williamson, meet your double: Kenny Britt. # NFLDraft",,,# #,1616538614,https://twitter.com/Draftguys/status/1616538614
168,,2009-04-25 18:30,0,1,Kenny Britt sounds like some dude who moved here with a pocket full of dreams and has a showcase at Douglas Corner on Tuesday.,,,,1616534393,https://twitter.com/jimreams/status/1616534393
169,,2009-04-25 18:30,0,0,Congrats to Rutgers & Kenny Britt - Rutgers first 1st rounder,,,,1616530679,https://twitter.com/IanMSchuler/status/1616530679
170,,2009-04-25 18:29,0,0,Kenny Britt baby!!! Go titans!!,,,,1616527125,https://twitter.com/jgriffsays/status/1616527125
171,,2009-04-25 18:29,0,0,Hell Yeah Rutgers... Kenny Britt goes in the first round.,,,,1616526972,https://twitter.com/Evan_Guerin/status/1616526972
172,,2009-04-25 18:29,0,0,Titans roll with Kenny Britt. Neither excited nor let down. Was almost hoping we would draft Wells. Never would've thrown the ball,,,,1616525330,https://twitter.com/zachariah_r/status/1616525330
173,,2009-04-25 18:28,0,0,TITANS TAKE KENNY BRITT RUTGERS RECEIVER,,,,1616522240,https://twitter.com/butchwhacks/status/1616522240
174,,2009-04-25 18:28,0,0,Shouts to my dude Kenny Britt who got drafted by the Tennessee Titan's!!!!,,,,1616522205,https://twitter.com/Ace2345/status/1616522205
175,,2009-04-25 18:28,0,0,is kenny britt,,,,1616518881,https://twitter.com/JLank12/status/1616518881
176,,2009-04-25 18:27,0,0,@bozackjenkins Kenny Britt from Rutgers.,,@bozackjenkins,,1616516677,https://twitter.com/ShesSoOffbeat/status/1616516677
177,,2009-04-25 18:27,0,0,27IND Donald Brown RB - CT 28BUF Eric Wood C-Lou 29NYG Hakeem Nicks WR - UNC 30TN Kenny Britt WR - Rut 31AZ Chris Wells RB OSU 32 PIT next !,,,,1616513674,https://twitter.com/412sports/status/1616513674
178,,2009-04-25 18:27,0,0,"titans go Kenny Britt, WR, Rutgers",,,,1616513379,https://twitter.com/TheAudible/status/1616513379
179,,2009-04-25 18:26,0,0,Kenny Britt is a Titan! Too bad its not a cowboy or giant but its still awesome,,,,1616509600,https://twitter.com/Julie1205/status/1616509600
180,,2009-04-25 18:26,0,0,"# chrisonNFLdraft :: Read up on Kenny Britt and I still don't see him as a 1st round pick, even though the Titans do need more receivers.",,,#,1616509448,https://twitter.com/chrismaka/status/1616509448
181,,2009-04-25 18:26,0,0,"Football: Britt Selected in First Round of 2009 NFL Draft: NEW YORK, N.Y. - Junior wide receiver Kenny Britt was.. http://tinyurl.com/cr96un",,,,1616508399,https://twitter.com/BR_Rutgers/status/1616508399
182,,2009-04-25 18:25,0,0,Kenny Britt going to the Tennessee Titans!,,,,1616504444,https://twitter.com/aipnai/status/1616504444
183,,2009-04-25 18:25,0,0,Kenny Britt goes in the first round to Tennessee!,,,,1616502570,https://twitter.com/piney3/status/1616502570
184,,2009-04-25 18:25,0,0,"Tennessee Titans pick Kenny Britt, WR from Rutgers, in the first round of NFL draft",,,,1616502226,https://twitter.com/6News/status/1616502226
185,,2009-04-25 18:25,0,0,way to go Rutgers. Kenny Britt goes at #30.,,,#30,1616501799,https://twitter.com/sassola/status/1616501799
186,,2009-04-25 18:25,0,0,@ richeisen just said WR Kenny Britt is the 1st Rutgers player taken in the 1st round. That is pretty impressive!,,@,,1616501743,https://twitter.com/NFLRandR/status/1616501743
187,,2009-04-25 18:25,0,0,"Kenny Britt, #30 overall at the NFL Draft to the Tennessee Titans. Our first-ever first-round selection! We're so proud of #88. Tim Pernetti",,,#30 #88,1616500754,https://twitter.com/RUAthletics/status/1616500754
188,,2009-04-25 18:24,0,0,Congrats to Kenny Britt for being the first 1st-round pick in Rutgers history !! Wish the Giants scooped him but I'm happy he went 1st round,,,,1616496162,https://twitter.com/DomCorleone/status/1616496162
189,,2009-04-25 18:24,0,0,Tennessee is going to find out in a few years that they ended up with the 2nd best WR in this draft. Kenny Britt is a beast! # nfldraft,,,#,1616494232,https://twitter.com/DerdniK/status/1616494232
190,,2009-04-25 18:24,0,0,I just wrote a poem: Kenny Britt / First Round pick / eat that shit / suck my dick. (say it like you're chanting),,,,1616492780,https://twitter.com/tomwp/status/1616492780
191,,2009-04-25 18:23,0,0,Titans take Rutgers' own Kenny Britt..good for him.,,,,1616489775,https://twitter.com/MyPinstripes/status/1616489775
192,,2009-04-25 18:23,0,0,Titans choose Kenny Britt wide receiver from Rutgers in 1st round of nfl draft.,,,,1616489677,https://twitter.com/garymorgan/status/1616489677
193,,2009-04-25 18:23,0,0,Hooray! Rutgers finally produces a first round draft pick! Congrats to kenny britt.,,,,1616489143,https://twitter.com/rutgerskevin/status/1616489143
194,,2009-04-25 18:22,0,0,"@ nfl who is Kenny Britt and was he worth our Draft pick, LOL!",,@,,1616485681,https://twitter.com/EbonyeDillard/status/1616485681
195,,2009-04-25 18:22,0,0,Congrats to Kenny Britt! Good luck with the Titans!,,,,1616483872,https://twitter.com/sunsetbeacon/status/1616483872
196,,2009-04-25 18:22,0,0,"RT @ HeraldSports: With the 30th pick Titans get Kenny Britt, WR, Rutgers.*** Hard to make a bad pick here.",,@,,1616483870,https://twitter.com/akosnitzky/status/1616483870
197,,2009-04-25 18:22,0,0,KENNY BRITT BITCH,,,,1616482122,https://twitter.com/Funderburk/status/1616482122
198,,2009-04-25 18:22,0,0,Titans at #30 take Rutgers WR Kenny Britt. Cards up next. Experts think they take Beanie Wells then cut Edgerrin James. Good players left.,,,#30,1616481084,https://twitter.com/THEJohnCassio/status/1616481084
199,,2009-04-25 18:22,0,0,Titans get Kenny Britt,,,,1616481067,https://twitter.com/foxsports910/status/1616481067
200,,2009-04-25 18:22,0,0,thinktrain: Titans take Rutgers WR Kenny Britt in the 1st round. Seems like a safe pick. I'd still love to trade for Anquan Boldin. # nfl ...,,,#,1616481065,https://twitter.com/TitanFans/status/1616481065
201,,2009-04-25 18:22,0,0,Ten Titans Select Kenny Britt (#30),,,#30,1616481018,https://twitter.com/SavageMcLaren/status/1616481018
202,,2009-04-25 18:22,0,0,"and Todd McShay is a douche. Kenny Britt had no problem at all sharing the ball with Underwood, Brown, Campbell. # nfldraft",,,#,1616480691,https://twitter.com/robtraut/status/1616480691
203,,2009-04-25 18:22,0,0,"Excited about the Titans pick, Kenny Britt",,,,1616480651,https://twitter.com/matt_sullivan/status/1616480651
204,,2009-04-25 18:21,0,0,"was holding out for Boldin, but is relieved that we finally got a decent receiver! Welcome Kenny Britt!",,,,1616479503,https://twitter.com/Goldni/status/1616479503
205,,2009-04-25 18:21,0,0,@ titanfans Titans take Rutgers WR Kenny Britt in the 1st round. Seems like a safe pick. I'd still love to trade for Anquan Boldin. # nfldraft,,@,#,1616478593,https://twitter.com/robrobinson/status/1616478593
206,,2009-04-25 18:21,0,0,Kenny britt!!,,,,1616476992,https://twitter.com/Bdhair/status/1616476992
207,,2009-04-25 18:21,0,0,The Titans go wide receiver with Kenny Britt from Rutgers. http://tinyurl.com/dfxkp2,,,,1616476536,https://twitter.com/KevinGoodwin/status/1616476536
208,,2009-04-25 18:21,0,0,"Titans take Kenny Britt, WR from Rutgers. Two more to go...",,,,1616476532,https://twitter.com/SSMiamiDolphins/status/1616476532
209,,2009-04-25 18:21,0,0,Big shout to Kenny Britt of Rutgers University just picked 30th overall in the draft!!!!! RU RAH RAH!! Yes sir!!,,,,1616476449,https://twitter.com/MissCeo_ICE/status/1616476449
210,,2009-04-25 18:21,0,0,"# chrisonNFLdraft :: The Titans surprise me by drafting a WR as well - Kenny Britt from Rutgers. Man, he was not on my 1st rnd radar.",,,#,1616476106,https://twitter.com/chrismaka/status/1616476106
211,,2009-04-25 18:21,0,0,"My bad. Some how I got word Wells went to the Titans. But it was Kenny Britt, a quality pick. As for White, he's still on shaky ground.",,,,1616475900,https://twitter.com/DonBanks/status/1616475900
212,,2009-04-25 18:21,0,0,TITANS SELECT KENNY BRITT (WR) as 30th PICK OVERALL...,,,,1616474723,https://twitter.com/iamdarkerblue/status/1616474723
213,,2009-04-25 18:21,0,0,"#30 Tennessee Titans- Kenny Britt, WR. Grade: C+",,,#30,1616473826,https://twitter.com/Daryldraftdog/status/1616473826
214,,2009-04-25 18:21,0,0,Kenny Britt to the Titans is another 'hmmm' moment in my book # nfl # nfldraft,,,# #,1616473355,https://twitter.com/theskiver/status/1616473355
215,,2009-04-25 18:20,0,0,Hopes Kenny Britt will get it done for the Titans!,,,,1616472895,https://twitter.com/buhler13/status/1616472895
216,,2009-04-25 18:20,0,0,Will settle for Hakim Nix but would rather of had Kenny Britt. Rutgers in the house!,,,,1616472520,https://twitter.com/jeffswierk/status/1616472520
217,,2009-04-25 18:20,0,0,Congrats Kenny Britt! RUTGERS GETS A FIRST ROUND DRAFT PICK!!,,,,1616471023,https://twitter.com/tomwp/status/1616471023
218,,2009-04-25 18:20,0,0,"Congratulations to Rutgers (sorry, FORMER Rutgers) Wide Receiver Kenny Britt. The Titans got one hell of a receiver. # nfldraft",,,#,1616470966,https://twitter.com/DanLevyThinks/status/1616470966
219,,2009-04-25 18:20,0,0,@taliasunset damn you guys got my sleeper WR Kenny Britt! I was hoping he'd fall into the second round for my squad. Haha. Very good pick.,,@taliasunset,,1616470428,https://twitter.com/jonskeeetskeeet/status/1616470428
220,,2009-04-25 18:20,0,0,completely digs the Kenny Britt pick. # nfldraft,,,#,1616470031,https://twitter.com/lucastypes/status/1616470031
221,,2009-04-25 18:20,0,0,Congrats Kenny Britt! First ever 1st rounder from Rutgers. # nfldraft,,,#,1616469750,https://twitter.com/robtraut/status/1616469750
222,,2009-04-25 18:20,0,0,Titans get an excellent receiver in Kenny Britt...should help the invisible passing game in Tennessee,,,,1616469678,https://twitter.com/robertocberrios/status/1616469678
223,,2009-04-25 18:20,0,0,"#30) Titans take Kenny Britt, WR, Rutgers. Big WR who can really be a threat in the redzon, may turn into a true #1 WR. Cards are up.",,,#30 #1,1616469200,https://twitter.com/DraftGems/status/1616469200
224,,2009-04-25 18:20,0,0,Rutgers WR Kenny Britt to TEN. Great pickup here. Britt has good size and decent speed and now they have a WR to help Kerry Collins.,,,,1616469110,https://twitter.com/NFLRandR/status/1616469110
225,,2009-04-25 18:20,0,0,"With 30th pick in the 2009 NFL Draft, the Tennessee Titans select... KENNY BRITT, Wide Receiver - Rutgers.""""",,,,1616469016,https://twitter.com/nickbarre/status/1616469016
226,,2009-04-25 18:20,0,0,finally!!! KENNY BRITT BABY!!,,,,1616468320,https://twitter.com/viveksurti/status/1616468320
227,,2009-04-25 18:20,0,0,"DRAFTALERT Round 1 30. Titans - Kenny Britt - WR, Rutgers",,,,1616468249,https://twitter.com/WolfieMueller/status/1616468249
228,,2009-04-25 18:20,0,0,kenny britt... nice pick. much better than crabtree! good pick,,,,1616467752,https://twitter.com/JohnAndrade/status/1616467752
229,,2009-04-25 18:20,0,0,27.IND Donald Brown RB - Conn. 28.BUF Eric Wood C-Louis..29NYG Hakeem Nicks WR - UNC. 30 TN Kenny Britt WR - Rutgers 31. AZ on the clock,,,,1616467252,https://twitter.com/412sports/status/1616467252
230,,2009-04-25 18:20,0,0,"With #30 pick in NFL Draft, Titans select Kenny Britt (WR-Rutgers)",,,#30,1616467251,https://twitter.com/WRCB/status/1616467251
231,,2009-04-25 18:20,0,0,Titans pick kenny britt- WR but does that mean no Bolen from AZ? Hmm? I'm sure Fisher knows more than I do about thos ;-),,,,1616467241,https://twitter.com/SamBradleyTN/status/1616467241
232,,2009-04-25 18:20,0,0,"Titans select WR Kenny Britt - they seriously needed WR help - Titans '09 fantasy football players to own: Cj , Defense - NFL FOOTBALL",,,,1616467041,https://twitter.com/MondayMorningQB/status/1616467041
233,,2009-04-25 18:20,0,0,Titans take WR Kenny Britt from Rutgers. I still wonder if Big East quality translates to NFL quality. # nfldraft,,,#,1616466941,https://twitter.com/quinnelk/status/1616466941
234,,2009-04-25 18:20,0,0,"Haha, under ESPN's listed weakness for Kenny Britt: inconsistent hands ... good luck with that Kerry and Vince # NFLDraft",,,#,1616466646,https://twitter.com/detroitlions101/status/1616466646
235,,2009-04-25 18:20,0,0,"Tennessee Titans select Kenny Britt, WR, Rutgers with the 30th pick. # NFLDraft Arizona Cardinals next.",,,#,1616466571,https://twitter.com/fbihop/status/1616466571
236,,2009-04-25 18:20,0,0,Tennessee Titans select Kenny Britt. Great Pick. deceptively speedy & will stretch the field for a Titans offense that now can be explosive.,,,,1616466436,https://twitter.com/rbeinstein/status/1616466436
237,,2009-04-25 18:19,0,0,Kenny Britt? At least he's a WR.,,,,1616466341,https://twitter.com/mattruskin1234/status/1616466341
238,,2009-04-25 18:19,0,0,@ drscooter Kenny Britt,,@,,1616465601,https://twitter.com/FSBigBob/status/1616465601
239,,2009-04-25 18:19,0,0,Titans take Kenny Britt at 30. Awesome route runner and can run well. Early contributor that can make a difference for Tennessee.,,,,1616465314,https://twitter.com/T_Pomps/status/1616465314
240,,2009-04-25 18:19,0,0,TEN selects WR Kenny Britt. They slumped in the playoffs because of their inability to go downfield. This is a step up. # nfldraft,,,#,1616464974,https://twitter.com/ffootball/status/1616464974
241,,2009-04-25 18:19,0,0,"30. Tennessee Titans: Kenny Britt/WR/Rutgers. Super hands and rangy, Britt will provide an immediate impact for a subpar Titans WR corps.",,,,1616464854,https://twitter.com/draftresults/status/1616464854
242,,2009-04-25 18:19,0,0,Congrats to my dude Kenny Britt getting drafted to the Titans. Love ya homie.,,,,1616464648,https://twitter.com/april_rose/status/1616464648
243,,2009-04-25 18:19,0,0,Titans take Rutgers WR Kenny Britt to help Kerry Collins and the offense,,,,1616464579,https://twitter.com/FBProspector/status/1616464579
244,,2009-04-25 18:19,0,0,Kenny Britt welcome to Nashvegas!!,,,,1616464564,https://twitter.com/GarnerMGoode/status/1616464564
245,,2009-04-25 18:19,0,0,There goes another WR. Titans grab Kenny Britt at No. 30. That's 6 wideouts in the 1st round. Do Robiskie and Massaquoi make it to #49?,,,#49,1616464283,https://twitter.com/BradBiggs/status/1616464283
246,,2009-04-25 18:19,0,0,Tennessee just picked Kenny Britt. Who the hell is Kenny Britt??? He better be worth it.,,,,1616464260,https://twitter.com/EbonyeDillard/status/1616464260
247,,2009-04-25 18:19,0,0,Tennessee listens to @ derrich...picks a WR. Kenny Britt. # NFLdraft =P,,@,#,1616464201,https://twitter.com/Derrich/status/1616464201
248,,2009-04-25 18:19,0,0,"Titans take Kenny Britt, finally the Titans take a big wideout.",,,,1616464121,https://twitter.com/BobbyBroad/status/1616464121
249,,2009-04-25 18:19,0,0,"No highly rated WR in the draft drops more passes than Kenny Britt. As a Jags fan, I'm glad to see him in Tennessee. # NFLDraft",,,#,1616464078,https://twitter.com/legion/status/1616464078
250,,2009-04-25 18:19,0,0,DRAFT: Kenny Britt goes to TN Titans.,,,,1616463948,https://twitter.com/wigengine/status/1616463948
251,,2009-04-25 18:19,0,0,"If the Giants didn't want him, Titans will take Rutgers WR Kenny Britt, who was bigger, faster than Nicks # nfldraft",,,#,1616463799,https://twitter.com/callerdotcom/status/1616463799
252,,2009-04-25 18:19,0,0,Titans pick------Kenny Britt. Me likey. Compliments C J on the outside.,,,,1616463290,https://twitter.com/amike77/status/1616463290
253,,2009-04-25 18:19,0,0,30. Tennessee Titans- Kenny Britt WR- Rutgers,,,,1616463159,https://twitter.com/LegendsPRNews/status/1616463159
254,,2009-04-25 18:19,0,0,Tennessee Titans select Kenny Britt -Stewy http://tumblr.com/xv01nm7xw,,,,1616462719,https://twitter.com/stewy23/status/1616462719
255,,2009-04-25 18:19,0,0,Kenny Britt goes to the Titans. Somebody wake Vince Young. # nfldraft,,,#,1616462654,https://twitter.com/docfunk/status/1616462654
256,,2009-04-25 18:19,0,0,Noted Rutgerian Kenny Britt goes to Tennessee at No. 30. # Skins # NFL draft,,,# #,1616462643,https://twitter.com/CindyBoren/status/1616462643
257,,2009-04-25 18:19,0,0,I WAS WRONG. Its Kenny Britt and thats a great pick. Tennessee!,,,,1616462585,https://twitter.com/KayoThaKomic/status/1616462585
258,,2009-04-25 18:19,0,0,"Titans pick: Kenny Britt... they needed a WR, but a lot of good players are going to be available in the second round.",,,,1616462529,https://twitter.com/JaimelHemphill/status/1616462529
259,,2009-04-25 18:19,0,0,KENNY BRITT. WHOOOO. MCBC.,,,,1616462519,https://twitter.com/austinelso/status/1616462519
260,,2009-04-25 18:19,0,0,Back on draft. Kenny Britt to the Titans.,,,,1616462161,https://twitter.com/clrapp/status/1616462161
261,,2009-04-25 18:19,0,0,"#30 TEN kenny britt -- WOW, tennessee FINALLY DRAFTS A RECEIVER in the first round. It's about time. wonder what braylon & Q are thinkin",,,#30,1616461936,https://twitter.com/EFSports/status/1616461936
262,,2009-04-25 18:19,0,0,Kenny Britt: The latest in the Tyrone Calico collection? 50/50 shot.,,,,1616461853,https://twitter.com/thegnc/status/1616461853
263,,2009-04-25 18:19,0,0,@ Wcbs was hoping for kenny britt,,@,,1616461791,https://twitter.com/JonathanLuke01/status/1616461791
264,,2009-04-25 18:19,0,0,"With the thirtieth pick in the 2009 NFL Draft, the Tennessee Titans select...Kenny Britt, WR, Rutgers",,,,1616461750,https://twitter.com/pfwinprogress/status/1616461750
265,,2009-04-25 18:19,0,0,"PICK 1-30: TENNESSEE - Kenny Britt (WR, Rutgers). Thank you for not taking Robiskie # NFLDraft",,,#,1616461748,https://twitter.com/legion/status/1616461748
266,,2009-04-25 18:19,0,0,Titans have picked Kenny Britt at no30. # nfldraft,,,#,1616461674,https://twitter.com/sim0nb/status/1616461674
267,,2009-04-25 18:19,0,0,"30Th Pick: Kenny Britt, WR Rutgers to Tennessee. Makes much more sense than Wells.",,,,1616461540,https://twitter.com/flaxman/status/1616461540
268,,2009-04-25 18:19,0,0,"With the 30th pick in the 2009 NFL Draft, the Titans select Kenny Britt, WR from Rutgers (what the heck!)",,,,1616461402,https://twitter.com/HoosierBD/status/1616461402
269,,2009-04-25 18:19,0,0,Titans pick WR Kenny Britt from Rutgers in NFL draft,,,,1616461313,https://twitter.com/JFTanner/status/1616461313
270,,2009-04-25 18:19,0,0,Titans escolhem Kenny Britt (wide receiver),,,,1616461143,https://twitter.com/garotanfl/status/1616461143
271,,2009-04-25 18:19,0,0,kenny britt wr to titians,,,,1616461130,https://twitter.com/robthemany/status/1616461130
272,,2009-04-25 18:19,0,0,Kenny Britt to Tennessee. Thank you. # draft,,,#,1616461114,https://twitter.com/BrianPCombs/status/1616461114
273,,2009-04-25 18:19,0,0,KENNY BRITT ON THE TITANS!!! RU RAH RAH :),,,,1616461015,https://twitter.com/jenna732/status/1616461015
274,,2009-04-25 18:19,0,0,NFL Draft >> Pick #30 >> @ TitansNFL select Kenny Britt (WR) of Rutgers. # Titans # NFLdraft,,@,#30 # #,1616460978,https://twitter.com/BR_Titans/status/1616460978
275,,2009-04-25 18:19,0,0,"The Titans select Kenny Britt, wide receiver from Rutgers with the 30th pick -- surprise there! New Jersey represent # NFLDraft",,,#,1616460972,https://twitter.com/detroitlions101/status/1616460972
276,,2009-04-25 18:19,0,0,"Wooo! Kenny Britt, first-round to Tennessee!",,,,1616460961,https://twitter.com/thereadingzone/status/1616460961
277,,2009-04-25 18:19,0,0,Kenny Britt - Titans,,,,1616460939,https://twitter.com/MylesQ919/status/1616460939
278,,2009-04-25 18:19,0,0,Titans take Kenny Britt - first Scarlet Knight to ever be taken in the 1st round. Cardinals are on the clock.,,,,1616460926,https://twitter.com/draftgreenroom/status/1616460926
279,,2009-04-25 18:19,0,0,Pick 30....should gone 29 before - Titans Kenny Britt of Rutgers. They address the need they had to go down field. RB would have been dumb,,,,1616460830,https://twitter.com/sportstalkmatt/status/1616460830
280,,2009-04-25 18:19,0,0,With the 30th pick the Tennessee Titans take Kenny Britt WR Rutgers # nfldraft,,,#,1616460826,https://twitter.com/wildrman/status/1616460826
281,,2009-04-25 18:19,0,0,Titans take WR Kenny Britt with the 30th Overall.,,,,1616460817,https://twitter.com/AlkaMo21/status/1616460817
282,,2009-04-25 18:19,0,0,"Vince Young's Titans finally take a wide receiver in the 1st round, Rutgers' Kenny Britt. # draft",,,#,1616460757,https://twitter.com/40acressports/status/1616460757
283,,2009-04-25 18:19,0,0,"RD1: #30: Tennessee: Kenny Britt, WR, Rutgers # NFLdraft",,,#30 #,1616460666,https://twitter.com/NCAAsports/status/1616460666
284,,2009-04-25 18:19,0,0,@ andreakleid Titans picked up Kenny Britt WR/Rutgers,,@,,1616460640,https://twitter.com/djryguy/status/1616460640
285,,2009-04-25 18:19,0,0,"With the 30th pick, the Titans select Kenny Britt, WR from Rutgers",,,,1616460531,https://twitter.com/TheRedzoneorg/status/1616460531
286,,2009-04-25 18:19,0,0,NFL Draft: Tennessee pick Kenny Britt from Rutgers.,,,,1616460513,https://twitter.com/themib/status/1616460513
287,,2009-04-25 18:19,0,0,Tenn pick Kenny Britt. WR,,,,1616460327,https://twitter.com/alhpixie/status/1616460327
288,,2009-04-25 18:19,0,0,Y los Titanes se llevan en el pick 30 a Kenny Britt ( WR ),,,,1616460226,https://twitter.com/alvarosteely/status/1616460226
289,,2009-04-25 18:19,0,0,"With the 30th pick in the 2009 NFL Draft the Tennessee Titans select Kenny Britt, WR, Rutgers.",,,,1616460152,https://twitter.com/SportsCenter/status/1616460152
290,,2009-04-25 18:18,0,0,titans pull a fast one and draft kenny britt from rutgers,,,,1616460118,https://twitter.com/thacover2/status/1616460118
291,,2009-04-25 18:18,0,0,Tennessee Titans select Rutgers WR Kenny Britt with the 30th pick.,,,,1616460071,https://twitter.com/BrendanPrunty/status/1616460071
292,,2009-04-25 18:18,0,0,"pick 30, kenny britt to the tennessee titans",,,,1616459770,https://twitter.com/madrasirain/status/1616459770
293,,2009-04-25 18:18,0,0,"Kenny Britt, another WR goes to Tennessee # nfldraft",,,#,1616459748,https://twitter.com/CowboysWarRoom/status/1616459748
294,,2009-04-25 18:18,0,0,Kenny Britt is the pick,,,,1616459742,https://twitter.com/Daryldraftdog/status/1616459742
295,,2009-04-25 18:18,0,0,They took Kenny Britt. Finally got a Wide Out. Thanks Jeff Fisher,,,,1616459732,https://twitter.com/NotoriousKRO/status/1616459732
296,,2009-04-25 18:18,0,0,kenny britt bitchesssssss,,,,1616459696,https://twitter.com/Jeremy__Austin/status/1616459696
297,,2009-04-25 18:18,0,0,YES! Kenny Britt!,,,,1616459632,https://twitter.com/SurfingKane/status/1616459632
298,,2009-04-25 18:18,0,0,RT @ BlkSportsOnline: Tennessee has to take Kenny Britt..Don't they???,,@,,1616459591,https://twitter.com/BSO/status/1616459591
299,,2009-04-25 18:18,0,0,Titans select Kenny Britt WR Rutgers,,,,1616459537,https://twitter.com/titansbuzztap/status/1616459537
300,,2009-04-25 18:18,0,0,NFL Draft >> Pick #30 >> @ TitansNFL select Kenny Britt (WR) of Rutgers. # Titans # NFLDraft,,@,#30 # #,1616459523,https://twitter.com/sportytweets/status/1616459523
301,,2009-04-25 18:18,0,0,Kenny Britt to Titans. Another NJ connection -- Rutgers,,,,1616459449,https://twitter.com/NFLprguy/status/1616459449
302,,2009-04-25 18:18,0,0,Titans actually take Kenny Britt.,,,,1616459378,https://twitter.com/ProFootballTalk/status/1616459378
303,,2009-04-25 18:18,0,0,"Y los Titanes escojen a Kenny Britt, WR. Ahora van los Cardenales.",,,,1616459308,https://twitter.com/Shaloom/status/1616459308
304,,2009-04-25 18:18,0,0,TITANS select... Kenny Britt; WR; Rutgers,,,,1616459237,https://twitter.com/Dolfan99_34/status/1616459237
305,,2009-04-25 18:18,0,0,"With the 30th pick Titans get Kenny Britt, WR, Rutgers",,,,1616459229,https://twitter.com/HeraldSports/status/1616459229
306,,2009-04-25 18:18,0,0,Kenny Britt Is the newest Titan!,,,,1616459131,https://twitter.com/TopherYork/status/1616459131
307,,2009-04-25 18:18,0,0,Titans pick WR Kenny Britt,,,,1616459104,https://twitter.com/SLowe08/status/1616459104
308,,2009-04-25 18:18,0,0,"Rd. 1 pick 30: Titans pick Kenny Britt, WR, Rutgers",,,,1616459056,https://twitter.com/PittsburghPG/status/1616459056
309,,2009-04-25 18:18,0,0,TEN pick Kenny Britt WR # nfldraft,,,#,1616459016,https://twitter.com/ess0h/status/1616459016
310,,2009-04-25 18:18,0,0,"the 30th pick, tennessee titans pick kenny britt (WR)",,,,1616459000,https://twitter.com/HAILSKINS/status/1616459000
311,,2009-04-25 18:18,0,0,Titans pick number 30 Kenny Britt # nfldraft,,,#,1616458988,https://twitter.com/ghomyak/status/1616458988
312,,2009-04-25 18:18,0,0,The Titans take Rutgers WR Kenny Britt at No. 30 # nfldraft # titans,,,# #,1616458900,https://twitter.com/usatodaynfl/status/1616458900
313,,2009-04-25 18:18,0,0,30 - Kenny Britt WR Rutgers to the Tennessee Titans,,,,1616458888,https://twitter.com/FantasyShocker/status/1616458888
314,,2009-04-25 18:18,0,0,"the 30th pick in the draft, the titans select kenny britt wr rutgers",,,,1616458880,https://twitter.com/rocknwitdblest/status/1616458880
315,,2009-04-25 18:18,0,0,Kenny Britt?,,,,1616458683,https://twitter.com/steve_phillips_/status/1616458683
316,,2009-04-25 18:18,0,0,"NFL draft: 30, Titans: Kenny Britt, WR, Rutgers. http://www.packersnews.com # nfldraft",,,#,1616458676,https://twitter.com/gbpressgazette/status/1616458676
317,,2009-04-25 18:18,0,0,Pick 30. Titans Select: WR- Kenny Britt --------Cards are next!,,,,1616458631,https://twitter.com/boycottfootball/status/1616458631
318,,2009-04-25 18:18,0,0,"1.30 Kenny Britt, WR Rutgers to Tennessee",,,,1616458310,https://twitter.com/JeffPasquino/status/1616458310
319,,2009-04-25 18:18,0,0,Pick No. 30 - Tennessee selects Kenny Britt,,,,1616458232,https://twitter.com/BhamWeekly/status/1616458232
320,,2009-04-25 18:18,0,0,30. TEN - Kenny Britt WR,,,,1616458134,https://twitter.com/pArtyiNfo4aLL/status/1616458134
321,,2009-04-25 18:18,0,0,"At 30, the Titans go with - Kenny britt WR- # NFL # NFLDRAFT",,,# #,1616458098,https://twitter.com/Andrew_Garda/status/1616458098
322,,2009-04-25 18:18,0,0,"With 30th pick in 1st Rnd, Titans select WR Kenny Britt (6-3, 215, Rutgers)",,,,1616457637,https://twitter.com/Titans/status/1616457637
323,,2009-04-25 18:18,0,0,Titans select Kenny Britt!,,,,1616457612,https://twitter.com/NFLDraftBible/status/1616457612
324,,2009-04-25 18:18,0,0,Tennessee Titans select Kenny Britt,,,,1616457443,https://twitter.com/TheOvertime/status/1616457443
325,,2009-04-25 18:16,0,0,@travboogie4 kenny britt?,,@travboogie4,,1616443796,https://twitter.com/jsermo/status/1616443796
326,,2009-04-25 18:14,0,0,Please let Kenny Britt end up on a team I can root for # nfldraft # Rutgers,,,# #,1616433529,https://twitter.com/sahyder1/status/1616433529
327,,2009-04-25 18:14,0,0,I think the Titans take Kenny Britt.,,,,1616429263,https://twitter.com/JohnCzahor/status/1616429263
328,,2009-04-25 18:13,0,0,"Kenny Britt, next Titans pick!",,,,1616424118,https://twitter.com/SurfingKane/status/1616424118
329,,2009-04-25 18:12,0,0,I hope St. Louis picks Kenny Britt,,,,1616418686,https://twitter.com/ccversiii/status/1616418686
330,,2009-04-25 18:12,0,0,"29. NY Giants: Hakeem Nicks/WR/North Carolina. G-Men get Plax's replacement, but shockingly not Kenny Britt. That said, Nicks is the goods.",,,,1616417182,https://twitter.com/draftresults/status/1616417182
331,,2009-04-25 18:11,0,0,Giants missed out bigtime by not taking Kenny Britt from Rutgers. # nfldraft,,,#,1616410691,https://twitter.com/joshuaduboff/status/1616410691
332,,2009-04-25 18:10,0,0,Hakeem Nicks >>>> Kenny Britt. And I'm fuckin friend with Kenny. Good pick Giants. Nice WR to replace Plaxico.,,,,1616408853,https://twitter.com/april_rose/status/1616408853
333,,2009-04-25 18:10,0,0,Tennessee has to take Kenny Britt..Don't they???,,,,1616407516,https://twitter.com/BSO/status/1616407516
334,,2009-04-25 18:10,0,0,"And there goes Hakeem Nicks. I really hope Kenny Britt falls to #44 for Miami, but I don't think he will.",,,#44,1616405596,https://twitter.com/tedhill/status/1616405596
335,,2009-04-25 18:10,0,0,Titans are up. Trade for Boldin? Nicks is taken. Are we going CB or Kenny Britt or surprise.,,,,1616405479,https://twitter.com/amike77/status/1616405479
336,,2009-04-25 18:09,0,0,NYG=Kenny Britt...thats what they should do!,,,,1616399196,https://twitter.com/DerdniK/status/1616399196
337,,2009-04-25 18:08,0,0,Giants fans...are you feeling Kenny Britt or Hakeem Nicks...its one or the other...,,,,1616396244,https://twitter.com/BLITZMagPrez/status/1616396244
338,,2009-04-25 18:06,0,0,"I'm guessing Hakeem Nicks to the Giants, either him or Kenny Britt. Depends on who they're higher on, because they seem a bit similar.",,,,1616382465,https://twitter.com/NightsEternal/status/1616382465
339,,2009-04-25 18:06,0,0,Kenny Britt the local kid to the Giants here? # NFLdraft # rutgers,,,# #,1616381618,https://twitter.com/sahyder1/status/1616381618
340,,2009-04-25 18:06,0,0,gives the Bills a C for taking Eric Wood New York Giants now on the clock Prediction:WR Kenny Britt (Rutgers) http://bit.ly/loUHQ,,,,1616378886,https://twitter.com/stevenlourie/status/1616378886
341,,2009-04-25 18:05,0,0,okay GIANTS fans. Kenny Britt or Hakeem Nicks? Or how about Ray Maualuga? Antonio Pierce is getting up there in age. # nfldraft,,,#,1616375590,https://twitter.com/richforestano/status/1616375590
342,,2009-04-25 18:05,0,0,Giants are on the clock! Kenny Britt is still available! # nfldraft # giants # rutgers,,,# # #,1616374645,https://twitter.com/robtraut/status/1616374645
343,,2009-04-25 18:05,0,0,Time for the # giants to hopefilly pick Kenny Britt! # nfl,,,# #,1616373536,https://twitter.com/saffir_99/status/1616373536
344,,2009-04-25 17:56,0,0,Gives Green Bay a B for taking Clay Matthews Colts on the Clock Prediction: WR Kenny Britt (Rutgers) http://bit.ly/loUHQ,,,,1616315667,https://twitter.com/stevenlourie/status/1616315667
345,,2009-04-25 17:50,0,0,Kenny Britt is STILL on the board,,,,1616275344,https://twitter.com/richforestano/status/1616275344
346,,2009-04-25 17:47,0,0,"@ abba_ks Yup. I'm thinking either Kenny Britt, Maulaluga, Vontae Davis....and with that, ESPN says Davis. I'm happy.",,@,,1616257978,https://twitter.com/DukeStJournal/status/1616257978
347,,2009-04-25 17:46,0,0,Bet you its kennybritt,,,,1616248907,https://twitter.com/Jeremy_Carter/status/1616248907
348,,2009-04-25 17:46,0,0,Hoping Kenny Britt gets drafted in the first round.,,,,1616248434,https://twitter.com/sassola/status/1616248434
349,,2009-04-25 17:44,0,0,"Possibly the first chance for Rutgers WR Kenny Britt to be selected, right here with the Dolphins at No. 25.",,,,1616236299,https://twitter.com/BrendanPrunty/status/1616236299
350,,2009-04-25 17:39,0,0,"MIAMI --- kenny britt or james laurinaitis or hakeem nicks or rey maualuga, no one else!!!",,,,1616206810,https://twitter.com/bvsystem/status/1616206810
351,,2009-04-25 17:30,0,0,WRs going quickly...Kenny Britt is still around,,,,1616147512,https://twitter.com/GMen247/status/1616147512
352,,2009-04-25 17:28,0,0,@ thenflchick Kenny Britt wouldn't be a bad pick either...,,@,,1616133375,https://twitter.com/BLITZMagPrez/status/1616133375
353,,2009-04-25 17:27,0,0,waiting for kenny britt to get picked in the NFL draft,,,,1616122942,https://twitter.com/dougfaherty/status/1616122942
354,,2009-04-25 17:26,0,0,Hopefully Kenny Britt goes before the end of the 1st,,,,1616118266,https://twitter.com/glennrd/status/1616118266
355,,2009-04-25 17:26,0,0,"like garafolo said, nicks is looking like the option, i know the vikes like Kenny Britt",,,,1616116211,https://twitter.com/GiantsGab/status/1616116211
356,,2009-04-25 17:15,0,0,"I hate the Eagles, but at least the Giants are now 1 WR closer to Kenny Britt. # nfldraft # giants",,,# #,1616044036,https://twitter.com/robtraut/status/1616044036
357,,2009-04-25 17:11,0,0,@ron_e_fresh Kenny Britt,,@ron_e_fresh,,1616018961,https://twitter.com/giantstalk/status/1616018961
358,,2009-04-25 16:59,0,0,kenny britt please fall to 25!!,,,,1615930997,https://twitter.com/DubbSicks/status/1615930997
359,,2009-04-25 16:49,0,0,Kenny Britt one of the top draft choices... hmmm,,,,1615864541,https://twitter.com/sebritt/status/1615864541
360,,2009-04-25 16:10,0,0,watching the NFL Draft and hoping KENNY BRITT'S dreams c0ome true. Go KENNY!,,,,1615592901,https://twitter.com/SimplySherri/status/1615592901
361,,2009-04-25 16:04,0,0,"For my Dolphins I forsee Hakeem Nicks or Kenny Britt, & if for some unforseen reason Percy is still there we'll take him. Inside Information",,,,1615548010,https://twitter.com/KayoThaKomic/status/1615548010
362,,2009-04-25 15:20,0,0,"And shout outs to my homie Kenny Britt! RU Rah Rah and all that good shit lol. ADHD havin, throwin pillows in his sleep + shit..",,,,1615239336,https://twitter.com/april_rose/status/1615239336
363,,2009-04-25 14:39,0,0,Bears need to get kenny britt...NOW,,,,1614965992,https://twitter.com/yolo_pinyato/status/1614965992
364,,2009-04-25 13:31,0,0,"is wishing the NYG luck today in the draft, go Kenny Britt!",,,,1614514586,https://twitter.com/dyada07/status/1614514586
365,,2009-04-25 11:17,0,0,@ WaleDC ny giants i think we will get kenny britt from rutgers.... and i want them to get kenny britt from rutgers.....,,@,,1613601575,https://twitter.com/JUSTCHILLY/status/1613601575
366,,2009-04-25 11:14,0,0,Is rooting on the cowboys and the chiefs in the draft...and is waitiing to see where my boy kenny britt go...)Ea bayonne is going hard......,,,,1613583366,https://twitter.com/dredre201/status/1613583366
367,,2009-04-25 11:12,0,0,I wanna be on record...I want the Dolphins to take Kenny Britt out of Rutgers in the first round,,,,1613573145,https://twitter.com/CashSports/status/1613573145
368,,2009-04-25 11:07,0,0,@ LL91 Very true .. how many picks do the Rams have? sec round pick I think they will look to get a WR maybe Kenny Britt from Rutgers,,@,,1613537368,https://twitter.com/Madden_Maniac9/status/1613537368
369,,2009-04-25 11:06,0,0,I'm calling this now: Giants take Rutgers WR Kenny Britt in the 1st Round.,,,,1613527982,https://twitter.com/AndrewLenaghan/status/1613527982
370,,2009-04-25 10:41,0,0,"@ elimanning Kenny Britt, let's do it!!!",,@,,1613362523,https://twitter.com/Whoootiz/status/1613362523
371,,2009-04-25 08:38,0,0,AND I THINK THAT KENNY BRITT WILL NOT HAVE TO MOVE VERY FAR....... FROM RUTGERS TO THE NY GIANTS!!! HOPEFULLY......,,,,1612646357,https://twitter.com/JUSTCHILLY/status/1612646357
372,,2009-04-25 07:38,0,0,DRAFT DAY! It's like Christmas. Hoping for a great result for Kenny Britt and REALLY hoping to hear Mike Teel's name called. A class act.,,,,1612376876,https://twitter.com/jenniecollucci/status/1612376876
373,,2009-04-25 07:37,0,0,"I predict a boring day for the Jets and the Giants, and an early second-round appearance by Kenny Britt, at the NFL Draft.",,,,1612373298,https://twitter.com/StevePoliti/status/1612373298
374,,2009-04-25 06:15,0,0,"Based on the 90 seconds of NFL draft coverage I heard this week, I think I'd be happy if the Bears took WR Kenny Britt. It's all a crapshoot",,,,1612077629,https://twitter.com/Ed_Lilly/status/1612077629
375,,2009-04-24 14:43,0,0,"With the 30th pick in the 1010 XL Media Mock Draft, Jum Wyatt with the Tennessian chooses Kenny Britt",,,,1606735742,https://twitter.com/1010XL/status/1606735742
376,,2009-04-24 14:41,0,0,"The one thing I want to hear tomorrow: With the 29th pick, the NY Giants select Kenny Britt, WR, Rutgers""""",,,,1606722549,https://twitter.com/robtraut/status/1606722549
377,,2009-04-24 14:36,0,0,NFL Insiders debate Kenny Britt draft value: http://www.nfldraftbible.com/Daily-Dose/all_access_kenny_britt.html,,,,1606676949,https://twitter.com/NFLDraftBible/status/1606676949
378,,2009-04-24 14:06,0,0,"@ SuperBowl_2010 A wide receiver - Kenny Britt or Tiquan Underwood...stick with QB's already on the roster, Klemens's good, ratliff potential",,@,,1606421434,https://twitter.com/Aerocles/status/1606421434
379,,2009-04-24 10:06,0,0,@ davemark psyched to watch it (on tv) - got to give it up for Bayonne - and keeping an eye on Kenny Britt this weekend as well - go NJ!,,@,,1604359681,https://twitter.com/stumark/status/1604359681
380,,2009-04-24 08:58,0,0,"I wonder who the # giants will pick if the Dolphins end up drafting Kenny Britt. Alex Mack, perhaps?",,,#,1603791882,https://twitter.com/saffir_99/status/1603791882
381,,2009-04-23 17:51,0,0,I've seen a lot of mocks leading up to the draft only one has the Ravens selecting my boy Kenny Britt! Remember the name.,,,,1598529432,https://twitter.com/RavensTweet/status/1598529432
382,,2009-04-23 17:43,0,0,"Since each trade for another wideout fails, the Giants might draft Kenny Britt - would love to still see him all the time in the NFL",,,,1598467056,https://twitter.com/glennrd/status/1598467056
383,,2009-04-23 12:24,0,0,@ mattvensel I think Kenny Britt would be a great fit.,,@,,1595891909,https://twitter.com/Tailgate365/status/1595891909
384,,2009-04-23 10:42,0,0,"G-Men ending"" pursuit of Braylon Edwards (cough..smokescreen..cough). Hakeem Nicks or Kenny Britt with first round pick would be nice...""",,,,1595073369,https://twitter.com/helloimbobby/status/1595073369
385,,2009-04-23 09:13,0,0,"I continue to hear NYG do not rate Kenny Britt as a first-round WR. Doesn't mean they won't take him in 2nd round, just not at #29. --MG",,,#29,1594342629,https://twitter.com/MikeGarafolo/status/1594342629
386,,2009-04-22 17:01,0,0,New from TJB: Link: Britt Getting a Bad Rap?: Is local product Kenny Britt miscast by national pund.. http://tinyurl.com/d97kku,,,,1588628779,https://twitter.com/Brian_Bassett/status/1588628779
387,,2009-04-22 14:45,0,0,#29 Kenny Britt,,,#29,1587541333,https://twitter.com/gac1033/status/1587541333
388,,2009-04-22 14:36,0,0,RT @ thejetsblog: New from TJB: Film Room: Kenny Britt Highlights: Highlights of Rutgers WR Kenny Britt. http://tinyurl.com/d3b7je LIKING HIM,,@,,1587468694,https://twitter.com/marshalldharris/status/1587468694
389,,2009-04-22 14:11,0,0,The Jets Blog >> Film Room: Kenny Britt Highlights http://tinyurl.com/d3b7je,,,,1587268081,https://twitter.com/jetsbuzztap/status/1587268081
390,,2009-04-22 14:03,0,0,New from TJB: Film Room: Kenny Britt Highlights: Highlights of Rutgers WR Kenny Britt. http://tinyurl.com/d3b7je,,,,1587200465,https://twitter.com/Brian_Bassett/status/1587200465
391,,2009-04-22 13:51,0,0,@ joereedy True. But they are the Browns so who knows what they will do. They could wait until the 2nd rd. and get Kenny Britt from Rutgers.,,@,,1587104038,https://twitter.com/antman111/status/1587104038
392,,2009-04-22 13:41,0,0,"29. NY Giants - Kenny Britt, WR, Rutgers - I dont think the Braylon Edwards to NY deal will go down, so the Giants still need a bigger WR",,,,1587022549,https://twitter.com/RajanNanavati/status/1587022549
393,,2009-04-22 11:51,0,0,"@ JoeRoseShow Hope Fins get Percy Harvin, Hakeem Nicks, or Kenny Britt in 1st. Larry English if they are gone. Hope for Shawn Smith in 2nd.",,@,,1586152190,https://twitter.com/MrRadio610/status/1586152190
394,,2009-04-22 10:49,0,0,"If the Giants draft Kenny Britt on Saturday, I may just have to buy a Britt jersey Sunday.",,,,1585648867,https://twitter.com/SirSandwich/status/1585648867
395,,2009-04-21 18:35,0,0,"Todd McShay: Kenny Britt or Hakeem Nicks, Ron Brace, D.J. Moore â¦ Fins: What the best-case scenario for the Do.. http://tinyurl.com/d85rrj",,,,1579765555,https://twitter.com/DolfansNYC/status/1579765555
396,,2009-04-21 16:27,0,0,"@ BIGCHRISSATX we got Parcells, Ireland and Sporano. I know the draft will be fine for my Fins. Kenny Britt or Hakeem Nicks!!!!",,@,,1578725966,https://twitter.com/DubbSicks/status/1578725966
397,,2009-04-21 13:39,0,0,Video of Kenny Britt http://adjix.com/s9ww,,,,1577317040,https://twitter.com/nygmen/status/1577317040
398,,2009-04-21 13:04,0,0,"Kenny Britt Highlight Video: Speaking of draft prospects, check out this highlight video I found of Kenny Britt.. http://twurl.nl/qsah0b",,,,1577033841,https://twitter.com/giantstalk/status/1577033841
399,,2009-04-21 12:57,0,0,NFL draft approaching -- here's to hoping the dolphins take james laurinaitis @ 25 and kenny britt @ 44,,@ @,,1576980940,https://twitter.com/bvsystem/status/1576980940
400,,2009-04-21 12:55,0,0,Video: Wide Receiver Kenny Britt http://tinyurl.com/ctgpb6,,,,1576959753,https://twitter.com/SNYGiants/status/1576959753
401,,2009-04-21 12:50,0,0,Giants Football Blog >> Video: Wide Receiver Kenny Britt http://tinyurl.com/dkujc5,,,,1576918024,https://twitter.com/giantsbuzztap/status/1576918024
402,,2009-04-21 12:33,0,0,Browns visiting Kenny Britt on Thurs. Met with Hakeem Nicks yesterday... Maybe they're not locked in on Crabtree...,,,,1576783248,https://twitter.com/Ryan_McCrystal/status/1576783248
403,,2009-04-21 10:44,0,0,Draft guru Todd McShay on best-case scenario for Dolphins if they keep first 3 picks: WR Kenny Britt/Hakeem Nicks; NT Ron Brace; CB DJ Moore,,,,1575889146,https://twitter.com/EthanJSkolnick/status/1575889146
404,,2009-04-21 08:50,0,0,"BTW- what's all this nonsense about Kenny Britt having an attitude problem? Thanks Tom Luicci, for setting the record straight.",,,,1574979198,https://twitter.com/Hugh_Jee/status/1574979198
405,,2009-04-20 20:19,0,0,"Meet mister big time: Kenny Britt may be next Plax, and that ain't good http://adjix.com/awec",,,,1570943793,https://twitter.com/nygmen/status/1570943793
406,,2009-04-20 15:34,0,0,"Concerns About Kenny Britt?: In Sunday’s Daily News, there was an interesting article about Kenny Britt. .. http://tinyurl.com/dya3x2",,,,1568670175,https://twitter.com/GiantsGab/status/1568670175
407,,2009-04-20 15:26,0,0,Star-Ledger >> NFL scouts have fumbled the ball on Kenny Britt's 'personality issues' http://tinyurl.com/dhw8z5,,,,1568604963,https://twitter.com/rutgersbuzztap/status/1568604963
408,,2009-04-20 15:14,0,0,Giants Gab >> Concerns About Kenny Britt? http://tinyurl.com/cjw5st,,,,1568502741,https://twitter.com/giantsbuzztap/status/1568502741
409,,2009-04-20 10:12,0,0,"'Red flags' about Rutgers' Britt?: Kenny Britt It is Draft Week, and we will do whatever we can.. http://tinyurl.com/c5uloy",,,,1566094233,https://twitter.com/bigblueview/status/1566094233
410,,2009-04-19 21:33,0,0,Kenny Britt the Next Buress???: Kenny Britt even plays defense..... That's what the New York D.. http://tinyurl.com/c8wlkx,,,,1562260716,https://twitter.com/sbncollege/status/1562260716
411,,2009-04-19 21:31,0,0,Kenny Britt the Next Buress???: Kenny Britt even plays defense..... That's what the New York Daily Ne.. http://tinyurl.com/cynglk,,,,1562242811,https://twitter.com/SBNation/status/1562242811
412,,2009-04-19 12:38,0,0,"Spring football is over, but I'll be providing plenty of NFL draft fodder this week on Scuttlebutt, including a feature on Kenny Britt.",,,,1559245645,https://twitter.com/KSargeantNJ/status/1559245645
413,,2009-04-19 11:30,0,0,"Ravens need a WR.. Kenny Britt has skills.. but also an attitude.. I mean, never even heard of Darrius Heyward-Bey?? http://bit.ly/RLFji",,,,1558826517,https://twitter.com/RobCarlinNBCS/status/1558826517
414,,2009-04-19 04:46,0,0,Meet mister big time: Kenny Britt http://tinyurl.com/d26bsh,,,,1557226463,https://twitter.com/nflgiants/status/1557226463
415,,2009-04-19 04:13,0,0,NY Daily News >> Meet mister big time: Kenny Britt http://tinyurl.com/d26bsh,,,,1557137290,https://twitter.com/giantsbuzztap/status/1557137290
416,,2009-04-19 04:11,0,0,NYDaily >> Meet mister big time: Kenny Britt: Kenny Britt wants to be the NFL's Rookie of the Ye.. http://tinyurl.com/d26bsh,,,,1557130561,https://twitter.com/BR_NYCGiants/status/1557130561
417,,2009-04-18 13:49,0,0,I met Kenny Britt!,,,,1552506857,https://twitter.com/patmak/status/1552506857
418,,2009-04-18 08:13,0,0,Bleed Scarlet >> Kenny Britt’s wonderlic score http://tinyurl.com/cd7cmb,,,,1550488877,https://twitter.com/rutgersbuzztap/status/1550488877
