,start,tendercare
0,2016-03-14,1
1,2016-03-15,1
2,2016-03-16,1
3,2016-03-17,1
4,2016-03-18,1
5,2016-03-19,1
6,2016-03-20,1
7,2016-03-21,1
8,2016-03-22,1
9,2016-03-23,1
10,2016-03-24,1
11,2016-03-25,1
12,2016-03-26,1
13,2016-03-27,1
14,2016-03-28,1
15,2016-03-29,1
16,2016-03-30,1
17,2016-03-31,1
18,2016-04-01,1
0,2017-01-04,1
1,2017-01-05,1
2,2017-01-06,1
3,2017-01-07,1
4,2017-01-08,1
5,2017-01-09,1
6,2017-01-10,1
7,2017-01-11,1
8,2017-01-12,1
9,2017-01-13,1
10,2017-01-14,1
11,2017-01-15,1
12,2017-01-16,1
13,2017-01-17,1
14,2017-01-18,1
15,2017-01-19,1
16,2017-01-20,1
17,2017-01-21,1
18,2017-01-22,1
19,2017-01-23,1
20,2017-01-24,1
21,2017-01-25,1
22,2017-01-26,1
23,2017-01-27,1
24,2017-01-28,1
0,2017-03-10,1
1,2017-03-11,1
2,2017-03-12,1
3,2017-03-13,1
4,2017-03-14,1
5,2017-03-15,1
6,2017-03-16,1
7,2017-03-17,1
8,2017-03-18,1
9,2017-03-19,1
10,2017-03-20,1
0,2017-03-23,1
1,2017-03-24,1
2,2017-03-25,1
3,2017-03-26,1
4,2017-03-27,1
5,2017-03-28,1
6,2017-03-29,1
7,2017-03-30,1
8,2017-03-31,1
9,2017-04-01,1
10,2017-04-02,1
11,2017-04-03,1
12,2017-04-04,1
0,2017-06-01,1
1,2017-06-02,1
2,2017-06-03,1
3,2017-06-04,1
4,2017-06-05,1
5,2017-06-06,1
6,2017-06-07,1
7,2017-06-08,1
8,2017-06-09,1
9,2017-06-10,1
10,2017-06-11,1
11,2017-06-12,1
12,2017-06-13,1
13,2017-06-14,1
14,2017-06-15,1
15,2017-06-16,1
16,2017-06-17,1
0,2018-01-08,1
1,2018-01-09,1
2,2018-01-10,1
3,2018-01-11,1
4,2018-01-12,1
5,2018-01-13,1
6,2018-01-14,1
7,2018-01-15,1
8,2018-01-16,1
9,2018-01-17,1
10,2018-01-18,1
11,2018-01-19,1
12,2018-01-20,1
13,2018-01-21,1
14,2018-01-22,1
15,2018-01-23,1
0,2018-02-19,1
1,2018-02-20,1
2,2018-02-21,1
3,2018-02-22,1
4,2018-02-23,1
5,2018-02-24,1
6,2018-02-25,1
7,2018-02-26,1
8,2018-02-27,1
9,2018-02-28,1
10,2018-03-01,1
0,2018-06-19,1
1,2018-06-20,1
2,2018-06-21,1
3,2018-06-22,1
4,2018-06-23,1
5,2018-06-24,1
6,2018-06-25,1
7,2018-06-26,1
8,2018-06-27,1
9,2018-06-28,1
10,2018-06-29,1
11,2018-06-30,1
12,2018-07-01,1
13,2018-07-02,1
14,2018-07-03,1
15,2018-07-04,1
16,2018-07-05,1
17,2018-07-06,1
18,2018-07-07,1
19,2018-07-08,1
20,2018-07-09,1
21,2018-07-10,1
22,2018-07-11,1
23,2018-07-12,1
24,2018-07-13,1
25,2018-07-14,1
0,2018-08-02,1
1,2018-08-03,1
2,2018-08-04,1
3,2018-08-05,1
4,2018-08-06,1
5,2018-08-07,1
6,2018-08-08,1
7,2018-08-09,1
8,2018-08-10,1
9,2018-08-11,1
10,2018-08-12,1
11,2018-08-13,1
12,2018-08-14,1
13,2018-08-15,1
14,2018-08-16,1
15,2018-08-17,1
16,2018-08-18,1
17,2018-08-19,1
18,2018-08-20,1
19,2018-08-21,1
0,2018-08-31,1
1,2018-09-01,1
2,2018-09-02,1
3,2018-09-03,1
4,2018-09-04,1
5,2018-09-05,1
6,2018-09-06,1
7,2018-09-07,1
8,2018-09-08,1
9,2018-09-09,1
10,2018-09-10,1
