,start,tendercare
0,2016-03-14,1
1,2016-03-15,1
2,2016-03-16,1
3,2016-03-17,1
4,2016-03-18,1
5,2016-03-19,1
6,2016-03-20,1
7,2016-03-21,1
8,2016-03-22,1
9,2016-03-23,1
10,2016-03-24,1
11,2016-03-25,1
12,2016-03-26,1
13,2016-03-27,1
14,2016-03-28,1
15,2016-03-29,1
16,2016-03-30,1
17,2016-03-31,1
18,2016-04-01,1
