,start,betterliving
0,2018-01-06,1
1,2018-01-07,1
2,2018-01-08,1
3,2018-01-09,1
4,2018-01-10,1
5,2018-01-11,1
6,2018-01-12,1
7,2018-01-13,1
8,2018-01-14,1
9,2018-01-15,1
10,2018-01-16,1
11,2018-01-17,1
12,2018-01-18,1
13,2018-01-19,1
14,2018-01-20,1
15,2018-01-21,1
16,2018-01-22,1
