,fips_code,gun_store_counts
0,10001,18
1,10003,51
2,10005,72
3,1001,21
4,1003,69
5,1005,10
6,1007,3
7,1009,19
8,1011,1
9,1013,10
10,1015,46
11,1017,11
12,1019,9
13,1021,15
14,1023,7
15,1025,16
16,1027,7
17,1029,5
18,1031,18
19,1033,19
20,1035,1
21,1037,5
22,1039,26
23,1041,9
24,1043,30
25,1045,22
26,1047,8
27,1049,19
28,1051,29
29,1053,20
30,1055,27
31,1057,6
32,1059,10
33,1061,8
34,1063,1
35,1065,1
36,1067,9
37,1069,33
38,1071,25
39,1073,106
40,1075,3
41,1077,30
42,1079,7
43,1081,28
44,1083,34
45,1085,3
46,1087,4
47,1089,130
48,1091,8
49,1093,19
50,1095,32
51,1097,95
52,1099,10
53,11000,7
54,1101,35
55,1103,38
56,1105,3
57,1107,4
58,1109,12
59,1111,10
60,1113,12
61,1115,19
62,1117,54
63,1119,6
64,1121,23
65,1123,13
66,1125,33
67,1127,24
68,1129,5
69,1131,7
70,1133,12
71,12001,72
72,12003,8
73,12005,64
74,12007,10
75,12009,151
76,12011,213
77,12013,6
78,12015,34
79,12017,61
80,12019,44
81,12021,52
82,12023,18
83,12025,226
84,12027,8
85,12029,6
86,12031,139
87,12033,67
88,12035,16
89,12037,3
90,12039,16
91,12041,8
92,12043,1
93,12045,8
94,12047,3
95,12049,8
96,12051,13
97,12053,38
98,12055,35
99,12057,187
100,12059,9
101,12061,41
102,12063,21
103,12065,7
104,12067,3
105,12069,86
106,12071,132
107,12073,74
108,12075,27
109,12077,3
110,12079,6
111,12081,76
112,12083,103
113,12085,43
114,12087,27
115,12089,19
116,12091,80
117,12093,26
118,12095,170
119,12097,44
120,12099,168
121,12101,116
122,12103,196
123,12105,120
124,12107,27
125,12109,38
126,12111,62
127,12113,55
128,12115,88
129,12117,74
130,12119,20
131,12121,21
132,12123,12
133,12125,1
134,12127,129
135,12129,17
136,12131,23
137,12133,12
138,13001,13
139,13003,2
140,13005,5
141,13009,14
142,13011,11
143,13013,20
144,13015,36
145,13017,11
146,13019,8
147,13021,32
148,13023,8
149,13025,6
150,13027,7
151,13029,16
152,13031,19
153,13033,5
154,13035,8
155,13039,21
156,13043,5
157,13045,39
158,13047,18
159,13049,11
160,13051,48
161,13053,3
162,13055,12
163,13057,51
164,13059,27
165,13061,1
166,13063,19
167,13065,3
168,13067,102
169,13069,18
170,13071,14
171,13073,24
172,13075,6
173,13077,35
174,13079,4
175,13081,5
176,13083,9
177,13085,12
178,13087,17
179,13089,33
180,13091,4
181,13093,2
182,13095,23
183,13097,22
184,13099,11
185,13103,22
186,13105,10
187,13107,16
188,13109,8
189,13111,14
190,13113,26
191,13115,36
192,13117,49
193,13119,10
194,13121,67
195,13123,15
196,13127,46
197,13129,25
198,13131,12
199,13133,4
200,13135,114
201,13137,15
202,13139,42
203,13141,2
204,13143,9
205,13145,6
206,13147,10
207,13149,5
208,13151,29
209,13153,30
210,13155,2
211,13157,27
212,13159,7
213,13161,8
214,13163,4
215,13165,2
216,13167,2
217,13169,5
218,13171,5
219,13173,3
220,13175,14
221,13177,10
222,13179,12
223,13181,3
224,13183,2
225,13185,19
226,13187,11
227,13189,8
228,13191,5
229,13193,1
230,13195,14
231,13197,2
232,13199,12
233,13201,3
234,13205,8
235,13207,12
236,13209,1
237,13211,8
238,13213,8
239,13215,36
240,13217,18
241,13219,13
242,13221,9
243,13223,43
244,13225,8
245,13227,13
246,13229,9
247,13231,5
248,13233,16
249,13235,3
250,13237,8
251,13239,1
252,13241,14
253,13243,6
254,13245,41
255,13247,19
256,13251,4
257,13253,9
258,13255,15
259,13257,15
260,13259,6
261,13261,19
262,13263,4
263,13267,16
264,13269,3
265,13271,5
266,13273,5
267,13275,21
268,13277,17
269,13279,23
270,13281,7
271,13283,3
272,13285,14
273,13287,4
274,13289,6
275,13291,10
276,13293,13
277,13295,20
278,13297,25
279,13299,22
280,13301,4
281,13303,10
282,13305,19
283,13309,2
284,13311,20
285,13313,22
286,13315,1
287,13317,4
288,13319,2
289,13321,7
290,15001,37
291,15003,60
292,15007,35
293,15009,15
294,16001,162
295,16003,10
296,16005,46
297,16007,9
298,16009,14
299,16011,24
300,16013,17
301,16015,8
302,16017,58
303,16019,69
304,16021,17
305,16023,7
306,16025,1
307,16027,94
308,16029,9
309,16031,12
310,16033,4
311,16035,17
312,16037,9
313,16039,23
314,16041,17
315,16043,20
316,16045,13
317,16047,12
318,16049,29
319,16051,27
320,16053,8
321,16055,111
322,16057,22
323,16059,24
324,16061,6
325,16063,4
326,16065,17
327,16067,8
328,16069,60
329,16071,2
330,16073,7
331,16075,7
332,16077,7
333,16079,14
334,16081,15
335,16083,47
336,16085,13
337,16087,9
338,17001,46
339,17003,4
340,17005,14
341,17007,23
342,17009,10
343,17011,32
344,17013,3
345,17015,15
346,17017,11
347,17019,51
348,17021,21
349,17023,15
350,17025,10
351,17027,17
352,17029,34
353,17031,68
354,17033,16
355,17035,9
356,17037,20
357,17039,11
358,17041,8
359,17043,78
360,17045,12
361,17047,7
362,17049,18
363,17051,20
364,17053,8
365,17055,24
366,17057,18
367,17059,2
368,17061,7
369,17063,24
370,17065,7
371,17067,25
372,17069,4
373,17071,2
374,17073,37
375,17075,28
376,17077,29
377,17079,9
378,17081,27
379,17083,12
380,17085,10
381,17087,17
382,17089,60
383,17091,38
384,17093,29
385,17095,14
386,17097,87
387,17099,56
388,17101,3
389,17103,19
390,17105,20
391,17107,7
392,17109,9
393,17111,82
394,17113,58
395,17115,26
396,17117,22
397,17119,78
398,17121,21
399,17123,5
400,17125,12
401,17127,14
402,17129,8
403,17131,8
404,17133,21
405,17135,29
406,17137,25
407,17139,5
408,17141,26
409,17143,38
410,17145,23
411,17147,15
412,17149,17
413,17151,2
414,17153,3
415,17155,10
416,17157,43
417,17159,11
418,17161,36
419,17163,49
420,17165,15
421,17167,93
422,17169,3
423,17173,21
424,17175,7
425,17177,23
426,17179,47
427,17181,22
428,17183,36
429,17185,7
430,17187,6
431,17189,6
432,17191,12
433,17193,11
434,17195,23
435,17197,92
436,17199,47
437,17201,51
438,17203,25
439,18001,20
440,18003,68
441,18005,21
442,18007,2
443,18009,3
444,18011,27
445,18013,6
446,18015,7
447,18017,18
448,18019,31
449,18021,26
450,18023,11
451,18025,8
452,18027,19
453,18029,33
454,18031,15
455,18033,24
456,18035,19
457,18037,19
458,18039,46
459,18041,9
460,18043,15
461,18045,14
462,18047,10
463,18049,17
464,18051,22
465,18053,21
466,18055,29
467,18057,38
468,18059,13
469,18061,20
470,18063,32
471,18065,21
472,18067,24
473,18069,11
474,18071,23
475,18073,18
476,18075,4
477,18077,9
478,18079,19
479,18081,44
480,18083,25
481,18085,24
482,18087,12
483,18089,53
484,18091,25
485,18093,37
486,18095,27
487,18097,75
488,18099,13
489,18101,5
490,18103,12
491,18105,22
492,18107,17
493,18109,25
494,18111,4
495,18113,21
496,18115,4
497,18117,13
498,18119,12
499,18121,11
500,18123,6
501,18125,4
502,18127,22
503,18129,13
504,18131,2
505,18133,13
506,18135,8
507,18137,15
508,18139,4
509,18141,39
510,18143,8
511,18145,13
512,18147,7
513,18149,6
514,18151,14
515,18153,16
516,18155,3
517,18157,36
518,18159,6
519,18161,12
520,18163,35
521,18165,15
522,18167,36
523,18169,17
524,18171,4
525,18173,28
526,18175,13
527,18177,25
528,18179,9
529,18181,15
530,18183,12
531,19001,5
532,19003,6
533,19005,17
534,19007,14
535,19009,3
536,19011,19
537,19013,57
538,19015,20
539,19017,15
540,19019,7
541,19021,11
542,19023,13
543,19025,4
544,19027,23
545,19029,8
546,19031,9
547,19033,22
548,19035,10
549,19037,11
550,19039,4
551,19041,18
552,19043,10
553,19045,17
554,19047,6
555,19049,29
556,19051,5
557,19053,11
558,19055,11
559,19057,32
560,19059,20
561,19061,34
562,19063,11
563,19065,8
564,19067,9
565,19069,2
566,19071,7
567,19073,10
568,19075,8
569,19077,7
570,19079,12
571,19081,6
572,19083,16
573,19085,10
574,19087,17
575,19089,8
576,19091,11
577,19093,6
578,19095,18
579,19097,14
580,19099,21
581,19101,9
582,19103,31
583,19105,13
584,19107,13
585,19109,8
586,19111,30
587,19113,59
588,19115,12
589,19117,9
590,19119,9
591,19121,12
592,19123,17
593,19125,14
594,19127,20
595,19129,15
596,19131,5
597,19133,7
598,19135,3
599,19137,6
600,19139,22
601,19141,12
602,19143,6
603,19145,15
604,19147,10
605,19149,15
606,19151,8
607,19153,95
608,19155,27
609,19157,31
610,19159,4
611,19161,12
612,19163,55
613,19165,8
614,19167,10
615,19169,33
616,19171,9
617,19173,7
618,19175,12
619,19177,9
620,19179,26
621,19181,27
622,19183,13
623,19185,3
624,19187,20
625,19189,5
626,19191,15
627,19193,36
628,19195,6
629,19197,10
630,20001,8
631,20003,8
632,20005,9
633,20007,6
634,20009,14
635,20011,7
636,20013,6
637,20015,45
638,20017,3
639,20019,1
640,20021,9
641,20023,4
642,20027,9
643,20029,6
644,20031,12
645,20033,2
646,20035,21
647,20037,16
648,20039,4
649,20041,14
650,20043,7
651,20045,33
652,20047,9
653,20049,3
654,20051,18
655,20053,4
656,20055,15
657,20057,17
658,20059,12
659,20061,13
660,20063,8
661,20065,6
662,20067,8
663,20069,6
664,20071,3
665,20073,6
666,20075,4
667,20077,6
668,20079,22
669,20081,4
670,20083,5
671,20085,10
672,20087,21
673,20089,5
674,20091,152
675,20093,2
676,20095,9
677,20097,3
678,20099,15
679,20101,8
680,20103,19
681,20105,1
682,20107,10
683,20109,5
684,20111,11
685,20113,8
686,20115,10
687,20117,12
688,20119,5
689,20121,20
690,20123,8
691,20125,24
692,20127,6
693,20129,3
694,2013,4
695,20131,8
696,20133,9
697,20135,3
698,20137,8
699,20139,16
700,20141,6
701,20143,3
702,20145,4
703,20147,8
704,20149,19
705,20151,13
706,20153,2
707,20155,31
708,20157,6
709,20159,11
710,2016,4
711,20161,21
712,20163,6
713,20165,4
714,20167,9
715,20169,30
716,20171,6
717,20173,118
718,20175,8
719,20177,52
720,20179,8
721,20181,5
722,20183,5
723,20185,3
724,20187,1
725,20189,5
726,20191,11
727,20193,5
728,20195,2
729,20197,5
730,20199,3
731,2020,193
732,20201,6
733,20203,4
734,20205,12
735,20209,22
736,2050,23
737,2060,5
738,2068,4
739,2070,5
740,2090,114
741,2100,6
742,21001,14
743,21003,13
744,21005,11
745,21007,8
746,21009,28
747,21011,5
748,21013,18
749,21015,43
750,21017,7
751,21019,27
752,21021,10
753,21023,3
754,21025,6
755,21027,9
756,21029,24
757,21031,9
758,21033,8
759,21035,26
760,21037,19
761,21039,2
762,21041,7
763,21043,12
764,21045,4
765,21047,26
766,21049,18
767,21051,11
768,21053,5
769,21055,6
770,21057,4
771,21059,31
772,21061,10
773,21063,7
774,21065,6
775,21067,47
776,21069,4
777,21071,23
778,21073,18
779,21075,6
780,21077,3
781,21079,5
782,21081,15
783,21083,26
784,21085,21
785,21087,11
786,21089,20
787,21091,8
788,21093,39
789,21095,23
790,21097,12
791,21099,12
792,2110,34
793,21101,18
794,21103,7
795,21105,3
796,21107,18
797,21109,11
798,21111,127
799,21113,20
800,21115,14
801,21117,36
802,21119,5
803,21121,15
804,21123,4
805,21125,28
806,21127,7
807,21129,5
808,21131,8
809,21133,17
810,21135,7
811,21137,12
812,21139,10
813,21141,17
814,21143,4
815,21145,30
816,21147,6
817,21149,4
818,21151,35
819,21153,8
820,21155,9
821,21157,21
822,21159,4
823,21161,10
824,21163,11
825,21167,6
826,21169,8
827,21171,8
828,21173,11
829,21175,6
830,21177,11
831,21179,22
832,21181,3
833,21183,15
834,21185,20
835,21187,5
836,21189,5
837,21191,3
838,21193,23
839,21195,22
840,21197,6
841,21199,34
842,21201,2
843,21203,8
844,21205,10
845,21207,9
846,21209,15
847,21211,24
848,21213,5
849,21215,4
850,21217,21
851,21219,6
852,2122,71
853,21221,10
854,21223,3
855,21225,5
856,21227,38
857,21229,3
858,21231,8
859,21233,6
860,21235,24
861,21237,3
862,21239,5
863,2130,23
864,2150,14
865,2164,2
866,2170,114
867,2180,14
868,2185,7
869,2188,12
870,22001,18
871,22003,7
872,22005,38
873,22007,3
874,22009,23
875,2201,13
876,22011,23
877,22013,9
878,22015,62
879,22017,91
880,22019,72
881,22021,5
882,22023,1
883,22025,8
884,22027,5
885,22029,13
886,22031,10
887,22033,90
888,22035,3
889,22037,6
890,22039,12
891,22041,13
892,22043,12
893,22045,20
894,22047,7
895,22049,14
896,22051,68
897,22053,12
898,22055,69
899,22057,28
900,22059,8
901,22061,25
902,22063,44
903,22065,5
904,22067,15
905,22069,27
906,22071,15
907,22073,79
908,22075,3
909,22077,14
910,22079,64
911,22081,7
912,22083,9
913,22085,12
914,22087,12
915,22089,8
916,22091,3
917,22093,5
918,22095,7
919,22097,34
920,22099,12
921,22101,17
922,22103,42
923,22105,46
924,22107,5
925,22109,38
926,22111,5
927,22113,25
928,22115,21
929,22117,20
930,22119,12
931,22121,14
932,22123,4
933,22125,2
934,22127,14
935,2220,8
936,2231,12
937,2240,18
938,2261,24
939,2270,4
940,2280,20
941,2290,5
942,23001,30
943,23003,58
944,23005,70
945,23007,24
946,23009,26
947,23011,63
948,23013,16
949,23015,28
950,23017,46
951,23019,74
952,23021,11
953,23023,10
954,23025,42
955,23027,19
956,23029,33
957,23031,63
958,24001,23
959,24003,62
960,24005,57
961,24009,23
962,24011,8
963,24013,33
964,24015,23
965,24017,29
966,24019,18
967,24021,55
968,24023,13
969,24025,41
970,24027,20
971,24029,7
972,24031,52
973,24033,38
974,24035,20
975,24037,38
976,24039,9
977,24041,20
978,24043,51
979,24045,28
980,24047,18
981,24510,11
982,25001,32
983,25003,27
984,25005,45
985,25007,1
986,25009,41
987,25011,20
988,25013,88
989,25015,19
990,25017,116
991,25021,41
992,25023,49
993,25025,2
994,25027,93
995,26001,11
996,26003,7
997,26005,38
998,26007,28
999,26009,10
1000,26011,11
1001,26013,5
1002,26015,19
1003,26017,29
1004,26019,19
1005,26021,55
1006,26023,17
1007,26025,40
1008,26027,21
1009,26029,12
1010,26031,14
1011,26033,25
1012,26035,23
1013,26037,33
1014,26039,7
1015,26041,42
1016,26043,22
1017,26045,37
1018,26047,19
1019,26049,72
1020,26051,14
1021,26053,11
1022,26055,38
1023,26057,16
1024,26059,24
1025,26061,30
1026,26063,13
1027,26065,70
1028,26067,21
1029,26069,17
1030,26071,7
1031,26073,22
1032,26075,39
1033,26077,32
1034,26079,9
1035,26081,110
1036,26085,8
1037,26087,44
1038,26089,9
1039,26091,30
1040,26093,63
1041,26095,4
1042,26097,5
1043,26099,193
1044,26101,18
1045,26103,27
1046,26105,21
1047,26107,16
1048,26109,18
1049,26111,29
1050,26113,13
1051,26115,47
1052,26117,39
1053,26119,8
1054,26121,57
1055,26123,22
1056,26125,218
1057,26127,19
1058,26129,20
1059,26131,7
1060,26133,17
1061,26135,6
1062,26137,10
1063,26139,82
1064,26141,12
1065,26143,17
1066,26145,43
1067,26147,62
1068,26149,24
1069,26151,29
1070,26153,8
1071,26155,34
1072,26157,25
1073,26159,29
1074,26161,45
1075,26163,139
1076,26165,22
1077,27001,19
1078,27003,97
1079,27005,14
1080,27007,17
1081,27009,18
1082,27011,8
1083,27013,21
1084,27015,15
1085,27017,21
1086,27019,19
1087,27021,37
1088,27023,4
1089,27025,29
1090,27027,11
1091,27029,6
1092,27031,6
1093,27033,14
1094,27035,34
1095,27037,97
1096,27039,9
1097,27041,28
1098,27043,6
1099,27045,15
1100,27047,9
1101,27049,28
1102,27051,5
1103,27053,140
1104,27055,10
1105,27057,15
1106,27059,22
1107,27061,24
1108,27063,7
1109,27065,7
1110,27067,17
1111,27069,7
1112,27071,9
1113,27073,6
1114,27075,6
1115,27077,8
1116,27079,19
1117,27081,3
1118,27083,17
1119,27085,18
1120,27087,5
1121,27089,11
1122,27091,10
1123,27093,11
1124,27095,22
1125,27097,16
1126,27099,13
1127,27101,4
1128,27103,9
1129,27105,10
1130,27107,5
1131,27109,36
1132,27111,43
1133,27113,12
1134,27115,27
1135,27117,3
1136,27119,19
1137,27121,5
1138,27123,51
1139,27125,2
1140,27127,8
1141,27129,10
1142,27131,24
1143,27133,3
1144,27135,10
1145,27137,97
1146,27139,31
1147,27141,32
1148,27143,4
1149,27145,52
1150,27147,6
1151,27149,8
1152,27151,9
1153,27153,15
1154,27155,2
1155,27157,15
1156,27159,10
1157,27161,7
1158,27163,60
1159,27165,7
1160,27167,7
1161,27169,25
1162,27171,47
1163,27173,4
1164,28001,13
1165,28003,16
1166,28005,11
1167,28007,9
1168,28009,1
1169,28011,14
1170,28013,7
1171,28015,7
1172,28017,8
1173,28019,8
1174,28021,5
1175,28023,10
1176,28025,7
1177,28027,7
1178,28029,10
1179,28031,10
1180,28033,33
1181,28035,31
1182,28037,4
1183,28039,16
1184,28041,3
1185,28043,10
1186,28045,10
1187,28047,46
1188,28049,45
1189,28051,2
1190,28053,1
1191,28057,17
1192,28059,40
1193,28061,4
1194,28063,1
1195,28065,3
1196,28067,25
1197,28069,1
1198,28071,29
1199,28073,23
1200,28075,31
1201,28077,7
1202,28079,6
1203,28081,39
1204,28083,9
1205,28085,16
1206,28087,22
1207,28089,45
1208,28091,14
1209,28093,9
1210,28095,15
1211,28097,2
1212,28099,13
1213,28101,9
1214,28103,4
1215,28105,10
1216,28107,11
1217,28109,28
1218,28111,7
1219,28113,19
1220,28115,13
1221,28117,11
1222,28119,1
1223,28121,61
1224,28123,16
1225,28125,2
1226,28127,8
1227,28129,4
1228,28131,9
1229,28133,8
1230,28135,3
1231,28137,9
1232,28139,12
1233,28141,14
1234,28143,5
1235,28145,11
1236,28147,8
1237,28149,25
1238,28151,11
1239,28153,14
1240,28155,4
1241,28157,1
1242,28159,15
1243,28161,5
1244,28163,8
1245,29001,13
1246,29003,20
1247,29005,2
1248,29007,17
1249,29009,28
1250,29011,10
1251,29013,8
1252,29015,19
1253,29017,12
1254,29019,71
1255,29021,34
1256,29023,34
1257,29025,6
1258,29027,30
1259,29029,34
1260,29031,43
1261,29033,16
1262,29035,6
1263,29037,45
1264,29039,11
1265,29041,11
1266,29043,46
1267,29045,7
1268,29047,71
1269,29049,16
1270,29051,44
1271,29053,15
1272,29055,23
1273,29057,6
1274,29059,14
1275,29061,6
1276,29063,13
1277,29065,12
1278,29067,13
1279,29069,25
1280,29071,73
1281,29073,23
1282,29075,9
1283,29077,91
1284,29079,5
1285,29081,11
1286,29083,15
1287,29085,8
1288,29087,5
1289,29089,6
1290,29091,32
1291,29093,6
1292,29095,127
1293,29097,51
1294,29099,139
1295,29101,26
1296,29103,5
1297,29105,23
1298,29107,18
1299,29109,15
1300,29111,14
1301,29113,39
1302,29115,15
1303,29117,7
1304,29119,10
1305,29121,17
1306,29123,7
1307,29125,12
1308,29127,18
1309,29129,6
1310,29131,16
1311,29133,6
1312,29135,6
1313,29137,9
1314,29139,17
1315,29141,16
1316,29143,5
1317,29145,33
1318,29147,21
1319,29149,7
1320,29151,19
1321,29153,23
1322,29155,11
1323,29157,14
1324,29159,31
1325,29161,31
1326,29163,20
1327,29165,20
1328,29167,24
1329,29169,25
1330,29171,3
1331,29173,12
1332,29175,18
1333,29177,11
1334,29179,11
1335,29181,10
1336,29183,101
1337,29185,4
1338,29186,20
1339,29187,35
1340,29189,182
1341,29195,6
1342,29197,1
1343,29199,7
1344,29201,24
1345,29203,6
1346,29205,6
1347,29207,22
1348,29209,11
1349,29211,5
1350,29213,30
1351,29215,28
1352,29217,12
1353,29219,16
1354,29221,21
1355,29223,12
1356,29225,29
1357,29227,1
1358,29229,27
1359,29510,29
1360,30001,18
1361,30003,7
1362,30005,10
1363,30007,12
1364,30009,19
1365,30011,2
1366,30013,82
1367,30015,8
1368,30017,14
1369,30019,13
1370,30021,19
1371,30023,8
1372,30025,7
1373,30027,28
1374,30029,131
1375,30031,106
1376,30033,1
1377,30035,6
1378,30037,2
1379,30039,6
1380,30041,27
1381,30043,16
1382,30045,5
1383,30047,29
1384,30049,72
1385,30051,8
1386,30053,38
1387,30055,6
1388,30057,10
1389,30059,5
1390,30061,8
1391,30063,80
1392,30065,9
1393,30067,26
1394,30069,2
1395,30071,7
1396,30073,12
1397,30075,10
1398,30077,13
1399,30079,4
1400,30081,90
1401,30083,21
1402,30085,15
1403,30087,12
1404,30089,24
1405,30091,9
1406,30093,34
1407,30095,16
1408,30097,11
1409,30099,11
1410,30101,13
1411,30105,15
1412,30107,4
1413,30109,2
1414,30111,99
1415,31001,31
1416,31003,4
1417,31005,1
1418,31011,9
1419,31013,12
1420,31015,2
1421,31017,4
1422,31019,35
1423,31021,3
1424,31023,11
1425,31025,10
1426,31027,4
1427,31029,5
1428,31031,14
1429,31033,12
1430,31035,7
1431,31037,2
1432,31039,5
1433,31041,20
1434,31043,10
1435,31045,11
1436,31047,8
1437,31049,1
1438,31051,4
1439,31053,22
1440,31055,55
1441,31057,2
1442,31059,5
1443,31061,2
1444,31063,4
1445,31065,6
1446,31067,22
1447,31069,1
1448,31071,1
1449,31073,2
1450,31075,1
1451,31077,1
1452,31079,20
1453,31081,5
1454,31083,5
1455,31087,6
1456,31089,14
1457,31091,2
1458,31093,4
1459,31095,6
1460,31097,1
1461,31099,5
1462,31101,5
1463,31103,3
1464,31105,4
1465,31107,7
1466,31109,52
1467,31111,24
1468,31113,2
1469,31115,1
1470,31117,1
1471,31119,24
1472,31121,4
1473,31123,4
1474,31125,3
1475,31127,5
1476,31129,3
1477,31131,14
1478,31133,3
1479,31135,5
1480,31137,8
1481,31139,5
1482,31141,14
1483,31143,3
1484,31145,10
1485,31147,11
1486,31149,2
1487,31151,6
1488,31153,44
1489,31155,17
1490,31157,27
1491,31159,6
1492,31161,9
1493,31163,3
1494,31165,1
1495,31167,4
1496,31169,6
1497,31171,1
1498,31173,2
1499,31175,6
1500,31177,8
1501,31179,3
1502,31181,3
1503,31183,2
1504,31185,11
1505,32001,17
1506,32003,270
1507,32005,67
1508,32007,36
1509,32011,5
1510,32013,16
1511,32015,7
1512,32017,8
1513,32019,48
1514,32021,4
1515,32023,42
1516,32027,7
1517,32029,4
1518,32031,178
1519,32033,8
1520,32510,45
1521,33001,34
1522,33003,41
1523,33005,48
1524,33007,23
1525,33009,50
1526,33011,136
1527,33013,57
1528,33015,117
1529,33017,43
1530,33019,36
1531,34001,23
1532,34003,19
1533,34005,20
1534,34007,15
1535,34009,9
1536,34011,13
1537,34013,6
1538,34015,19
1539,34017,9
1540,34019,18
1541,34021,10
1542,34023,22
1543,34025,42
1544,34027,31
1545,34029,40
1546,34031,27
1547,34033,10
1548,34035,15
1549,34037,21
1550,34039,11
1551,34041,14
1552,35001,168
1553,35003,8
1554,35005,24
1555,35006,11
1556,35007,18
1557,35009,34
1558,35011,3
1559,35013,66
1560,35015,26
1561,35017,18
1562,35019,3
1563,35021,3
1564,35023,7
1565,35025,28
1566,35027,17
1567,35028,14
1568,35029,7
1569,35031,31
1570,35033,2
1571,35035,36
1572,35037,13
1573,35039,17
1574,35041,9
1575,35043,62
1576,35045,57
1577,35047,12
1578,35049,37
1579,35051,6
1580,35053,12
1581,35055,13
1582,35057,14
1583,35059,7
1584,35061,31
1585,36001,25
1586,36003,15
1587,36005,2
1588,36007,55
1589,36009,43
1590,36011,22
1591,36013,39
1592,36015,19
1593,36017,26
1594,36019,16
1595,36021,28
1596,36023,14
1597,36025,31
1598,36027,67
1599,36029,122
1600,36031,12
1601,36033,17
1602,36035,15
1603,36037,25
1604,36039,26
1605,36041,11
1606,36043,32
1607,36045,27
1608,36047,9
1609,36049,23
1610,36051,23
1611,36053,18
1612,36055,116
1613,36057,16
1614,36059,39
1615,36061,15
1616,36063,32
1617,36065,55
1618,36067,56
1619,36069,39
1620,36071,81
1621,36073,12
1622,36075,44
1623,36077,33
1624,36079,21
1625,36081,12
1626,36083,33
1627,36085,3
1628,36087,48
1629,36089,36
1630,36091,33
1631,36093,18
1632,36095,11
1633,36097,8
1634,36099,8
1635,36101,44
1636,36103,85
1637,36105,57
1638,36107,17
1639,36109,15
1640,36111,70
1641,36113,21
1642,36115,31
1643,36117,33
1644,36119,60
1645,36121,18
1646,36123,11
1647,37001,40
1648,37003,17
1649,37005,9
1650,37007,12
1651,37009,21
1652,37011,12
1653,37013,16
1654,37015,4
1655,37017,13
1656,37019,41
1657,37021,74
1658,37023,26
1659,37025,54
1660,37027,31
1661,37029,10
1662,37031,35
1663,37033,10
1664,37035,44
1665,37037,31
1666,37039,22
1667,37041,7
1668,37043,9
1669,37045,36
1670,37047,25
1671,37049,52
1672,37051,72
1673,37053,22
1674,37055,23
1675,37057,47
1676,37059,23
1677,37061,26
1678,37063,35
1679,37065,12
1680,37067,59
1681,37069,17
1682,37071,58
1683,37073,2
1684,37075,5
1685,37077,14
1686,37079,8
1687,37081,70
1688,37083,15
1689,37085,36
1690,37087,40
1691,37089,51
1692,37091,11
1693,37093,14
1694,37095,3
1695,37097,57
1696,37099,27
1697,37101,55
1698,37103,6
1699,37105,25
1700,37107,20
1701,37109,28
1702,37111,32
1703,37113,29
1704,37115,16
1705,37117,10
1706,37119,117
1707,37121,9
1708,37123,11
1709,37125,37
1710,37127,40
1711,37129,51
1712,37131,7
1713,37133,74
1714,37135,14
1715,37137,14
1716,37139,12
1717,37141,24
1718,37143,3
1719,37145,14
1720,37147,44
1721,37149,12
1722,37151,44
1723,37153,13
1724,37155,25
1725,37157,42
1726,37159,57
1727,37161,31
1728,37163,18
1729,37165,9
1730,37167,36
1731,37169,14
1732,37171,32
1733,37173,13
1734,37175,15
1735,37177,5
1736,37179,48
1737,37181,9
1738,37183,125
1739,37185,5
1740,37187,4
1741,37189,18
1742,37191,29
1743,37193,32
1744,37195,20
1745,37197,18
1746,37199,7
1747,38001,1
1748,38003,9
1749,38005,4
1750,38009,19
1751,38011,5
1752,38013,2
1753,38015,41
1754,38017,40
1755,38019,4
1756,38021,7
1757,38023,4
1758,38025,5
1759,38027,4
1760,38029,3
1761,38031,4
1762,38033,3
1763,38035,25
1764,38037,7
1765,38039,4
1766,38041,1
1767,38043,3
1768,38045,9
1769,38047,4
1770,38049,7
1771,38051,4
1772,38053,7
1773,38055,13
1774,38057,14
1775,38059,18
1776,38061,3
1777,38063,1
1778,38065,5
1779,38067,7
1780,38069,2
1781,38071,12
1782,38073,8
1783,38075,3
1784,38077,21
1785,38079,9
1786,38081,7
1787,38083,2
1788,38089,15
1789,38093,16
1790,38095,3
1791,38097,3
1792,38099,14
1793,38101,39
1794,38103,6
1795,38105,22
1796,39001,18
1797,39003,26
1798,39005,14
1799,39007,34
1800,39009,25
1801,39011,17
1802,39013,31
1803,39015,24
1804,39017,73
1805,39019,10
1806,39021,15
1807,39023,47
1808,39025,59
1809,39027,17
1810,39029,43
1811,39031,17
1812,39033,13
1813,39035,105
1814,39037,18
1815,39039,20
1816,39041,44
1817,39043,22
1818,39045,41
1819,39047,10
1820,39049,137
1821,39051,17
1822,39053,20
1823,39055,46
1824,39057,37
1825,39059,23
1826,39061,116
1827,39063,25
1828,39065,14
1829,39067,11
1830,39069,9
1831,39071,22
1832,39073,10
1833,39075,20
1834,39077,15
1835,39079,18
1836,39081,36
1837,39083,25
1838,39085,77
1839,39087,27
1840,39089,53
1841,39091,23
1842,39093,77
1843,39095,73
1844,39097,20
1845,39099,50
1846,39101,21
1847,39103,66
1848,39105,13
1849,39107,19
1850,39109,34
1851,39111,11
1852,39113,127
1853,39115,5
1854,39117,14
1855,39119,40
1856,39121,7
1857,39123,22
1858,39125,12
1859,39127,14
1860,39129,20
1861,39131,13
1862,39133,50
1863,39135,32
1864,39137,15
1865,39139,36
1866,39141,25
1867,39143,17
1868,39145,26
1869,39147,13
1870,39149,20
1871,39151,97
1872,39153,69
1873,39155,63
1874,39157,59
1875,39159,13
1876,39161,11
1877,39163,3
1878,39165,75
1879,39167,39
1880,39169,38
1881,39171,21
1882,39173,31
1883,39175,16
1884,40001,10
1885,40003,5
1886,40005,14
1887,40007,3
1888,40009,20
1889,4001,19
1890,40011,5
1891,40013,18
1892,40015,13
1893,40017,59
1894,40019,17
1895,40021,23
1896,40023,12
1897,40025,6
1898,40027,83
1899,4003,95
1900,40031,58
1901,40033,5
1902,40035,10
1903,40037,27
1904,40039,20
1905,40041,25
1906,40043,6
1907,40045,4
1908,40047,34
1909,40049,19
1910,4005,76
1911,40051,25
1912,40053,5
1913,40055,2
1914,40057,7
1915,40059,4
1916,40061,13
1917,40063,8
1918,40065,20
1919,40067,3
1920,40069,11
1921,4007,38
1922,40071,37
1923,40073,13
1924,40075,8
1925,40077,12
1926,40079,20
1927,40081,17
1928,40083,30
1929,40085,1
1930,40087,30
1931,40089,24
1932,4009,24
1933,40091,8
1934,40093,3
1935,40095,15
1936,40097,20
1937,40099,11
1938,40101,35
1939,40103,8
1940,40105,6
1941,40107,5
1942,40109,269
1943,4011,8
1944,40111,15
1945,40113,19
1946,40115,19
1947,40117,9
1948,40119,27
1949,4012,5
1950,40121,34
1951,40123,21
1952,40125,44
1953,40127,5
1954,40129,2
1955,4013,1042
1956,40131,54
1957,40133,13
1958,40135,29
1959,40137,26
1960,40139,18
1961,40141,3
1962,40143,224
1963,40145,38
1964,40147,30
1965,40149,9
1966,4015,144
1967,40151,11
1968,40153,13
1969,4017,53
1970,4019,287
1971,4021,95
1972,4023,17
1973,4025,196
1974,4027,43
1975,41001,25
1976,41003,28
1977,41005,161
1978,41007,25
1979,41009,44
1980,41011,47
1981,41013,17
1982,41015,27
1983,41017,128
1984,41019,68
1985,41021,4
1986,41023,8
1987,41025,14
1988,41027,11
1989,41029,97
1990,41031,24
1991,41033,49
1992,41035,46
1993,41037,20
1994,41039,157
1995,41041,34
1996,41043,79
1997,41045,25
1998,41047,118
1999,41049,11
2000,41051,95
2001,41053,45
2002,41055,6
2003,41057,15
2004,41059,65
2005,41061,34
2006,41063,11
2007,41065,17
2008,41067,172
2009,41069,4
2010,41071,47
2011,42001,42
2012,42003,152
2013,42005,30
2014,42006,1
2015,42007,58
2016,42009,31
2017,42011,91
2018,42013,63
2019,42015,49
2020,42017,117
2021,42019,73
2022,42021,38
2023,42023,6
2024,42025,14
2025,42027,45
2026,42029,93
2027,42031,20
2028,42033,26
2029,42035,11
2030,42037,41
2031,42039,34
2032,42041,63
2033,42043,51
2034,42045,49
2035,42047,15
2036,42049,48
2037,42051,50
2038,42053,3
2039,42055,56
2040,42057,11
2041,42059,18
2042,42061,33
2043,42063,50
2044,42065,34
2045,42067,15
2046,42069,50
2047,42071,75
2048,42073,28
2049,42075,34
2050,42077,55
2051,42079,70
2052,42081,49
2053,42083,27
2054,42085,52
2055,42087,14
2056,42089,61
2057,42091,107
2058,42093,10
2059,42095,65
2060,42097,37
2061,42099,39
2062,42101,16
2063,42103,36
2064,42105,19
2065,42107,44
2066,42109,24
2067,42111,41
2068,42113,7
2069,42115,34
2070,42117,36
2071,42119,14
2072,42121,22
2073,42123,28
2074,42125,62
2075,42127,35
2076,42129,136
2077,42131,22
2078,42133,112
2079,44001,2
2080,44003,18
2081,44005,9
2082,44007,55
2083,44009,23
2084,45001,10
2085,45003,65
2086,45005,3
2087,45007,51
2088,45009,6
2089,45011,8
2090,45013,46
2091,45015,28
2092,45017,8
2093,45019,69
2094,45021,24
2095,45023,10
2096,45025,15
2097,45027,10
2098,45029,15
2099,45031,21
2100,45033,8
2101,45035,31
2102,45037,9
2103,45039,9
2104,45041,54
2105,45043,19
2106,45045,117
2107,45047,27
2108,45049,10
2109,45051,66
2110,45053,9
2111,45055,25
2112,45057,16
2113,45059,23
2114,45061,3
2115,45063,92
2116,45065,4
2117,45067,10
2118,45069,9
2119,45071,22
2120,45073,28
2121,45075,20
2122,45077,43
2123,45079,54
2124,45081,7
2125,45083,82
2126,45085,23
2127,45087,12
2128,45089,9
2129,45091,49
2130,46003,1
2131,46005,14
2132,46007,4
2133,46009,4
2134,46011,13
2135,46013,34
2136,46015,7
2137,46019,9
2138,46021,4
2139,46023,9
2140,46025,5
2141,46027,7
2142,46029,21
2143,46031,1
2144,46033,21
2145,46035,16
2146,46037,4
2147,46039,1
2148,46041,7
2149,46043,4
2150,46045,4
2151,46047,8
2152,46049,5
2153,46051,7
2154,46053,8
2155,46055,3
2156,46057,4
2157,46059,5
2158,46061,5
2159,46065,15
2160,46067,5
2161,46069,3
2162,46073,2
2163,46075,3
2164,46077,8
2165,46079,11
2166,46081,29
2167,46083,21
2168,46085,5
2169,46087,3
2170,46089,3
2171,46091,2
2172,46093,40
2173,46095,1
2174,46097,2
2175,46099,56
2176,46101,4
2177,46103,76
2178,46105,4
2179,46107,3
2180,46109,8
2181,46115,16
2182,46117,3
2183,46119,1
2184,46121,4
2185,46123,9
2186,46125,7
2187,46127,12
2188,46129,12
2189,46135,13
2190,47001,26
2191,47003,16
2192,47005,10
2193,47007,5
2194,47009,46
2195,47011,41
2196,47013,19
2197,47015,4
2198,47017,13
2199,47019,22
2200,47021,17
2201,47023,5
2202,47025,13
2203,47027,3
2204,47029,10
2205,47031,19
2206,47033,10
2207,47035,20
2208,47037,74
2209,47039,9
2210,47041,10
2211,47043,24
2212,47045,10
2213,47047,14
2214,47049,14
2215,47051,16
2216,47053,25
2217,47055,19
2218,47057,5
2219,47059,29
2220,47061,6
2221,47063,21
2222,47065,60
2223,47067,3
2224,47069,10
2225,47071,13
2226,47073,19
2227,47075,9
2228,47077,9
2229,47079,22
2230,47081,12
2231,47085,16
2232,47087,1
2233,47089,17
2234,47091,8
2235,47093,99
2236,47095,1
2237,47097,9
2238,47099,17
2239,47101,8
2240,47103,19
2241,47105,23
2242,47107,31
2243,47109,10
2244,47111,12
2245,47113,25
2246,47115,19
2247,47117,10
2248,47119,20
2249,47121,7
2250,47123,25
2251,47125,55
2252,47127,1
2253,47129,8
2254,47131,18
2255,47133,9
2256,47135,11
2257,47137,4
2258,47139,9
2259,47141,27
2260,47143,16
2261,47145,24
2262,47147,17
2263,47149,45
2264,47151,12
2265,47153,7
2266,47155,39
2267,47157,95
2268,47159,10
2269,47161,7
2270,47163,48
2271,47165,44
2272,47167,19
2273,47169,1
2274,47171,4
2275,47173,6
2276,47175,1
2277,47177,19
2278,47179,32
2279,47181,4
2280,47183,15
2281,47185,11
2282,47187,33
2283,47189,35
2284,48001,17
2285,48003,5
2286,48005,33
2287,48007,8
2288,48009,2
2289,48011,6
2290,48013,24
2291,48015,25
2292,48017,5
2293,48019,16
2294,48021,40
2295,48023,7
2296,48025,12
2297,48027,100
2298,48029,256
2299,48031,12
2300,48033,1
2301,48035,15
2302,48037,42
2303,48039,105
2304,48041,61
2305,48043,9
2306,48045,1
2307,48047,2
2308,48049,29
2309,48051,13
2310,48053,37
2311,48055,20
2312,48057,18
2313,48059,5
2314,48061,60
2315,48063,3
2316,48065,4
2317,48067,10
2318,48069,2
2319,48071,12
2320,48073,29
2321,48075,10
2322,48077,6
2323,48079,1
2324,48081,3
2325,48083,6
2326,48085,209
2327,48087,1
2328,48089,17
2329,48091,64
2330,48093,9
2331,48095,2
2332,48097,22
2333,48099,22
2334,48101,5
2335,48103,1
2336,48105,5
2337,48107,1
2338,48109,1
2339,48111,6
2340,48113,291
2341,48115,11
2342,48117,3
2343,48119,4
2344,48121,227
2345,48123,13
2346,48125,1
2347,48127,2
2348,48129,2
2349,48131,1
2350,48133,11
2351,48135,48
2352,48137,2
2353,48139,64
2354,48141,111
2355,48143,32
2356,48145,7
2357,48147,22
2358,48149,17
2359,48151,3
2360,48153,7
2361,48155,1
2362,48157,115
2363,48159,6
2364,48161,9
2365,48163,5
2366,48165,8
2367,48167,110
2368,48169,2
2369,48171,29
2370,48173,1
2371,48175,3
2372,48177,11
2373,48179,17
2374,48181,48
2375,48183,48
2376,48185,14
2377,48187,33
2378,48189,13
2379,48191,4
2380,48193,8
2381,48195,3
2382,48197,4
2383,48199,41
2384,48201,678
2385,48203,33
2386,48207,5
2387,48209,54
2388,48211,11
2389,48213,33
2390,48215,78
2391,48217,21
2392,48219,15
2393,48221,40
2394,48223,21
2395,48225,5
2396,48227,18
2397,48229,4
2398,48231,40
2399,48233,22
2400,48235,3
2401,48237,5
2402,48239,8
2403,48241,20
2404,48243,2
2405,48245,70
2406,48247,3
2407,48249,15
2408,48251,68
2409,48253,7
2410,48255,6
2411,48257,47
2412,48259,34
2413,48265,32
2414,48267,4
2415,48269,1
2416,48271,1
2417,48273,9
2418,48275,3
2419,48277,32
2420,48279,8
2421,48281,20
2422,48283,2
2423,48285,20
2424,48287,8
2425,48289,14
2426,48291,36
2427,48293,15
2428,48295,4
2429,48297,7
2430,48299,12
2431,48301,1
2432,48303,114
2433,48305,2
2434,48307,10
2435,48309,91
2436,48311,1
2437,48313,6
2438,48315,5
2439,48317,2
2440,48319,7
2441,48321,16
2442,48323,8
2443,48325,23
2444,48327,5
2445,48329,70
2446,48331,14
2447,48333,9
2448,48335,4
2449,48337,13
2450,48339,184
2451,48341,14
2452,48343,3
2453,48345,1
2454,48347,41
2455,48349,16
2456,48351,2
2457,48353,11
2458,48355,80
2459,48357,10
2460,48361,42
2461,48363,19
2462,48365,17
2463,48367,75
2464,48369,2
2465,48371,4
2466,48373,21
2467,48375,48
2468,48377,2
2469,48379,10
2470,48381,65
2471,48383,2
2472,48385,3
2473,48387,9
2474,48389,1
2475,48391,2
2476,48395,4
2477,48397,28
2478,48399,11
2479,48401,27
2480,48403,5
2481,48405,1
2482,48407,8
2483,48409,30
2484,48411,4
2485,48413,2
2486,48415,11
2487,48417,5
2488,48419,9
2489,48421,3
2490,48423,84
2491,48425,8
2492,48427,20
2493,48429,12
2494,48433,1
2495,48435,5
2496,48437,7
2497,48439,525
2498,48441,56
2499,48443,1
2500,48445,6
2501,48449,12
2502,48451,54
2503,48453,171
2504,48455,7
2505,48457,13
2506,48459,19
2507,48461,2
2508,48463,13
2509,48465,10
2510,48467,22
2511,48469,50
2512,48471,24
2513,48473,16
2514,48475,2
2515,48477,13
2516,48479,49
2517,48481,23
2518,48483,10
2519,48485,42
2520,48487,7
2521,48489,2
2522,48491,142
2523,48493,19
2524,48495,3
2525,48497,45
2526,48499,35
2527,48501,5
2528,48503,12
2529,48505,3
2530,49001,4
2531,49003,28
2532,49005,62
2533,49007,21
2534,49011,102
2535,49013,12
2536,49015,11
2537,49017,7
2538,49019,9
2539,49021,33
2540,49023,13
2541,49025,5
2542,49027,6
2543,49029,12
2544,49033,3
2545,49035,254
2546,49037,10
2547,49039,26
2548,49041,24
2549,49043,18
2550,49045,27
2551,49047,21
2552,49049,156
2553,49051,12
2554,49053,74
2555,49057,81
2556,50001,23
2557,50003,28
2558,50005,23
2559,50007,49
2560,50009,6
2561,5001,16
2562,50011,34
2563,50013,7
2564,50015,16
2565,50017,24
2566,50019,17
2567,50021,51
2568,50023,30
2569,50025,27
2570,50027,32
2571,5003,15
2572,5005,30
2573,5007,107
2574,5009,35
2575,5011,4
2576,5013,1
2577,5015,27
2578,5017,7
2579,5019,19
2580,5021,17
2581,5023,24
2582,5025,5
2583,5027,16
2584,5029,18
2585,5031,55
2586,5033,29
2587,5035,13
2588,5037,13
2589,5039,5
2590,5041,10
2591,5043,19
2592,5045,60
2593,5047,12
2594,5049,7
2595,5051,51
2596,5053,15
2597,5055,23
2598,5057,19
2599,5059,21
2600,5061,9
2601,5063,31
2602,5065,11
2603,5067,6
2604,5069,25
2605,5071,21
2606,5073,3
2607,5075,17
2608,5077,1
2609,5079,3
2610,5081,12
2611,5083,13
2612,5085,37
2613,5087,12
2614,5089,20
2615,5091,25
2616,5093,13
2617,5095,1
2618,5097,7
2619,5099,3
2620,51001,16
2621,51003,25
2622,51005,3
2623,51007,9
2624,51009,16
2625,5101,4
2626,51011,7
2627,51013,11
2628,51015,15
2629,51017,7
2630,51019,25
2631,51021,4
2632,51023,17
2633,51025,1
2634,51027,11
2635,51029,5
2636,5103,23
2637,51031,30
2638,51033,12
2639,51035,13
2640,51036,2
2641,51037,8
2642,51041,53
2643,51043,7
2644,51045,7
2645,51047,23
2646,51049,4
2647,5105,3
2648,51051,8
2649,51053,6
2650,51057,4
2651,51059,148
2652,51061,38
2653,51063,8
2654,51065,7
2655,51067,22
2656,51069,43
2657,5107,6
2658,51071,18
2659,51073,18
2660,51075,9
2661,51077,14
2662,51079,12
2663,51081,3
2664,51083,17
2665,51085,34
2666,51087,20
2667,51089,13
2668,5109,7
2669,51091,6
2670,51093,9
2671,51095,17
2672,51097,6
2673,51099,18
2674,51101,3
2675,51103,7
2676,51105,14
2677,51107,74
2678,51109,11
2679,5111,9
2680,51111,4
2681,51113,7
2682,51115,6
2683,51117,19
2684,51119,4
2685,51121,18
2686,51125,11
2687,51127,12
2688,5113,25
2689,51131,13
2690,51133,7
2691,51135,3
2692,51137,18
2693,51139,11
2694,51141,14
2695,51143,25
2696,51145,11
2697,51147,13
2698,51149,10
2699,5115,31
2700,51153,82
2701,51155,19
2702,51157,11
2703,51159,1
2704,51161,10
2705,51163,9
2706,51165,26
2707,51167,13
2708,51169,16
2709,5117,4
2710,51171,20
2711,51173,15
2712,51175,6
2713,51177,37
2714,51179,51
2715,51181,1
2716,51183,2
2717,51185,28
2718,51187,17
2719,5119,96
2720,51191,18
2721,51193,8
2722,51195,25
2723,51197,24
2724,51199,12
2725,5121,19
2726,5123,10
2727,5125,39
2728,5127,12
2729,5129,5
2730,5131,57
2731,5133,5
2732,5135,17
2733,5137,11
2734,5139,29
2735,5141,7
2736,5143,75
2737,5145,52
2738,5147,4
2739,5149,9
2740,51510,6
2741,51515,8
2742,51520,7
2743,51530,1
2744,51540,6
2745,51550,26
2746,51570,7
2747,51580,11
2748,51590,12
2749,51595,2
2750,51600,13
2751,51610,4
2752,51620,2
2753,51630,11
2754,51640,7
2755,51650,14
2756,51660,8
2757,51670,3
2758,51678,3
2759,51680,18
2760,51683,17
2761,51685,8
2762,51690,9
2763,51700,21
2764,51710,22
2765,51720,4
2766,51730,5
2767,51735,6
2768,51740,9
2769,51750,18
2770,51760,8
2771,51770,23
2772,51775,7
2773,51790,7
2774,51800,22
2775,51810,93
2776,51820,3
2777,51840,13
2778,53001,5
2779,53003,9
2780,53005,50
2781,53007,29
2782,53009,29
2783,53011,85
2784,53013,4
2785,53015,31
2786,53017,7
2787,53019,8
2788,53021,8
2789,53023,3
2790,53025,20
2791,53027,27
2792,53029,27
2793,53031,15
2794,53033,222
2795,53035,48
2796,53037,13
2797,53039,10
2798,53041,37
2799,53043,8
2800,53045,19
2801,53047,27
2802,53049,15
2803,53051,9
2804,53053,135
2805,53055,7
2806,53057,40
2807,53059,1
2808,53061,155
2809,53063,103
2810,53065,20
2811,53067,54
2812,53069,3
2813,53071,23
2814,53073,36
2815,53075,11
2816,53077,64
2817,54001,14
2818,54003,60
2819,54005,11
2820,54007,19
2821,54009,9
2822,54011,34
2823,54013,8
2824,54015,3
2825,54017,5
2826,54019,27
2827,54021,8
2828,54023,14
2829,54025,29
2830,54027,25
2831,54029,20
2832,54031,23
2833,54033,40
2834,54035,17
2835,54037,12
2836,54039,83
2837,54041,15
2838,54043,7
2839,54045,11
2840,54047,6
2841,54049,32
2842,54051,16
2843,54053,23
2844,54055,35
2845,54057,29
2846,54059,11
2847,54061,34
2848,54063,3
2849,54065,17
2850,54067,24
2851,54069,20
2852,54071,12
2853,54073,5
2854,54075,11
2855,54077,25
2856,54079,15
2857,54081,36
2858,54083,31
2859,54085,9
2860,54087,13
2861,54089,8
2862,54091,11
2863,54093,11
2864,54095,6
2865,54097,20
2866,54099,13
2867,54101,8
2868,54103,17
2869,54105,5
2870,54107,54
2871,54109,8
2872,55001,9
2873,55003,21
2874,55005,29
2875,55007,13
2876,55009,56
2877,55011,8
2878,55013,23
2879,55015,7
2880,55017,41
2881,55019,24
2882,55021,34
2883,55023,10
2884,55025,70
2885,55027,40
2886,55029,12
2887,55031,13
2888,55033,23
2889,55035,40
2890,55037,3
2891,55039,31
2892,55041,8
2893,55043,29
2894,55045,18
2895,55047,10
2896,55049,14
2897,55051,4
2898,55053,10
2899,55055,25
2900,55057,17
2901,55059,28
2902,55061,5
2903,55063,34
2904,55065,7
2905,55067,10
2906,55069,13
2907,55071,22
2908,55073,45
2909,55075,50
2910,55077,9
2911,55078,1
2912,55079,74
2913,55081,35
2914,55083,26
2915,55085,31
2916,55087,50
2917,55089,16
2918,55091,4
2919,55093,25
2920,55095,25
2921,55097,27
2922,55099,14
2923,55101,50
2924,55103,8
2925,55105,59
2926,55107,10
2927,55109,40
2928,55111,40
2929,55113,15
2930,55115,19
2931,55117,28
2932,55119,14
2933,55121,13
2934,55123,22
2935,55125,24
2936,55127,37
2937,55129,17
2938,55131,40
2939,55133,99
2940,55135,25
2941,55137,19
2942,55139,38
2943,55141,48
2944,56001,34
2945,56003,25
2946,56005,59
2947,56007,29
2948,56009,28
2949,56011,17
2950,56013,57
2951,56015,10
2952,56017,9
2953,56019,9
2954,56021,84
2955,56023,30
2956,56025,76
2957,56027,6
2958,56029,58
2959,56031,15
2960,56033,28
2961,56035,31
2962,56037,51
2963,56039,17
2964,56041,19
2965,56043,16
2966,56045,12
2967,6001,36
2968,6003,1
2969,6005,18
2970,6007,64
2971,6009,24
2972,6011,6
2973,6013,48
2974,6015,5
2975,6017,40
2976,6019,119
2977,6021,4
2978,6023,37
2979,6025,8
2980,6027,8
2981,6029,168
2982,6031,15
2983,6033,21
2984,6035,13
2985,6037,366
2986,6039,18
2987,6041,14
2988,6043,11
2989,6045,27
2990,6047,32
2991,6049,5
2992,6051,6
2993,6053,21
2994,6055,37
2995,6057,27
2996,6059,257
2997,6061,62
2998,6063,8
2999,6065,194
3000,6067,118
3001,6069,8
3002,6071,159
3003,6073,165
3004,6075,4
3005,6077,48
3006,6079,59
3007,6081,33
3008,6083,63
3009,6085,92
3010,6087,26
3011,6089,51
3012,6091,2
3013,6093,17
3014,6095,46
3015,6097,47
3016,6099,65
3017,6101,16
3018,6103,16
3019,6105,8
3020,6107,44
3021,6109,20
3022,6111,115
3023,6113,23
3024,6115,26
3025,8001,123
3026,8003,10
3027,8005,144
3028,8007,7
3029,8009,4
3030,8011,2
3031,8013,70
3032,8014,13
3033,8015,18
3034,8017,5
3035,8019,9
3036,8021,5
3037,8023,5
3038,8025,3
3039,8027,9
3040,8029,34
3041,8031,48
3042,8033,5
3043,8035,117
3044,8037,24
3045,8039,24
3046,8041,224
3047,8043,37
3048,8045,28
3049,8047,7
3050,8049,12
3051,8051,12
3052,8053,4
3053,8055,8
3054,8057,2
3055,8059,188
3056,8061,1
3057,8063,11
3058,8065,3
3059,8067,35
3060,8069,134
3061,8071,24
3062,8073,10
3063,8075,16
3064,8077,93
3065,8079,2
3066,8081,15
3067,8083,25
3068,8085,33
3069,8087,19
3070,8089,13
3071,8091,4
3072,8093,16
3073,8095,6
3074,8097,8
3075,8099,11
3076,8101,66
3077,8103,12
3078,8105,10
3079,8107,16
3080,8109,3
3081,8111,1
3082,8113,6
3083,8115,1
3084,8117,9
3085,8119,30
3086,8121,7
3087,8123,131
3088,8125,15
3089,9001,119
3090,9003,161
3091,9005,75
3092,9007,40
3093,9009,128
3094,9011,52
3095,9013,39
3096,9015,19
