,CustomerID,1,2,3
0,2,100,Corporate,No
1,5,100,Home Office,No
2,6,106,Home Office,No
3,8,101,Home Office,No
4,11,106,Home Office,No
5,12,108,Home Office,No
6,14,105,Small Business,No
7,15,104,Small Business,Yes
8,18,104,Small Business,No
9,24,105,Corporate,No
10,29,105,Corporate,No
11,32,109,Corporate,No
12,33,109,Corporate,No
13,35,103,Small Business,Yes
14,42,106,Consumer,No
15,45,103,Home Office,No
16,46,101,Home Office,No
17,48,104,Corporate,No
18,59,104,Small Business,No
19,60,105,Small Business,No
20,62,108,Corporate,No
21,67,105,Corporate,No
22,69,104,Corporate,Yes
23,73,104,Small Business,No
24,75,104,Small Business,No
25,77,102,Small Business,No
26,78,108,Small Business,No
27,80,106,Small Business,No
28,88,105,Corporate,No
29,91,104,Home Office,No
30,93,107,Corporate,No
31,99,105,Consumer,No
32,100,100,Consumer,No
33,108,106,Consumer,No
34,109,100,Consumer,No
35,111,106,Consumer,Yes
36,116,101,Home Office,No
37,117,105,Home Office,Yes
38,119,107,Corporate,No
39,120,102,Corporate,No
40,123,105,Home Office,No
41,127,102,Consumer,No
42,129,101,Small Business,No
43,132,108,Corporate,Yes
44,133,100,Home Office,Yes
45,139,106,Small Business,No
46,141,105,Corporate,No
47,142,105,Small Business,No
48,143,106,Small Business,No
49,145,106,Small Business,No
50,147,107,Small Business,No
51,159,105,Consumer,No
52,162,101,Home Office,No
53,164,106,Home Office,Yes
54,177,105,Small Business,No
55,180,100,Consumer,Yes
56,184,102,Small Business,No
57,185,100,Small Business,No
58,188,106,Corporate,No
59,191,100,Corporate,No
60,197,100,Small Business,No
61,198,108,Small Business,Yes
62,202,101,Corporate,No
63,211,106,Consumer,No
64,214,104,Home Office,Yes
65,221,103,Home Office,No
66,223,106,Small Business,No
67,230,101,Home Office,No
68,232,106,Small Business,No
69,236,108,Corporate,Yes
70,241,100,Small Business,No
71,242,104,Small Business,No
72,244,100,Corporate,No
73,245,100,Corporate,No
74,247,102,Corporate,No
75,251,103,Corporate,No
76,252,109,Corporate,No
77,256,105,Home Office,No
78,269,105,Home Office,No
79,270,105,Small Business,No
80,272,106,Home Office,Yes
81,275,102,Corporate,No
82,276,107,Corporate,No
83,280,109,Corporate,No
84,281,109,Corporate,No
85,282,104,Corporate,No
86,288,104,Small Business,No
87,297,104,Corporate,No
88,301,101,Corporate,No
89,306,101,Small Business,No
90,311,109,Consumer,No
91,313,103,Corporate,Yes
92,318,103,Corporate,No
93,324,104,Corporate,Yes
94,329,103,Home Office,No
95,333,108,Home Office,No
96,335,104,Corporate,No
97,336,101,Corporate,Yes
98,337,101,Corporate,No
99,339,100,Corporate,Yes
100,343,105,Corporate,No
101,351,105,Home Office,Yes
102,357,104,Corporate,Yes
103,358,108,Corporate,No
104,360,108,Small Business,No
105,362,106,Small Business,No
106,364,107,Small Business,No
107,365,104,Small Business,No
108,366,109,Small Business,No
109,370,103,Corporate,No
110,373,108,Small Business,Yes
111,374,103,Small Business,No
112,377,106,Consumer,No
113,380,105,Corporate,No
114,381,106,Corporate,No
115,382,107,Corporate,No
116,389,106,Corporate,No
117,391,107,Corporate,No
118,397,101,Corporate,Yes
119,398,100,Corporate,No
120,401,107,Small Business,No
121,404,100,Small Business,No
122,406,106,Small Business,No
123,411,103,Consumer,No
124,412,101,Consumer,No
125,413,105,Consumer,Yes
126,427,107,Corporate,No
127,428,106,Corporate,Yes
128,430,108,Small Business,No
129,435,106,Small Business,No
130,436,104,Small Business,No
131,437,100,Small Business,No
132,438,103,Corporate,No
133,439,107,Corporate,No
134,445,101,Small Business,No
135,447,101,Corporate,No
136,452,102,Home Office,No
137,456,105,Corporate,No
138,457,108,Corporate,No
139,458,105,Home Office,No
140,463,104,Small Business,No
141,464,108,Small Business,No
142,468,108,Small Business,No
143,469,104,Small Business,No
144,475,108,Small Business,No
145,480,101,Home Office,No
146,483,105,Corporate,Yes
147,486,102,Corporate,No
148,491,103,Consumer,Yes
149,492,100,Consumer,No
150,494,109,Consumer,Yes
151,496,105,Small Business,No
152,497,104,Small Business,Yes
153,505,107,Corporate,No
154,507,102,Corporate,No
155,510,106,Corporate,No
156,513,108,Consumer,No
157,515,105,Consumer,No
158,516,101,Corporate,No
159,521,109,Small Business,Yes
160,527,107,Home Office,No
161,530,101,Corporate,No
162,531,100,Corporate,No
163,535,106,Corporate,No
164,537,100,Corporate,No
165,544,103,Home Office,No
166,546,103,Corporate,No
167,547,105,Corporate,No
168,550,101,Corporate,No
169,552,106,Corporate,Yes
170,553,107,Home Office,Yes
171,555,108,Corporate,Yes
172,556,100,Home Office,Yes
173,558,107,Home Office,No
174,561,104,Home Office,No
175,565,105,Corporate,Yes
176,568,107,Consumer,Yes
177,572,104,Home Office,No
178,577,105,Corporate,No
179,580,106,Corporate,No
180,583,103,Corporate,No
181,591,100,Consumer,No
182,593,107,Small Business,Yes
183,594,104,Consumer,No
184,595,109,Small Business,No
185,600,100,Corporate,No
186,608,107,Corporate,No
187,609,103,Corporate,No
188,613,100,Home Office,No
189,615,104,Home Office,No
190,621,106,Home Office,Yes
191,622,104,Home Office,No
192,631,104,Small Business,No
193,637,100,Consumer,Yes
194,642,109,Corporate,Yes
195,645,108,Corporate,No
196,646,108,Corporate,Yes
197,648,101,Home Office,No
198,653,100,Consumer,No
199,654,107,Consumer,No
200,655,101,Consumer,No
201,656,101,Consumer,No
202,661,103,Consumer,No
203,663,103,Home Office,No
204,667,106,Corporate,No
205,670,107,Home Office,No
206,673,103,Small Business,No
207,678,103,Corporate,No
208,681,109,Corporate,No
209,685,105,Small Business,No
210,688,106,Small Business,No
211,693,101,Small Business,No
212,697,104,Corporate,No
213,698,109,Corporate,No
214,700,100,Consumer,No
215,702,106,Consumer,Yes
216,703,101,Consumer,No
217,706,100,Consumer,No
218,711,100,Consumer,No
219,716,100,Corporate,No
220,717,100,Corporate,No
221,718,103,Corporate,Yes
222,719,104,Corporate,No
223,722,106,Corporate,No
224,726,104,Consumer,No
225,728,108,Consumer,No
226,730,108,Consumer,Yes
227,733,102,Consumer,No
228,734,104,Consumer,No
229,738,100,Consumer,No
230,739,106,Consumer,No
231,742,109,Consumer,No
232,745,105,Consumer,Yes
233,746,107,Corporate,No
234,754,109,Corporate,No
235,757,109,Home Office,No
236,767,106,Corporate,No
237,771,106,Small Business,Yes
238,779,107,Home Office,No
239,783,107,Small Business,No
240,787,104,Home Office,No
241,788,105,Home Office,No
242,791,106,Corporate,No
243,792,104,Corporate,No
244,794,109,Corporate,Yes
245,799,101,Consumer,Yes
246,800,100,Consumer,No
247,808,104,Small Business,No
248,819,107,Small Business,No
249,820,107,Small Business,No
250,824,106,Small Business,No
251,827,107,Home Office,No
252,838,105,Consumer,Yes
253,841,105,Corporate,No
254,852,106,Small Business,No
255,854,109,Corporate,No
256,857,105,Small Business,No
257,858,106,Corporate,No
258,862,106,Corporate,Yes
259,863,104,Corporate,No
260,865,106,Corporate,No
261,874,103,Small Business,No
262,878,107,Corporate,No
263,880,104,Small Business,No
264,886,106,Home Office,Yes
265,887,104,Corporate,No
266,890,100,Consumer,No
267,892,108,Consumer,No
268,893,100,Consumer,No
269,898,101,Small Business,No
270,901,105,Consumer,No
271,903,101,Consumer,No
272,904,105,Consumer,No
273,908,103,Home Office,Yes
274,911,100,Corporate,No
275,913,100,Corporate,No
276,916,106,Corporate,No
277,918,109,Consumer,Yes
278,922,104,Small Business,Yes
279,924,105,Small Business,No
280,930,108,Small Business,No
281,936,108,Corporate,No
282,947,103,Home Office,No
283,949,106,Consumer,Yes
284,954,105,Small Business,No
285,956,100,Consumer,No
286,965,105,Consumer,No
287,966,104,Home Office,No
288,967,100,Home Office,No
289,969,107,Consumer,No
290,970,105,Consumer,Yes
291,974,101,Corporate,No
292,976,108,Corporate,No
293,978,100,Corporate,No
294,979,108,Corporate,No
295,986,101,Small Business,No
296,987,106,Small Business,No
297,988,101,Small Business,No
298,989,108,Corporate,No
299,995,103,Small Business,No
300,1000,104,Small Business,No
301,1003,101,Home Office,No
302,1006,104,Small Business,No
303,1008,107,Home Office,No
304,1010,105,Home Office,No
305,1015,105,Home Office,No
306,1018,100,Home Office,No
307,1023,101,Small Business,No
308,1027,103,Small Business,No
309,1028,105,Small Business,No
310,1030,100,Small Business,No
311,1039,101,Corporate,No
312,1042,104,Small Business,No
313,1046,104,Home Office,No
314,1047,105,Home Office,Yes
315,1049,104,Home Office,No
316,1050,108,Home Office,No
317,1059,100,Small Business,No
318,1072,104,Corporate,No
319,1075,100,Home Office,No
320,1077,105,Corporate,No
321,1082,102,Corporate,No
322,1083,107,Corporate,No
323,1085,107,Home Office,No
324,1088,103,Corporate,Yes
325,1089,109,Corporate,No
326,1096,104,Home Office,No
327,1098,106,Home Office,No
328,1108,103,Small Business,No
329,1109,103,Consumer,No
330,1110,106,Small Business,No
331,1119,104,Home Office,Yes
332,1121,106,Consumer,Yes
333,1128,108,Consumer,Yes
334,1131,101,Home Office,No
335,1139,108,Home Office,No
336,1141,100,Small Business,No
337,1142,101,Home Office,No
338,1145,104,Consumer,No
339,1150,103,Corporate,No
340,1151,100,Corporate,Yes
341,1152,105,Corporate,No
342,1156,105,Consumer,No
343,1157,108,Consumer,Yes
344,1159,106,Consumer,No
345,1166,108,Corporate,Yes
346,1171,100,Consumer,No
347,1174,107,Home Office,No
348,1175,100,Home Office,No
349,1176,104,Home Office,No
350,1178,100,Consumer,No
351,1180,105,Home Office,No
352,1183,103,Home Office,No
353,1187,100,Consumer,No
354,1190,101,Small Business,No
355,1192,101,Consumer,No
356,1193,101,Consumer,Yes
357,1197,105,Small Business,No
358,1199,104,Consumer,No
359,1200,108,Consumer,No
360,1201,107,Small Business,No
361,1202,104,Consumer,No
362,1209,101,Home Office,No
363,1212,101,Corporate,No
364,1213,106,Corporate,No
365,1215,107,Small Business,No
366,1217,101,Small Business,Yes
367,1218,100,Small Business,No
368,1221,107,Small Business,Yes
369,1227,105,Small Business,No
370,1228,104,Small Business,Yes
371,1236,100,Corporate,No
372,1237,101,Corporate,No
373,1239,106,Corporate,Yes
374,1245,100,Home Office,No
375,1248,101,Home Office,No
376,1261,107,Home Office,No
377,1262,100,Home Office,No
378,1263,103,Home Office,Yes
379,1265,106,Home Office,No
380,1267,104,Corporate,No
381,1272,101,Corporate,No
382,1273,108,Corporate,No
383,1275,108,Corporate,No
384,1285,100,Corporate,No
385,1288,100,Corporate,No
386,1289,108,Corporate,No
387,1291,103,Small Business,No
388,1292,107,Small Business,No
389,1293,109,Small Business,Yes
390,1296,102,Small Business,Yes
391,1299,101,Home Office,No
392,1303,104,Consumer,No
393,1304,108,Consumer,No
394,1305,101,Consumer,No
395,1309,104,Corporate,No
396,1311,107,Corporate,No
397,1315,106,Home Office,Yes
398,1320,100,Home Office,No
399,1322,108,Small Business,No
400,1326,104,Small Business,Yes
401,1329,100,Small Business,No
402,1330,101,Small Business,No
403,1333,108,Small Business,No
404,1337,106,Small Business,No
405,1338,102,Home Office,No
406,1343,109,Consumer,No
407,1344,104,Consumer,No
408,1348,104,Home Office,No
409,1350,109,Home Office,No
410,1354,105,Consumer,No
411,1355,105,Consumer,No
412,1360,106,Consumer,Yes
413,1361,102,Consumer,No
414,1365,101,Consumer,No
415,1368,103,Consumer,No
416,1369,106,Consumer,No
417,1372,103,Corporate,No
418,1376,106,Home Office,No
419,1377,105,Home Office,No
420,1379,109,Home Office,No
421,1384,106,Consumer,No
422,1386,106,Home Office,No
423,1391,105,Consumer,Yes
424,1392,103,Corporate,Yes
425,1395,108,Consumer,No
426,1397,106,Consumer,No
427,1398,100,Consumer,No
428,1400,106,Consumer,Yes
429,1409,105,Consumer,No
430,1411,107,Corporate,Yes
431,1413,101,Corporate,Yes
432,1414,101,Corporate,No
433,1417,109,Corporate,No
434,1424,107,Home Office,No
435,1433,109,Corporate,Yes
436,1434,107,Corporate,Yes
437,1437,100,Corporate,No
438,1438,106,Corporate,No
439,1443,105,Corporate,No
440,1447,103,Small Business,No
441,1448,109,Small Business,No
442,1454,101,Corporate,No
443,1462,107,Home Office,No
444,1472,106,Home Office,Yes
445,1473,106,Home Office,No
446,1481,106,Corporate,No
447,1484,100,Home Office,No
448,1486,105,Home Office,No
449,1487,100,Home Office,No
450,1488,104,Home Office,Yes
451,1490,105,Corporate,No
452,1492,106,Corporate,No
453,1495,105,Home Office,No
454,1497,106,Corporate,Yes
455,1499,103,Home Office,No
456,1500,103,Home Office,No
457,1505,108,Small Business,No
458,1507,104,Small Business,No
459,1509,101,Corporate,No
460,1512,104,Corporate,No
461,1515,100,Corporate,No
462,1518,107,Consumer,No
463,1519,108,Consumer,No
464,1525,101,Small Business,No
465,1526,109,Home Office,Yes
466,1533,104,Corporate,No
467,1534,108,Corporate,No
468,1537,101,Consumer,No
469,1538,107,Consumer,Yes
470,1546,101,Corporate,No
471,1547,108,Corporate,No
472,1554,106,Small Business,No
473,1556,106,Consumer,No
474,1557,106,Consumer,No
475,1559,101,Consumer,No
476,1566,105,Small Business,No
477,1571,108,Corporate,No
478,1580,107,Corporate,No
479,1581,100,Corporate,No
480,1585,103,Corporate,No
481,1593,109,Corporate,No
482,1595,105,Corporate,No
483,1597,106,Corporate,No
484,1599,108,Small Business,No
485,1600,101,Small Business,No
486,1609,105,Consumer,No
487,1610,107,Consumer,Yes
488,1611,105,Consumer,No
489,1613,108,Consumer,No
490,1619,107,Consumer,No
491,1622,105,Small Business,No
492,1623,101,Small Business,No
493,1630,101,Home Office,Yes
494,1633,107,Home Office,No
495,1637,104,Home Office,No
496,1638,109,Home Office,No
497,1644,104,Small Business,Yes
498,1648,108,Corporate,No
499,1650,104,Corporate,No
500,1657,105,Small Business,No
501,1662,107,Home Office,No
502,1667,107,Consumer,No
503,1668,104,Consumer,No
504,1670,107,Small Business,No
505,1671,100,Small Business,No
506,1672,101,Small Business,No
507,1673,107,Small Business,No
508,1676,102,Small Business,Yes
509,1677,108,Small Business,No
510,1679,103,Consumer,No
511,1681,103,Consumer,No
512,1682,104,Consumer,Yes
513,1683,100,Consumer,Yes
514,1684,107,Consumer,No
515,1687,101,Corporate,No
516,1692,103,Consumer,No
517,1695,106,Home Office,No
518,1699,107,Small Business,No
519,1707,103,Small Business,No
520,1715,107,Corporate,Yes
521,1719,108,Corporate,No
522,1722,109,Corporate,No
523,1739,105,Corporate,No
524,1740,101,Corporate,Yes
525,1741,106,Corporate,No
526,1748,105,Consumer,No
527,1752,101,Home Office,No
528,1757,107,Consumer,No
529,1759,100,Consumer,No
530,1762,108,Consumer,No
531,1763,100,Consumer,No
532,1764,100,Consumer,No
533,1767,105,Home Office,Yes
534,1770,105,Home Office,No
535,1771,104,Home Office,No
536,1772,104,Corporate,No
537,1773,109,Corporate,Yes
538,1776,108,Consumer,No
539,1777,100,Consumer,No
540,1783,104,Home Office,No
541,1793,100,Home Office,No
542,1798,106,Corporate,No
543,1802,105,Corporate,No
544,1804,107,Corporate,No
545,1805,103,Corporate,No
546,1809,103,Corporate,No
547,1810,103,Corporate,Yes
548,1811,106,Corporate,No
549,1814,107,Home Office,Yes
550,1815,108,Home Office,No
551,1817,105,Consumer,No
552,1820,106,Consumer,No
553,1827,104,Corporate,No
554,1828,103,Corporate,No
555,1829,105,Corporate,No
556,1831,106,Corporate,No
557,1836,106,Corporate,Yes
558,1837,105,Corporate,No
559,1838,104,Corporate,No
560,1839,109,Corporate,No
561,1852,103,Home Office,No
562,1854,105,Home Office,No
563,1857,101,Corporate,Yes
564,1859,105,Corporate,No
565,1860,107,Home Office,No
566,1866,104,Home Office,No
567,1872,108,Corporate,Yes
568,1876,100,Consumer,No
569,1879,105,Home Office,No
570,1880,100,Home Office,No
571,1881,105,Home Office,No
572,1882,101,Home Office,No
573,1885,107,Home Office,Yes
574,1886,107,Home Office,No
575,1891,108,Home Office,Yes
576,1898,103,Consumer,No
577,1899,100,Consumer,No
578,1900,105,Consumer,No
579,1903,105,Consumer,No
580,1904,107,Consumer,No
581,1908,107,Corporate,Yes
582,1914,109,Corporate,No
583,1919,103,Home Office,No
584,1928,105,Home Office,No
585,1933,104,Corporate,No
586,1934,103,Home Office,No
587,1935,104,Corporate,No
588,1936,106,Corporate,No
589,1938,105,Corporate,No
590,1940,102,Corporate,Yes
591,1945,104,Consumer,No
592,1946,105,Consumer,Yes
593,1956,100,Consumer,No
594,1970,109,Corporate,No
595,1980,101,Corporate,No
596,1981,101,Corporate,No
597,1983,103,Consumer,No
598,1986,101,Home Office,No
599,1990,100,Home Office,Yes
600,1991,100,Home Office,No
601,2000,103,Corporate,No
602,2001,104,Corporate,No
603,2007,104,Corporate,No
604,2012,100,Corporate,No
605,2014,108,Home Office,No
606,2017,105,Home Office,No
607,2023,109,Home Office,No
608,2027,106,Small Business,No
609,2032,103,Consumer,No
610,2033,108,Consumer,No
611,2042,101,Home Office,No
612,2044,105,Corporate,Yes
613,2047,100,Corporate,Yes
614,2048,104,Consumer,Yes
615,2056,108,Home Office,No
616,2059,107,Corporate,No
617,2061,101,Corporate,No
618,2063,104,Corporate,No
619,2069,107,Consumer,No
620,2070,100,Corporate,No
621,2072,103,Corporate,No
622,2084,103,Small Business,No
623,2085,107,Small Business,No
624,2089,100,Corporate,Yes
625,2097,104,Home Office,No
626,2099,106,Home Office,No
627,2100,100,Home Office,Yes
628,2104,101,Corporate,No
629,2111,107,Home Office,No
630,2115,105,Corporate,No
631,2117,108,Home Office,Yes
632,2118,109,Home Office,Yes
633,2121,104,Corporate,No
634,2123,100,Corporate,No
635,2133,107,Corporate,No
636,2137,106,Corporate,No
637,2138,101,Corporate,No
638,2143,104,Home Office,No
639,2145,108,Corporate,No
640,2146,103,Corporate,No
641,2151,107,Corporate,No
642,2153,104,Home Office,No
643,2156,100,Corporate,Yes
644,2162,107,Corporate,Yes
645,2166,100,Small Business,No
646,2167,104,Small Business,No
647,2174,106,Small Business,Yes
648,2180,106,Small Business,No
649,2183,107,Home Office,No
650,2187,102,Corporate,No
651,2189,104,Corporate,Yes
652,2191,100,Home Office,No
653,2201,103,Small Business,No
654,2203,101,Home Office,Yes
655,2204,102,Home Office,No
656,2211,109,Home Office,No
657,2213,105,Home Office,No
658,2215,106,Corporate,Yes
659,2216,109,Corporate,No
660,2218,105,Home Office,No
661,2223,103,Small Business,No
662,2224,108,Small Business,Yes
663,2225,101,Small Business,No
664,2227,103,Corporate,No
665,2230,101,Consumer,No
666,2234,106,Consumer,No
667,2236,109,Consumer,No
668,2240,101,Corporate,No
669,2245,108,Corporate,No
670,2249,106,Home Office,No
671,2261,101,Corporate,No
672,2262,102,Corporate,No
673,2264,103,Corporate,No
674,2265,109,Corporate,No
675,2266,100,Corporate,Yes
676,2268,105,Small Business,Yes
677,2269,106,Small Business,No
678,2274,106,Corporate,Yes
679,2276,107,Consumer,Yes
680,2279,100,Home Office,No
681,2282,103,Home Office,No
682,2290,105,Home Office,No
683,2293,100,Corporate,No
684,2298,101,Corporate,No
685,2300,105,Corporate,No
686,2312,109,Small Business,No
687,2318,100,Small Business,No
688,2325,105,Small Business,No
689,2327,107,Small Business,No
690,2334,107,Consumer,No
691,2339,109,Home Office,No
692,2348,106,Corporate,No
693,2352,104,Consumer,No
694,2366,101,Corporate,No
695,2368,103,Consumer,No
696,2371,101,Small Business,No
697,2376,101,Corporate,No
698,2378,105,Corporate,Yes
699,2380,107,Small Business,Yes
700,2385,104,Small Business,No
701,2387,106,Small Business,Yes
702,2393,103,Corporate,No
703,2399,107,Corporate,No
704,2400,103,Consumer,No
705,2402,104,Consumer,No
706,2409,102,Small Business,No
707,2414,103,Consumer,Yes
708,2423,106,Home Office,Yes
709,2429,102,Home Office,Yes
710,2430,105,Home Office,No
711,2434,103,Consumer,No
712,2440,104,Consumer,No
713,2442,109,Consumer,No
714,2443,103,Corporate,No
715,2447,103,Consumer,Yes
716,2457,106,Home Office,No
717,2467,101,Corporate,No
718,2468,102,Home Office,No
719,2469,100,Home Office,No
720,2473,105,Home Office,No
721,2480,104,Corporate,Yes
722,2483,102,Corporate,No
723,2486,106,Small Business,No
724,2487,106,Small Business,No
725,2488,100,Consumer,No
726,2490,109,Home Office,No
727,2492,106,Consumer,No
728,2495,101,Consumer,No
729,2497,105,Small Business,No
730,2502,109,Home Office,No
731,2503,106,Home Office,No
732,2506,101,Home Office,No
733,2511,101,Home Office,No
734,2514,105,Home Office,No
735,2515,108,Home Office,No
736,2517,103,Home Office,No
737,2518,108,Home Office,No
738,2525,101,Corporate,No
739,2526,104,Corporate,No
740,2527,105,Corporate,No
741,2529,103,Small Business,No
742,2531,108,Small Business,No
743,2536,104,Small Business,No
744,2539,105,Home Office,Yes
745,2544,106,Small Business,No
746,2545,103,Home Office,No
747,2546,106,Small Business,No
748,2547,100,Small Business,No
749,2548,101,Small Business,Yes
750,2551,101,Small Business,No
751,2553,104,Home Office,No
752,2554,101,Home Office,No
753,2556,105,Home Office,No
754,2561,101,Consumer,No
755,2562,105,Consumer,No
756,2570,100,Consumer,No
757,2574,100,Consumer,Yes
758,2575,108,Consumer,No
759,2577,109,Home Office,No
760,2579,103,Home Office,No
761,2581,100,Home Office,No
762,2583,106,Home Office,No
763,2587,104,Home Office,No
764,2588,106,Home Office,No
765,2591,106,Corporate,No
766,2593,105,Corporate,No
767,2596,105,Corporate,No
768,2599,103,Corporate,No
769,2600,106,Corporate,No
770,2602,106,Corporate,No
771,2604,108,Corporate,No
772,2607,100,Corporate,No
773,2608,106,Corporate,No
774,2612,101,Corporate,No
775,2614,100,Corporate,No
776,2617,103,Corporate,No
777,2624,109,Corporate,Yes
778,2628,104,Corporate,No
779,2629,100,Small Business,No
780,2630,100,Small Business,No
781,2638,106,Consumer,No
782,2639,104,Consumer,No
783,2645,109,Consumer,No
784,2652,106,Consumer,No
785,2655,100,Consumer,Yes
786,2664,100,Small Business,No
787,2673,103,Home Office,No
788,2675,101,Small Business,No
789,2678,100,Small Business,No
790,2681,103,Corporate,No
791,2690,103,Home Office,No
792,2694,107,Home Office,No
793,2696,100,Home Office,No
794,2698,104,Home Office,No
795,2700,105,Small Business,No
796,2701,104,Small Business,No
797,2702,101,Small Business,No
798,2704,105,Consumer,No
799,2706,104,Consumer,No
800,2708,102,Consumer,No
801,2709,106,Consumer,No
802,2710,100,Consumer,No
803,2714,107,Corporate,Yes
804,2717,106,Consumer,No
805,2720,104,Small Business,Yes
806,2721,100,Corporate,No
807,2725,104,Home Office,No
808,2729,104,Consumer,No
809,2733,103,Small Business,No
810,2735,104,Small Business,No
811,2736,103,Small Business,No
812,2737,100,Small Business,No
813,2747,103,Corporate,Yes
814,2749,106,Small Business,No
815,2750,105,Small Business,No
816,2752,106,Consumer,No
817,2754,103,Consumer,No
818,2761,108,Corporate,No
819,2762,100,Corporate,No
820,2763,105,Corporate,No
821,2766,104,Corporate,No
822,2770,104,Corporate,No
823,2773,100,Corporate,No
824,2775,101,Consumer,No
825,2778,106,Consumer,No
826,2779,101,Corporate,No
827,2780,108,Corporate,No
828,2783,108,Corporate,No
829,2787,101,Consumer,No
830,2788,106,Consumer,No
831,2790,102,Corporate,Yes
832,2796,103,Corporate,No
833,2808,101,Small Business,No
834,2809,106,Small Business,No
835,2812,100,Corporate,No
836,2819,103,Home Office,No
837,2823,103,Corporate,No
838,2825,104,Consumer,No
839,2828,100,Corporate,No
840,2830,105,Home Office,No
841,2837,108,Home Office,No
842,2838,106,Home Office,No
843,2842,101,Corporate,Yes
844,2846,101,Corporate,No
845,2851,105,Consumer,No
846,2854,109,Consumer,No
847,2856,108,Consumer,No
848,2864,101,Corporate,No
849,2865,109,Corporate,Yes
850,2867,100,Corporate,No
851,2870,101,Corporate,No
852,2876,104,Consumer,No
853,2880,104,Small Business,No
854,2881,103,Small Business,No
855,2882,107,Consumer,No
856,2883,105,Consumer,No
857,2884,101,Consumer,No
858,2887,108,Consumer,No
859,2890,106,Corporate,Yes
860,2891,105,Corporate,No
861,2896,100,Home Office,Yes
862,2897,103,Home Office,No
863,2900,103,Home Office,No
864,2901,104,Home Office,No
865,2905,107,Home Office,No
866,2907,100,Home Office,No
867,2911,107,Home Office,No
868,2913,104,Home Office,No
869,2915,100,Home Office,Yes
870,2916,107,Home Office,No
871,2918,107,Home Office,Yes
872,2926,103,Corporate,No
873,2927,100,Consumer,No
874,2930,104,Small Business,No
875,2934,104,Corporate,No
876,2940,108,Small Business,Yes
877,2942,108,Small Business,Yes
878,2947,106,Consumer,No
879,2955,109,Consumer,No
880,2968,107,Small Business,No
881,2969,100,Small Business,No
882,2970,107,Small Business,No
883,2973,101,Home Office,No
884,2985,101,Corporate,No
885,2998,102,Corporate,No
886,3000,105,Consumer,No
887,3008,108,Home Office,No
888,3009,106,Home Office,No
889,3010,102,Corporate,No
890,3013,101,Corporate,No
891,3019,100,Corporate,No
892,3020,109,Corporate,No
893,3022,106,Corporate,No
894,3025,108,Home Office,No
895,3027,108,Consumer,No
896,3029,108,Small Business,No
897,3030,109,Small Business,No
898,3035,101,Home Office,No
899,3049,107,Corporate,No
900,3050,105,Corporate,No
901,3060,100,Small Business,Yes
902,3064,100,Consumer,No
903,3069,107,Consumer,No
904,3072,104,Corporate,No
905,3076,101,Small Business,No
906,3077,100,Small Business,No
907,3078,101,Small Business,Yes
908,3079,100,Small Business,Yes
909,3083,102,Small Business,No
910,3094,107,Consumer,Yes
911,3098,108,Consumer,No
912,3100,104,Consumer,No
913,3103,104,Home Office,No
914,3106,104,Home Office,Yes
915,3109,103,Small Business,No
916,3110,102,Small Business,No
917,3114,101,Corporate,No
918,3118,100,Corporate,No
919,3124,108,Home Office,No
920,3135,107,Corporate,No
921,3138,101,Corporate,No
922,3139,104,Home Office,No
923,3142,101,Consumer,No
924,3143,105,Consumer,No
925,3149,105,Corporate,No
926,3156,104,Consumer,No
927,3159,106,Corporate,No
928,3160,104,Corporate,No
929,3162,109,Corporate,No
930,3166,107,Small Business,No
931,3167,105,Corporate,No
932,3168,105,Small Business,No
933,3172,105,Home Office,No
934,3174,107,Home Office,No
935,3177,109,Consumer,No
936,3180,100,Corporate,No
937,3183,106,Home Office,No
938,3187,101,Small Business,No
939,3188,109,Consumer,No
940,3191,102,Corporate,No
941,3192,100,Corporate,No
942,3195,103,Consumer,No
943,3197,100,Home Office,Yes
944,3200,100,Consumer,No
945,3221,106,Corporate,No
946,3222,103,Corporate,No
947,3231,101,Small Business,No
948,3233,101,Consumer,No
949,3235,104,Home Office,No
950,3241,107,Small Business,No
951,3242,103,Small Business,No
952,3245,106,Small Business,No
953,3246,100,Small Business,Yes
954,3249,101,Corporate,No
955,3251,107,Corporate,Yes
956,3255,105,Home Office,No
957,3258,102,Consumer,No
958,3259,104,Consumer,No
959,3261,107,Consumer,Yes
960,3264,106,Corporate,No
961,3265,104,Corporate,No
962,3267,100,Corporate,No
963,3269,108,Corporate,No
964,3270,106,Corporate,No
965,3272,105,Home Office,No
966,3279,107,Home Office,No
967,3283,105,Corporate,No
968,3290,106,Corporate,No
969,3293,104,Corporate,No
970,3294,106,Corporate,Yes
971,3295,108,Corporate,No
972,3299,105,Consumer,No
973,3300,100,Consumer,No
974,3302,101,Home Office,No
975,3303,105,Home Office,No
976,3307,103,Small Business,No
977,3309,105,Small Business,No
978,3311,100,Small Business,No
979,3316,101,Small Business,No
980,3324,101,Consumer,No
981,3328,106,Small Business,No
982,3330,101,Corporate,No
983,3331,100,Corporate,No
984,3335,100,Home Office,No
985,3340,100,Consumer,Yes
986,3343,101,Home Office,No
987,3345,101,Home Office,No
988,3348,107,Consumer,No
989,3350,103,Small Business,No
990,3352,107,Small Business,Yes
991,3356,104,Corporate,No
992,3360,101,Home Office,Yes
993,3363,105,Consumer,No
994,3376,108,Home Office,No
995,3378,108,Corporate,Yes
996,3382,104,Corporate,No
997,3389,106,Corporate,No
998,3394,101,Consumer,No
999,3398,109,Corporate,No
