,Artist,Year Inducted,Years Waited,# of Years Nominated,Inducted By,Influenced,Certified Units (Millions),Albums in RS500,Top 100 Singles,Highest Position
0,The Cars,2018.0,14,3,Brandon Flowers,17,23.5,1,18,3
1,Dire Straits,2018.0,14,1,(self-inducted),19,15.5,1,7,1
2,Pearl Jam,2017.0,0,1,David Letterman,18,31.5,2,16,2
3,Cheap Trick,2016.0,13,1,Kid Rock,131,9.0,2,16,1
4,Steve Miller,2016.0,22,1,The Black Keys,11,25.5,1,20,1
5,Green Day,2015.0,0,1,Fall Out Boy,28,24.0,2,8,2
6,Cat Stevens,2014.0,22,2,Art Garfunkel,21,15.5,1,14,6
7,KISS,2014.0,14,2,Tom Morello,128,21.0,2,26,7
8,Linda Ronstadt,2014.0,19,1,Glenn Frey,15,30.0,1,34,1
9,Nirvana,2014.0,0,1,Michael Stipe,204,25.0,3,4,6
10,Peter Gabriel,2014.0,11,1,Chris Martin,20,10.0,1,11,1
11,Albert King,2013.0,25,1,John Mayer,11,0.0,1,2,67
12,Public Enemy,2013.0,0,1,Spike Lee and Harry Belafonte,41,4.5,2,2,33
13,Randy Newman,2013.0,22,2,Don Henley,13,0.5,3,3,2
14,Guns N' Roses,2012.0,0,1,Green Day,26,44.5,1,13,1
15,Red Hot Chili Peppers,2012.0,2,2,Chris Rock,23,25.0,2,13,2
16,Alice Cooper,2011.0,16,1,Rob Zombie,20,8.0,1,21,7
17,Dr. John,2011.0,17,1,John Legend,18,0.0,2,4,9
18,Neil Diamond,2011.0,22,1,Paul Simon,14,49.5,1,55,1
19,ABBA,2010.0,11,2,Barry and Robin Gibb,19,10.5,1,20,1
20,Metallica,2009.0,1,1,Flea,180,63.0,2,16,10
21,Run DMC,2009.0,0,1,Eminem,126,6.0,2,5,4
22,Madonna,2008.0,0,1,Justin Timberlake,145,64.5,3,55,1
23,Patti Smith,2007.0,6,7,Zack de la Rocha,21,0.0,1,2,13
24,R.E.M.,2007.0,0,1,Eddie Vedder,188,20.0,3,22,4
25,The Ronettes,2007.0,18,1,Keith Richards,15,0.0,1,8,2
26,Van Halen,2007.0,3,1,Velvet Revolver,19,56.5,1,23,1
27,Black Sabbath,2006.0,10,8,Lars Ulrich and James Hetfield,276,15.0,3,2,52
28,Blondie,2006.0,4,1,Shirley Manson,129,5.0,1,14,1
29,Lynyrd Skynyrd,2006.0,9,7,Kid Rock,17,28.5,1,7,8
30,The O'Jays,2005.0,14,2,Justin Timberlake,12,7.0,1,29,1
31,The Pretenders,2005.0,0,1,Neil Young,21,4.0,1,10,5
32,U2,2005.0,0,1,Bruce Springsteen,155,52.0,5,32,1
33,George Harrison,2004.0,10,1,Tom Petty and Jeff Lynne,17,10.5,1,17,1
34,Jackson Browne,2004.0,6,2,Bruce Springsteen,14,18.5,3,17,7
35,Prince,2004.0,0,1,OutKast and Alicia Keys,228,36.5,4,49,1
36,ZZ Top,2004.0,8,1,Keith Richards,16,25.0,2,17,8
37,AC/DC,2003.0,2,3,Steven Tyler,121,72.0,2,7,23
38,The Clash,2003.0,0,1,The Edge and Tom Morello,273,5.0,3,4,8
39,Elvis Costello & the Attractions,2003.0,0,1,Elton John,153,3.5,4,3,19
40,The Police,2003.0,0,1,Gwen Stefani,25,22.0,4,13,1
41,Ramones,2002.0,0,1,Eddie Vedder,258,1.0,2,3,66
42,Talking Heads,2002.0,0,1,Anthony Kiedis,142,7.0,4,8,9
43,Aerosmith,2001.0,2,2,Kid Rock,24,66.5,2,30,1
44,Michael Jackson,2001.0,3,1,N Sync,176,84.0,3,49,1
45,Paul Simon,2001.0,10,1,Marc Anthony,24,13.5,2,18,1
46,Queen,2001.0,2,2,Dave Grohl and Taylor Hawkins,71,34.5,1,27,1
47,Steely Dan,2001.0,3,3,Moby,34,11.0,3,15,4
48,Bonnie Raitt,2000.0,3,1,Melissa Etheridge,19,17.0,2,11,5
49,Eric Clapton,2000.0,4,1,Robbie Robertson,20,40.0,3,24,1
50,James Taylor,2000.0,6,1,Paul McCartney,24,33.0,1,21,1
51,Billy Joel,1999.0,2,2,Ray Charles,16,82.5,2,42,1
52,Bruce Springsteen,1999.0,0,1,Bono,132,65.5,8,28,2
53,Curtis Mayfield,1999.0,3,1,Puff Daddy,121,1.5,1,9,4
54,Dusty Springfield,1999.0,9,2,Elton John,24,0.0,1,19,2
55,Paul McCartney,1999.0,6,1,Neil Young,15,25.5,1,48,1
56,The Eagles,1998.0,0,1,Jimmy Buffett,17,120.0,2,21,1
57,Fleetwood Mac,1998.0,4,1,Sheryl Crow,37,54.5,2,25,1
58,The Mamas and the Papas,1998.0,6,2,Shania Twain,12,2.5,1,16,1
59,Santana,1998.0,3,1,John Popper,13,43.5,2,26,1
60,Buffalo Springfield,1997.0,4,4,Tom Petty,16,1.0,1,5,7
61,Joni Mitchell,1997.0,3,3,Shawn Colvin,252,7.0,2,10,7
62,David Bowie,1996.0,4,2,Madonna and David Byrne,432,9.5,5,27,1
63,Jefferson Airplane,1996.0,4,2,Mickey Hart and Phil Lesh,18,3.5,2,8,5
64,Pink Floyd,1996.0,3,2,Billy Corgan,281,75.0,4,5,1
65,Al Green,1995.0,2,1,Natalie Cole,20,6.0,3,20,1
66,The Allman Brothers Band,1995.0,0,1,Willie Nelson,23,8.5,1,11,2
67,Frank Zappa,1995.0,3,3,Lou Reed,161,0.5,2,3,32
68,Janis Joplin,1995.0,0,1,Melissa Etheridge,18,17.5,3,8,1
69,Led Zeppelin,1995.0,0,1,Steven Tyler and Joe Perry,355,111.5,5,10,4
70,Neil Young,1995.0,0,1,Eddie Vedder,374,17.5,5,11,1
71,Elton John,1994.0,0,1,Axl Rose,22,78.0,5,68,1
72,The Grateful Dead,1994.0,1,2,Bruce Hornsby,57,18.5,4,6,9
73,John Lennon,1994.0,0,1,Paul McCartney,20,10.5,2,15,1
74,Rod Stewart,1994.0,4,2,Jeff Beck,11,38.0,1,51,1
75,Cream,1993.0,1,2,ZZ Top,139,4.5,3,5,5
76,Creedence Clearwater Revival,1993.0,0,1,Bruce Springsteen,19,28.0,2,20,2
77,The Doors,1993.0,0,1,Eddie Vedder,22,33.0,3,17,1
78,Van Morrison,1993.0,0,1,Robbie Robertson,24,10.0,2,11,9
79,"Bobby ""Blue"" Bland",1992.0,6,6,B.B. King,11,0.5,1,37,20
80,The Jimi Hendrix Experience,1992.0,0,1,Neil Young,371,23.0,3,7,20
81,Johnny Cash,1992.0,6,3,Lyle Lovett,194,23.5,2,48,2
82,The Yardbirds,1992.0,2,3,The Edge,142,0.0,2,9,6
83,The Byrds,1991.0,0,1,Don Henley,360,1.0,4,16,1
84,Ike and Tina Turner,1991.0,5,5,Phil Spector,15,0.5,1,20,4
85,The Impressions,1991.0,2,3,Tracy Chapman,15,0.0,1,38,4
86,The Kinks,1990.0,0,1,Graham Nash,384,2.0,3,23,6
87,Simon and Garfunkel,1990.0,0,1,James Taylor,15,38.5,3,18,1
88,The Who,1990.0,0,1,U2,278,21.0,7,26,9
89,Otis Redding,1989.0,2,1,Little Richard,140,3.0,3,25,1
90,The Rolling Stones,1989.0,0,1,Pete Townshend,557,66.5,10,57,1
91,Stevie Wonder,1989.0,1,1,Paul Simon,246,19.5,4,63,1
92,The Temptations,1989.0,2,1,Daryl Hall and John Oates,13,12.5,1,50,1
93,The Beach Boys,1988.0,0,1,Elton John,422,22.5,3,55,1
94,The Beatles,1988.0,0,1,Mick Jagger,1230,178.0,10,80,1
95,Bob Dylan,1988.0,0,1,Bruce Springsteen,669,36.0,11,23,2
96,The Drifters,1988.0,2,1,Billy Joel,13,0.0,1,36,1
97,The Supremes,1988.0,2,3,Little Richard,11,1.5,1,45,1
98,Aretha Franklin,1987.0,1,2,Keith Richards,140,10.0,2,76,1
99,Bo Diddley,1987.0,1,1,ZZ Top,17,0.0,1,5,20
100,Jackie Wilson,1987.0,1,2,Peter Wolf,16,0.0,1,53,4
101,Marvin Gaye,1987.0,1,2,Nick Ashford and Valerie Simpson,224,6.5,3,56,1
102,Smokey Robinson,1987.0,1,2,Daryl Hall and John Oates,18,1.0,1,43,1
103,Buddy Holly,1986.0,0,1,John Fogerty,139,1.0,2,11,1
104,Chuck Berry,1986.0,0,1,Keith Richards,228,0.5,1,27,1
105,Elvis Presley,1986.0,0,1,Julian and Sean Lennon,273,146.5,3,158,1
106,James Brown,1986.0,0,1,Steve Winwood,299,2.0,3,53,4
107,Jerry Lee Lewis,1986.0,0,1,Hank Williams Jr.,20,0.0,1,18,2
108,Little Richard,1986.0,0,1,Roberta Flack,19,0.0,1,21,6
109,Ray Charles,1986.0,0,1,Quincy Jones,153,7.5,3,75,1
110,Barry White,,21,0,,13,11.0,1,15,1
111,Bjork,,17,0,,123,2.5,1,2,84
112,Carole King,,35,1,,23,14.5,1,18,1
113,De La Soul,,6,0,,26,1.5,1,4,14
114,Depeche Mode,,13,2,,120,10.5,1,18,8
115,Eurythmics,,13,1,,16,6.5,1,15,1
116,George Michael,,7,0,,19,15.0,1,18,1
117,Jethro Tull,,26,0,,15,11.0,1,7,11
118,Los Lobos,,15,1,,7,2.0,1,3,1
119,Love,,28,0,,16,0.0,1,3,33
120,New Order,,13,0,,182,2.0,1,6,28
121,Nine Inch Nails,,5,2,,30,10.5,1,8,17
122,Smashing Pumpkins,,3,0,,15,19.75,1,8,12
123,T. Rex,,26,0,,149,0.0,1,4,10
124,The B-52's,,15,0,,12,6.5,1,8,3
125,The Carpenters,,25,0,,10,24.5,1,28,1
126,The Meters,,24,4,,14,0.0,2,7,23
127,War,,23,3,,13,5.5,1,16,2
128,Whitney Houston,,10,0,,35,58.5,1,44,1
129,Willie Nelson,,32,0,,19,31.5,2,10,5
