,Purchase ID,SN,Age,Gender,Item ID,Item Name,Price
0,390,Asur53,26,Male,75,Brutality Ivory Warmace,2.42
1,391,Alarap40,18,Male,20,Netherbane,3.27
2,392,Sida61,20,Female,181,Reaper's Toll,1.66
3,393,Hiarideu73,20,Male,54,Eternal Cleaver,2.5
4,394,Lassassasda30,12,Male,60,Wolf,3.54
5,395,Ennoncil86,17,Male,152,Darkheart,1.74
6,396,Siralsudeu54,20,Male,131,Fury,1.44
7,397,Eusri26,25,Male,100,Blindscythe,3.27
8,398,Ardcil81,34,Male,96,Blood-Forged Skeletal Spine,3.09
9,399,Marilsasya33,19,Male,143,Frenzied Scimitar,1.56
10,400,Ilarin91,22,Male,72,Winter's Bite,3.77
11,401,Lirtim36,15,Other / Non-Disclosed,46,Hopeless Ebon Dualblade,1.33
12,402,Heunadil74,23,Female,129,"Fate, Vengeance of Eternal Justice",1.54
13,403,Frichadar89,24,Male,162,Abyssal Shard,2.67
14,404,Chamirrasya33,21,Female,71,Demise,1.61
15,405,Aesurstilis64,25,Male,70,Hope's End,1.03
16,406,Idaidil28,15,Male,100,Blindscythe,3.27
17,407,Idai61,19,Male,131,Fury,1.44
18,408,Raesty92,12,Male,53,Vengeance Cleaver,2.05
19,409,Lisotesta51,15,Female,144,Blood Infused Guardian,1.94
20,410,Strithenu87,20,Male,99,"Expiration, Warscythe Of Lost Worlds",1.71
21,411,Lisico81,10,Male,101,Final Critic,4.19
22,412,Lisiriya82,32,Male,86,Stormfury Lantern,2.27
23,413,Siana77,12,Male,93,Apocalyptic Battlescythe,1.97
24,414,Marokian45,23,Male,108,"Extraction, Quickblade Of Trembling Hands",3.53
25,415,Sausosia74,22,Male,120,Agatha,3.08
26,416,Aestysu37,25,Male,13,Serenity,1.41
27,417,Pheodaisun84,30,Male,98,"Deadline, Voice Of Subtlety",2.89
28,418,Marim28,25,Female,125,Whistling Mithril Warblade,1.0
29,419,Iaralrgue74,33,Male,171,Scalpel,1.79
30,420,Assesi91,23,Male,129,"Fate, Vengeance of Eternal Justice",1.54
31,421,Yadaphos40,30,Male,26,Unholy Wand,1.12
32,422,Eusri70,24,Female,154,Feral Katana,4.4
33,423,Aisurria69,24,Male,10,Sleepwalker,1.79
34,424,Iarilis73,10,Male,149,"Tranquility, Razor of Black Magic",1.75
35,425,Raisty38,15,Male,20,Netherbane,3.27
36,426,Ilista82,23,Male,32,Orenmir,1.14
37,427,Leyirra83,24,Female,170,Shadowsteel,3.97
38,428,Aelly27,24,Male,14,Possessed Core,2.61
39,429,Aiduesu86,22,Female,179,"Wolf, Promise of the Moonwalker",4.48
40,430,Frichynde86,15,Male,164,Exiled Doomblade,1.63
41,431,Aelollo59,33,Male,172,Blade of the Grave,3.14
42,432,Hisridru55,18,Male,120,Agatha,3.08
43,433,Chamossa77,21,Male,156,Soul-Forged Steel Shortsword,1.77
44,434,Irillo49,20,Male,84,Arcane Gem,3.79
45,435,Lirtastsya71,21,Male,93,Apocalyptic Battlescythe,1.97
46,436,Umolrian85,32,Female,80,Dreamsong,3.39
47,437,Frichosiala98,24,Female,43,Foul Edge,3.54
48,438,Qilunan34,23,Male,145,Fiery Glass Crusader,4.58
49,439,Quarrion42,22,Male,59,"Lightning, Etcher of the King",4.23
50,440,Aisurdru79,29,Female,75,Brutality Ivory Warmace,2.42
51,441,Hiaral50,15,Male,156,Soul-Forged Steel Shortsword,1.77
52,442,Zontibe81,21,Male,84,Arcane Gem,3.79
53,443,Iarallo65,26,Male,149,"Tranquility, Razor of Black Magic",1.75
54,444,Sondassasya91,21,Female,24,Warped Fetish,3.81
55,445,Phaelap26,25,Female,150,Deathraze,2.85
56,446,Chanossast57,7,Female,119,"Stormbringer, Dark Blade of Ending Misery",4.32
57,447,Yalae81,22,Male,120,Agatha,3.08
58,448,Chanjask65,18,Female,68,"Storm-Weaver, Slayer of Inception",4.32
59,449,Ethralista69,13,Male,34,Retribution Axe,2.22
60,450,Sondistanya61,18,Female,35,Heartless Bone Dualblade,3.45
61,451,Eudanu32,15,Female,122,Unending Tyranny,2.85
62,452,Marilsasya33,19,Male,32,Orenmir,1.14
63,453,Euthe35,24,Male,70,Hope's End,1.03
64,454,Lassimla92,25,Male,1,Crucifer,3.26
65,455,Lisossala30,20,Male,103,Singed Scalpel,4.35
66,456,Phaena87,20,Male,124,Venom Claymore,1.29
67,457,Eulae84,25,Male,61,Ragnarok,3.87
68,458,Chamadarnya73,29,Male,166,Thirsty Iron Reaver,3.07
69,459,Eolan54,30,Male,129,"Fate, Vengeance of Eternal Justice",1.54
70,460,Assistasda90,25,Male,103,Singed Scalpel,4.35
71,461,Ennrian78,24,Male,168,"Sun Strike, Jaws of Twisted Visions",1.48
72,462,Undirrasta89,20,Male,144,Blood Infused Guardian,1.94
73,463,Frichadaran88,25,Male,48,"Rage, Legacy of the Lone Victor",2.48
74,464,Rianistast50,22,Male,178,"Oathbreaker, Last Hope of the Breaking Storm",4.23
75,465,Sondastsda82,24,Male,4,Bloodlord's Fetish,1.7
76,466,Undare39,23,Male,112,Worldbreaker,2.6
77,467,Adairialis76,16,Male,123,Twilight's Carver,2.28
78,468,Aesur96,23,Male,30,Stormcaller,2.21
79,469,Tyialisudeu65,24,Male,148,"Warmonger, Gift of Suffering's End",4.03
80,470,Arirgue63,29,Male,4,Bloodlord's Fetish,1.7
81,471,Sundadarla27,23,Male,122,Unending Tyranny,2.85
82,472,Lisopela58,22,Male,18,"Torchlight, Bond of Storms",4.65
83,473,Eyircil84,21,Male,25,Hero Cane,4.35
84,474,Ina92,31,Male,145,Fiery Glass Crusader,4.58
85,475,Lirtistanya48,24,Male,6,Rusty Skull,3.7
86,476,Marassa62,21,Male,103,Singed Scalpel,4.35
87,477,Mindossa76,41,Male,173,Stormfury Longsword,4.93
88,478,Sondim68,22,Female,35,Heartless Bone Dualblade,3.45
89,479,Chanjaskan89,21,Male,60,Wolf,3.54
90,480,Salilis27,40,Male,59,"Lightning, Etcher of the King",4.23
91,481,Sondossa69,7,Male,179,"Wolf, Promise of the Moonwalker",4.48
92,482,Sundjask71,32,Female,77,"Piety, Guardian of Riddles",4.0
93,483,Saistyphos30,35,Male,108,"Extraction, Quickblade Of Trembling Hands",3.53
94,484,Chanosian48,35,Other / Non-Disclosed,39,"Betrayal, Whisper of Grieving Widows",3.94
95,485,Errian63,26,Female,94,Mourning Blade,3.49
96,486,Eurithphos97,9,Male,53,Vengeance Cleaver,2.05
97,487,Raillydeu47,14,Male,93,Apocalyptic Battlescythe,1.97
98,488,Malon70,23,Male,44,Bonecarvin Battle Axe,2.38
99,489,Jiskimsda56,28,Male,32,Orenmir,1.14
100,490,Idastidru52,24,Male,148,"Warmonger, Gift of Suffering's End",4.03
101,491,Marughi89,22,Male,22,Amnesia,2.18
102,492,Ingatcil75,23,Male,143,Frenzied Scimitar,1.56
103,493,Chanirrasta87,14,Male,139,"Mercy, Katana of Dismay",4.94
104,494,Alaesu77,30,Male,3,Phantomlight,2.49
105,495,Ermol76,24,Male,97,"Swan Song, Gouger Of Terror",2.5
106,496,Tyeuduen32,23,Male,79,"Alpha, Oath of Zeal",4.05
107,497,Yadacal26,15,Male,52,Hatred,4.84
108,498,Firon67,35,Male,108,"Extraction, Quickblade Of Trembling Hands",3.53
109,499,Iadueria43,24,Male,99,"Expiration, Warscythe Of Lost Worlds",1.71
110,500,Pheulidil31,20,Male,100,Blindscythe,3.27
111,501,Eodairu79,32,Male,151,Severance,3.4
112,502,Frichocesta66,20,Male,16,Restored Bauble,3.55
113,503,Iaralsuir44,23,Male,59,"Lightning, Etcher of the King",4.23
114,504,Chamilsala65,23,Female,82,Nirvana,4.9
115,505,Thourdirra92,19,Male,110,Suspension,1.44
116,506,Chadista79,30,Male,25,Hero Cane,4.35
117,507,Chanastnya43,22,Male,29,"Chaos, Ender of the End",1.98
118,508,Iskim96,16,Male,7,"Thorn, Satchel of Dark Souls",1.33
119,509,Inguron55,23,Male,117,"Heartstriker, Legacy of the Light",1.79
120,510,Eulolis41,22,Male,162,Abyssal Shard,2.67
121,511,Lassilsala30,21,Male,64,Fusion Pummel,4.82
122,512,Sastydeu50,35,Male,169,"Interrogator, Blood Blade of the Queen",2.18
123,513,Ilaesudil92,25,Male,25,Hero Cane,4.35
124,514,Yasur85,21,Male,21,Souleater,1.1
125,515,Haillyrgue51,7,Male,40,Second Chance,2.52
126,516,Aidain51,39,Female,35,Heartless Bone Dualblade,3.45
127,517,Aerithnuphos61,39,Male,128,"Blazeguard, Reach of Eternity",4.91
128,518,Yalostiphos68,29,Male,160,Azurewrath,4.4
129,519,Eusri70,24,Female,140,Striker,2.94
130,520,Chamjask73,22,Female,109,"Downfall, Scalpel Of The Emperor",4.76
131,521,Phistym51,37,Male,50,Dawn,4.6
132,522,Meosridil82,18,Male,82,Nirvana,4.9
133,523,Aillyriadru65,24,Male,21,Souleater,1.1
134,524,Sally64,25,Female,46,Hopeless Ebon Dualblade,1.33
135,525,Lirtimst73,24,Male,126,Exiled Mithril Longsword,2.0
136,526,Ilosia37,23,Male,133,Faith's Scimitar,4.09
137,527,Lisim51,24,Male,102,Avenger,3.44
138,528,Isurria36,22,Female,19,"Pursuit, Cudgel of Necromancy",1.02
139,529,Silaera56,21,Male,142,Righteous Might,2.62
140,530,Leetirraya83,24,Male,5,Putrid Fan,4.08
141,531,Lirtirra81,12,Male,143,Frenzied Scimitar,1.56
142,532,Eryon48,16,Male,21,Souleater,1.1
143,533,Hada39,19,Male,48,"Rage, Legacy of the Lone Victor",2.48
144,534,Iana95,10,Male,146,Warped Iron Scimitar,3.1
145,535,Siralsudeu54,20,Male,155,War-Forged Gold Deflector,1.01
146,536,Siallylis44,20,Male,101,Final Critic,4.19
147,537,Sondassan80,25,Male,112,Worldbreaker,2.6
148,538,Chanadar44,25,Male,141,Persuasion,3.19
149,539,Eosurdru76,11,Male,117,"Heartstriker, Legacy of the Light",1.79
150,540,Shidai42,29,Male,7,"Thorn, Satchel of Dark Souls",1.33
151,541,Aesri53,31,Male,161,Devine,1.76
152,542,Syally44,17,Male,22,Amnesia,2.18
153,543,Idastidru52,24,Male,121,Massacre,1.6
154,544,Ardcil81,34,Male,3,Phantomlight,2.49
155,545,Jiskadarst60,16,Male,66,Victor Iron Spikes,4.4
156,546,Sondadar26,9,Male,159,"Oathbreaker, Spellblade of Trials",3.08
157,547,Malarrian73,18,Male,135,Warped Diamond Crusader,1.4
158,548,Yathecal82,20,Female,75,Brutality Ivory Warmace,2.42
159,549,Maluncil97,25,Other / Non-Disclosed,146,Warped Iron Scimitar,3.1
160,550,Ilunyon70,20,Male,60,Wolf,3.54
161,551,Iri67,20,Male,160,Azurewrath,4.4
162,552,Hiaral50,15,Male,155,War-Forged Gold Deflector,1.01
163,553,Yadam35,28,Male,2,Verdict,2.48
164,554,Dyally87,22,Male,63,Stormfury Mace,4.99
165,555,Pheosurllorin41,23,Female,7,"Thorn, Satchel of Dark Souls",1.33
166,556,Frichocesta66,20,Male,64,Fusion Pummel,4.82
167,557,Frichaya88,42,Male,8,"Purgatory, Gem of Regret",3.93
168,558,Lassadarsda57,25,Female,108,"Extraction, Quickblade Of Trembling Hands",3.53
169,559,Iasrira89,23,Male,34,Retribution Axe,2.22
170,560,Zontibe81,21,Male,2,Verdict,2.48
171,561,Chanastnya43,22,Male,35,Heartless Bone Dualblade,3.45
172,562,Marynde90,30,Male,83,Lifebender,3.33
173,563,Isri34,38,Male,142,Righteous Might,2.62
174,564,Chamjask73,22,Female,52,Hatred,4.84
175,565,Assastnya25,20,Male,179,"Wolf, Promise of the Moonwalker",4.48
176,566,Ardonmol96,20,Male,31,Trickster,1.55
177,567,Lassirrasda85,20,Male,102,Avenger,3.44
178,568,Syally44,17,Male,123,Twilight's Carver,2.28
179,569,Baelollodeu94,20,Female,87,"Deluge, Edge of the West",4.43
180,570,Chadossa56,20,Male,69,"Frenzy, Defender of the Harvest",1.98
181,571,Poshilsa82,16,Male,165,Bone Crushing Silver Skewer,4.86
182,572,Yoishirrala98,17,Female,145,Fiery Glass Crusader,4.58
183,573,Sundista37,26,Male,156,Soul-Forged Steel Shortsword,1.77
184,574,Undare39,23,Male,131,Fury,1.44
185,575,Sondadar26,9,Male,137,"Aetherius, Boon of the Blessed",3.39
186,576,Ilassa51,20,Male,34,Retribution Axe,2.22
187,577,Filurarn35,19,Male,128,"Blazeguard, Reach of Eternity",4.91
188,578,Aerithllora36,29,Female,153,Mercenary Sabre,3.74
189,579,Marilsa69,25,Female,12,Dawne,1.02
190,580,Tyida79,24,Male,178,"Oathbreaker, Last Hope of the Breaking Storm",4.23
191,581,Phaestycal84,23,Male,117,"Heartstriker, Legacy of the Light",1.79
192,582,Irilis75,20,Male,19,"Pursuit, Cudgel of Necromancy",1.02
193,583,Aeralstical35,20,Male,49,"The Oculus, Token of Lost Worlds",2.96
194,584,Aelin32,20,Male,115,Spectral Diamond Doomblade,2.04
195,585,Chanirrala39,22,Male,85,Malificent Bag,1.75
196,586,Chanirra79,23,Female,155,War-Forged Gold Deflector,1.01
197,587,Assirra56,22,Male,141,Persuasion,3.19
198,588,Lassadarsda57,25,Female,15,Soul Infused Crystal,2.96
199,589,Seolollo93,30,Male,106,Crying Steel Sickle,3.41
200,590,Iathem87,20,Male,141,Persuasion,3.19
201,591,Iasurriacal29,20,Male,113,Solitude's Reaver,4.07
202,592,Lisast98,22,Male,170,Shadowsteel,3.97
203,593,Lassimla92,25,Male,128,"Blazeguard, Reach of Eternity",4.91
204,594,Filrion59,27,Male,89,"Blazefury, Protector of Delusions",4.64
205,595,Yathedeu43,22,Male,55,Vindictive Glass Edge,2.27
206,596,Seudaillorap38,27,Male,146,Warped Iron Scimitar,3.1
207,597,Quinarap53,15,Male,86,Stormfury Lantern,2.27
208,598,Halaecal66,22,Male,111,Misery's End,4.89
209,599,Hiaral50,15,Male,13,Serenity,1.41
210,600,Iskosian40,16,Male,166,Thirsty Iron Reaver,3.07
211,601,Ilastilis78,11,Male,93,Apocalyptic Battlescythe,1.97
212,602,Seosrim97,20,Male,65,Conqueror Adamantite Mace,4.24
213,603,Lisosia93,25,Male,141,Persuasion,3.19
214,604,Lisim51,24,Male,34,Retribution Axe,2.22
215,605,Farrian71,18,Male,159,"Oathbreaker, Spellblade of Trials",3.08
216,606,Nitherian58,28,Male,123,Twilight's Carver,2.28
217,607,Rithe53,15,Female,80,Dreamsong,3.39
218,608,Leyirra83,24,Female,132,Persuasion,3.33
219,609,Lisosia93,25,Male,40,Second Chance,2.52
220,610,Frichossala54,7,Male,159,"Oathbreaker, Spellblade of Trials",3.08
221,611,Chamjaskya75,16,Male,176,Relentless Iron Skewer,2.84
222,612,Silaera56,21,Male,52,Hatred,4.84
223,613,Quanrion96,21,Female,159,"Oathbreaker, Spellblade of Trials",3.08
224,614,Chadadarla74,30,Male,65,Conqueror Adamantite Mace,4.24
225,615,Sida61,20,Female,72,Winter's Bite,3.77
226,616,Tyaelaelis94,20,Male,78,"Glimmer, Ender of the Moon",4.4
227,617,Chamimla85,16,Male,40,Second Chance,2.52
228,618,Aisurdru79,29,Female,183,Dragon's Greatsword,1.09
229,619,Quanenrian83,15,Male,55,Vindictive Glass Edge,2.27
230,620,Undosian34,21,Male,109,"Downfall, Scalpel Of The Emperor",4.76
231,621,Seosrim97,20,Male,26,Unholy Wand,1.12
232,622,Chanirra64,25,Male,129,"Fate, Vengeance of Eternal Justice",1.54
233,623,Iral74,21,Male,114,Yearning Mageblade,3.82
234,624,Marynde90,30,Male,29,"Chaos, Ender of the End",1.98
235,625,Yadaisuir65,20,Male,133,Faith's Scimitar,4.09
236,626,Syathecal44,16,Male,75,Brutality Ivory Warmace,2.42
237,627,Arin32,25,Male,178,"Oathbreaker, Last Hope of the Breaking Storm",4.23
238,628,Hada39,19,Male,167,"Malice, Legacy of the Queen",3.61
239,629,Maluncil97,25,Other / Non-Disclosed,107,"Splitter, Foe Of Subtlety",2.18
240,630,Aelaria33,23,Male,171,Scalpel,1.79
241,631,Assassa81,27,Male,137,"Aetherius, Boon of the Blessed",3.39
242,632,Filrion83,17,Male,160,Azurewrath,4.4
243,633,Chanastnya43,22,Male,80,Dreamsong,3.39
244,634,Eoral49,16,Male,103,Singed Scalpel,4.35
245,635,Ali84,29,Male,4,Bloodlord's Fetish,1.7
246,636,Chanirrala39,22,Male,78,"Glimmer, Ender of the Moon",4.4
247,637,Airi27,24,Other / Non-Disclosed,163,Thunderfury Scimitar,3.45
248,638,Eurisuru25,24,Male,22,Amnesia,2.18
249,639,Liawista80,27,Male,86,Stormfury Lantern,2.27
250,640,Sausosia74,22,Male,108,"Extraction, Quickblade Of Trembling Hands",3.53
251,641,Lisirra58,20,Female,49,"The Oculus, Token of Lost Worlds",2.96
252,642,Chamadarsda63,23,Male,127,"Heartseeker, Reaver of Souls",3.92
253,643,Haestyphos66,21,Male,93,Apocalyptic Battlescythe,1.97
254,644,Bartassaya73,26,Male,22,Amnesia,2.18
255,645,Phaedasurap84,17,Male,114,Yearning Mageblade,3.82
256,646,Mindimnya67,23,Male,116,Renewed Skeletal Katana,4.18
257,647,Chadjask85,24,Male,61,Ragnarok,3.87
258,648,Eustyria89,39,Male,150,Deathraze,2.85
259,649,Iskim66,15,Male,67,"Celeste, Incarnation of the Corrupted",3.46
260,650,Smaistysu35,30,Male,161,Devine,1.76
261,651,Lirtilsa72,24,Male,132,Persuasion,3.33
262,652,Pheosrinudeu70,20,Male,75,Brutality Ivory Warmace,2.42
263,653,Chamast86,32,Female,53,Vengeance Cleaver,2.05
264,654,Tyialisudeu65,24,Male,19,"Pursuit, Cudgel of Necromancy",1.02
265,655,Lirtassan78,15,Male,20,Netherbane,3.27
266,656,Ethrasyon38,26,Male,115,Spectral Diamond Doomblade,2.04
267,657,Silaera56,21,Male,19,"Pursuit, Cudgel of Necromancy",1.02
268,658,Quilassa66,7,Female,178,"Oathbreaker, Last Hope of the Breaking Storm",4.23
269,659,Lisassasda39,36,Male,140,Striker,2.94
270,660,Isri34,38,Male,103,Singed Scalpel,4.35
271,661,Strithenu87,20,Male,60,Wolf,3.54
272,662,Mindilsa60,21,Male,0,Splinter,1.28
273,663,Lalossa38,25,Male,72,Winter's Bite,3.77
274,664,Chamistast30,31,Male,47,"Alpha, Reach of Ending Hope",3.58
275,665,Hariphos58,17,Male,73,Ritual Mace,2.05
276,666,Assilsan72,20,Female,82,Nirvana,4.9
277,667,Inasuir29,40,Female,66,Victor Iron Spikes,4.4
278,668,Chanilsasda38,15,Male,40,Second Chance,2.52
279,669,Mindesi74,22,Male,45,Glinting Glass Edge,3.85
280,670,Aiduecal76,20,Male,120,Agatha,3.08
281,671,Caesrinusuir82,30,Male,152,Darkheart,1.74
282,672,Ililsan66,9,Male,122,Unending Tyranny,2.85
283,673,Idacal95,30,Male,130,Alpha,2.07
284,674,Aeral68,43,Male,77,"Piety, Guardian of Riddles",4.0
285,675,Lirtastsda29,16,Male,144,Blood Infused Guardian,1.94
286,676,Idastidru52,24,Male,111,Misery's End,4.89
287,677,Tyarithn67,27,Male,32,Orenmir,1.14
288,678,Rarallo90,33,Male,108,"Extraction, Quickblade Of Trembling Hands",3.53
289,679,Iarilis73,10,Male,153,Mercenary Sabre,3.74
290,680,Asty82,25,Male,96,Blood-Forged Skeletal Spine,3.09
291,681,Yalaeria91,33,Male,28,"Flux, Destroyer of Due Diligence",1.06
292,682,Lirtossa60,24,Male,135,Warped Diamond Crusader,1.4
293,683,Ialallo29,15,Female,145,Fiery Glass Crusader,4.58
294,684,Phaestycal84,23,Male,169,"Interrogator, Blood Blade of the Queen",2.18
295,685,Halaecal66,22,Male,34,Retribution Axe,2.22
296,686,Chadjask77,8,Male,147,"Hellreaver, Heirloom of Inception",4.93
297,687,Ealiril69,35,Male,78,"Glimmer, Ender of the Moon",4.4
298,688,Saistyphos30,35,Male,29,"Chaos, Ender of the End",1.98
299,689,Undjaskla97,33,Male,76,Haunted Bronzed Bludgeon,3.15
300,690,Idaidil28,15,Male,68,"Storm-Weaver, Slayer of Inception",4.32
301,691,Lirtistanya48,24,Male,112,Worldbreaker,2.6
302,692,Quaecjask96,9,Male,78,"Glimmer, Ender of the Moon",4.4
303,693,Firatan58,23,Male,88,"Emberling, Defender of Delusions",3.75
304,694,Mindesi74,22,Male,164,Exiled Doomblade,1.63
305,695,Lamil79,38,Male,111,Misery's End,4.89
306,696,Yarolwen77,30,Male,87,"Deluge, Edge of the West",4.43
307,697,Tyaelistidru84,19,Female,1,Crucifer,3.26
308,698,Yarithrin84,30,Female,58,"Freak's Bite, Favor of Holy Might",4.14
309,699,Tyaelly53,17,Female,130,Alpha,2.07
310,700,Chanosia60,31,Male,90,Betrayer,2.94
311,701,Phiristi62,25,Male,10,Sleepwalker,1.79
312,702,Ililsasya43,19,Male,12,Dawne,1.02
313,703,Aithelis62,21,Male,160,Azurewrath,4.4
314,704,Undotesta33,18,Male,95,Singed Onyx Warscythe,4.74
315,705,Aelidru27,22,Male,183,Dragon's Greatsword,1.09
316,706,Chanossanya44,20,Male,178,"Oathbreaker, Last Hope of the Breaking Storm",4.23
317,707,Maradarnya40,20,Male,38,"The Void, Vengeance of Dark Magic",2.37
318,708,Lirtastsya71,21,Male,67,"Celeste, Incarnation of the Corrupted",3.46
319,709,Lisast87,19,Male,75,Brutality Ivory Warmace,2.42
320,710,Lisossa25,22,Male,99,"Expiration, Warscythe Of Lost Worlds",1.71
321,711,Chadolyla44,20,Male,94,Mourning Blade,3.49
322,712,Lisilsa62,25,Male,92,Final Critic,4.88
323,713,Iasur80,22,Male,46,Hopeless Ebon Dualblade,1.33
324,714,Tyidaim51,16,Female,103,Singed Scalpel,4.35
325,715,Eusurdeu49,23,Male,8,"Purgatory, Gem of Regret",3.93
326,716,Saena89,23,Male,106,Crying Steel Sickle,3.41
327,717,Chanilsast61,30,Male,177,"Winterthorn, Defender of Shifting Worlds",2.08
328,718,Ilirrasda54,37,Male,20,Netherbane,3.27
329,719,Sundassa93,16,Male,158,"Darkheart, Butcher of the Champion",2.45
330,720,Aidai73,19,Male,159,"Oathbreaker, Spellblade of Trials",3.08
331,721,Indirrian56,20,Male,156,Soul-Forged Steel Shortsword,1.77
332,722,Ilarin91,22,Male,92,Final Critic,4.88
333,723,Lisista54,21,Male,177,"Winterthorn, Defender of Shifting Worlds",2.08
334,724,Lisassasta50,25,Male,144,Blood Infused Guardian,1.94
335,725,Malunil62,18,Male,72,Winter's Bite,3.77
336,726,Iduelis31,23,Male,21,Souleater,1.1
337,727,Yathecal82,20,Female,104,Gladiator's Glaive,1.93
338,728,Chanosiaya39,44,Male,93,Apocalyptic Battlescythe,1.97
339,729,Assylla81,20,Male,74,Yearning Crusher,4.18
340,730,Aidaira26,30,Male,178,"Oathbreaker, Last Hope of the Breaking Storm",4.23
341,731,Eudanu84,22,Female,12,Dawne,1.02
342,732,Eurithphos97,9,Male,97,"Swan Song, Gouger Of Terror",2.5
343,733,Chamiman85,20,Male,66,Victor Iron Spikes,4.4
344,734,Arin32,25,Male,165,Bone Crushing Silver Skewer,4.86
345,735,Leetirraya83,24,Male,54,Eternal Cleaver,2.5
346,736,Tyialisti80,23,Male,58,"Freak's Bite, Favor of Holy Might",4.14
347,737,Marundi65,22,Male,149,"Tranquility, Razor of Black Magic",1.75
348,738,Eusur90,36,Male,121,Massacre,1.6
349,739,Mindirranya33,35,Male,61,Ragnarok,3.87
350,740,Reunasu60,22,Female,127,"Heartseeker, Reaver of Souls",3.92
351,741,Phiallylis33,19,Male,145,Fiery Glass Crusader,4.58
352,742,Isty55,20,Male,5,Putrid Fan,4.08
353,743,Frichilsa31,15,Male,110,Suspension,1.44
354,744,Chanastst38,22,Male,94,Mourning Blade,3.49
355,745,Chanista95,39,Male,37,"Shadow Strike, Glory of Ending Hope",3.16
356,746,Aellyria80,23,Male,159,"Oathbreaker, Spellblade of Trials",3.08
357,747,Siarithria38,38,Other / Non-Disclosed,146,Warped Iron Scimitar,3.1
358,748,Rastynusuir31,20,Male,55,Vindictive Glass Edge,2.27
359,749,Chanossanya44,20,Male,53,Vengeance Cleaver,2.05
360,750,Iljask75,22,Male,167,"Malice, Legacy of the Queen",3.61
361,751,Lisjaskan36,11,Male,180,Stormcaller,3.36
362,752,Mindjasksya61,17,Male,112,Worldbreaker,2.6
363,753,Frichirranya75,36,Male,178,"Oathbreaker, Last Hope of the Breaking Storm",4.23
364,754,Pheosurllorin41,23,Female,79,"Alpha, Oath of Zeal",4.05
365,755,Raesty92,12,Male,76,Haunted Bronzed Bludgeon,3.15
366,756,Ilast79,20,Male,73,Ritual Mace,2.05
367,757,Eratiel90,18,Male,57,"Despair, Favor of Due Diligence",4.6
368,758,Iral74,21,Male,182,Toothpick,4.03
369,759,Tyaelorap29,25,Male,72,Winter's Bite,3.77
370,760,Aithelis62,21,Male,44,Bonecarvin Battle Axe,2.38
371,761,Assim27,45,Male,17,"Lazarus, Terror of the Earth",1.7
372,762,Asur53,26,Male,110,Suspension,1.44
373,763,Lassilsala30,21,Male,85,Malificent Bag,1.75
374,764,Saedaiphos46,18,Male,113,Solitude's Reaver,4.07
375,765,Irith83,18,Male,130,Alpha,2.07
376,766,Aelastirin39,23,Male,58,"Freak's Bite, Favor of Holy Might",4.14
377,767,Ilmol66,8,Female,92,Final Critic,4.88
378,768,Assassasta79,38,Male,92,Final Critic,4.88
379,769,Ilosian36,15,Male,145,Fiery Glass Crusader,4.58
380,770,Lirtosia63,34,Male,12,Dawne,1.02
381,771,Iskossasda43,16,Male,25,Hero Cane,4.35
382,772,Asur53,26,Male,136,Ghastly Adamantite Protector,3.58
383,773,Hala31,21,Male,19,"Pursuit, Cudgel of Necromancy",1.02
384,774,Jiskjask80,11,Male,101,Final Critic,4.19
385,775,Aethedru70,21,Female,60,Wolf,3.54
386,776,Iral74,21,Male,164,Exiled Doomblade,1.63
387,777,Yathecal72,20,Male,67,"Celeste, Incarnation of the Corrupted",3.46
388,778,Sisur91,7,Male,101,Final Critic,4.19
389,779,Ennrian78,24,Male,50,Dawn,4.6
