,emp_length
10+ years,746
2 years,304
5 years,277
4 years,267
< 1 year,260
10+ years,744
2 years,295
3 years,292
< 1 year,268
5 years,242
4 years,241
6 years,219
1 year,215
7 years,146
8 years,114
9 years,96
10+ years,813
2 years,283
< 1 year,266
3 years,264
4 years,262
5 years,245
1 year,219
6 years,197
7 years,141
8 years,114
9 years,78
10+ years,766
3 years,309
2 years,286
< 1 year,284
5 years,260
4 years,251
1 year,219
6 years,178
7 years,157
8 years,109
9 years,80
10+ years,764
2 years,284
< 1 year,282
3 years,277
5 years,272
4 years,257
1 year,216
6 years,176
7 years,137
8 years,122
9 years,106
10+ years,706
3 years,317
< 1 year,304
2 years,292
4 years,271
5 years,264
1 year,216
6 years,193
7 years,134
8 years,114
9 years,98
10+ years,661
3 years,327
2 years,302
4 years,291
< 1 year,290
5 years,251
1 year,235
6 years,178
7 years,148
8 years,106
9 years,105
10+ years,644
< 1 year,460
3 years,347
2 years,301
5 years,262
4 years,255
1 year,174
6 years,150
7 years,116
8 years,113
9 years,84
10+ years,695
3 years,356
2 years,346
< 1 year,323
5 years,262
4 years,251
1 year,222
6 years,153
7 years,126
8 years,101
9 years,75
10+ years,657
2 years,387
3 years,348
4 years,299
< 1 year,287
5 years,267
1 year,185
6 years,140
7 years,132
8 years,117
9 years,99
10+ years,582
2 years,409
3 years,368
< 1 year,303
5 years,274
4 years,263
1 year,233
6 years,132
9 years,123
7 years,122
8 years,113
< 1 year,548
10+ years,487
2 years,394
1 year,354
3 years,297
4 years,253
5 years,198
6 years,126
9 years,123
7 years,115
8 years,105
< 1 year,531
10+ years,501
1 year,439
2 years,414
3 years,286
4 years,228
5 years,174
6 years,136
8 years,110
7 years,106
9 years,75
10+ years,542
< 1 year,507
2 years,378
1 year,349
3 years,288
4 years,226
5 years,186
6 years,161
8 years,128
7 years,112
9 years,88
< 1 year,149
1 year,105
2 years,68
10+ years,61
3 years,42
4 years,34
5 years,24
6 years,18
7 years,13
9 years,12
8 years,10
