,air_store_id,dow
0,air_00a91d42b08b08d9,6
1,air_0164b9927d20bcc3,6
2,air_0241aa3964b7f861,6
3,air_0328696196e46f18,6
4,air_034a3d5b40d5b1b1,6
5,air_036d4f1ee7285390,6
6,air_0382c794b73b51ad,6
7,air_03963426c9312048,6
8,air_04341b588bde96cd,6
9,air_049f6d5b402a31b2,6
10,air_04cae7c1bc9b2a0b,6
11,air_0585011fa179bcce,6
12,air_05c325d315cc17f5,6
13,air_0647f17b4dc041c8,6
14,air_064e203265ee5753,6
15,air_066f0221b8a4d533,6
16,air_06f95ac5c33aca10,6
17,air_0728814bd98f7367,6
18,air_0768ab3910f7967f,6
19,air_07b314d83059c4d2,6
20,air_07bb665f9cdfbdfb,6
21,air_082908692355165e,6
22,air_083ddc520ea47e1e,6
23,air_0845d8395f30c6bb,6
24,air_084d98859256acf0,6
25,air_0867f7bebad6a649,6
26,air_08ba8cd01b3ba010,6
27,air_08cb3c4ee6cd6a22,6
28,air_08ef81d5b7a0d13f,6
29,air_08f994758a1e76d4,6
30,air_09040f6df960ddb8,6
31,air_0919d54f0c9a24b8,6
32,air_09661c0f3259cc04,6
33,air_09a845d5b5944b01,6
34,air_09fd1f5c58583141,6
35,air_0a74a5408a0b8642,6
36,air_0b184ec04c741a6a,6
37,air_0b1e72d2d4422b20,6
38,air_0b9038300f8b2b50,6
39,air_0e1eae99b8723bc1,6
40,air_0e7c11b9abc50163,6
41,air_0f0cdeee6c9bf3d7,6
42,air_0f2f96335f274801,6
43,air_0f60e1576a7d397d,6
44,air_1033310359ceeac1,6
45,air_10393f12e9069760,6
46,air_105a7954e32dba9b,6
47,air_10713fbf3071c361,6
48,air_10bbe8acd943d8f6,6
49,air_12c4fb7a423df20d,6
50,air_138ee734ac79ff90,6
51,air_138ff410757b845f,6
52,air_1408dd53f31a8a65,6
53,air_142e78ba7001da9c,6
54,air_1509881b22965b34,6
55,air_152c1f08d7d20e07,6
56,air_15ae33469e9ea2dd,6
57,air_15e6e15c7ea2c162,6
58,air_16179d43b6ee5fd8,6
59,air_1653a6c513865af3,6
60,air_168441ada3e878e1,6
61,air_16c4cfddeb2cf69b,6
62,air_16cf0a73233896de,6
63,air_1707a3f18bb0da07,6
64,air_17a6ab40f97fd4d8,6
65,air_17bed6dbf7c8b0fc,6
66,air_1979eaff8189d086,6
67,air_1ab60ce33bfed8a8,6
68,air_1ae94f514a0bce13,6
69,air_1ba4e87ef7422183,6
70,air_1c0b150f9e696a5f,6
71,air_1c95a84924d72500,6
72,air_1d1e8860ae04f8e9,6
73,air_1d25ca6c76df48b4,6
74,air_1d3f797dd1f7cf1c,6
75,air_1dd8f6f47480d1a2,6
76,air_1dea9815ccd36620,6
77,air_1e23210b584540e7,6
78,air_1e665503b8474c55,6
79,air_1eeff462acb24fb7,6
80,air_1f1390a8be2272b3,6
81,air_1f34e9beded2231a,6
82,air_1f7f8fa557bc0d55,6
83,air_2009041dbf9264de,6
84,air_20619d21192aa571,6
85,air_20add8092c9bb51d,6
86,air_2195cd5025a98033,6
87,air_21f5052d5330528d,6
88,air_220cba70c890b119,6
89,air_22682e965418936f,6
90,air_228f10bec0bda9c8,6
91,air_232dcee6f7c51d37,6
92,air_234d3dbf7f3d5a50,6
93,air_23e1b11aee2a1407,6
94,air_23ee674e91469086,6
95,air_24b9b2a020826ede,6
96,air_24e8414b9b07decb,6
97,air_2545dd3a00f265e2,6
98,air_256be208a979e023,6
99,air_2570ccb93badde68,6
100,air_258ad2619d7bff9a,6
101,air_258dc112912fc458,6
102,air_25c583983246b7b0,6
103,air_25d8e5cc57dd87d9,6
104,air_25e9888d30b386df,6
105,air_2634e41551e9807d,6
106,air_26c5bbeb7bb82bf1,6
107,air_26f10355d9b4d82a,6
108,air_275732a5db46f4d3,6
109,air_27e991812b0d9c92,6
110,air_28064154614b2e6c,6
111,air_287d2de7d3c93406,6
112,air_28a9fa1ec0839375,6
113,air_28dbe91c4c9656be,6
114,air_290e7a57b390f78e,6
115,air_298513175efdf261,6
116,air_2a184c1745274b2b,6
117,air_2a24aec099333f39,6
118,air_2a3743e37aab04b4,6
119,air_2a485b92210c98b5,6
120,air_2a7f14da7fe0f699,6
121,air_2aab19554f91ff82,6
122,air_2ac361b97630e2df,6
123,air_2b8b29ddfd35018e,6
124,air_2b9bc9f5f5168ea1,6
125,air_2bffb19a24d11729,6
126,air_2c505f9ad67d4635,6
127,air_2c6c79d597e48096,6
128,air_2c6fef1ce0e13a5a,6
129,air_2c989829acbd1c6b,6
130,air_2cee51fa6fdf6c0d,6
131,air_2d3afcb91762fe01,6
132,air_2d78d9a1f4dd02ca,6
133,air_2e7cb1f1a2a9cd6a,6
134,air_2f8ced25216df926,6
135,air_2fc149abe33adcb4,6
136,air_2fc478dc9f0a6b31,6
137,air_2fed81034f8834e5,6
138,air_303bac187b53083a,6
139,air_310e467e6e625004,6
140,air_3155ee23d92202da,6
141,air_31c753b48a657b6c,6
142,air_32460819c7600037,6
143,air_324f7c39a8410e7c,6
144,air_326ca454ef3558bc,6
145,air_32b02ba5dc2027f4,6
146,air_32c61b620a766138,6
147,air_32f5d7cd696e3c4a,6
148,air_33b01025210d6007,6
149,air_3440e0ea1b70a99b,6
150,air_346ade7d29230634,6
151,air_347be2c4feeb408b,6
152,air_349278fa964bb12f,6
153,air_3525f11ef0bf0c35,6
154,air_35512c42db0868da,6
155,air_3561fd1c0bce6a95,6
156,air_35c4732dcbfe31be,6
157,air_36429b5ca4407b3e,6
158,air_36bcf77d3382d36e,6
159,air_37189c92b6c761ec,6
160,air_375a5241615b5e22,6
161,air_382f5ace4e2247b8,6
162,air_383f5b2f8d345a49,6
163,air_38746ffe9aa20c7e,6
164,air_396166d47733d5c9,6
165,air_396942e6423a2145,6
166,air_397d3f32a7196aa2,6
167,air_3980af67be35afdb,6
168,air_3982a2c4ea2ed431,6
169,air_399904bdb7685ca0,6
170,air_39dccf7df20b1c6a,6
171,air_3a8a3f8fb5cd7f88,6
172,air_3aa839e8e0cb6c87,6
173,air_3ac24136722e2291,6
174,air_3b20733899b5287f,6
175,air_3b6438b125086430,6
176,air_3bb99a1fe0583897,6
177,air_3bd49f98ab7f36ab,6
178,air_3c05c8f26c611eb9,6
179,air_3c938075889fc059,6
180,air_3cad29d1a23209d2,6
181,air_3caef3f76b8f26c5,6
182,air_3d3a2b509180e798,6
183,air_3e6cea17a9d2c0f1,6
184,air_3e93f3c81008696d,6
185,air_3f91d592acd6cc0b,6
186,air_401b39f97e56b939,6
187,air_4043b7ccfbffa732,6
188,air_4092cfbd95a3ac1b,6
189,air_40953e2d8b4f2857,6
190,air_40f6193ea3ed1b91,6
191,air_414ff459ed18fa48,6
192,air_41bbf6e1d9814c4b,6
193,air_421670f21da5ba31,6
194,air_4254c3fc3ad078bd,6
195,air_42c9aa6d617c5057,6
196,air_42d41eb58cad170e,6
197,air_43b65e4b05bff2d3,6
198,air_43d577e0c9460e64,6
199,air_4433ab8e9999915f,6
200,air_4481a87c1d7c9896,6
201,air_452100f5305dde64,6
202,air_45326ebb8dc72cfb,6
203,air_4570f52104fe0982,6
204,air_4579cb0669fd411b,6
205,air_457efe8c3a30ea17,6
206,air_464a62de0d57be1e,6
207,air_465bddfed3353b23,6
208,air_47070be6093f123e,6
209,air_472b19e3b5bffa41,6
210,air_473cf23b9e7c0a37,6
211,air_473f98b212d37b4a,6
212,air_47beaffd3806c979,6
213,air_483eba479dc9910d,6
214,air_48e9fc98b62495a7,6
215,air_48f4da6223571da4,6
216,air_48ffd31594bc3263,6
217,air_49211568cab5fdee,6
218,air_4974785f48853db9,6
219,air_4b251b9f8373f1ae,6
220,air_4b380b4db9d37883,6
221,air_4b55d8aea1d2b395,6
222,air_4b9085d0d46a6211,6
223,air_4beac252540f865e,6
224,air_4c2ed28f3f19ca52,6
225,air_4c665a2bfff0da3b,6
226,air_4c727b55acdee495,6
227,air_4cab15ad29c0ffbc,6
228,air_4cab91146e3d1897,6
229,air_4cca5666eaf5c709,6
230,air_4ce7b17062a1bf73,6
231,air_4d21676ed11f0bac,6
232,air_4d71826793c09b22,6
233,air_4d90a22572fa1ec9,6
234,air_4de6d887a7b1c1fc,6
235,air_4dea8d17f6f59c56,6
236,air_4e1c38f68f435596,6
237,air_4f762e840b3996e1,6
238,air_4feeb8600f131e43,6
239,air_500641aca4cf673c,6
240,air_506fe758114df773,6
241,air_51281cd059d7b89b,6
242,air_51319e7acf0438cf,6
243,air_52a08ef3efdb4bb0,6
244,air_52e2a1fd42bc917a,6
245,air_536043fcf1a4f8a4,6
246,air_539d693f7317c62d,6
247,air_546b353cbea4a45b,6
248,air_5485912b44f976de,6
249,air_54d6c25d33f5260e,6
250,air_54ed43163b7596c4,6
251,air_55390f784018349a,6
252,air_55c3627912b9c849,6
253,air_55e11c33d4758131,6
254,air_56cd12f31a0afc04,6
255,air_56cebcbd6906e04c,6
256,air_56ea46c14b2dd967,6
257,air_57013002b912772b,6
258,air_573ecdf81b157d22,6
259,air_57c9eea1a2b66e65,6
260,air_57ed725a1930a5b9,6
261,air_5878b6f2a9da12c1,6
262,air_59cc9b2b209c6331,6
263,air_5a9a6cbeeb434c08,6
264,air_5acc13d655a6e8b2,6
265,air_5afb1cca48ceaa19,6
266,air_5b6d18c470bbfaf9,6
267,air_5b704df317ed1962,6
268,air_5bd22f9cc1426a90,6
269,air_5c65468938c07fa5,6
270,air_5c7489c9ec755e2d,6
271,air_5c817ef28f236bdf,6
272,air_5cb030b9f0b91537,6
273,air_5cfc537125d97f16,6
274,air_5d7c744c3a2ef624,6
275,air_5d945ade487cdf4d,6
276,air_5dea8a7a5bf5eb71,6
277,air_5e339a1f364cdb00,6
278,air_5e34c6fe6fabd10e,6
279,air_5e70fe82f9e4fab6,6
280,air_5e939e005bd34633,6
281,air_5ed3198e4a5eed0f,6
282,air_5f3a3ef4cba110a4,6
283,air_5f6fa1b897fe80d5,6
284,air_5fbda8e9302f7c13,6
285,air_602ca92c0db34f8f,6
286,air_609050e4e4f79ae1,6
287,air_60a7057184ec7ec7,6
288,air_60aa54ecbc602348,6
289,air_6108821ffafa9b72,6
290,air_614e2f7e76dff854,6
291,air_61668cc2b0778898,6
292,air_61b8d37c33617f21,6
293,air_61de73b097513f58,6
294,air_622375b4815cf5cb,6
295,air_627cabe2fe53f33f,6
296,air_629d9935273c82ae,6
297,air_629edf21ea38ac2d,6
298,air_632ba66e1f75aa28,6
299,air_638c35eb25e53eea,6
300,air_63a750d8b4b6a976,6
301,air_63a88d81295195ed,6
302,air_63b13c56b7201bd9,6
303,air_63e28ee0b0c955a7,6
304,air_640cf4835f0d9ba3,6
305,air_6411203a47b5ec77,6
306,air_645cb18b33f938cf,6
307,air_646b93e336f0dded,6
308,air_64a5d5c1381837af,6
309,air_64d4491ad8cdb1c6,6
310,air_650f9b9de0c5542c,6
311,air_657a0748462f85de,6
312,air_65e294f1ae6df9c3,6
313,air_6607fe3671242ce3,6
314,air_670a0c1c4108bcea,6
315,air_671b4bea84dafb67,6
316,air_673acd9fa5e0dd78,6
317,air_67483104fa38ef6c,6
318,air_675aa35cba456fd1,6
319,air_67f87c159d9e2ee2,6
320,air_68147db09287bf74,6
321,air_681b0c56328dd2af,6
322,air_681f96e6a6595f82,6
323,air_68301bcb11e2f389,6
324,air_683371d9baabf410,6
325,air_6836438b543ba698,6
326,air_6873982b9e19c7ad,6
327,air_68c1de82037d87e6,6
328,air_68cc910e7b307b09,6
329,air_68d075113f368946,6
330,air_6902e4ec305b3d08,6
331,air_694571ea13fb9e0e,6
332,air_6a15e4eae523189d,6
333,air_6b15edd1b4fbb96a,6
334,air_6b2268863b14a2af,6
335,air_6b65745d432fd77f,6
336,air_6b7678aae65d2d59,6
337,air_6b942d5ebbc759c2,6
338,air_6b9fa44a9cf504a1,6
339,air_6c1128955c58b690,6
340,air_6c91a28278a16f64,6
341,air_6c952e3c6e590945,6
342,air_6ca1d941c8199a67,6
343,air_6cbe54f0aa30b615,6
344,air_6ced51c24fb54262,6
345,air_6d64dba2edd4fc0c,6
346,air_6d65542aa43b598b,6
347,air_6d65dd11d96e00fb,6
348,air_6e06824d0934dd81,6
349,air_6e3fd96320d24324,6
350,air_6e64fb5821402cd2,6
351,air_6ff5fca957798daa,6
352,air_707d4b6328f2c2df,6
353,air_709262d948dd0b6e,6
354,air_70e9e8cd55879414,6
355,air_70f834596eb99fee,6
356,air_710d6537cb7623df,6
357,air_712dd258f7f91b4b,6
358,air_71903025d39a4571,6
359,air_722297e7f26db91d,6
360,air_728ff578acc6ac6e,6
361,air_72f5146cf0c49beb,6
362,air_735bcbe1763d6e98,6
363,air_73f316e6a18d8aa9,6
364,air_7420042ff75f9aca,6
365,air_746211c0b532e8aa,6
366,air_747f375eb3900e1e,6
367,air_74cf22153214064c,6
368,air_7514d90009613cd6,6
369,air_754ae581ad80cc9f,6
370,air_75864c80d2fb334a,6
371,air_75bd5d1b6dc6670d,6
372,air_764f71040a413d4d,6
373,air_77488fa378cf98c3,6
374,air_77dfc83450cbc89c,6
375,air_7831b00996701c0f,6
376,air_789103bf53b8096b,6
377,air_789466e488705c93,6
378,air_78df4dc6a7e83e41,6
379,air_79afb3f52b4d062c,6
380,air_79f528087f49df06,6
381,air_7a81bd7fadcbf3d8,6
382,air_7a946aada80376a4,6
383,air_7bacc4d36fb094c9,6
384,air_7bc6ca04d7b0f3b8,6
385,air_7bda6048a4a78837,6
386,air_7c7774c66fb237f7,6
387,air_7cc17a324ae5c7dc,6
388,air_7cf5a02c0e01b647,6
389,air_7d65049f9d275c0d,6
390,air_7dacea2f22afccfb,6
391,air_7db266904cb0d72a,6
392,air_7e12c5d27f44a8de,6
393,air_7ef9a5ea5c8fe39f,6
394,air_7f3dc18494bce98b,6
395,air_7f9e15afafcf4c75,6
396,air_7fbf7649eb13ad9b,6
397,air_800c02226e2e0288,6
398,air_8093d0b565e9dbdf,6
399,air_8110d68cc869b85e,6
400,air_81546875de9c8e78,6
401,air_81a12d67c22e012f,6
402,air_81bd68142db76f58,6
403,air_81c2600146d07d16,6
404,air_81c5dff692063446,6
405,air_820d1919cbecaa0a,6
406,air_82a6ae14151953ba,6
407,air_831658500aa7c846,6
408,air_832f9dbe9ee4ebd3,6
409,air_83db5aff8f50478e,6
410,air_84060403939d8216,6
411,air_848616680ef061bd,6
412,air_84f6876ff7e83ae7,6
413,air_8523d6a70de49e6c,6
414,air_859feab8e3c9f98d,6
415,air_85bd13a49370c392,6
416,air_86cfbf2624576fad,6
417,air_86f7b2109e4abd65,6
418,air_87059630ab6fe47f,6
419,air_87078cf7903a648c,6
420,air_87467487d21891dd,6
421,air_8764b3473ddcceaf,6
422,air_876d7a23c47811cb,6
423,air_877f79706adbfb06,6
424,air_87ca98aa7664de94,6
425,air_87f9e1024b951f01,6
426,air_883ca28ef0ed3d55,6
427,air_88c8e34baa79217b,6
428,air_88ca84051ba95339,6
429,air_88f31db64991768a,6
430,air_890d7e28e8eaaa11,6
431,air_89e7328af22efe74,6
432,air_8a1d21fad48374e8,6
433,air_8a59bb0c497b771e,6
434,air_8a906e5801eac81c,6
435,air_8b4a46dc521bfcfe,6
436,air_8c119d1f16049f20,6
437,air_8c3175aa5e4fc569,6
438,air_8cc350fd70ee0757,6
439,air_8ce035ee1d8a56a6,6
440,air_8d50c64692322dff,6
441,air_8d61f49aa0373492,6
442,air_8e429650fcf7a0ae,6
443,air_8e4360a64dbd4c50,6
444,air_8e492076a1179383,6
445,air_8e8f42f047537154,6
446,air_8ec47c0f1e2c879e,6
447,air_8f13ef0f5e8c64dd,6
448,air_8f273fb9ad2fed6f,6
449,air_8f3b563416efc6ad,6
450,air_900d755ebd2f7bbd,6
451,air_901925b628677c2e,6
452,air_90213bcae4afa274,6
453,air_90bd5de52c166767,6
454,air_90ed0a2f24755533,6
455,air_90f0efbb702d77b7,6
456,air_9105a29b0eb250d2,6
457,air_91236b89d29567af,6
458,air_9152d9926e5c4a3a,6
459,air_915558a55c2bc56c,6
460,air_91beafbba9382b0a,6
461,air_91d72e16c4bcba55,6
462,air_9241121af22ff1d6,6
463,air_929d8513e3cdb423,6
464,air_931a8a4321b6e7d1,6
465,air_9352c401d5adb01b,6
466,air_9387ff95e886ebc7,6
467,air_938ef91ecdde6878,6
468,air_939964477035ef0b,6
469,air_93b9bb641f8fc982,6
470,air_93dd7070c9bf5453,6
471,air_93ebe490d4abb8e9,6
472,air_9438d67241c81314,6
473,air_947eb2cae4f3e8f2,6
474,air_9483d65e9cc9a6b7,6
475,air_950381108f839348,6
476,air_95d28905941fd4cb,6
477,air_95e917913cd988f3,6
478,air_96005f79124e12bf,6
479,air_965b2e0cf4119003,6
480,air_96743eee94114261,6
481,air_96773a6236d279b1,6
482,air_968d72c12eed09f0,6
483,air_96929a799b12a43e,6
484,air_96ec3cfe78cb0652,6
485,air_97159fc4e90053fe,6
486,air_97958e7fce98b6a3,6
487,air_97b2a9f975fc702c,6
488,air_97cf68dc1a9beac0,6
489,air_97e0f2feec4d577a,6
490,air_9828505fefc77d75,6
491,air_98b54e32ccddd896,6
492,air_990a642a3deb2903,6
493,air_99157b6163835eec,6
494,air_99a5183695b849f9,6
495,air_99b01136f451fc0e,6
496,air_99c3eae84130c1cb,6
497,air_9a30407764f4ff84,6
498,air_9a6f6e7f623003d2,6
499,air_9aa32b3db0fab3a5,6
500,air_9aa92007e3628dbc,6
501,air_9ae7081cb77dc51e,6
502,air_9b13c7feb0a0c431,6
503,air_9b6af3db40da4ae2,6
504,air_9bbc673495e23532,6
505,air_9bf0ccac497c4af3,6
506,air_9bf595ef095572fb,6
507,air_9c6787aa03a45586,6
508,air_9ca2767761efff4d,6
509,air_9cd5e310f488bced,6
510,air_9cf2f1ba86229773,6
511,air_9d3482b4680aee88,6
512,air_9d452a881f7f2bb7,6
513,air_9d474ec2448c700d,6
514,air_9d5a980b211e1795,6
515,air_9d93d95720f2e831,6
516,air_9dc9483f717d73ee,6
517,air_9dd7d38b0f1760c4,6
518,air_9e920b758503ef54,6
519,air_9efaa7ded03c5a71,6
520,air_9f277fb7a2c1d842,6
521,air_9fc607777ad76b26,6
522,air_a083834e7ffe187e,6
523,air_a11473cc1eb9a27f,6
524,air_a17f0778617c76e2,6
525,air_a1fe8c588c8d2f30,6
526,air_a218912784bf767d,6
527,air_a21ffca0bea1661a,6
528,air_a239a44805932bab,6
529,air_a24bf50c3e90d583,6
530,air_a2567267116a3b75,6
531,air_a257c9749d8d0ff6,6
532,air_a271c9ba19e81d17,6
533,air_a2b29aa7feb4e36f,6
534,air_a304330715435390,6
535,air_a33461f4392ec62c,6
536,air_a373500730e2a9e0,6
537,air_a38f25e3399d1b25,6
538,air_a41b032371a63427,6
539,air_a49f1cf0634f13e5,6
540,air_a510dcfe979f09eb,6
541,air_a546cbf478a8b6e4,6
542,air_a55d17bd3f3033cb,6
543,air_a563896da3777078,6
544,air_a678e5b144ca24ce,6
545,air_a7404a854919e990,6
546,air_a8533b7a992bb0ca,6
547,air_a85f0c0c889f6b7e,6
548,air_a85f8c0bfd61889f,6
549,air_a88ac559064dec08,6
550,air_a9133955abccf071,6
551,air_a9178f19da58fe99,6
552,air_a9a380530c1e121f,6
553,air_aa0049fe3cc6f4d6,6
554,air_ab3ae0e410b20069,6
555,air_ab9746a0f83084b7,6
556,air_abcdc8115988a010,6
557,air_abf06fcca748dca5,6
558,air_ac7a7427c9ae12a5,6
559,air_ad13e71e21235131,6
560,air_ad60f6b76c9df7ed,6
561,air_ad7777590c884721,6
562,air_add9a575623726c8,6
563,air_ade6e836ffd1da64,6
564,air_aed3a8b49abe4a48,6
565,air_af03c277a167b2bd,6
566,air_af24e3e817dea1e5,6
567,air_af63df35857b16e6,6
568,air_b0a6a4c5e95c74cf,6
569,air_b162fb07fbbdea33,6
570,air_b192fb5310436005,6
571,air_b1a72bf1ebf4b8ef,6
572,air_b1bb1fae86617d7a,6
573,air_b1d822f75c9fc615,6
574,air_b2395df0e874078d,6
575,air_b23d0f519291247d,6
576,air_b259b4e4a51a690d,6
577,air_b28bed4b2e7167b7,6
578,air_b2a639cc7e02edf1,6
579,air_b2d97bd2337c5ba7,6
580,air_b2dcec37b83e2494,6
581,air_b30fffd7ab1e75a5,6
582,air_b3180b74332ba886,6
583,air_b3a824511477a4ed,6
584,air_b439391e72899756,6
585,air_b45b8e456f53942a,6
586,air_b4f32bcc399da2b9,6
587,air_b5598d12d1b84890,6
588,air_b5bdd318005d9aa4,6
589,air_b60cc7d6aee68194,6
590,air_b711b43ae472cb6b,6
591,air_b7fa3d2fca744dd2,6
592,air_b80fed1a07c817d2,6
593,air_b88192b35ac03c24,6
594,air_b8925441167c3152,6
595,air_b8a5ee69e5fdcc5b,6
596,air_b8d9e1624baaadc2,6
597,air_b9e27558fb8bd5c4,6
598,air_ba495cccc8f0f237,6
599,air_ba937bf13d40fb24,6
600,air_bac5f4441db21db9,6
601,air_baf28ac9f13a307d,6
602,air_bb09595bab7d5cfb,6
603,air_bb26d6d079594414,6
604,air_bb4ff06cd661ee9b,6
605,air_bbe1c1a47e09f161,6
606,air_bc991c51d6613745,6
607,air_bc9a129e11a2efe0,6
608,air_bcce1ea4350b7b72,6
609,air_bd74a9222edfdfe1,6
610,air_bdd32aa407c16335,6
611,air_bebd55ed63ab2422,6
612,air_bed603c423b7d9d4,6
613,air_bedd35489e666605,6
614,air_bf13014b6e3e60ca,6
615,air_bf21b8350771879b,6
616,air_bf617aa68d5f1cfa,6
617,air_bf7591560077332d,6
618,air_bfafaed35e213fd7,6
619,air_bfda7731a6c6fc61,6
620,air_c027e2b560442808,6
621,air_c0385db498b391e5,6
622,air_c1d5d165c055b866,6
623,air_c1ff20617c54fee7,6
624,air_c225148c0fcc5c72,6
625,air_c2626f5f86d57342,6
626,air_c26f027b5bc1f081,6
627,air_c28983412a7eefcf,6
628,air_c2c8435bdb3516d4,6
629,air_c31472d14e29cee8,6
630,air_c3585b0fba3998d0,6
631,air_c3bc011cca3bec65,6
632,air_c3dcaf3aeb18e20e,6
633,air_c47aa7493b15f297,6
634,air_c4fa5c562d5409ca,6
635,air_c52c63c781fe48f6,6
636,air_c5459218282bedd5,6
637,air_c66dbd2c37832d00,6
638,air_c6a164dd4060e960,6
639,air_c6aa2efba0ffc8eb,6
640,air_c6ffd6a93e6b68d6,6
641,air_c73d319ffabf287a,6
642,air_c759b6abeb552160,6
643,air_c77ee2b7d36da265,6
644,air_c7d30ab0e07f31d5,6
645,air_c7f78b4f3cba33ff,6
646,air_c8265ecc116f2284,6
647,air_c88467d88b2c8ecd,6
648,air_c8a657c8c5c93d69,6
649,air_c8c0ef02ed72053f,6
650,air_c8fe396d6c46275d,6
651,air_c92745dfdd2ec68a,6
652,air_c9ed65554b6edffb,6
653,air_c9f6de13be8b8f25,6
654,air_ca1315af9e073bd1,6
655,air_ca6ae8d49a2f1eaf,6
656,air_ca957d3a1529fbd3,6
657,air_cadf9cfb510a1d78,6
658,air_caf996ac27206301,6
659,air_cb25551c4cd8d9f3,6
660,air_cb7467aed805e7fe,6
661,air_cb935ff8610ba3d3,6
662,air_cbe139af83feb388,6
663,air_cbe867adcf44e14f,6
664,air_cc1a0e985ce63711,6
665,air_cc35590cd1da8554,6
666,air_ccd19a5bc5573ae5,6
667,air_cd4b301d5d3918d8,6
668,air_cd5f54969be9ed08,6
669,air_ced6297e5bdf5130,6
670,air_cf2229e64408d9fe,6
671,air_cf5ab75a0afb8af9,6
672,air_cfcc94797d2b5d3d,6
673,air_cfdeb326418194ff,6
674,air_d00161e19f08290b,6
675,air_d00a15343325e5f7,6
676,air_d07e57b21109304a,6
677,air_d0a1e69685259c92,6
678,air_d0e8a085d8dc83aa,6
679,air_d138b593ebda55cc,6
680,air_d1418d6fd6d634f2,6
681,air_d186b2cb0b9ce022,6
682,air_d1f20424f76cc78e,6
683,air_d34c0861a2be94cb,6
684,air_d3e7b5952cd09ccb,6
685,air_d44d210d2994f01b,6
686,air_d473620754bf9fc2,6
687,air_d477b6339b8ce69f,6
688,air_d4981cdde163b172,6
689,air_d4b5a4b04c5f2d04,6
690,air_d4d218b451f82c3d,6
691,air_d500b48a8735fbd3,6
692,air_d54d6fcb116fbed3,6
693,air_d5e0a20370c325c7,6
694,air_d69b08a175bc0387,6
695,air_d6b3e67261f07646,6
696,air_d8abb9e490abf94f,6
697,air_d97dabf7aae60da5,6
698,air_d98380a4aeb0290b,6
699,air_daa7947e1c47f5ed,6
700,air_dabfbd0ec951925a,6
701,air_dad0b6a36138f309,6
702,air_db1233ad855b34d5,6
703,air_db4b38ebe7a7ceff,6
704,air_db80363d35f10926,6
705,air_dbf64f1ce38c7442,6
706,air_dc0e080ba0a5e5af,6
707,air_dc71c6cc06cd1aa2,6
708,air_de692863bb2dd758,6
709,air_de803f7e324936b8,6
710,air_de88770300008624,6
711,air_dea0655f96947922,6
712,air_df507aec929ce5f6,6
713,air_df554c4527a1cfe6,6
714,air_df5cf5cd03eb68d0,6
715,air_df843e6b22e8d540,6
716,air_df9355c47c5df9d3,6
717,air_dfad598ff642dab7,6
718,air_dfe068a1bf85f395,6
719,air_e00fe7853c0100d6,6
720,air_e0118664da63a2d0,6
721,air_e01d99390355408d,6
722,air_e053c561f32acc28,6
723,air_e08b9cf82057a170,6
724,air_e0aee25b56a069f2,6
725,air_e0e69668214ff972,6
726,air_e0f241bd406810c0,6
727,air_e1b76fcb5208fb6b,6
728,air_e2208a79e2678432,6
729,air_e270aff84ac7e4c8,6
730,air_e3020992d5fe5dfd,6
731,air_e34c631c766f2766,6
732,air_e42bdc3377d1eee7,6
733,air_e483f5b3c4f310e0,6
734,air_e524c6a9e06cc3a1,6
735,air_e55abd740f93ecc4,6
736,air_e57dd6884595f60d,6
737,air_e58f669b6f1a08ce,6
738,air_e5cf003abcc5febb,6
739,air_e64de0a6bf0739af,6
740,air_e657ca554b0c008c,6
741,air_e700e390226d9985,6
742,air_e76a668009c5dabc,6
743,air_e7d2ac6d53d1b744,6
744,air_e7fbee4e3cfe65c5,6
745,air_e88bbe2ede3467aa,6
746,air_e89735e80d614a7e,6
747,air_e8ed9335d0c38333,6
748,air_e9ebf7fc520ac76a,6
749,air_ea6d0c3acf00b22a,6
750,air_ea7c16131980c837,6
751,air_eb120e6d384a17a8,6
752,air_eb20a89bba7dd3d0,6
753,air_eb2d2653586315dd,6
754,air_eb5788dba285e725,6
755,air_ebd31e812960f517,6
756,air_ebe02c3090271fa9,6
757,air_ec0fad2def4dcff0,6
758,air_eca4a5a191e8d993,6
759,air_eca5e0064dc9314a,6
760,air_ecab54b57a71b10d,6
761,air_eceb97ad6a7d4c07,6
762,air_ecf7f141339f1d57,6
763,air_eda179770dfa9f91,6
764,air_edd5e3d696a5811b,6
765,air_ee3a01f0c71a769f,6
766,air_ee3ba9af184c6c82,6
767,air_eec5e572b9eb9c23,6
768,air_eeeadee005c006a2,6
769,air_ef47430bcd6f6a89,6
770,air_ef789667e2e6fe96,6
771,air_ef920fa6f4b085f6,6
772,air_efc80d3f96b3aff7,6
773,air_efd70b04de878f25,6
774,air_efef1e3daecce07e,6
775,air_f068442ebb6c246c,6
776,air_f0c7272956e62f12,6
777,air_f0fb0975bdc2cdf9,6
778,air_f1094dbf2aef85d9,6
779,air_f180301886c21375,6
780,air_f183a514cb8ff4fa,6
781,air_f1f9027d4fa8f653,6
782,air_f267dd70a6a6b5d3,6
783,air_f26f36ec4dc5adb0,6
784,air_f2985de32bb792e0,6
785,air_f2c5a1f24279c531,6
786,air_f3602e4fa2f12993,6
787,air_f3f9824b7d70c3cf,6
788,air_f4936b91c9addbf0,6
789,air_f593fa60ac3541e2,6
790,air_f690c42545146e0a,6
791,air_f6b2489ccf873c3b,6
792,air_f6bfd27e2e174d16,6
793,air_f6cdaf7b7fdc6d78,6
794,air_f8233ad00755c35c,6
795,air_f85e21e543cf44f2,6
796,air_f88898cd09f40496,6
797,air_f911308e19d64236,6
798,air_f9168b23fdfc1e52,6
799,air_f927b2da69a82341,6
800,air_f957c6d6467d4d90,6
801,air_f96765e800907c77,6
802,air_fa12b40b02fecfd8,6
803,air_fa4ffc9057812fa2,6
804,air_fab092c35776a9b1,6
805,air_fb44f566d4f64a4e,6
806,air_fbadf737162a5ce3,6
807,air_fc477473134e9ae5,6
808,air_fcd4492c83f1c6b9,6
809,air_fcfbdcf7b1f82c6e,6
810,air_fd154088b1de6fa7,6
811,air_fd6aac1043520e83,6
812,air_fdc02ec4a3d21ea4,6
813,air_fdcfef8bd859f650,6
814,air_fe22ef5a9cbef123,6
815,air_fe58c074ec1445ea,6
816,air_fea5dc9594450608,6
817,air_fee8dcf4d619598e,6
818,air_fef9ccb3ba0da2f7,6
819,air_ffcc2d5087e1b476,6
820,air_fff68b929994bfbd,6
