,city,date,fare,ride_id
1187,Leahton,2018-02-28 20:02:59,31.01,2116500207936
1188,Johnton,2018-04-11 14:40:12,16.63,7248459450448
1189,Port David,2018-01-21 02:29:36,32.92,857956984195
1190,New Kimberlyborough,2018-04-01 04:31:44,35.11,8275820093507
1191,Port Frank,2018-02-26 05:03:19,25.18,7280804922163
1192,Barajasview,2018-01-24 05:58:33,9.21,1841073494391
1193,South Phillip,2018-04-21 10:31:27,32.85,2752328490329
1194,North Jasmine,2018-04-03 13:15:16,19.66,9206122228723
1195,New Kimberlyborough,2018-03-13 09:48:42,14.84,1839171122889
1196,North Jasmine,2018-01-05 16:39:33,26.72,3669060555225
1197,Reynoldsfurt,2018-02-13 10:29:16,7.43,5244425698113
1198,North Barbara,2018-05-05 15:15:23,38.15,256007222475
1199,South Karenland,2018-04-23 09:19:31,12.34,9185788818366
1200,North Jasmine,2018-04-17 07:34:23,22.41,4198039541673
1201,East Kaylahaven,2018-02-16 21:02:16,34.42,7999611361088
1202,West Samuelburgh,2018-03-07 20:34:09,34.22,1129565554274
1203,Richardfort,2018-03-03 11:57:24,11.42,2916078036620
1204,West Heidi,2018-02-19 21:08:49,7.64,8966126701769
1205,Raymondhaven,2018-05-08 04:39:49,18.45,1811574736337
1206,North Markport,2018-04-29 11:39:07,19.8,1839021476247
1207,New Paulton,2018-02-17 08:20:55,37.44,7429666346759
1208,Karenside,2018-01-25 03:33:23,19.6,4716956966395
1209,South Jack,2018-03-03 09:00:03,29.88,2153390332898
1210,South Michelleport,2018-01-20 05:30:12,34.72,6387935611001
1211,North Jason,2018-04-01 14:43:46,40.45,1101699127777
1212,Joneschester,2018-01-26 19:19:04,13.77,6678138496534
1213,Amandaburgh,2018-01-02 09:57:04,33.06,6330658179518
1214,North Jason,2018-03-28 18:03:53,42.75,4271684689560
1215,Roberthaven,2018-01-28 22:09:44,28.11,6228196244648
1216,South Karenland,2018-02-13 03:55:55,24.16,3274616265567
1217,Rogerston,2018-01-23 18:16:39,21.64,3849704287167
1218,Robertport,2018-02-14 04:42:16,18.38,9072927119265
1219,West Samuelburgh,2018-01-06 13:23:28,11.01,73344113439
1220,New Paulton,2018-04-06 16:21:56,38.8,8523234215665
1221,Port Johnbury,2018-04-12 03:43:45,8.42,39663640391
1222,South Karenland,2018-05-03 16:09:36,19.69,2542833874680
1223,Liumouth,2018-03-22 20:35:56,39.96,6162501769368
1224,South Evanton,2018-04-29 13:54:33,5.16,314702567786
1225,Huntermouth,2018-04-20 09:38:12,23.65,3496017787039
1226,Simpsonburgh,2018-04-26 22:20:18,29.22,4452627021726
1227,Valentineton,2018-02-17 05:51:36,21.74,4882233203306
1228,Deanville,2018-01-12 07:32:21,39.45,419667752175
1229,South Karenland,2018-04-27 16:20:00,6.62,9440452913212
1230,Lake Jonathanshire,2018-03-22 14:33:32,18.72,4675968803527
1231,East Kaylahaven,2018-03-01 15:07:16,23.45,3219972039261
1232,Port David,2018-04-12 05:32:59,35.51,2988691809424
1233,West Gabriel,2018-01-30 15:37:59,25.64,3458714190369
1234,South Evanton,2018-02-13 16:46:38,44.33,3933480252928
1235,Richardfort,2018-01-13 10:08:54,25.81,9110913538598
1236,North Madeline,2018-04-04 06:42:02,25.38,6907041134302
1237,South Evanton,2018-04-06 16:41:00,9.3,1037050050692
1238,Royland,2018-02-18 02:03:31,8.32,5213108195867
1239,Hurleymouth,2018-01-07 15:53:43,20.01,4462373605170
1240,West Anthony,2018-04-08 06:21:07,20.83,9582303999416
1241,Martinezhaven,2018-02-14 02:51:53,27.16,2198999302323
1242,North Jasmine,2018-01-21 21:00:14,33.06,4263006375138
1243,Carriemouth,2018-04-15 08:00:48,40.03,2667929739732
1244,Lake Scottton,2018-01-21 04:20:36,21.81,294152016280
1245,Hurleymouth,2018-01-17 17:07:29,24.86,9295336313691
1246,North Barbara,2018-03-17 17:07:58,6.12,5476938523655
1247,Royland,2018-04-23 01:14:28,40.39,338531895520
1248,North Jason,2018-01-12 19:19:33,9.97,8000607854022
1249,West Ericstad,2018-01-27 04:30:26,29.05,7599450195358
1250,Joneschester,2018-03-13 06:10:43,27.79,1264452837532
1251,North Madeline,2018-05-03 00:07:06,16.44,212158091636
1252,Loganberg,2018-02-18 11:58:27,23.98,9369013244643
1253,West Patrickchester,2018-04-07 17:41:37,33.9,3859130440081
1254,Justinberg,2018-04-04 23:19:59,19.38,3733963439606
1255,Lake Jonathanshire,2018-04-16 20:26:30,32.47,1013873953228
1256,Karenside,2018-03-04 20:36:38,25.21,9107960049863
1257,North Madeline,2018-02-04 18:56:51,9.84,9479830048819
1258,West Josephberg,2018-03-30 01:27:04,25.19,7575785795869
1259,West Christopherberg,2018-05-01 12:39:07,39.8,5350289549048
1260,Lake Scottton,2018-04-19 21:32:00,37.67,5487285317750
1261,Simpsonburgh,2018-05-04 11:41:43,33.11,2860856883893
1262,South Karenland,2018-01-23 05:56:24,22.54,906736207129
1263,South Evanton,2018-02-26 06:48:57,7.81,741939312160
1264,New Paulville,2018-01-02 20:52:31,33.08,2368537035314
1265,Carriemouth,2018-03-08 09:53:56,37.81,7350661461430
1266,North Madeline,2018-03-01 04:34:54,20.8,1575104438305
1267,West Heidi,2018-01-17 09:28:43,24.19,8798102589241
1268,Amandaburgh,2018-01-13 16:04:10,23.35,9975084532253
1269,Valentineton,2018-03-06 04:48:37,38.88,2762937463829
1270,South Phillip,2018-03-23 16:36:51,40.07,2307854781368
1271,West Angela,2018-02-22 04:05:17,23.09,5991667849215
1272,Erikaland,2018-04-25 11:18:54,34.05,5673820536254
1273,Loganberg,2018-04-23 09:19:40,32.4,2448427854987
1274,West Heidi,2018-01-01 05:23:21,10.75,6571513080673
1275,South Michelleport,2018-01-27 13:10:19,30.16,3948526488391
1276,Christopherfurt,2018-03-15 10:22:43,34.09,1264516579194
1277,North Markport,2018-04-06 02:16:42,18.15,7268609489111
1278,West Anthony,2018-02-10 09:16:50,38.54,8950008238108
1279,South Phillip,2018-04-16 22:02:06,24.63,7860896953308
1280,South Phillip,2018-01-07 02:17:05,6.54,197653692239
1281,Williamsview,2018-03-02 22:23:09,25.15,5050608655121
1282,Port Frank,2018-01-05 18:22:02,35.35,1918776405433
1283,West Angela,2018-03-18 15:57:00,13.06,7206619990906
1284,Liumouth,2018-04-14 14:58:09,25.28,7891750319251
1285,Port Frank,2018-05-03 20:22:47,21.11,9063920293861
1286,Jerryton,2018-03-04 14:14:36,22.91,3498905000817
1287,Richardfort,2018-03-06 12:53:05,8.28,5127600643309
1288,Lake Danielberg,2018-01-14 22:04:23,24.14,7958893128864
1289,South Evanton,2018-01-17 02:00:57,34.55,3373258213100
1290,Williamsview,2018-01-25 00:47:33,41.17,4838881371737
1291,South Jack,2018-01-29 20:13:33,43.12,6046698489448
1292,Justinberg,2018-02-13 23:56:52,10.18,3143508668222
1293,Liumouth,2018-04-29 06:57:26,23.99,819442443593
1294,South Jack,2018-01-09 20:31:52,21.13,6055921836157
1295,South Michelleport,2018-03-29 08:33:15,11.06,9979817442901
1296,Hurleymouth,2018-02-23 01:34:05,31.97,1990077862269
1297,West Samuelburgh,2018-02-22 22:11:39,17.35,3943007288125
1298,North Barbara,2018-04-09 17:12:34,6.68,2535408162930
1299,Royland,2018-01-20 12:13:04,6.66,4292343513903
1300,Lake Scottton,2018-04-08 11:19:22,44.03,9052901892070
1301,Raymondhaven,2018-04-30 19:54:09,29.84,7628275458574
1302,Lake Scottton,2018-05-08 13:10:18,18.04,5616262558026
1303,Martinezhaven,2018-05-07 05:55:00,6.89,3266247221258
1304,Lake Scottton,2018-02-08 17:29:38,34.95,7928828679563
1305,Richardfort,2018-02-05 16:12:04,42.22,4051093040264
1306,West Josephberg,2018-04-11 03:53:24,18.65,6034780270685
1307,New Paulville,2018-03-05 15:43:38,23.75,9558031485248
1308,South Phillip,2018-05-07 02:52:22,36.51,2373463606606
1309,South Karenland,2018-03-22 04:17:20,15.54,1305521187209
1310,Valentineton,2018-01-22 02:15:46,17.74,6348946945240
1311,South Evanton,2018-05-07 12:30:58,34.03,3182588142048
1312,Pattyland,2018-04-19 12:57:51,4.55,6863691950115
1313,Port Samanthamouth,2018-03-15 09:03:59,5.62,6911793332732
1314,East Kaylahaven,2018-01-11 10:41:55,8.02,9778559091886
1315,North Madeline,2018-02-27 11:42:19,36.87,9531911098356
1316,Richardfort,2018-04-04 15:04:56,16.35,6077906760851
1317,South Michelleport,2018-02-11 08:12:09,28.03,3129314459254
1318,Port Johnbury,2018-01-21 05:10:00,32.68,277259241694
1319,Liumouth,2018-01-18 15:26:16,20.68,984551570260
1320,South Evanton,2018-04-08 01:01:44,5.62,1336030545631
1321,Richardfort,2018-03-05 16:00:59,4.85,3291539624738
1322,New Jacobville,2018-02-07 11:07:26,26.09,3517704368178
1323,East Kaylahaven,2018-02-04 02:25:50,38.13,2889304581969
1324,Williamsstad,2018-01-20 18:47:43,18.79,5023157350397
1325,Lake Jonathanshire,2018-04-11 19:49:34,25.92,8533808747676
1326,Port Samanthamouth,2018-04-25 03:29:08,9.44,4793952979390
1327,South Karenland,2018-03-30 01:56:29,20.21,2903443186097
1328,West Christopherberg,2018-03-10 22:42:09,7.98,5729357604390
1329,Lake Scottton,2018-03-29 13:33:11,35.36,3706314280455
1330,East Kaylahaven,2018-01-24 16:52:11,31.4,7430406748016
1331,Raymondhaven,2018-04-04 06:46:57,41.45,2893202480774
1332,Port Frank,2018-03-19 15:21:28,22.63,9908378465166
1333,New Paulville,2018-04-24 02:25:52,13.32,8564322973357
1334,Karenberg,2018-04-30 21:38:38,5.7,7644517011765
1335,Barajasview,2018-03-24 06:34:31,12.24,766512199846
1336,North Jason,2018-02-10 06:34:23,25.36,8594848265735
1337,Barajasview,2018-04-18 08:44:07,12.35,6122257582314
1338,New Kimberlyborough,2018-04-03 20:23:26,33.74,6329063149216
1339,West Samuelburgh,2018-01-31 17:10:41,9.67,8851666927116
1340,West Heidi,2018-03-21 00:26:48,9.06,6618749143588
1341,Port Frank,2018-01-16 22:42:03,11.97,8711333582560
1342,West Samuelburgh,2018-04-08 12:38:45,14.52,2480520808757
1343,West Gabriel,2018-05-01 04:34:24,8.67,425757573667
1344,Loganberg,2018-04-18 11:16:27,16.36,4728835123393
1345,West Josephberg,2018-05-07 10:11:06,29.66,261961747605
1346,South Michelleport,2018-02-02 11:56:33,12.77,1407376692621
1347,Christopherfurt,2018-04-14 03:24:52,39.91,253265651115
1348,Justinberg,2018-04-14 23:08:12,7.75,8860058514407
1349,South Michelleport,2018-03-12 09:06:15,25.1,7109079664625
1350,West Angela,2018-04-10 17:06:27,31.03,3524340292330
1351,South Karenland,2018-02-02 14:50:52,10.54,4511035891557
1352,Carriemouth,2018-05-04 10:28:25,41.54,1102333782246
1353,Pattyland,2018-01-09 08:20:24,41.04,3525500502870
1354,West Samuelburgh,2018-03-04 12:38:49,28.18,9684553330848
1355,North Barbara,2018-02-03 23:57:31,11.54,5814426769909
1356,Jerryton,2018-02-20 18:45:32,28.24,4147224282549
1357,Leahton,2018-03-06 20:26:06,14.87,3839886060948
1358,North Jasmine,2018-02-06 19:23:04,9.12,3928977578261
1359,South Karenland,2018-01-03 06:18:54,39.16,5488595025427
1360,Grahamburgh,2018-03-19 14:30:39,33.14,4377426125867
1361,West Robert,2018-03-29 04:22:45,17.53,8336695194192
1362,Williamsview,2018-02-18 02:31:18,18.75,4148427600673
1363,Barajasview,2018-01-04 09:32:47,12.25,1657106589275
1364,Williamsview,2018-01-01 14:40:14,5.42,5676167585855
1365,West Ericstad,2018-02-05 15:30:53,30.89,2464029094187
1366,Lake Danielberg,2018-01-05 17:44:41,28.79,9792091934593
1367,Barajasview,2018-03-29 01:02:09,29.55,3838354230678
1368,Liumouth,2018-03-03 05:13:18,26.6,4278966939061
1369,West Patrickchester,2018-03-06 00:02:29,31.33,2574123507602
1370,Lake Scottton,2018-01-13 13:34:04,24.81,395502999618
1371,Liumouth,2018-01-04 21:06:42,34.77,8500621051587
1372,Williamsstad,2018-01-03 10:03:19,17.16,28294640252
1373,Lake Danielberg,2018-02-04 17:32:55,24.49,859545474575
1374,Justinberg,2018-02-28 21:39:35,14.4,1131855954787
1375,Jerryton,2018-03-07 05:24:37,15.82,8112351353413
1376,New Jacobville,2018-03-12 14:47:55,28.12,3354774437164
1377,Loganberg,2018-01-03 06:49:15,34.42,237725006820
1378,West Patrickchester,2018-03-02 20:29:14,25.28,8920708170312
1379,South Evanton,2018-01-02 06:55:36,16.96,9407700156319
1380,North Markport,2018-05-04 15:30:04,28.93,1471664210200
1381,Port Angela,2018-04-02 22:13:52,25.84,8022436129393
1382,Richardfort,2018-04-14 11:56:28,43.01,7636011510547
1383,Rogerston,2018-01-27 19:45:00,13.4,9764361764025
1384,East Kaylahaven,2018-02-11 21:07:22,4.75,9782978467542
1385,Raymondhaven,2018-02-28 05:23:49,21.78,1853831474811
1386,Loganberg,2018-02-20 09:42:19,41.16,4360659646407
1387,South Jack,2018-02-17 09:55:15,18.08,3666658839798
1388,West Ericstad,2018-05-05 00:44:55,7.76,8379003928607
1389,Port Frank,2018-02-21 18:44:23,19.81,2185137282852
1390,Simpsonburgh,2018-01-23 20:35:28,39.95,1108660251073
1391,Simpsonburgh,2018-01-08 05:59:56,13.01,9413350107687
1392,South Evanton,2018-02-08 18:08:18,38.21,56240519093
1393,Loganberg,2018-03-30 21:22:58,40.8,3172019974706
1394,New Paulville,2018-03-08 15:08:09,18.35,3736130457083
1395,East Kaylahaven,2018-04-30 08:22:19,37.41,1759788940587
1396,West Gabriel,2018-01-31 02:31:13,6.8,1042280944345
1397,South Phillip,2018-03-15 08:24:03,22.28,6023734584015
1398,Richardfort,2018-01-21 23:20:53,10.91,3567611375530
1399,Williamsview,2018-03-22 22:31:26,15.85,8549525496025
1400,West Patrickchester,2018-02-16 02:15:20,12.15,9177372989576
1401,North Jason,2018-05-07 20:05:15,24.2,3915678713657
1402,Karenberg,2018-04-13 05:14:30,23.73,405640953288
1403,East Kaylahaven,2018-03-24 13:53:34,32.21,6710058446869
1404,Lake Jonathanshire,2018-04-09 21:41:30,15.96,577276092645
1405,Williamsstad,2018-03-12 11:08:28,13.79,5771635421960
1406,Deanville,2018-01-28 03:13:21,31.65,649769579565
1407,South Latoya,2018-02-25 23:06:10,25.87,4911564763064
1408,South Karenland,2018-02-26 13:01:09,38.05,445163644058
1409,Justinberg,2018-01-27 07:35:46,28.41,3494883589054
1410,South Michelleport,2018-04-21 15:29:53,36.47,3394685136336
1411,Lake Jonathanshire,2018-01-16 09:27:03,26.27,3267656258507
1412,Jerryton,2018-03-25 12:14:58,9.64,9483701056322
1413,Grahamburgh,2018-02-23 14:58:29,41.98,3687572775641
1414,South Karenland,2018-02-26 20:40:36,35.61,8413974071006
1415,Johnton,2018-04-29 07:50:06,17.89,1266248389669
1416,Justinberg,2018-01-24 19:32:55,38.79,1687190759049
1417,Grahamburgh,2018-02-02 03:52:20,22.53,6583081396582
1418,North Markport,2018-01-17 11:37:05,8.68,930356390428
1419,Port Samanthamouth,2018-01-01 21:04:01,11.71,1849658808540
1420,West Angela,2018-04-11 06:59:17,29.06,713854282118
1421,Port David,2018-03-03 11:38:05,13.41,6413543746665
1422,Christopherfurt,2018-02-23 08:31:48,15.61,8295289890035
1423,Lake Scottton,2018-02-27 07:09:55,9.43,8167805104097
1424,Valentineton,2018-01-03 05:56:07,37.4,4181290691140
1425,Jerryton,2018-02-19 13:59:12,21.27,2523553025606
1426,Reynoldsfurt,2018-03-21 17:25:09,11.97,9406113555740
1427,Hurleymouth,2018-02-24 15:39:01,8.33,2051788093690
1428,South Latoya,2018-03-13 01:15:48,16.01,2755056904274
1429,North Jasmine,2018-03-21 18:31:39,39.02,7925529006582
1430,Richardfort,2018-03-16 23:00:51,21.39,237473464569
1431,Roberthaven,2018-05-03 05:43:29,42.15,2593369705849
1432,South Michelleport,2018-01-05 05:57:54,39.9,6107070834017
1433,Port Johnbury,2018-01-15 18:45:38,40.32,2120999202624
1434,Loganberg,2018-01-31 15:03:08,20.36,1816764262702
1435,Robertport,2018-04-30 23:36:58,14.81,1468741682203
1436,South Michelleport,2018-02-27 02:00:20,10.4,6475102182178
1437,New Jacobville,2018-03-03 05:28:06,41.39,3091545613098
1438,Martinezhaven,2018-04-12 06:49:43,11.55,9306298924624
1439,West Gabriel,2018-04-08 21:34:32,13.31,8629908298269
1440,South Jack,2018-04-10 01:23:02,29.97,6134963889083
1441,New Paulville,2018-01-05 08:35:06,21.57,3713143062176
1442,Royland,2018-01-11 09:50:09,18.42,5578365228841
1443,Roberthaven,2018-01-15 21:25:59,30.42,5912507910247
1444,Justinberg,2018-03-12 16:33:25,24.41,3085648665283
1445,West Angela,2018-02-21 08:28:35,40.55,1832101254162
1446,North Madeline,2018-01-30 18:20:22,16.5,8651911600616
1447,Port Angela,2018-02-03 06:01:25,6.42,9465215247151
1448,North Jason,2018-03-30 06:31:58,12.04,6617567960124
1449,West Patrickchester,2018-04-18 11:41:23,29.12,8009822638677
1450,North Jason,2018-03-27 19:19:33,30.66,3371333703928
1451,West Anthony,2018-02-03 18:24:31,19.66,2909279162533
1452,Liumouth,2018-04-29 19:55:36,32.1,2696753605913
1453,Martinezhaven,2018-04-13 19:46:33,40.2,8856596685853
1454,West Josephberg,2018-01-12 12:45:18,5.77,5094744587526
1455,Simpsonburgh,2018-01-05 16:36:19,39.44,252491764873
1456,New Paulville,2018-01-05 17:16:21,44.68,3084378770502
1457,Christopherfurt,2018-02-04 12:11:36,41.12,807740496588
1458,Johnton,2018-03-15 21:16:53,30.27,1604984494757
1459,South Jack,2018-02-06 12:17:53,7.71,6332020411813
1460,Joneschester,2018-03-28 07:41:45,7.56,4606111536146
1461,Lake Danielberg,2018-02-23 13:51:10,9.25,8304102117881
1462,Port Frank,2018-01-18 11:45:12,19.98,4493440036641
1463,Lake Jonathanshire,2018-01-21 12:12:56,37.25,2966536034637
1464,Rogerston,2018-03-07 12:09:53,27.26,9445963524322
1465,South Karenland,2018-01-02 21:27:09,19.57,7272197128628
1466,West Gabriel,2018-01-15 18:25:13,11.71,3842429247256
1467,West Gabriel,2018-01-12 16:34:29,31.98,2986879445341
1468,Robertport,2018-03-17 22:50:46,14.61,8501454819559
1469,West Christopherberg,2018-04-03 12:01:59,33.03,1478762318845
1470,Lake Scottton,2018-04-02 21:10:19,43.2,3927212153065
1471,West Christopherberg,2018-02-07 01:24:59,10.91,3730797143907
1472,West Anthony,2018-04-18 08:11:39,11.2,3221735036264
1473,Robertport,2018-04-16 09:48:39,36.11,5886554503793
1474,Erikaland,2018-03-27 08:27:45,26.25,4808796549026
1475,Williamsview,2018-01-17 04:00:01,32.29,7451578628999
1476,West Robert,2018-01-30 11:32:45,43.02,7200177034430
1477,Hurleymouth,2018-02-06 00:10:22,32.93,4140229588692
1478,New Paulton,2018-02-21 02:37:43,27.56,3954579271309
1479,Deanville,2018-01-07 19:34:44,21.5,9422003641461
1480,Karenside,2018-01-12 01:28:33,37.73,1873045802736
1481,New Paulton,2018-03-12 13:53:39,38.26,79314274773
1482,Port Samanthamouth,2018-04-09 20:55:32,24.99,6743225912546
1483,South Phillip,2018-05-03 11:43:11,8.3,8580230286693
1484,Lake Danielberg,2018-02-06 04:11:24,29.96,2331999439549
1485,Martinezhaven,2018-02-06 10:58:28,40.29,4665194925087
1486,Pattyland,2018-04-12 11:58:28,28.65,6924230448040
1487,Port Johnbury,2018-02-05 16:04:13,7.44,3008325165012
1488,Richardfort,2018-03-22 04:41:04,16.35,5934239154720
1489,Valentineton,2018-02-17 19:23:20,37.19,5020446269859
1490,Rodneyfort,2018-04-19 09:46:19,35.79,9917197764299
1491,West Christopherberg,2018-04-19 04:53:19,22.86,9748845131381
1492,Valentineton,2018-03-08 07:57:06,43.59,5859669462309
1493,New Jacobville,2018-02-21 08:59:20,40.05,3017975180818
1494,Joneschester,2018-05-05 02:00:02,21.74,2729175742345
1495,Johnton,2018-01-14 10:53:38,19.68,8534361219730
1496,West Heidi,2018-01-29 08:17:02,38.68,4818935872915
1497,West Christopherberg,2018-04-11 14:46:23,4.88,7740852204661
1498,West Angela,2018-03-17 09:42:27,23.45,7766326460678
1499,South Evanton,2018-01-09 15:10:06,40.73,6529652825358
1500,West Gabriel,2018-01-23 05:22:29,40.17,9157930188085
1501,Carriemouth,2018-04-05 02:03:50,38.17,8161204669836
1502,West Ericstad,2018-03-18 15:28:03,23.62,6209238468314
1503,North Jasmine,2018-04-22 15:53:37,6.49,1617288417506
1504,Martinezhaven,2018-04-30 00:42:10,36.07,1517725239558
1505,West Gabriel,2018-02-17 07:39:53,17.03,4385812494114
1506,Liumouth,2018-03-06 04:42:31,37.4,602124109449
1507,Roberthaven,2018-05-02 21:36:24,21.8,3456705475174
1508,West Angela,2018-02-21 12:29:36,27.68,791846342132
1509,West Robert,2018-02-01 11:37:56,30.94,218488354366
1510,Carriemouth,2018-04-27 20:41:36,8.28,451752270898
1511,North Jason,2018-01-08 23:32:07,10.74,1777358514662
1512,West Angela,2018-04-13 21:50:59,28.75,3697508187707
1513,Reynoldsfurt,2018-02-03 10:14:24,6.34,5560686093253
1514,Lake Jonathanshire,2018-04-11 21:32:27,22.48,3505458786874
1515,New Kimberlyborough,2018-02-05 11:23:41,18.02,3979116091493
1516,Jerryton,2018-03-23 08:27:26,37.89,4275221969665
1517,Joneschester,2018-03-04 18:00:23,41.65,9830268750819
1518,Lake Jonathanshire,2018-02-16 01:49:45,17.58,3641777572467
1519,Richardfort,2018-01-03 01:06:17,5.32,3268844473610
1520,Deanville,2018-01-29 21:11:43,25.39,9623390811882
1521,Richardfort,2018-03-29 15:16:01,37.76,4802688422688
1522,Royland,2018-03-23 12:21:09,13.7,8505727203359
1523,Jerryton,2018-04-20 18:57:54,29.84,8129673900768
1524,Lake Jonathanshire,2018-01-17 13:15:58,28.42,6544222037368
1525,Karenberg,2018-04-24 12:57:40,34.67,6995539608497
1526,Joneschester,2018-02-17 10:04:23,10.52,3382314791322
1527,Rogerston,2018-02-27 03:58:02,27.4,6535366485146
1528,North Jason,2018-01-11 05:08:48,19.64,6877014281473
1529,Reynoldsfurt,2018-04-11 23:49:34,38.35,6517888893678
1530,Rogerston,2018-01-26 14:42:49,11.13,9117397855777
1531,Grahamburgh,2018-03-11 08:09:20,34.53,1668089072869
1532,Lake Jonathanshire,2018-01-21 09:48:28,22.36,2522096563712
1533,Lake Danielberg,2018-03-05 23:23:36,44.77,904234510499
1534,Liumouth,2018-01-30 08:51:20,22.9,2852059249491
1535,West Gabriel,2018-01-28 22:22:55,5.58,8437986648490
1536,North Jason,2018-01-24 01:46:56,40.15,6720072772844
1537,West Robert,2018-03-16 16:27:00,42.89,3371305205863
1538,Huntermouth,2018-01-24 17:07:21,42.36,2881099887400
1539,Karenside,2018-01-17 12:18:08,11.6,2896161328712
1540,Karenberg,2018-02-19 16:11:56,12.25,3871929479027
1541,Amandaburgh,2018-01-29 23:28:12,41.06,4296858665195
1542,West Robert,2018-02-18 11:51:18,44.97,341568099144
1543,Pattyland,2018-01-12 20:07:34,17.85,1717518351904
1544,West Robert,2018-02-19 00:53:54,40.64,5090000920328
1545,Lake Jonathanshire,2018-02-23 06:10:30,26.63,5372487991955
1546,Raymondhaven,2018-03-31 14:58:15,7.67,3677670833473
1547,New Kimberlyborough,2018-04-24 02:21:17,37.73,2211216902202
1548,North Jasmine,2018-05-08 07:29:01,18.55,5682021476085
1549,Reynoldsfurt,2018-02-09 17:49:45,21.02,6197091221286
1550,West Anthony,2018-03-08 10:33:27,41.3,1154693699214
1551,West Christopherberg,2018-01-30 08:11:49,16.85,7337258118847
1552,Erikaland,2018-02-11 03:01:55,35.89,1692275914503
1553,Port Samanthamouth,2018-02-02 01:57:32,39.28,2671264374220
1554,New Jacobville,2018-04-30 11:44:33,5.6,3975719805512
1555,Huntermouth,2018-03-27 11:50:50,22.64,9536744918833
1556,Joneschester,2018-03-19 01:52:17,42.74,4496207006444
1557,Port Frank,2018-01-15 07:42:59,30.93,8726143802098
1558,Leahton,2018-03-03 01:24:39,43.44,4290916547911
1559,Raymondhaven,2018-02-07 16:19:04,38.67,8352957849877
1560,South Latoya,2018-04-22 12:29:10,27.54,3391380718287
1561,West Ericstad,2018-03-04 12:31:45,43.98,6434938341937
1562,Liumouth,2018-04-12 02:27:20,10.53,8954520159231
1563,Port Johnbury,2018-04-25 00:15:02,10.26,2977082935156
1564,Robertport,2018-04-18 06:58:23,24.48,4267630984582
1565,South Michelleport,2018-04-27 11:18:02,27.89,355231301182
1566,Grahamburgh,2018-02-16 12:22:02,30.23,5124138921138
1567,Liumouth,2018-04-02 16:53:26,25.56,9544292256253
1568,Grahamburgh,2018-04-10 01:16:25,37.67,1448865682495
1569,Rogerston,2018-02-03 21:09:45,4.41,1718712551725
1570,New Paulville,2018-01-21 20:51:12,33.47,8221242356003
1571,Liumouth,2018-02-28 15:20:17,30.3,2081810970989
1572,Port Frank,2018-02-06 03:34:57,34.86,3935964262850
1573,Loganberg,2018-02-21 18:53:29,36.21,8542273339484
1574,Karenside,2018-03-21 23:26:36,26.69,7728915318388
1575,West Angela,2018-04-14 12:28:19,39.95,7950036014003
1576,West Josephberg,2018-01-31 13:24:51,38.28,4195600587627
1577,West Samuelburgh,2018-02-22 18:15:39,7.13,2717847680996
1578,Lake Danielberg,2018-02-06 19:59:52,30.31,3396701278037
1579,Johnton,2018-01-31 11:17:53,23.36,3671342249951
1580,West Ericstad,2018-01-21 12:14:36,8.07,7506043971589
1581,Lake Scottton,2018-04-18 23:06:40,4.36,5843811924401
1582,North Jasmine,2018-04-17 10:37:06,11.76,4450941712061
1583,North Jason,2018-04-15 17:35:38,42.29,5008032046084
1584,North Jason,2018-03-04 10:14:37,38.49,3338028667880
1585,Lake Danielberg,2018-02-17 05:30:12,11.7,4874329095698
1586,Christopherfurt,2018-04-04 01:11:37,24.47,571640743706
1587,Port Johnbury,2018-01-04 02:56:24,32.75,1737291283544
1588,Port Angela,2018-05-04 09:50:38,21.62,6302510153615
1589,Port Frank,2018-04-28 09:03:54,15.0,7321190762923
1590,North Barbara,2018-01-08 05:21:41,25.84,3505169399905
1591,North Jason,2018-04-14 19:46:06,8.05,7833718484809
1592,Barajasview,2018-01-12 23:20:59,21.64,3010027933226
1593,North Jasmine,2018-01-13 16:18:44,16.92,5896684082471
1594,South Karenland,2018-04-25 05:20:00,36.71,7085374615497
1595,West Gabriel,2018-02-20 09:30:53,28.13,7467212471692
1596,Carriemouth,2018-03-25 21:25:47,26.4,4293523822822
1597,Huntermouth,2018-03-17 15:43:09,30.31,6909760173471
1598,Valentineton,2018-01-12 05:52:15,42.31,5901460118661
1599,East Kaylahaven,2018-01-29 06:40:02,26.79,5038187912880
1600,Lake Danielberg,2018-04-12 05:18:16,41.45,5338695664074
1601,West Robert,2018-01-15 08:14:17,33.91,2161158839398
1602,Williamsstad,2018-04-04 06:55:13,31.52,778427079687
1603,Port David,2018-04-22 23:30:50,30.03,7355586586718
1604,Karenside,2018-03-03 18:15:32,19.19,1723489219600
1605,Valentineton,2018-03-16 23:59:11,5.23,7407814114542
1606,New Kimberlyborough,2018-04-03 03:36:16,43.07,5603777741586
1607,New Jacobville,2018-04-20 05:31:08,13.35,9259173509501
1608,Joneschester,2018-04-13 18:44:13,27.36,7530382780656
1609,Joneschester,2018-04-20 09:40:03,30.12,8972497663155
1610,Jerryton,2018-03-24 12:17:30,31.47,5424245579315
1611,Grahamburgh,2018-01-03 15:37:24,17.61,7877228075348
1612,Royland,2018-01-18 00:03:01,32.11,4548837819274
1613,West Robert,2018-03-10 20:00:35,6.74,6675182507896
1614,Karenside,2018-02-19 20:56:59,17.41,1217247793421
1615,Williamsview,2018-04-18 02:07:15,39.79,8745531941706
1616,Simpsonburgh,2018-03-03 08:45:54,7.63,4176780124147
1617,West Angela,2018-05-07 01:03:12,12.35,2050512349119
1618,West Heidi,2018-01-15 11:49:40,21.44,83498621902
1619,Leahton,2018-03-13 09:17:41,36.79,6214133326256
1620,Reynoldsfurt,2018-02-14 11:25:10,39.4,9070692324754
1621,Christopherfurt,2018-03-13 01:47:52,32.05,2788817929605
1622,Raymondhaven,2018-03-20 02:20:34,38.53,8658255136559
1623,Port Johnbury,2018-03-26 07:22:45,7.63,8089282605778
1624,West Gabriel,2018-05-05 01:24:06,27.57,4428773411209
1625,Barronchester,2018-01-27 03:08:01,27.79,6653622887913
1626,East Kentstad,2018-04-07 19:44:19,18.75,6575961095852
1627,Lake Omar,2018-01-17 21:33:35,21.71,966911700371
1628,Myersshire,2018-02-27 17:38:39,17.1,5706770909868
1629,West Hannah,2018-04-19 01:06:59,37.78,2273047151891
1630,East Marymouth,2018-03-29 08:36:20,37.6,6370863861570
1631,New Raymond,2018-02-25 21:40:18,20.44,5984505117874
1632,Lake Robertside,2018-01-11 20:17:36,46.51,6574333011308
1633,Josephside,2018-03-30 09:45:11,44.74,5592692102803
1634,Brandonfort,2018-01-14 12:35:27,28.02,8100258078935
1635,Josephside,2018-02-07 06:56:45,31.94,3185694946333
1636,New Raymond,2018-03-21 01:45:29,22.12,6031755734913
1637,Lewisland,2018-02-14 17:38:17,42.31,580385794188
1638,East Kentstad,2018-01-22 20:43:30,35.01,8750865857333
1639,Myersshire,2018-04-29 06:08:03,17.99,1127095356276
1640,Myersshire,2018-01-10 06:32:04,45.81,7014255933887
1641,Lewisland,2018-01-30 15:08:13,32.4,5099208436594
1642,West Hannah,2018-03-22 20:18:32,25.86,7624914034208
1643,North Richardhaven,2018-02-18 10:21:39,41.54,4267383307027
1644,New Olivia,2018-03-29 02:52:48,44.12,7724469578438
1645,New Shannonberg,2018-03-19 08:13:37,25.46,374752841670
1646,Barronchester,2018-05-05 04:03:11,30.38,2281522828169
1647,Nicolechester,2018-02-09 12:26:03,40.83,85473064902
1648,New Raymond,2018-03-18 12:07:10,36.26,3151412877753
1649,New Raymond,2018-05-03 12:23:37,48.56,9495029351539
1650,Victoriaport,2018-04-21 15:21:47,12.13,3313120309203
1651,South Teresa,2018-01-29 12:51:02,38.47,5746182119035
1652,North Richardhaven,2018-04-07 00:32:23,36.32,5014291527509
1653,East Aaronbury,2018-03-19 10:43:53,20.04,4117474421029
1654,South Teresa,2018-02-23 04:35:04,46.02,4623132352357
1655,Bethanyland,2018-04-01 22:04:35,38.71,8221076873967
1656,Lake Scott,2018-01-10 11:08:48,37.96,8130669690525
1657,East Marymouth,2018-01-16 15:44:02,46.2,1181974978638
1658,North Jeffrey,2018-02-04 22:35:11,29.87,7909567053548
1659,Rodriguezview,2018-03-27 19:44:37,49.65,8748957571328
1660,Bethanyland,2018-03-15 19:42:56,37.09,6243188816016
1661,East Kentstad,2018-05-01 17:35:30,39.29,1986613861926
1662,Myersshire,2018-01-06 11:43:01,22.8,499304044207
1663,Lake Robertside,2018-03-05 11:48:59,29.12,4058488101142
1664,Sotoville,2018-03-29 22:38:04,34.97,7313956062903
1665,South Brenda,2018-04-28 04:21:34,27.86,5857212189710
1666,Port Shane,2018-04-09 15:34:40,27.66,4022340141966
1667,Lake Omar,2018-03-26 05:52:39,48.26,5014086961990
1668,Lake Robertside,2018-04-30 20:45:11,22.26,202043410246
1669,Lake Robertside,2018-03-18 08:04:49,44.21,9839854233835
1670,South Brenda,2018-04-21 03:08:39,17.8,3500924024641
1671,North Timothy,2018-04-06 10:06:34,38.39,4781274767887
1672,Nicolechester,2018-04-10 04:41:43,38.08,8122088232004
1673,Port Shane,2018-04-23 16:05:47,42.26,8341982666719
1674,New Shannonberg,2018-04-20 02:52:54,30.82,6829641849335
1675,Veronicaberg,2018-01-19 23:24:08,19.28,2351082274727
1676,West Hannah,2018-01-09 03:44:08,14.41,1044914110317
1677,Port Shane,2018-03-02 12:06:00,14.95,2803204948363
1678,Nicolechester,2018-03-08 19:51:14,16.35,1045798809359
1679,Victoriaport,2018-04-22 12:38:49,16.31,6069171955919
1680,New Raymond,2018-01-05 17:58:39,22.5,7832889931082
1681,New Shannonberg,2018-02-01 04:31:15,34.09,8588717292946
1682,East Marymouth,2018-04-27 05:31:31,36.11,8307460338356
1683,Williamsonville,2018-01-09 23:59:36,48.73,6507706939008
1684,East Kentstad,2018-04-19 21:05:09,22.42,1136558207239
1685,Victoriaport,2018-02-02 19:14:51,25.68,8997392253805
1686,New Raymond,2018-01-02 15:38:25,45.32,8881105109599
1687,Victoriaport,2018-04-02 17:12:08,12.19,6988300070777
1688,Barronchester,2018-04-25 19:11:43,36.13,2660177707065
1689,Brandonfort,2018-04-08 20:02:21,35.64,6109525300344
1690,Lewishaven,2018-04-19 01:08:58,21.92,7108986085790
1691,Brandonfort,2018-03-22 16:17:49,38.66,4748541004175
1692,Port Shane,2018-03-26 04:33:30,19.03,6010401984537
1693,East Marymouth,2018-03-21 11:01:26,17.43,1621338088820
1694,New Shannonberg,2018-01-15 12:26:34,35.34,7445877019367
1695,New Shannonberg,2018-05-05 05:25:56,16.77,8389782417445
1696,Lake Ann,2018-02-14 17:13:40,42.13,6192401377301
1697,Victoriaport,2018-03-14 03:47:26,16.5,7106912999135
1698,North Richardhaven,2018-01-22 14:55:35,18.45,2627726489605
1699,Rodriguezview,2018-04-20 00:03:07,23.58,3289957353125
1700,Grayville,2018-04-06 03:38:40,18.11,6203774514474
1701,Lake Robertside,2018-01-13 18:22:18,28.37,5199680612896
1702,West Hannah,2018-02-01 02:36:34,33.85,8296563108808
1703,New Olivia,2018-02-05 19:25:58,47.15,7736815814329
1704,Grayville,2018-04-28 11:40:49,43.22,6018910939581
1705,Port Shane,2018-03-15 12:09:42,31.58,2552978514662
1706,Myersshire,2018-03-26 11:33:21,28.71,2180652304041
1707,Lake Ann,2018-04-30 11:42:13,14.56,5470772614012
1708,Colemanland,2018-04-20 02:52:45,20.83,2981565641427
1709,West Kimmouth,2018-01-04 10:24:04,20.69,1687206700447
1710,Lake Ann,2018-03-06 08:49:32,13.61,1257553992293
1711,Lake Scott,2018-04-29 22:08:22,25.75,4959514979080
1712,Mezachester,2018-03-25 12:57:21,21.89,2294831365065
1713,Brandonfort,2018-05-02 03:14:18,48.63,4443575880282
1714,Lake Scott,2018-03-26 08:40:45,26.24,1980313728671
1715,Veronicaberg,2018-04-24 19:16:19,49.45,5877628036170
1716,Lewisland,2018-01-25 20:46:18,32.38,8332226417129
1717,Lake Scott,2018-05-07 12:33:26,21.72,7626061808220
1718,East Marymouth,2018-04-03 12:18:33,26.93,3384028141202
1719,Sotoville,2018-04-22 01:33:03,46.5,7088151468507
1720,North Richardhaven,2018-03-03 06:14:36,18.17,3252030700789
1721,New Shannonberg,2018-02-09 04:01:24,37.52,3107911163811
1722,New Raymond,2018-05-01 05:16:54,14.2,1535089996030
1723,Brandonfort,2018-01-02 01:41:26,49.95,1298465164057
1724,Lake Scott,2018-01-03 17:02:29,47.97,8024881377404
1725,Nicolechester,2018-05-02 19:37:54,36.59,6821451074310
1726,East Marymouth,2018-05-01 20:10:52,13.17,9052669788424
1727,Myersshire,2018-01-25 05:27:28,35.65,3459456166162
1728,Nicolechester,2018-03-04 03:06:14,27.67,1790409286394
1729,Davidfurt,2018-01-05 13:42:28,31.48,1953915881204
1730,Josephside,2018-03-12 19:25:22,29.47,1697181089451
1731,Myersshire,2018-01-02 16:59:55,33.62,6489718708394
1732,Sotoville,2018-01-25 06:31:47,24.13,7372157726656
1733,Veronicaberg,2018-02-02 03:49:35,26.42,8456789960080
1734,Josephside,2018-01-18 06:31:29,33.07,7129661940616
1735,Rodriguezview,2018-02-17 14:10:00,22.76,2750365542698
1736,Lewisland,2018-04-08 19:51:30,35.16,5715574777818
1737,Sotoville,2018-04-23 20:31:04,34.87,99483095214
1738,Davidfurt,2018-01-17 17:58:27,28.28,6647857817333
1739,Mezachester,2018-01-22 00:59:29,40.67,1956901251838
1740,Josephside,2018-03-03 19:43:29,17.39,1280375339328
1741,Mezachester,2018-03-18 02:32:55,40.81,9431152912582
1742,New Shannonberg,2018-02-26 12:23:14,16.39,1105944917601
1743,East Marymouth,2018-03-08 04:55:41,43.79,1703166685294
1744,South Brenda,2018-01-19 00:13:41,44.36,6108194089857
1745,Colemanland,2018-03-05 04:33:30,13.39,8894920928658
1746,New Shannonberg,2018-05-03 21:53:58,34.08,1767826635739
1747,East Aaronbury,2018-03-16 11:15:13,20.59,6153017911679
1748,East Aaronbury,2018-01-27 09:53:22,28.56,5981083119511
1749,East Danielview,2018-02-25 03:54:05,26.33,513607352842
1750,Barronchester,2018-03-31 06:05:30,44.24,1252888806772
1751,Mezachester,2018-04-26 03:30:47,30.75,3181640027590
1752,South Teresa,2018-04-02 04:02:51,23.78,295848311917
1753,East Kentstad,2018-03-24 02:53:43,31.53,1907259346172
1754,Brandonfort,2018-03-19 05:49:55,45.52,201086012271
1755,New Shannonberg,2018-05-07 07:08:15,20.52,8313701567867
1756,Grayville,2018-02-19 19:52:37,19.52,9233978205608
1757,South Teresa,2018-03-28 04:27:58,17.5,9665109040886
1758,East Marymouth,2018-03-12 10:46:49,38.26,5237668148484
1759,Lake Robertside,2018-04-10 03:39:14,34.14,9363510386967
1760,Colemanland,2018-03-02 02:11:21,36.81,116923856607
1761,South Brenda,2018-01-10 00:17:24,47.52,3069086465155
1762,Lewisland,2018-01-28 11:38:16,35.6,9368246062437
1763,New Raymond,2018-01-15 12:51:37,47.01,3568107406141
1764,North Richardhaven,2018-01-01 14:52:06,31.15,7188584539017
1765,Josephside,2018-04-17 05:45:42,32.72,6317907123249
1766,Nicolechester,2018-04-05 01:38:49,19.57,1109468556407
1767,Veronicaberg,2018-01-18 10:33:29,33.04,4341351420885
1768,Colemanland,2018-02-20 04:19:28,43.09,8700311126445
1769,Lewishaven,2018-04-20 03:54:49,21.23,8139519107206
1770,Mezachester,2018-01-06 02:08:30,39.83,8422380883301
1771,Williamsonville,2018-02-01 17:54:05,38.9,1247989019244
1772,Josephside,2018-01-17 18:16:29,35.68,4973368930844
1773,New Olivia,2018-04-17 19:11:04,30.81,1521286015117
1774,East Marymouth,2018-01-27 12:18:40,43.06,6911376462689
1775,Lewishaven,2018-04-27 02:28:49,14.01,6524982895248
1776,North Richardhaven,2018-01-28 23:31:02,21.85,3776624333431
1777,New Raymond,2018-03-08 17:43:57,34.45,8895706094475
1778,South Teresa,2018-04-19 07:57:59,17.27,6681698470401
1779,Lake Ann,2018-05-07 20:40:29,24.89,7356790519585
1780,West Kimmouth,2018-01-13 20:10:45,19.47,6504880914159
1781,East Marymouth,2018-04-12 06:51:14,33.18,9393257179959
1782,North Jeffrey,2018-02-28 08:46:35,31.14,6795697365566
1783,Myersshire,2018-01-26 11:16:17,49.22,1973928706653
1784,Williamsonville,2018-01-17 01:26:36,28.65,6114930962810
1785,Victoriaport,2018-01-20 17:06:15,38.74,120114119112
1786,West Hannah,2018-04-19 21:55:50,24.58,2158777299955
1787,Williamsonville,2018-02-12 17:54:17,26.49,8222482354071
1788,Lake Omar,2018-04-06 20:29:14,40.55,8969991191734
1789,East Marymouth,2018-04-02 01:04:22,20.0,9372931333498
1790,Brandonfort,2018-04-07 00:42:08,35.76,2965849159792
1791,Lake Ann,2018-01-15 19:40:34,28.15,3602888331541
1792,Lake Robertside,2018-01-23 00:24:51,46.83,3574535047962
1793,Brandonfort,2018-02-06 02:32:22,35.41,5053221471789
1794,New Olivia,2018-03-27 01:37:59,34.65,7345275995310
1795,Veronicaberg,2018-01-08 16:01:36,30.66,7838733367694
1796,New Shannonberg,2018-04-20 03:18:12,41.85,5509093657955
1797,Grayville,2018-03-14 23:10:28,25.12,3752247297947
1798,South Teresa,2018-03-12 05:26:11,23.46,844456571789
1799,South Brenda,2018-02-19 12:50:35,29.37,676014632508
1800,Lewisland,2018-01-07 17:32:46,17.57,3766610355646
1801,Lake Robertside,2018-02-05 03:17:09,21.45,3670276742040
1802,West Hannah,2018-02-18 14:27:55,40.22,8806342152306
1803,West Kimmouth,2018-02-08 21:11:13,27.93,652476902663
1804,East Marymouth,2018-02-21 19:36:31,41.21,2452243356792
1805,Grayville,2018-02-13 06:07:20,48.59,4964947903977
1806,New Olivia,2018-03-05 22:01:35,19.21,8459793422858
1807,North Timothy,2018-04-29 23:10:18,29.39,6609337294720
1808,East Kentstad,2018-01-26 04:48:10,39.19,9309351390541
1809,East Danielview,2018-04-19 10:36:41,28.28,149455664846
1810,Veronicaberg,2018-02-05 20:42:28,46.91,3271885902940
1811,West Hannah,2018-02-06 20:06:36,18.33,1404494168236
1812,West Hannah,2018-02-16 20:00:05,20.35,7960856155961
1813,Port Shane,2018-03-17 05:25:31,20.74,7228720146935
1814,East Marymouth,2018-03-06 14:00:04,35.95,5147275998894
1815,Veronicaberg,2018-04-25 18:21:25,24.51,6528963448911
1816,Lewisland,2018-01-25 11:35:50,44.61,7557981038155
1817,West Kimmouth,2018-03-16 18:10:06,35.36,6758287550186
1818,North Timothy,2018-04-20 07:06:27,46.24,2785446996718
1819,New Olivia,2018-01-27 12:15:38,46.97,3200697398733
1820,West Hannah,2018-03-25 02:14:26,40.11,4496366887151
1821,Lake Ann,2018-01-24 06:29:33,32.31,2985167321961
1822,Myersshire,2018-03-15 08:22:42,15.71,2813566980895
1823,New Raymond,2018-02-28 07:10:27,17.09,4633367307817
1824,South Teresa,2018-02-12 02:44:55,33.19,757891849972
1825,North Timothy,2018-01-22 02:35:12,48.45,5696833448345
1826,East Danielview,2018-04-07 06:31:28,18.98,6294116769232
1827,Lake Scott,2018-01-30 02:27:30,48.78,1362375316483
1828,Grayville,2018-04-14 21:00:30,49.85,9370121969267
1829,South Teresa,2018-03-25 01:20:22,17.99,7613757294696
1830,Lake Robertside,2018-04-01 03:17:42,28.07,1677403080435
1831,Barronchester,2018-03-02 23:36:58,36.49,4031573980778
1832,Nicolechester,2018-05-02 19:48:56,23.06,5828377870379
1833,Lewishaven,2018-01-15 15:04:33,22.44,9661336278580
1834,Lake Omar,2018-02-26 11:53:18,12.49,4144926815389
1835,Victoriaport,2018-01-23 19:59:28,27.09,332810547902
1836,Williamsonville,2018-03-19 08:30:01,44.85,9120219182883
1837,South Brenda,2018-01-03 21:29:48,19.99,5348015913836
1838,New Olivia,2018-01-25 12:12:35,39.12,7574705283264
1839,New Raymond,2018-05-03 08:35:40,13.36,8610489975793
1840,West Kimmouth,2018-02-06 00:42:46,13.59,8837906500110
1841,West Hannah,2018-05-05 07:51:30,36.08,1865982674514
1842,East Aaronbury,2018-04-19 17:18:53,29.27,7201712919915
1843,Lewisland,2018-03-10 02:11:51,40.27,6284436941920
1844,North Timothy,2018-01-14 16:59:57,15.06,1236752354897
1845,Rodriguezview,2018-02-15 10:47:34,45.4,520468701702
1846,North Jeffrey,2018-03-07 02:57:25,29.34,2592274379299
1847,Josephside,2018-02-22 14:39:23,16.97,1757958179553
1848,Grayville,2018-01-03 13:04:14,12.6,8663434111548
1849,West Kimmouth,2018-03-07 22:30:47,29.43,7680298524735
1850,Davidfurt,2018-03-26 04:20:21,28.69,5103497014248
1851,South Brenda,2018-01-16 03:08:59,20.27,3318227122465
1852,North Timothy,2018-01-17 20:12:17,40.87,1506044208
1853,North Richardhaven,2018-03-14 00:49:54,13.09,5413690173766
1854,New Raymond,2018-03-17 04:31:36,18.09,5034860085230
1855,North Jeffrey,2018-02-28 05:55:43,46.4,7546967271839
1856,Lake Scott,2018-02-18 01:12:45,38.47,1402633823343
1857,Colemanland,2018-01-01 00:46:46,47.74,2215912677020
1858,Lake Robertside,2018-03-27 08:12:04,29.07,2044761835165
1859,West Hannah,2018-01-27 19:15:34,22.42,3204384091594
1860,Bethanyland,2018-02-11 17:43:43,23.06,4374740778403
1861,Bethanyland,2018-05-03 04:50:41,40.85,6700635166631
1862,New Olivia,2018-04-10 06:25:27,30.41,7894644277477
1863,North Timothy,2018-02-25 00:01:15,22.27,8604433947851
1864,West Kimmouth,2018-01-17 09:19:38,24.22,8376243116177
1865,Lewishaven,2018-03-02 07:48:06,33.22,810001942984
1866,Grayville,2018-02-18 10:30:42,12.55,999956401477
1867,East Marymouth,2018-05-04 23:18:24,39.07,4459299920401
1868,Davidfurt,2018-03-15 05:02:16,48.34,2406097680527
1869,Sotoville,2018-01-01 02:07:24,24.07,7827431948090
1870,Mezachester,2018-04-29 16:20:21,28.43,7285299006053
1871,Veronicaberg,2018-01-20 05:00:30,22.02,4110343882549
1872,Lewishaven,2018-01-02 17:52:38,20.68,8843800703298
1873,Josephside,2018-03-19 17:33:54,37.42,6758435927204
1874,West Kimmouth,2018-04-05 11:36:47,28.07,3866897536155
1875,New Raymond,2018-03-06 17:11:44,15.53,6118318757913
1876,Barronchester,2018-04-07 14:43:07,21.95,9355805102444
1877,South Teresa,2018-02-24 16:51:34,48.8,8243168014348
1878,Lake Robertside,2018-01-14 19:24:50,21.46,2932610988134
1879,Josephside,2018-02-07 20:52:57,15.98,6788916123740
1880,West Hannah,2018-02-17 17:21:26,12.6,2728504449542
1881,South Brenda,2018-03-23 02:01:07,40.53,2619642444813
1882,Williamsonville,2018-02-19 07:48:32,22.23,1784159251443
1883,New Raymond,2018-01-07 10:02:58,28.74,4252849172271
1884,Brandonfort,2018-01-11 16:25:13,37.35,8701944957703
1885,Colemanland,2018-02-21 22:04:15,30.97,4046533498880
1886,South Teresa,2018-04-19 20:01:34,34.93,9233157012652
1887,Myersshire,2018-03-25 08:26:36,18.16,2364252847065
1888,East Danielview,2018-03-02 02:47:45,14.32,2106097871214
1889,West Hannah,2018-04-23 04:56:58,47.08,6280592482307
1890,Nicolechester,2018-01-07 10:41:44,27.44,1918362930639
1891,Barronchester,2018-02-18 18:35:53,42.32,3493518346796
1892,North Timothy,2018-05-07 14:00:13,26.3,4905173644081
1893,East Aaronbury,2018-04-08 18:59:12,21.29,630560959632
1894,Bethanyland,2018-03-26 18:27:51,24.27,7247229698318
1895,East Danielview,2018-05-03 18:09:16,48.24,3328095712316
1896,New Olivia,2018-01-03 09:58:50,38.31,93262977180
1897,Rodriguezview,2018-01-09 11:55:20,29.19,38504866921
1898,Victoriaport,2018-02-27 17:13:14,44.91,6926633814538
1899,North Jeffrey,2018-01-23 23:42:43,27.11,6332047993934
1900,New Olivia,2018-02-06 20:39:59,13.03,1377412158483
1901,East Danielview,2018-02-28 20:26:11,42.71,2322328798079
1902,Bethanyland,2018-02-18 09:31:03,38.8,9382233946258
1903,Colemanland,2018-02-01 20:59:22,16.11,7600287198570
1904,Grayville,2018-02-26 12:59:19,12.64,543831079079
1905,Nicolechester,2018-03-14 01:22:19,47.93,4423375622633
1906,Bethanyland,2018-02-03 05:47:32,22.82,9675694931759
1907,Nicolechester,2018-01-12 22:48:48,30.79,9523378945731
1908,Port Shane,2018-04-24 10:06:18,45.92,5388908913857
1909,Brandonfort,2018-05-03 02:01:05,41.62,3183134104848
1910,West Kimmouth,2018-04-15 19:22:28,27.16,8180715539698
1911,Williamsonville,2018-01-30 05:20:56,36.81,8085673645484
1912,Josephside,2018-04-02 12:23:30,49.33,482646610544
1913,Josephside,2018-02-17 23:01:31,38.24,1246772113060
1914,Mezachester,2018-04-01 00:02:26,24.4,8959520517319
1915,Josephside,2018-01-18 10:21:24,14.75,6140372981362
1916,North Richardhaven,2018-04-04 21:05:55,23.79,1145658696195
1917,Bethanyland,2018-02-08 19:50:47,28.27,5518527619513
1918,Lake Scott,2018-01-24 19:21:15,47.83,6812435792979
1919,East Danielview,2018-02-19 04:44:18,31.72,7452531647866
1920,East Aaronbury,2018-02-24 16:37:18,36.88,9777191359026
1921,Sotoville,2018-03-28 19:16:00,34.03,3998847011136
1922,Lewishaven,2018-01-18 04:09:11,32.13,2820584591613
1923,Josephside,2018-04-01 03:46:48,23.73,6124496054553
1924,Nicolechester,2018-02-04 09:41:31,49.21,4280425277638
1925,Josephside,2018-03-07 02:22:26,39.17,6540969378023
1926,East Kentstad,2018-05-07 13:29:36,38.74,41356844955
1927,Colemanland,2018-02-28 21:02:12,35.07,8313326364278
1928,Lewishaven,2018-02-22 14:40:05,20.35,3262613628904
1929,Lake Robertside,2018-04-02 08:53:30,21.31,4627574450527
1930,Lake Scott,2018-03-16 23:48:07,28.99,6200936237127
1931,Josephside,2018-05-02 15:30:02,21.33,6697959273414
1932,South Brenda,2018-02-19 18:08:23,45.55,1089080777667
1933,Williamsonville,2018-01-14 07:33:05,40.72,7262117978716
1934,Colemanland,2018-02-26 17:44:43,32.7,7015485636913
1935,New Olivia,2018-03-19 00:04:50,33.43,2163784408979
1936,Lake Robertside,2018-03-12 06:05:13,31.23,3347928183611
1937,Rodriguezview,2018-05-01 09:45:32,26.92,1693857376580
1938,Brandonfort,2018-03-26 19:35:06,19.22,8658457339949
1939,Victoriaport,2018-02-24 07:58:58,45.66,3821426642455
1940,North Richardhaven,2018-01-20 05:13:43,20.89,6068037606187
1941,Colemanland,2018-04-29 07:09:31,34.77,300412726001
1942,Williamsonville,2018-04-04 03:48:54,18.77,7554684315330
1943,Barronchester,2018-03-06 06:36:21,46.07,4553523995651
1944,Lewisland,2018-02-27 18:56:43,36.26,6392138211408
1945,New Raymond,2018-03-07 17:57:04,26.55,6930531081077
1946,South Brenda,2018-01-01 12:32:48,25.56,2613536554411
1947,South Brenda,2018-03-21 22:45:23,49.59,3892938867148
1948,North Timothy,2018-04-14 18:06:52,41.17,2438232081814
1949,East Marymouth,2018-05-06 22:39:31,34.12,9215802774504
1950,Barronchester,2018-03-26 18:27:56,30.32,1775559300626
1951,Mezachester,2018-02-16 17:34:31,29.25,9835001920405
1952,East Kentstad,2018-04-19 14:47:58,44.82,749759967096
1953,East Marymouth,2018-01-11 02:12:41,12.21,56113993388
1954,East Marymouth,2018-02-04 19:03:01,31.44,9309074843829
1955,New Olivia,2018-02-03 08:51:22,42.89,7781146502476
1956,North Jeffrey,2018-04-09 20:40:38,21.2,8490756943935
1957,North Richardhaven,2018-01-19 03:13:31,41.94,4578409710197
1958,Lake Scott,2018-05-05 05:58:08,18.48,7988533791936
1959,West Kimmouth,2018-05-01 09:07:42,23.69,1246934585476
1960,Lewisland,2018-02-21 23:06:09,23.3,7496381116004
1961,Mezachester,2018-01-13 15:21:33,23.83,5270848768904
1962,Williamsonville,2018-05-07 19:45:40,26.11,2816731819556
1963,East Marymouth,2018-04-04 10:59:52,23.38,8033938166342
1964,Veronicaberg,2018-05-07 13:31:26,42.48,3342191575545
1965,Lewisland,2018-03-28 01:32:07,43.77,7963826965157
1966,Lewisland,2018-02-06 20:33:58,33.22,5526285388398
1967,Josephside,2018-02-24 03:58:18,40.92,175388145947
1968,Bethanyland,2018-03-17 20:29:08,44.81,4173232788582
1969,North Richardhaven,2018-02-07 00:21:48,12.58,1426750547562
1970,West Kimmouth,2018-03-09 02:23:55,35.3,5038857869032
1971,Lake Robertside,2018-03-14 19:44:33,35.79,8739155644976
1972,New Shannonberg,2018-02-18 11:25:31,21.66,8774234743607
1973,North Jeffrey,2018-01-14 08:29:25,25.02,4718961352354
1974,Nicolechester,2018-01-08 19:26:40,26.16,890380708814
1975,Williamsonville,2018-03-06 03:55:58,25.69,875560590786
1976,Colemanland,2018-04-23 17:09:32,16.1,3625743778329
1977,West Hannah,2018-04-02 16:29:09,33.41,305585649546
1978,South Brenda,2018-01-16 13:20:41,47.66,4357839290116
1979,Grayville,2018-03-05 12:31:13,14.15,3503584959643
1980,Port Shane,2018-01-28 15:34:02,45.7,5717972357326
1981,Veronicaberg,2018-02-09 06:55:14,26.39,1332831266904
1982,North Jeffrey,2018-02-18 20:41:01,35.03,4480695976433
1983,Nicolechester,2018-02-10 16:40:09,37.22,3464274464697
1984,Grayville,2018-03-20 05:36:50,35.34,3550752500152
1985,West Kimmouth,2018-03-29 04:50:41,34.84,1769610001423
1986,New Raymond,2018-04-08 14:44:02,46.37,249397013068
1987,West Kimmouth,2018-01-09 19:41:26,19.77,684128720530
1988,Brandonfort,2018-01-10 11:10:22,40.2,9840779665113
1989,Victoriaport,2018-01-26 08:07:22,23.94,4200317050989
1990,Port Shane,2018-04-06 11:22:21,43.21,1914497116801
1991,Brandonfort,2018-03-13 23:19:14,21.62,9839553829612
1992,North Jeffrey,2018-01-10 19:17:37,33.85,8089408327447
1993,New Shannonberg,2018-04-20 10:09:38,46.8,591724871965
1994,Barronchester,2018-03-20 18:52:21,35.09,4842145178376
1995,Josephside,2018-04-26 02:02:57,27.2,3027373975367
1996,Rodriguezview,2018-05-05 20:48:58,25.19,5106535806645
1997,South Teresa,2018-03-26 08:11:14,37.29,850174923540
1998,Port Shane,2018-01-15 18:16:14,33.95,5355618218688
1999,New Shannonberg,2018-05-02 11:40:37,13.08,5648104857240
2000,Rodriguezview,2018-04-24 08:08:13,18.22,6271333214592
2001,Lake Ann,2018-02-16 07:08:25,39.8,1712081170198
2002,Myersshire,2018-04-15 00:07:05,32.13,6921142559673
2003,Colemanland,2018-04-22 07:16:32,31.43,8428157821651
2004,Veronicaberg,2018-01-11 16:25:01,31.26,8821668131330
2005,Lewishaven,2018-01-20 12:47:59,35.0,5772262690378
2006,South Brenda,2018-03-04 01:04:32,16.6,2241588692692
2007,East Marymouth,2018-01-23 06:04:50,24.91,5999897094429
2008,Rodriguezview,2018-04-28 00:56:58,26.61,4839793590773
2009,Grayville,2018-01-07 20:09:43,34.62,8238372654152
2010,Nicolechester,2018-03-08 15:28:03,31.71,5157965221973
2011,Lake Scott,2018-05-02 19:14:47,35.54,8218974324882
2012,Rodriguezview,2018-01-12 02:10:45,26.41,899333938858
2013,South Teresa,2018-03-01 13:10:47,34.24,2687120018351
2014,Lake Scott,2018-01-24 08:27:55,23.8,8229383253021
2015,South Brenda,2018-01-28 11:55:30,30.98,5997759060278
2016,South Brenda,2018-01-05 14:49:26,47.38,2885743568189
2017,Josephside,2018-02-03 14:48:11,43.39,7794970551992
2018,Myersshire,2018-04-20 04:56:35,37.15,4253083247831
2019,East Danielview,2018-01-15 03:55:58,21.97,232480080566
2020,North Timothy,2018-02-16 17:53:54,14.94,7964243719064
2021,Sotoville,2018-04-22 03:14:42,31.24,947485590155
2022,Grayville,2018-01-25 10:17:54,39.35,6105114369747
2023,Myersshire,2018-04-30 10:54:39,41.25,5293591413266
2024,Barronchester,2018-01-09 09:01:36,38.57,1246866692006
2025,Mezachester,2018-01-02 16:22:46,47.07,8988357017471
2026,East Marymouth,2018-01-19 19:28:27,29.94,388682296042
2027,West Kimmouth,2018-02-10 23:43:22,23.35,6120955941242
2028,Veronicaberg,2018-01-31 02:16:32,23.41,4299922375235
2029,Josephside,2018-04-10 10:56:10,32.26,5719351601778
2030,Sotoville,2018-04-27 19:45:48,28.84,9913967882910
2031,Veronicaberg,2018-01-18 18:40:38,44.05,1680146549473
2032,Victoriaport,2018-03-19 16:48:22,29.54,3049733980149
2033,New Raymond,2018-01-10 12:41:37,49.19,7827149020422
2034,West Hannah,2018-02-13 09:44:34,42.61,881325632844
2035,East Danielview,2018-05-02 19:46:29,19.41,8119090935931
2036,Veronicaberg,2018-01-29 03:50:50,48.05,5232951662968
2037,Davidfurt,2018-02-03 13:58:48,33.84,7159296242243
2038,Davidfurt,2018-02-20 01:41:29,46.67,2882130044370
2039,South Teresa,2018-04-25 11:50:39,38.81,8758071332545
2040,West Hannah,2018-01-07 19:37:28,46.64,5788569454605
2041,Lake Ann,2018-03-30 17:23:54,23.87,5126729976893
2042,Bethanyland,2018-01-25 01:04:58,41.85,5327294613811
2043,East Danielview,2018-02-14 20:03:27,20.26,7527862127131
2044,South Brenda,2018-02-13 15:40:11,31.67,7824611259311
2045,Colemanland,2018-04-16 18:17:30,42.08,9746040332930
2046,Davidfurt,2018-04-06 15:38:15,17.99,8578112173926
2047,Bethanyland,2018-01-28 08:33:08,23.73,4132453263650
2048,Sotoville,2018-01-21 10:21:39,34.06,569750468503
2049,East Aaronbury,2018-01-10 08:33:56,23.02,9265418287929
2050,Colemanland,2018-01-11 00:28:17,49.28,4064528886108
2051,Lewishaven,2018-04-27 07:18:32,18.56,4919827701525
2052,Lake Omar,2018-01-17 18:29:58,28.54,8212828472590
2053,New Shannonberg,2018-02-12 20:27:25,15.31,9476269782536
2054,North Jeffrey,2018-02-16 19:18:44,26.66,7469051494160
2055,South Brenda,2018-02-14 07:07:15,16.86,5976450384289
2056,North Richardhaven,2018-02-07 13:18:22,27.02,640776642679
2057,South Brenda,2018-04-10 20:04:50,35.83,4342837925450
2058,Grayville,2018-01-20 19:11:21,24.53,6947592015194
2059,Victoriaport,2018-01-15 19:03:42,14.87,8298839690598
2060,South Teresa,2018-04-27 14:37:32,45.77,4660925605764
2061,East Marymouth,2018-04-23 14:20:23,33.66,8238181413445
2062,Lake Omar,2018-03-03 13:17:20,33.97,1570556786998
2063,Lake Scott,2018-02-18 11:38:56,47.37,2725683739303
2064,Port Shane,2018-02-16 17:52:27,22.81,8253619528942
2065,Davidfurt,2018-04-27 23:52:44,45.98,5455003677202
2066,Lake Ann,2018-01-10 04:20:54,18.22,2895881593219
2067,New Raymond,2018-01-31 19:56:10,12.87,2300620387580
2068,West Hannah,2018-03-09 11:22:47,21.44,8328600205710
2069,Port Shane,2018-03-23 09:36:42,18.58,3261384321632
2070,Barronchester,2018-02-04 14:59:51,45.75,7216532928092
2071,Davidfurt,2018-02-12 10:07:16,49.55,3639310284076
2072,Grayville,2018-05-01 14:27:25,26.26,6822744471748
2073,Lake Robertside,2018-02-24 06:25:27,41.57,9698934979724
2074,North Richardhaven,2018-01-16 13:38:10,21.06,1764356146391
2075,Lewisland,2018-03-01 04:34:45,43.77,5013467166832
2076,Mezachester,2018-02-13 09:16:55,38.55,8133381670844
2077,Sotoville,2018-01-02 00:13:08,44.71,9903881959478
2078,Mezachester,2018-04-19 09:25:56,17.51,1734496517986
2079,South Teresa,2018-04-15 08:06:49,23.06,6617189687737
2080,Davidfurt,2018-02-18 07:04:48,17.06,2084060010290
2081,Lewisland,2018-02-18 12:17:12,23.87,4513268292101
2082,East Aaronbury,2018-04-04 06:02:51,16.9,7217036357951
2083,Mezachester,2018-02-17 13:16:12,34.17,1421347299190
2084,North Timothy,2018-02-24 13:40:17,12.86,3764664570879
2085,Veronicaberg,2018-04-23 20:34:22,47.51,9507116448586
2086,Lake Scott,2018-03-16 18:07:57,20.1,5406585974241
2087,New Raymond,2018-03-19 17:37:16,28.19,3977892106882
2088,Josephside,2018-02-10 07:56:36,35.39,8536819929307
2089,East Kentstad,2018-03-18 11:45:35,33.83,626555199862
2090,Williamsonville,2018-04-25 17:18:29,32.93,556441887538
2091,East Kentstad,2018-04-12 15:21:04,17.26,8439534813565
2092,New Olivia,2018-03-22 05:00:48,24.8,4465618249825
2093,Lake Ann,2018-02-08 10:30:53,40.27,3079663500261
2094,Lake Omar,2018-03-29 20:14:14,14.77,6602868027942
2095,Lake Omar,2018-01-17 04:55:14,35.94,8675080477848
2096,Josephside,2018-02-28 11:07:35,41.18,2441492794912
2097,East Kentstad,2018-03-04 21:52:28,20.83,2470074225551
2098,Williamsonville,2018-03-22 03:05:41,38.41,1339341405106
2099,Bethanyland,2018-04-30 19:49:17,27.99,9682191340144
2100,North Timothy,2018-04-18 00:06:36,26.98,3678364339721
2101,Lake Ann,2018-03-13 05:28:21,45.43,335807761084
2102,Mezachester,2018-04-14 02:15:14,15.17,8116011135739
2103,New Shannonberg,2018-04-17 20:06:46,39.47,6598931265314
2104,West Kimmouth,2018-03-24 21:04:18,49.96,5947895540295
2105,New Raymond,2018-02-01 04:56:29,35.6,225009743639
2106,East Danielview,2018-05-04 02:14:41,40.02,3640764732617
2107,Brandonfort,2018-04-19 05:52:21,44.24,1398339465829
2108,New Olivia,2018-04-10 23:05:53,48.31,4543213413466
2109,Myersshire,2018-02-15 13:31:47,40.6,5023008700180
2110,Davidfurt,2018-02-01 04:21:21,20.44,185973569492
2111,Port Shane,2018-02-16 03:35:52,29.99,3154243503143
2112,South Brenda,2018-03-08 11:06:45,41.85,6400430703481
2113,New Shannonberg,2018-02-26 18:56:01,24.28,555903549786
2114,Lake Scott,2018-02-02 05:37:58,26.45,1380579812273
2115,Rodriguezview,2018-02-19 08:21:56,42.1,4263534958353
2116,Lake Robertside,2018-03-30 00:54:10,16.53,30234681362
2117,Veronicaberg,2018-03-28 11:03:53,26.01,5590782942872
2118,Colemanland,2018-02-16 03:51:28,15.04,4027289544137
2119,Myersshire,2018-04-24 08:51:54,26.84,389314834526
2120,New Olivia,2018-05-07 02:49:39,15.41,4679029017700
2121,Nicolechester,2018-03-08 16:35:39,26.12,1533901420718
2122,South Brenda,2018-04-26 23:15:57,33.74,1472991161012
2123,South Teresa,2018-02-23 16:30:58,26.28,7865030868395
2124,North Timothy,2018-02-19 14:30:03,22.97,8115506711014
2125,Davidfurt,2018-02-03 03:14:14,40.18,8116976277000
2126,East Danielview,2018-04-16 21:06:59,42.94,7303786315799
2127,Brandonfort,2018-03-16 20:49:24,19.23,4358700532755
2128,Lake Robertside,2018-01-23 00:46:21,14.29,2342891922329
2129,South Brenda,2018-04-27 07:34:33,30.28,7027003974735
2130,South Teresa,2018-01-20 08:25:35,30.37,9592212724627
2131,East Danielview,2018-03-04 04:10:30,17.89,7640214407429
2132,New Shannonberg,2018-05-02 21:53:54,28.99,3407814170184
2133,Barronchester,2018-04-28 11:49:26,39.19,9917743781176
2134,Barronchester,2018-03-19 19:18:34,46.42,2887135489546
2135,West Hannah,2018-02-22 23:29:54,23.36,8179599163204
2136,Nicolechester,2018-04-28 17:38:09,34.87,5101938181160
2137,Lake Robertside,2018-02-10 15:11:49,20.98,7334654996000
2138,Colemanland,2018-02-10 03:12:51,35.76,8313085686130
2139,Bethanyland,2018-04-17 22:37:19,28.68,3150943404490
2140,East Marymouth,2018-04-09 01:04:45,29.03,8442867478882
2141,Rodriguezview,2018-04-22 20:56:25,44.68,1139538927721
2142,Colemanland,2018-02-19 02:23:12,23.45,1224675465837
2143,Lake Omar,2018-04-13 23:28:53,25.61,3667785871064
2144,Davidfurt,2018-04-18 15:43:15,47.3,8289341261260
2145,Davidfurt,2018-04-03 17:52:26,21.29,3934287956576
2146,New Raymond,2018-03-28 14:25:57,14.75,775062900062
2147,Lake Scott,2018-02-02 14:18:01,17.55,3947371887816
2148,Lake Scott,2018-02-22 06:26:20,37.51,2591847562779
2149,West Kimmouth,2018-02-02 19:04:15,36.71,6548125907667
2150,Davidfurt,2018-05-07 14:38:35,13.05,112651587608
2151,Port Shane,2018-03-27 11:55:03,28.8,4399576445435
2152,Lake Ann,2018-05-02 06:15:27,47.44,9066125697564
2153,North Timothy,2018-04-24 12:24:07,37.71,4499083218611
2154,East Marymouth,2018-02-24 18:02:03,27.38,5224420391332
2155,Lake Robertside,2018-01-25 21:44:01,48.81,6513320580236
2156,Josephside,2018-02-25 10:17:56,35.8,2851091718101
2157,Lake Robertside,2018-01-13 04:32:34,44.66,1757337269943
2158,East Marymouth,2018-03-22 21:54:52,14.13,6502763171569
2159,South Teresa,2018-01-13 15:30:59,20.93,6769227645725
2160,Lake Robertside,2018-04-27 06:20:30,28.29,9595531359907
2161,Lake Robertside,2018-04-07 06:35:19,46.5,5127948881753
2162,Lake Omar,2018-01-03 01:16:44,14.61,7117229626058
2163,Bethanyland,2018-03-23 21:53:17,40.07,635880709905
2164,West Kimmouth,2018-04-29 02:04:02,31.59,8390234821673
2165,Lewisland,2018-02-11 09:00:54,30.56,5326773625369
2166,Barronchester,2018-04-02 19:38:11,28.55,9112683292489
2167,Mezachester,2018-05-07 15:34:59,44.87,6587866363080
2168,Rodriguezview,2018-04-07 03:41:34,13.71,4666115197316
2169,Lewishaven,2018-04-12 15:01:08,49.15,6411391533857
2170,South Brenda,2018-02-18 06:29:58,41.32,9773072633339
2171,Lake Omar,2018-04-15 16:39:18,45.64,3815903694990
2172,Lewisland,2018-01-30 14:09:33,46.7,9374525917640
2173,Nicolechester,2018-01-22 14:48:11,32.03,8085252242059
2174,Lake Scott,2018-01-11 00:04:46,23.44,8557671784736
2175,Davidfurt,2018-02-05 18:23:12,27.55,6574875170013
2176,Port Shane,2018-04-18 00:52:13,12.05,1546787116583
2177,Bethanyland,2018-03-14 09:47:00,44.31,578529678609
2178,South Teresa,2018-03-08 05:29:57,42.68,6551180794639
2179,Josephside,2018-04-12 14:30:09,37.37,2632691672747
2180,Myersshire,2018-04-17 23:24:53,20.51,4670054095602
2181,Victoriaport,2018-02-06 16:28:16,45.86,6844387386722
2182,Brandonfort,2018-01-30 01:51:47,17.5,6477215459314
2183,Bethanyland,2018-03-15 13:10:56,39.66,9766441752274
2184,East Marymouth,2018-03-05 19:06:05,25.44,7451160581213
2185,North Jeffrey,2018-03-19 06:00:46,31.16,2458737372712
2186,Victoriaport,2018-01-29 04:04:14,35.5,2186096734505
2187,Mezachester,2018-01-15 04:53:21,16.6,3356054696964
2188,Rodriguezview,2018-02-14 01:59:34,30.39,9180465878718
2189,West Hannah,2018-02-23 11:22:24,23.5,7798764898362
2190,Port Shane,2018-03-17 00:39:06,47.75,1417424358447
2191,Colemanland,2018-01-22 10:21:39,46.43,3162069407712
2192,Nicolechester,2018-03-28 04:12:36,26.22,122825163859
2193,Josephside,2018-01-02 07:26:53,33.57,8530928702936
2194,Lewisland,2018-01-23 18:17:47,26.69,4360442122613
2195,South Teresa,2018-02-11 15:07:10,28.64,321467917473
2196,West Kimmouth,2018-02-18 11:53:43,49.38,1631556717891
2197,Davidfurt,2018-03-09 23:07:34,26.24,4652485631550
2198,North Jeffrey,2018-02-21 12:56:58,22.96,6853853007740
2199,East Kentstad,2018-04-10 20:44:59,21.38,9078911188125
2200,Brandonfort,2018-04-04 21:13:48,21.56,8108433190649
2201,Lewishaven,2018-03-29 07:24:39,14.21,126282973686
2202,East Danielview,2018-04-26 08:14:46,40.76,2970656303504
2203,Veronicaberg,2018-04-02 03:59:06,16.63,4528063518400
2204,Lake Omar,2018-05-05 23:39:30,12.45,6384097735231
2205,Lake Omar,2018-04-13 07:09:45,24.9,9454078998713
2206,Josephside,2018-03-18 22:55:17,35.58,5452607795035
2207,Port Shane,2018-03-19 12:25:21,40.39,910341409632
2208,Rodriguezview,2018-02-21 01:34:23,36.37,4984772129854
2209,East Kentstad,2018-01-10 11:15:30,24.65,7201954660361
2210,Brandonfort,2018-03-03 04:25:34,46.01,2286156952037
2211,North Timothy,2018-03-17 08:33:35,45.33,1758423447313
2212,North Richardhaven,2018-03-19 05:25:09,18.01,2804269420276
2213,East Danielview,2018-02-04 11:01:24,38.38,2528683882693
2214,Colemanland,2018-04-05 05:23:54,43.91,389097028280
2215,East Marymouth,2018-03-13 08:07:04,27.54,9783793502623
2216,Lake Robertside,2018-02-16 07:14:19,47.31,6267383613454
2217,North Jeffrey,2018-04-27 10:17:26,20.41,903066642569
2218,East Danielview,2018-03-27 16:22:09,36.0,1410739354876
2219,New Olivia,2018-02-05 22:03:38,35.76,5894786968785
2220,Lake Robertside,2018-02-12 09:45:02,20.03,9626340588797
2221,South Brenda,2018-03-19 19:25:49,48.98,8685637991901
2222,Josephside,2018-04-24 10:29:15,42.58,1067620076654
2223,West Kimmouth,2018-03-05 22:04:15,48.2,321833677
2224,Barronchester,2018-04-05 14:12:55,33.5,91435348621
2225,Bethanyland,2018-03-06 10:01:58,13.86,8571759718178
2226,Lake Omar,2018-02-20 21:56:22,33.61,2721355482706
2227,Williamsonville,2018-04-28 19:35:03,16.96,9631291999264
2228,Colemanland,2018-01-19 15:24:42,24.4,6652560250346
2229,Port Shane,2018-01-30 20:43:57,49.52,8262792633558
2230,West Kimmouth,2018-03-13 14:50:48,18.72,9388333400065
2231,Nicolechester,2018-05-05 08:45:58,15.43,8496653987287
2232,Mezachester,2018-04-19 19:05:10,29.12,8894988518709
2233,New Olivia,2018-03-27 09:35:08,34.54,4642968219429
2234,East Danielview,2018-01-25 11:58:33,48.32,1831668503737
2235,Brandonfort,2018-04-15 04:12:53,47.17,7388012906675
2236,Port Shane,2018-04-03 22:33:51,15.59,127445516863
2237,Colemanland,2018-05-04 04:24:31,12.62,4902707063158
2238,South Teresa,2018-03-05 19:18:37,32.29,4981692995989
2239,South Brenda,2018-04-25 07:08:25,23.6,1784015692342
2240,East Aaronbury,2018-04-11 03:24:14,34.4,6540905865488
2241,Sotoville,2018-03-13 16:06:10,14.36,8629533024103
2242,West Hannah,2018-01-21 19:54:08,41.95,16507766547
2243,South Teresa,2018-03-09 09:54:33,25.08,8136313906059
2244,Bethanyland,2018-04-02 04:29:09,34.38,1783847934910
2245,West Hannah,2018-03-02 17:06:03,13.92,7388937249208
2246,Lake Robertside,2018-04-03 03:27:45,12.76,1301757653884
2247,Colemanland,2018-01-10 06:49:58,27.7,8704067171414
2248,East Marymouth,2018-02-12 23:18:53,47.41,7409660239158
2249,New Raymond,2018-02-11 17:28:27,17.97,7551674475043
2250,Randallchester,2018-04-13 11:13:31,43.22,1076079536213
2251,North Holly,2018-02-02 14:54:00,12.42,1985256326182
2252,Michaelberg,2018-03-27 18:27:34,54.85,4421836952718
2253,Lake Latoyabury,2018-02-23 21:12:24,47.9,3269652929887
2254,Lake Latoyabury,2018-05-06 08:57:56,51.8,4018025271936
2255,Taylorhaven,2018-04-06 01:01:29,45.31,2275364435623
2256,Garzaport,2018-02-18 18:27:48,36.16,2928337561347
2257,New Ryantown,2018-01-27 17:33:41,42.68,7994603753131
2258,Lake Latoyabury,2018-04-02 21:00:22,13.46,8232864757802
2259,North Holly,2018-02-16 17:02:51,39.46,4571476032148
2260,Bradshawfurt,2018-03-06 21:44:53,19.74,6080367372860
2261,South Marychester,2018-02-19 00:23:09,32.72,1481751072369
2262,Bradshawfurt,2018-03-24 18:53:18,57.51,2301998876294
2263,Lake Latoyabury,2018-01-22 12:42:55,13.5,8493335787500
2264,South Marychester,2018-01-02 11:18:32,52.12,3454018971635
2265,Jessicaport,2018-01-01 09:45:36,43.69,2424875833354
2266,South Jennifer,2018-04-01 09:32:45,21.63,9135979586871
2267,South Marychester,2018-02-21 19:16:48,55.4,8822356392057
2268,South Saramouth,2018-02-20 16:32:36,44.29,3622365199969
2269,Lake Latoyabury,2018-04-22 16:56:46,38.46,1671918742352
2270,Lake Jamie,2018-03-13 06:41:49,26.09,1599158550738
2271,Newtonview,2018-01-08 06:19:45,19.39,5350347217506
2272,Michaelberg,2018-01-18 00:46:28,15.12,1031697508349
2273,Jessicaport,2018-01-14 07:09:17,18.05,5405362355006
2274,South Marychester,2018-01-15 21:44:26,30.26,3837056996776
2275,North Jaime,2018-03-06 09:09:23,44.17,1152195873170
2276,Penaborough,2018-02-24 00:44:00,21.89,2069309881916
2277,North Jaime,2018-03-12 13:05:56,23.21,5987447089759
2278,Lake Latoyabury,2018-04-16 21:12:48,24.1,4896030744313
2279,South Jennifer,2018-03-07 19:10:13,48.79,9730627367446
2280,Taylorhaven,2018-03-05 21:19:53,38.18,8555320757742
2281,Jessicaport,2018-04-13 16:08:11,39.89,6511242590852
2282,South Marychester,2018-03-27 12:07:50,34.42,4230150157651
2283,Penaborough,2018-04-27 06:02:10,38.33,547013925055
2284,New Ryantown,2018-04-18 19:43:54,42.97,230914178346
2285,North Jaime,2018-04-04 13:13:40,51.83,9116047435376
2286,Harringtonfort,2018-01-06 07:38:40,47.33,3849747342021
2287,South Jennifer,2018-04-05 14:35:42,32.2,683983658392
2288,North Holly,2018-01-04 03:31:26,24.88,4195619112933
2289,Newtonview,2018-02-05 22:53:21,45.02,7075366458478
2290,Randallchester,2018-02-19 03:52:47,58.55,8004803682564
2291,Bradshawfurt,2018-03-24 07:34:03,19.89,7867402022145
2292,South Marychester,2018-02-25 19:06:00,54.66,3137562921713
2293,Bradshawfurt,2018-02-18 22:21:26,34.32,8881996813087
2294,Bradshawfurt,2018-04-08 13:46:03,55.19,1742954306812
2295,Jessicaport,2018-03-18 16:59:40,33.72,3046889917159
2296,Michaelberg,2018-03-27 21:48:36,38.62,364151831884
2297,West Heather,2018-03-12 04:22:26,26.55,7035849392668
2298,Garzaport,2018-04-17 01:48:27,17.31,6092414045061
2299,North Jaime,2018-02-01 08:59:24,17.05,9481117811603
2300,New Ryantown,2018-02-04 23:54:51,45.7,3570428225530
2301,North Holly,2018-04-21 21:14:22,18.54,6259094156900
2302,West Heather,2018-02-22 09:01:37,17.4,8702491506161
2303,Taylorhaven,2018-04-03 05:41:37,38.92,8300454322089
2304,Bradshawfurt,2018-04-07 21:12:49,49.7,5088814323688
2305,Michaelberg,2018-01-11 04:39:27,16.42,8800556719157
2306,Michaelberg,2018-04-22 17:28:52,19.27,26848733115
2307,North Holly,2018-03-28 00:12:09,35.45,3262489198068
2308,North Jaime,2018-05-06 00:58:17,41.18,7328094869758
2309,North Jaime,2018-04-04 01:58:37,43.86,8195436622338
2310,South Marychester,2018-04-23 12:21:59,25.94,2936618556180
2311,North Holly,2018-01-23 06:52:00,40.24,3921870176169
2312,Michaelberg,2018-05-02 11:57:42,52.71,5649532113861
2313,West Heather,2018-02-22 01:46:43,33.38,5551691454078
2314,Bradshawfurt,2018-02-23 12:00:59,37.05,2068423024643
2315,Penaborough,2018-01-14 15:58:48,54.1,432925983890
2316,New Ryantown,2018-04-30 01:50:44,50.81,5357550405010
2317,Michaelberg,2018-01-19 12:38:07,38.68,103217578833
2318,Taylorhaven,2018-04-01 16:37:45,54.65,9098060466868
2319,South Jennifer,2018-04-02 10:26:50,14.11,3828267773041
2320,Bradshawfurt,2018-04-10 09:47:54,19.07,739305106253
2321,Taylorhaven,2018-03-05 04:46:17,29.45,2159383884146
2322,Harringtonfort,2018-02-17 04:42:56,30.58,6835140871685
2323,Randallchester,2018-02-11 05:42:29,25.78,9010611749008
2324,New Ryantown,2018-04-05 21:38:18,50.98,4834855490008
2325,Penaborough,2018-02-03 17:15:31,51.8,5383427508621
2326,South Jennifer,2018-04-10 20:46:11,43.25,623928772332
2327,Lake Jamie,2018-04-30 21:26:22,37.33,6755483470287
2328,Harringtonfort,2018-04-16 16:30:50,17.39,4023962353348
2329,South Jennifer,2018-01-30 01:40:16,37.05,9545375482385
2330,Bradshawfurt,2018-01-19 20:21:54,56.78,1253403506597
2331,Jessicaport,2018-05-01 08:14:47,22.44,3725278487786
2332,Lake Latoyabury,2018-03-29 09:11:30,13.84,7906858980361
2333,Lake Jamie,2018-01-18 07:36:46,43.57,1174957961925
2334,Randallchester,2018-03-25 13:36:46,10.37,3216382725494
2335,Harringtonfort,2018-03-10 10:11:37,19.02,6717313402790
2336,Lake Latoyabury,2018-01-24 13:32:12,34.74,5962674963447
2337,Taylorhaven,2018-04-02 09:17:31,47.07,8573150084531
2338,South Jennifer,2018-03-11 00:51:24,49.82,1145342227278
2339,Harringtonfort,2018-02-26 07:03:11,54.66,9201585331171
2340,Newtonview,2018-04-01 13:39:13,26.73,3723530332713
2341,Michaelberg,2018-03-10 10:05:15,56.48,3757070857078
2342,Penaborough,2018-01-22 15:36:24,10.11,4129933467653
2343,Lake Latoyabury,2018-04-14 07:06:11,11.94,2040674187360
2344,North Jaime,2018-04-27 17:58:27,14.01,2156688209209
2345,West Heather,2018-02-04 16:29:23,13.97,7118893881453
2346,West Heather,2018-04-18 19:33:12,46.6,3671003215967
2347,West Heather,2018-03-02 21:04:10,20.99,5766454453070
2348,South Saramouth,2018-01-28 15:55:33,31.25,7118046558393
2349,West Heather,2018-03-06 20:06:51,48.11,2570548892682
2350,Garzaport,2018-05-06 16:57:16,18.9,8826696981094
2351,South Saramouth,2018-03-27 21:07:16,11.87,170351888128
2352,Randallchester,2018-04-07 23:42:07,10.79,1615474447641
2353,Harringtonfort,2018-01-09 15:30:35,31.84,3730685356921
2354,South Saramouth,2018-04-12 18:11:50,57.23,5081198789583
2355,North Holly,2018-01-03 19:51:01,19.9,5559509612597
2356,New Ryantown,2018-05-05 19:29:38,26.53,2302209966018
2357,West Heather,2018-02-02 06:28:04,53.07,2462950442268
2358,Lake Latoyabury,2018-02-25 04:10:19,16.18,8492924830016
2359,South Marychester,2018-01-19 11:40:46,49.44,90058815985
2360,Jessicaport,2018-01-31 17:57:25,58.29,623154556195
2361,Michaelberg,2018-03-22 22:20:54,38.3,8032727406577
2362,North Holly,2018-04-18 19:26:25,30.94,3441061016826
2363,Michaelberg,2018-03-13 14:40:18,37.72,8842606115175
2364,Lake Jamie,2018-02-25 23:46:02,28.65,5815763839331
2365,Lake Jamie,2018-04-19 04:32:47,16.29,3518682119233
2366,North Holly,2018-03-18 10:38:05,40.34,3787775176860
2367,Michaelberg,2018-01-27 18:43:05,38.42,862622008020
2368,Lake Jamie,2018-04-29 01:58:44,54.22,2489264790267
2369,Bradshawfurt,2018-01-30 10:55:23,51.39,1328274868072
2370,Michaelberg,2018-04-29 17:04:39,13.38,8550365057598
2371,Lake Latoyabury,2018-01-30 00:05:47,20.76,9018727594352
2372,North Jaime,2018-02-10 21:03:50,11.11,2781339863778
2373,West Heather,2018-05-07 19:22:15,44.94,4256853490277
2374,Newtonview,2018-04-25 10:20:13,55.84,9990581345298
