,Country / territory of asylum/residence,Year
0,Albania,211552
1,Australia,6563431
2,Austria,6958781
3,Belgium,9633047
4,Bosnia and Herzegovina,273945
5,Bulgaria,1884007
6,Canada,15292622
7,Croatia,951946
8,Cyprus,2736854
9,Czech Rep.,3530311
10,Denmark,5663087
11,Estonia,289903
12,Finland,4666965
13,France,10666551
14,Germany,11079470
15,Greece,4791640
16,Hungary,3899638
17,Iceland,766850
18,Ireland,5333701
19,Italy,4694665
20,Japan,2295612
21,Latvia,338252
22,Liechtenstein,430048
23,Lithuania,495061
24,Luxembourg,2632039
25,Malta,1331402
26,Montenegro,529744
27,Netherlands,8517672
28,New Zealand,1795368
29,Norway,6953904
30,Poland,2690746
31,Portugal,1352657
32,Rep. of Korea,2176550
33,Romania,2318035
34,Serbia and Kosovo: S/RES/1244 (1999),970155
35,Slovakia,1785741
36,Slovenia,1447956
37,Spain,6449049
38,Sweden,10323019
39,Switzerland,9195455
40,The former Yugoslav Rep. of Macedonia,424732
41,Turkey,2837209
42,USA (EOIR),10743965
43,USA (INS/DHS),12017479
44,United Kingdom of Great Britain and Northern Ireland,10937520
