,city,ride_id
0,Alvarezhaven,22
1,Alyssaberg,22
2,Antoniomouth,14
3,Aprilchester,11
4,Arnoldview,25
5,Carrollfort,23
6,Davidtown,19
7,Davistown,21
8,East Douglas,17
9,East Erin,19
10,Edwardsbury,21
11,Eriktown,14
12,Fosterside,15
13,Jacobfort,25
14,Kellershire,14
15,Kelseyland,21
16,Kimberlychester,18
17,Lake Jeffreyland,16
18,Lake Jennaton,16
19,Lake Sarashire,15
20,Lake Stevenbury,16
21,Lisatown,16
22,Lisaville,20
23,Maryside,15
24,Mooreview,15
25,New Aaron,12
26,New Andreamouth,17
27,New Christine,17
28,New David,21
29,New Jeffrey,19
30,New Maryport,13
31,Nguyenbury,19
32,Pamelahaven,9
33,Pearsonberg,11
34,Port Johnstad,24
35,Port Josephfurt,15
36,Port Martinberg,13
37,Port Samantha,19
38,Prattfurt,21
39,Rodriguezburgh,13
40,Russellport,14
41,Sandymouth,22
42,Sarabury,21
43,Smithhaven,21
44,South Bryanstad,16
45,South Josephville,20
46,South Louis,24
47,South Roy,14
48,Spencertown,23
49,Stewartview,23
50,Swansonbury,27
51,Torresshire,19
52,Travisville,16
53,Vickimouth,10
54,West Alexis,15
55,West Brandy,23
56,West Brittanyton,15
57,West Dawnfurt,24
58,West Jefferyfurt,16
59,West Oscar,20
60,West Peter,24
61,West Sydneyhaven,13
62,Williamshire,25
63,Wiseborough,16
64,Yolandafurt,14
65,Zimmermanmouth,19
