,Name,Team,Position,SnapsPlayed
0,Alvin Kamara,NO,RB,464
1,Dion Lewis,NE,RB,404
2,Todd Gurley,LAR,RB,796
3,Alex Collins,BAL,RB,378
4,Mark Ingram,NO,RB,570
5,Orleans Darkwa,NYG,RB,315
6,Kareem Hunt,KC,RB,670
7,Leonard Fournette,JAX,RB,564
8,Latavius Murray,MIN,RB,421
9,Chris Thompson,WAS,RB,338
10,Tevin Coleman,ATL,RB,425
11,Dalvin Cook,MIN,RB,169
12,Marshawn Lynch,OAK,RB,462
13,Melvin Gordon,LAC,RB,750
14,Jordan Howard,CHI,RB,578
15,Bilal Powell,NYJ,RB,401
16,Derrick Henry,TEN,RB,411
17,Ezekiel Elliott,DAL,RB,591
18,Devonta Freeman,ATL,RB,552
19,Joe Mixon,CIN,RB,385
20,LeSean McCoy,BUF,RB,722
21,LeGarrette Blount,PHI,RB,353
22,Le'Veon Bell,PIT,RB,945
23,Jonathan Stewart,CAR,RB,407
24,Jamaal Williams,GB,RB,443
25,Marlon Mack,IND,RB,310
26,Ameer Abdullah,DET,RB,378
27,Frank Gore,IND,RB,555
28,Javorius Allen,BAL,RB,465
29,Kapri Bibbs,WAS,RB,105
30,Tarik Cohen,CHI,RB,360
31,Duke Johnson,CLE,RB,565
32,TJ Yeldon,JAX,RB,230
33,Ty Montgomery,GB,RB,274
