,artist_name,speechiness,instrumentalness,danceability,energy,acousticness
0,*NSYNC,0.05808733333333328,0.020642031333333324,0.6066897777777788,0.6769354814814823,0.22410154333333313
1,AOA,0.0736487804878049,0.09804646593495933,0.6650813008130083,0.8478455284552845,0.1598736845528456
2,BIGBANG,0.10821862891207171,0.006586041371087929,0.5826274217585696,0.8329001490312962,0.10963977928464974
3,BTS,0.17284360730593618,0.012399598173515979,0.6014543378995427,0.801566210045662,0.11814187442922376
4,Backstreet Boys,0.05463613861386136,0.011073492227722772,0.6099108910891086,0.7213339933993397,0.13841756303630376
5,GFRIEND,0.054406504065040634,0.28985891317073165,0.6175447154471543,0.7190658536585365,0.25307520325203253
6,Girls' Generation,0.07291747851002862,0.052388660859598854,0.670789684813753,0.7978825214899715,0.2288577994269343
7,Kelly Clarkson,0.0821625000000001,0.007362783469827585,0.5513685344827588,0.7028887931034491,0.16661073275862065
8,Lady Gaga,0.09781410788381728,0.019858562385892127,0.5916203319502074,0.6790122406639006,0.20762410933609954
9,One Direction,0.04923823529411768,0.0028869026470588234,0.58881045751634,0.7465261437908494,0.12230869509803924
10,Red Velvet,0.09495052631578949,0.017681994736842104,0.6688736842105263,0.7481578947368422,0.22472515789473696
11,SHINee,0.08350449438202254,0.014345788157303373,0.6370853932584276,0.8070921348314591,0.1439481826966292
12,Wanna One,0.09488148148148146,0.0,0.6168148148148147,0.787222222222222,0.19965185185185183
13,iKON,0.09386684210526317,0.028128174105263158,0.6302105263157891,0.7966210526315791,0.19137969868421037
