,country,cpi
0,New Zealand,9.55
1,Denmark,9.32
2,Singapore,9.26
3,Finland,9.12
4,Canada,8.87
5,Sweden,8.87
6,Australia,8.8
7,Switzerland,8.76
8,The Netherlands,8.69
9,Norway,8.61
10,Ireland,8.57
11,United Kingdom,8.57
12,Germany,8.14
13,Chile,7.94
14,USA,7.79
15,Austria,7.13
16,Hong Kong,7.12
17,France,7.0
18,Belgium/Luxembourg,6.85
19,Japan,6.72
