,country,cpi
0,Denmark ,10.0
1,Finland ,9.8
2,New Zealand ,9.4
3,Canada ,9.2
4,Singapore ,9.1
5,Netherlands ,9.0
6,Norway ,8.9
7,Luxembourg ,8.8
8,Australia ,8.7
9,United Kingdom ,8.6
10,Germany ,8.0
11,Hong Kong ,7.7
12,Austria ,7.6
13,USA ,7.5
14,Chile ,6.9
15,Israel ,6.8
16,Portugal ,6.7
17,France ,6.6
18,Botswana ,6.1
19,Japan ,6.0
20,Estonia ,5.7
21,Taiwan ,5.6
22,Belgium ,5.3
23,Hungary ,5.2
24,Costa Rica ,5.1
25,South Africa ,5.0
26,Greece ,4.9
27,Italy ,4.7
28,Czech Republic ,4.6
29,Peru ,4.5
30,Jordan ,4.4
31,Mongolia ,4.3
32,Poland ,4.2
33,Brazil ,4.1
34,El Salvador ,3.9
35,Jamaica ,3.8
36,Slovak Republic ,3.7
37,Philippines ,3.6
38,Mozambique ,3.5
39,Belarus ,3.4
40,Bulgaria ,3.3
41,Guatemala ,3.2
42,Nicaragua ,3.1
43,Argentina ,3.0
44,Colombia ,2.9
45,Croatia ,2.7
46,Ivory Coast ,2.6
47,Armenia ,2.5
48,Ecuador ,2.4
49,Albania ,2.3
