,name,sex,number
0,Mary,F,13446
1,Anna,F,5950
2,Helen,F,4023
3,Margaret,F,3931
4,Elizabeth,F,3603
5,Ruth,F,3551
6,Florence,F,3471
7,Ethel,F,3391
8,Marie,F,3011
9,Emma,F,2952
10,Bertha,F,2626
11,Clara,F,2613
12,Minnie,F,2567
13,Edna,F,2560
14,Bessie,F,2542
15,Lillian,F,2495
16,Alice,F,2457
17,Grace,F,2448
18,Annie,F,2390
19,Mabel,F,2359
20,Rose,F,2262
21,Hazel,F,2252
22,Ida,F,2170
23,Gertrude,F,2129
24,Martha,F,2096
25,Pearl,F,1958
26,Edith,F,1940
27,Myrtle,F,1938
28,Frances,F,1834
29,Nellie,F,1833
30,Esther,F,1803
31,Elsie,F,1795
32,Sarah,F,1777
33,Eva,F,1767
34,Ella,F,1693
35,Laura,F,1643
36,Louise,F,1582
37,Catherine,F,1514
38,Mildred,F,1474
39,Agnes,F,1466
40,Gladys,F,1464
41,Carrie,F,1463
42,Irene,F,1428
43,Lillie,F,1414
44,Julia,F,1380
45,Hattie,F,1338
46,Josephine,F,1334
47,Jessie,F,1300
48,Cora,F,1295
49,Lena,F,1289
50,Mattie,F,1276
51,Mae,F,1193
52,Jennie,F,1177
53,Blanche,F,1156
54,Alma,F,1144
55,Maude,F,1136
56,Dorothy,F,1127
57,Ada,F,1124
58,Mamie,F,1119
59,Stella,F,1026
60,Lucy,F,1016
61,Fannie,F,1012
62,Viola,F,1010
63,Lula,F,987
64,Katherine,F,968
65,Ruby,F,954
66,Maggie,F,890
67,Dora,F,884
68,Marion,F,856
69,Nora,F,846
70,Rosa,F,832
71,Sadie,F,829
72,Beatrice,F,814
73,Beulah,F,760
74,Ellen,F,746
75,Pauline,F,734
76,Vera,F,729
77,Willie,F,724
78,Effie,F,708
79,May,F,691
80,Marguerite,F,680
81,Nettie,F,677
82,Susie,F,674
83,Daisy,F,665
84,Lydia,F,656
85,Della,F,648
86,Evelyn,F,630
87,Virginia,F,628
88,Emily,F,605
89,Kathryn,F,585
90,Olive,F,577
91,Sallie,F,573
92,Nancy,F,566
93,Georgia,F,562
94,Lottie,F,553
95,Flora,F,552
96,Ann,F,551
97,Eleanor,F,544
98,Lizzie,F,543
99,Katie,F,536
100,Lucille,F,532
101,Leona,F,520
102,Theresa,F,515
103,Hilda,F,513
104,Caroline,F,484
105,Charlotte,F,472
106,Addie,F,471
107,Anne,F,462
108,Bernice,F,447
109,Lola,F,446
110,Ollie,F,446
111,Etta,F,445
112,Harriet,F,435
113,Iva,F,435
114,Amanda,F,431
115,Henrietta,F,420
116,Ora,F,416
117,Inez,F,403
118,Jane,F,394
119,Susan,F,393
120,Lela,F,388
121,Rebecca,F,386
122,Mollie,F,382
123,Estelle,F,381
124,Amelia,F,379
125,Loretta,F,365
126,Sara,F,363
127,Goldie,F,358
128,Nannie,F,355
129,Rachel,F,351
130,Betty,F,350
131,Marjorie,F,349
132,Nina,F,348
133,Eula,F,342
134,Matilda,F,339
135,Essie,F,335
136,Eunice,F,334
137,Mable,F,331
138,Olga,F,329
139,Verna,F,326
140,Rosie,F,322
141,Violet,F,316
142,Genevieve,F,313
143,Lois,F,311
144,Maud,F,305
145,Estella,F,304
146,Amy,F,303
147,Hannah,F,301
148,Frieda,F,299
149,Barbara,F,298
150,Christine,F,295
151,Flossie,F,295
152,Maria,F,295
153,Augusta,F,288
154,Belle,F,283
155,Alta,F,277
156,Sylvia,F,276
157,Celia,F,273
158,Eliza,F,273
159,Victoria,F,269
160,Marian,F,265
161,Kate,F,262
162,Ola,F,261
163,Sophia,F,259
164,Lulu,F,258
165,Allie,F,252
166,Freda,F,250
167,Naomi,F,249
168,Lucile,F,248
169,Irma,F,247
170,Nell,F,247
171,Alberta,F,242
172,Sophie,F,240
173,Madeline,F,237
174,Josie,F,234
175,Winifred,F,234
176,Jean,F,232
177,Luella,F,227
178,Ina,F,220
179,Janie,F,220
180,Norma,F,219
181,Elva,F,218
182,Vivian,F,216
183,Isabel,F,212
184,Tillie,F,212
185,Callie,F,211
186,Mayme,F,209
187,Selma,F,208
188,Velma,F,208
189,Isabelle,F,205
190,Erma,F,203
191,Leah,F,203
192,Doris,F,198
193,Winnie,F,196
194,Delia,F,193
195,Kathleen,F,192
196,Virgie,F,191
197,Rena,F,189
198,Birdie,F,184
199,Fern,F,184
200,Millie,F,181
201,Adeline,F,180
202,Geneva,F,180
203,Lila,F,175
204,Thelma,F,173
205,Miriam,F,169
206,Hulda,F,167
207,Jeanette,F,167
208,Teresa,F,167
209,Adele,F,166
210,Lora,F,166
211,Hester,F,164
212,Cecelia,F,163
213,Sally,F,162
214,Elsa,F,160
215,Opal,F,158
216,Dollie,F,157
217,Lelia,F,157
218,Sue,F,157
219,Bertie,F,154
220,Juanita,F,154
221,Veronica,F,153
222,Johanna,F,151
223,Bess,F,150
224,Gussie,F,150
225,Jeannette,F,150
226,Carolyn,F,149
227,Leila,F,147
228,Katharine,F,145
229,Adelaide,F,142
230,Roxie,F,141
231,Cecilia,F,138
232,Regina,F,138
233,Elma,F,137
234,Zella,F,137
235,Gertie,F,136
236,Rhoda,F,136
237,Leola,F,135
238,Bettie,F,133
239,Lessie,F,133
240,Hallie,F,130
241,Roberta,F,130
242,Bonnie,F,129
243,Cornelia,F,127
244,Harriett,F,127
245,Mathilda,F,127
246,Myra,F,127
247,Anita,F,126
248,Christina,F,126
249,Francis,F,126
250,Madge,F,126
251,Cleo,F,125
252,Lou,F,125
253,Hettie,F,124
254,Meta,F,122
255,Neva,F,122
256,Fay,F,121
257,Maudie,F,120
258,Claire,F,118
259,Faye,F,118
260,Letha,F,117
261,Olivia,F,117
262,Louisa,F,112
263,Nelle,F,112
264,Lorena,F,111
265,Nola,F,111
266,Cecile,F,109
267,Pearlie,F,109
268,Corinne,F,108
269,Gracie,F,108
270,Lilly,F,108
271,Muriel,F,108
272,Helena,F,107
273,Lettie,F,107
274,Rita,F,105
275,Erna,F,103
276,Johnnie,F,103
277,Lenora,F,103
278,Audrey,F,102
279,Lily,F,101
280,Wilma,F,99
281,Dessie,F,98
282,Lee,F,98
283,Lucinda,F,98
284,Margie,F,98
285,Ila,F,97
286,Wilhelmina,F,97
287,Antoinette,F,96
288,Claudia,F,96
289,Linda,F,96
290,Linnie,F,96
291,Vesta,F,96
292,Cecil,F,95
293,Elnora,F,94
294,Elvira,F,94
295,Fanny,F,94
296,Mina,F,94
297,Alvina,F,93
298,Dovie,F,93
299,Lura,F,93
300,Abbie,F,92
301,Janet,F,92
302,Merle,F,91
303,Ophelia,F,91
304,Constance,F,90
305,Isabella,F,90
306,Phoebe,F,90
307,Catharine,F,89
308,Annette,F,88
309,Edythe,F,88
310,Myrtie,F,88
311,Helene,F,87
312,Reba,F,87
313,Rosalie,F,86
314,Oma,F,85
315,Orpha,F,85
316,Rosetta,F,84
317,Eugenia,F,83
318,Angeline,F,82
319,Geraldine,F,81
320,Rae,F,81
321,Zelma,F,80
322,Lona,F,78
323,Vida,F,78
324,Jewell,F,77
325,June,F,77
326,Dorothea,F,76
327,Floy,F,76
328,Polly,F,76
329,Alpha,F,75
330,Cassie,F,75
331,Ivy,F,75
332,Minerva,F,75
333,Chloe,F,73
334,Leta,F,73
335,Blanch,F,72
336,Emilie,F,72
337,Marcella,F,71
338,Mittie,F,71
339,Nona,F,71
340,Pansy,F,71
341,Angela,F,70
342,Dolly,F,70
343,Ernestine,F,70
344,Georgie,F,67
345,Leota,F,66
346,Maybelle,F,66
347,Ona,F,66
348,Golda,F,65
349,Phyllis,F,65
350,Artie,F,64
351,Priscilla,F,63
352,Frankie,F,62
353,Lenore,F,62
354,Mazie,F,62
355,Wanda,F,62
356,Alva,F,61
357,Isabell,F,61
358,Jewel,F,61
359,John,F,61
360,Lina,F,61
361,Tessie,F,61
362,Aline,F,60
363,Malinda,F,60
364,Zola,F,60
365,Angie,F,59
366,Evie,F,59
367,Idella,F,59
368,Jannie,F,59
369,Nan,F,59
370,Cynthia,F,58
371,Eloise,F,57
372,Lyda,F,57
373,Leora,F,56
374,Vada,F,56
375,Lauretta,F,55
376,Zora,F,55
377,Zula,F,55
378,Ava,F,54
379,Cordelia,F,54
380,Elda,F,54
381,Lida,F,54
382,Mabelle,F,54
383,Angelina,F,53
384,Antonia,F,53
385,Ione,F,53
386,Lennie,F,53
387,Mona,F,53
388,Rosella,F,53
389,Willa,F,53
390,Madeleine,F,52
391,Mandy,F,52
392,Clarice,F,51
393,Jeanne,F,51
394,Lorene,F,51
395,Odessa,F,51
396,Eddie,F,50
397,Elise,F,50
398,Hortense,F,50
399,Iona,F,50
400,Louella,F,50
401,Susanna,F,50
402,Clyde,F,49
403,Carol,F,48
404,Iola,F,48
405,Lorraine,F,48
406,Mellie,F,48
407,Minna,F,48
408,Verda,F,48
409,Vina,F,48
410,Agatha,F,47
411,Clare,F,47
412,Era,F,47
413,Leone,F,47
414,Lilla,F,47
415,Pearle,F,47
416,Bell,F,46
417,George,F,46
418,Peggy,F,46
419,Una,F,46
420,Aurelia,F,45
421,Molly,F,45
422,Tena,F,45
423,Tennie,F,45
424,Tina,F,45
425,Dona,F,44
426,Donna,F,44
427,Eileen,F,44
428,Esta,F,44
429,Hilma,F,44
430,Iris,F,44
431,Nita,F,44
432,Shirley,F,44
433,Eda,F,43
434,Elisabeth,F,43
435,Jimmie,F,43
436,Albina,F,42
437,Annabelle,F,42
438,Lilian,F,42
439,Adelia,F,41
440,Corine,F,41
441,Dolores,F,41
442,Donnie,F,41
443,Ester,F,41
444,Hedwig,F,41
445,Leonora,F,41
446,Lue,F,41
447,Melissa,F,41
448,Pattie,F,41
449,Rhea,F,41
450,Rowena,F,41
451,Sudie,F,41
452,Veda,F,41
453,Vernie,F,41
454,Aileen,F,40
455,Bernadette,F,40
456,Beryl,F,40
457,Charity,F,40
458,Connie,F,40
459,Elmira,F,40
460,Florida,F,40
461,Pinkie,F,40
462,Rilla,F,40
463,William,F,40
464,Bella,F,39
465,Hope,F,39
466,Margery,F,39
467,Melvina,F,39
468,Natalie,F,39
469,Ursula,F,39
470,Avis,F,38
471,Emmie,F,38
472,Glenna,F,38
473,Lovie,F,38
474,Marietta,F,38
475,Octavia,F,38
476,Tommie,F,38
477,Yvonne,F,38
478,Zona,F,38
479,Berta,F,37
480,Carmela,F,37
481,Ellie,F,37
482,Hanna,F,37
483,Jettie,F,37
484,Paula,F,37
485,Savannah,F,37
486,Vinnie,F,37
487,Belva,F,36
488,Dena,F,36
489,Margret,F,36
490,Maybell,F,36
491,Viva,F,36
492,Carolina,F,35
493,Gretchen,F,35
494,Inga,F,35
495,Lenna,F,35
496,Mallie,F,35
497,Patricia,F,35
498,Adela,F,34
499,Cordie,F,34
500,Corrie,F,34
501,Eulalia,F,34
502,Georgiana,F,34
503,Harriette,F,34
504,Imogene,F,34
505,James,F,34
506,Leatha,F,34
507,Queen,F,34
508,Retta,F,34
509,Sadye,F,34
510,Tressie,F,34
511,Zoe,F,34
512,Adah,F,33
513,Alda,F,33
514,Camille,F,33
515,Kittie,F,33
516,Lavina,F,33
517,Mertie,F,33
518,Therese,F,33
519,Althea,F,32
520,Celeste,F,32
521,Claudie,F,32
522,Dixie,F,32
523,Gail,F,32
524,Judith,F,32
525,Lavinia,F,32
526,Ludie,F,32
527,Philomena,F,32
528,Winnifred,F,32
529,Besse,F,31
530,Bridget,F,31
531,Ethyl,F,31
532,Ettie,F,31
533,Magdalena,F,31
534,Magnolia,F,31
535,Marcia,F,31
536,Wilda,F,31
537,Adella,F,30
538,Camilla,F,30
539,Easter,F,30
540,Florine,F,30
541,Hildur,F,30
542,Kitty,F,30
543,Mathilde,F,30
544,Maye,F,30
545,Rosina,F,30
546,Altha,F,29
547,Carmen,F,29
548,Dottie,F,29
549,Icie,F,29
550,Joanna,F,29
551,Johnie,F,29
552,Joyce,F,29
553,Julie,F,29
554,Letitia,F,29
555,Louie,F,29
556,Lucretia,F,29
557,Magdalene,F,29
558,Mariah,F,29
559,Onie,F,29
560,Ramona,F,29
561,Sybil,F,29
562,Valeria,F,29
563,Vallie,F,29
564,Enid,F,28
565,Gwendolyn,F,28
566,Ima,F,28
567,Ivah,F,28
568,Joan,F,28
569,Josefa,F,28
570,Magdalen,F,28
571,Maurine,F,28
572,Ray,F,28
573,Reta,F,28
574,Rosanna,F,28
575,Theodora,F,28
576,Zelda,F,28
577,Charles,F,27
578,Emelia,F,27
579,Ethelyn,F,27
580,Frank,F,27
581,Georgianna,F,27
582,Joe,F,27
583,Lelah,F,27
584,Madie,F,27
585,Meda,F,27
586,Mercedes,F,27
587,Mettie,F,27
588,Petra,F,27
589,Queenie,F,27
590,Robbie,F,27
591,Ruthie,F,27
592,Tilda,F,27
593,Vena,F,27
594,Zetta,F,27
595,Alida,F,26
596,Annetta,F,26
597,Bennie,F,26
598,Bobbie,F,26
599,Eve,F,26
600,Freida,F,26
601,Loraine,F,26
602,Rachael,F,26
603,Selina,F,26
604,Sophronia,F,26
605,Thea,F,26
606,Almeda,F,25
607,Alyce,F,25
608,Arline,F,25
609,Delphia,F,25
610,Donie,F,25
611,Elena,F,25
612,Elenora,F,25
613,Evalyn,F,25
614,Felicia,F,25
615,Lonie,F,25
616,Lucia,F,25
617,Oda,F,25
618,Rossie,F,25
619,Theo,F,25
620,Vergie,F,25
621,Anastasia,F,24
622,Cathrine,F,24
623,Cathryn,F,24
624,Clemmie,F,24
625,Dagmar,F,24
626,Eleanora,F,24
627,Elinor,F,24
628,Emilia,F,24
629,Evangeline,F,24
630,Ferne,F,24
631,Joy,F,24
632,Juana,F,24
633,Juliette,F,24
634,Leda,F,24
635,Malissa,F,24
636,Verdie,F,24
637,Albertine,F,23
638,Arlene,F,23
639,Berenice,F,23
640,Billie,F,23
641,Celestine,F,23
642,Corrine,F,23
643,Diana,F,23
644,Elvie,F,23
645,Estell,F,23
646,Glenn,F,23
647,Huldah,F,23
648,Ira,F,23
649,Jenny,F,23
650,Joseph,F,23
651,Lonnie,F,23
652,Luna,F,23
653,Ocie,F,23
654,Paralee,F,23
655,Rosemary,F,23
656,Signe,F,23
657,Ara,F,22
658,Arrie,F,22
659,Beth,F,22
660,Clarissa,F,22
661,Clementine,F,22
662,Clora,F,22
663,Eleanore,F,22
664,Elvina,F,22
665,Eugenie,F,22
666,Garnet,F,22
667,Hassie,F,22
668,Idell,F,22
669,India,F,22
670,Kattie,F,22
671,Leslie,F,22
672,Libbie,F,22
673,Lucie,F,22
674,Luvenia,F,22
675,Margarita,F,22
676,Melinda,F,22
677,Odie,F,22
678,Phebe,F,22
679,Sena,F,22
680,Sibyl,F,22
681,Sigrid,F,22
682,Verla,F,22
683,Zettie,F,22
684,Allene,F,21
685,Amie,F,21
686,Audra,F,21
687,Berdie,F,21
688,Bulah,F,21
689,Dicie,F,21
690,Elaine,F,21
691,Eulah,F,21
692,Faith,F,21
693,Kathrine,F,21
694,Mammie,F,21
695,Metta,F,21
696,Neta,F,21
697,Patsy,F,21
698,Rosia,F,21
699,Sabina,F,21
700,Tressa,F,21
701,Veva,F,21
702,Alene,F,20
703,Cordia,F,20
704,Elizebeth,F,20
705,Exie,F,20
706,Florrie,F,20
707,Greta,F,20
708,Guadalupe,F,20
709,Hertha,F,20
710,Juliet,F,20
711,Laverne,F,20
712,Liddie,F,20
713,Liza,F,20
714,Louvenia,F,20
715,Manda,F,20
716,Manuela,F,20
717,Marvel,F,20
718,Monica,F,20
719,Nova,F,20
720,Ova,F,20
721,Robert,F,20
722,Rosamond,F,20
723,Winona,F,20
724,Alvena,F,19
725,Amalia,F,19
726,Bernadine,F,19
727,Dorcas,F,19
728,Elfrieda,F,19
729,Flo,F,19
730,Frona,F,19
731,Helga,F,19
732,Jessica,F,19
733,Lorna,F,19
734,Melba,F,19
735,Myrtis,F,19
736,Novella,F,19
737,Palma,F,19
738,Rella,F,19
739,Rubye,F,19
740,Tempie,F,19
741,Theodosia,F,19
742,Valerie,F,19
743,Verona,F,19
744,Wilhelmine,F,19
745,Arvilla,F,18
746,Clifford,F,18
747,Coral,F,18
748,Dell,F,18
749,Ebba,F,18
750,Edyth,F,18
751,Elna,F,18
752,Elta,F,18
753,Hellen,F,18
754,Hildred,F,18
755,Kathryne,F,18
756,Leonie,F,18
757,Lilah,F,18
758,Matie,F,18
759,Nella,F,18
760,Norah,F,18
761,Ottie,F,18
762,Roma,F,18
763,Rosalia,F,18
764,Rosalind,F,18
765,Salome,F,18
766,Serena,F,18
767,Sidney,F,18
768,Yetta,F,18
769,Adaline,F,17
770,Annis,F,17
771,Arlie,F,17
772,Augustine,F,17
773,Betsy,F,17
774,Charlie,F,17
775,Christena,F,17
776,Crystal,F,17
777,Eura,F,17
778,Gusta,F,17
779,Katy,F,17
780,Lacy,F,17
781,Lala,F,17
782,Leanna,F,17
783,Nadine,F,17
784,Olevia,F,17
785,Retha,F,17
786,Vertie,F,17
787,Adda,F,16
788,Amber,F,16
789,Annabell,F,16
790,Antonette,F,16
791,Arizona,F,16
792,Consuelo,F,16
793,Delma,F,16
794,Edwina,F,16
795,Eveline,F,16
796,Freddie,F,16
797,Gena,F,16
798,Golden,F,16
799,Gretta,F,16
800,Hermina,F,16
801,Justine,F,16
802,Kizzie,F,16
803,Lillia,F,16
804,Lovina,F,16
805,Mannie,F,16
806,Margaretta,F,16
807,Melva,F,16
808,Missouri,F,16
809,Myrle,F,16
810,Ottilia,F,16
811,Pollie,F,16
812,Reva,F,16
813,Samantha,F,16
814,Abigail,F,15
815,Adell,F,15
816,Alicia,F,15
817,Annabel,F,15
818,Aurora,F,15
819,Beaulah,F,15
820,Beula,F,15
821,Birtie,F,15
822,Delilah,F,15
823,Drusilla,F,15
824,Eldora,F,15
825,Elvera,F,15
826,Enola,F,15
827,Fae,F,15
828,Fred,F,15
829,Gertha,F,15
830,Glennie,F,15
831,Goldia,F,15
832,Grayce,F,15
833,Harry,F,15
834,Hazle,F,15
835,Helma,F,15
836,Henriette,F,15
837,Henry,F,15
838,Hessie,F,15
839,Hildegarde,F,15
840,Honora,F,15
841,Izetta,F,15
842,Janette,F,15
843,Jennette,F,15
844,Lella,F,15
845,Leontine,F,15
846,Lollie,F,15
847,Lorine,F,15
848,Lular,F,15
849,Lutie,F,15
850,Madelyn,F,15
851,Martina,F,15
852,Myrl,F,15
853,Ossie,F,15
854,Paulina,F,15
855,Ura,F,15
856,Venus,F,15
857,Aida,F,14
858,Aletha,F,14
859,Almira,F,14
860,Audie,F,14
861,Aurore,F,14
862,Berniece,F,14
863,Bethel,F,14
864,Buna,F,14
865,Carl,F,14
866,Clarence,F,14
867,Cleora,F,14
868,Docia,F,14
869,Emeline,F,14
870,Emmer,F,14
871,Etha,F,14
872,Eulalie,F,14
873,Filomena,F,14
874,Gene,F,14
875,Genoveva,F,14
876,Leva,F,14
877,Libby,F,14
878,Lissie,F,14
879,Loretto,F,14
880,Macie,F,14
881,Madaline,F,14
882,Mahala,F,14
883,Malvina,F,14
884,Maryann,F,14
885,Mozelle,F,14
886,Prudence,F,14
887,Rubie,F,14
888,Sina,F,14
889,Thomas,F,14
890,Vella,F,14
891,Zita,F,14
892,Adelina,F,13
893,Adline,F,13
894,Aimee,F,13
895,Alfreda,F,13
896,Altie,F,13
897,Christie,F,13
898,Claude,F,13
899,Deborah,F,13
900,Delphine,F,13
901,Drucilla,F,13
902,Edward,F,13
903,Electa,F,13
904,Elisa,F,13
905,Francisca,F,13
906,Garnett,F,13
907,Georgina,F,13
908,Hasel,F,13
909,Hildegard,F,13
910,Icy,F,13
911,Imo,F,13
912,Ivory,F,13
913,Jossie,F,13
914,Katheryn,F,13
915,Luetta,F,13
916,Lupe,F,13
917,Maxie,F,13
918,Mossie,F,13
919,Noma,F,13
920,Olinda,F,13
921,Omie,F,13
922,Ressie,F,13
923,Thora,F,13
924,Twila,F,13
925,Velva,F,13
926,Vessie,F,13
927,Virgia,F,13
928,Willia,F,13
929,Zena,F,13
930,Zilpha,F,13
931,Albertha,F,12
932,Alleen,F,12
933,America,F,12
934,Andrea,F,12
935,Blossom,F,12
936,Cara,F,12
937,Classie,F,12
938,Corene,F,12
939,Daisey,F,12
940,Daphne,F,12
941,Dean,F,12
942,Dee,F,12
943,Delila,F,12
944,Dillie,F,12
945,Dinah,F,12
946,Doshia,F,12
947,Dulcie,F,12
948,Else,F,12
949,Emaline,F,12
950,Ena,F,12
951,Euna,F,12
952,Evelina,F,12
953,Freeda,F,12
954,Fronie,F,12
955,Gennie,F,12
956,Gerda,F,12
957,Isa,F,12
958,Laurie,F,12
959,Leonore,F,12
960,Lorenza,F,12
961,Maida,F,12
962,Mavis,F,12
963,Maxine,F,12
964,Maymie,F,12
965,Monnie,F,12
966,Montie,F,12
967,Nelda,F,12
968,Nena,F,12
969,Nevada,F,12
970,Odelia,F,12
971,Osa,F,12
972,Rosalee,F,12
973,Sister,F,12
974,Sofia,F,12
975,Sula,F,12
976,Theresia,F,12
977,Trilby,F,12
978,Vashti,F,12
979,Vassie,F,12
980,Verena,F,12
981,Verlie,F,12
982,Villa,F,12
983,Vinie,F,12
984,Vivien,F,12
985,Adel,F,11
986,Alba,F,11
987,Anner,F,11
988,Arie,F,11
989,Atha,F,11
990,Attie,F,11
991,Bernardine,F,11
992,Bula,F,11
993,Calla,F,11
994,Carry,F,11
995,Celina,F,11
996,Concetta,F,11
997,Dale,F,11
998,Dellie,F,11
999,Delpha,F,11
1000,Dessa,F,11
1001,Dola,F,11
1002,Doretta,F,11
1003,Dorthy,F,11
1004,Dove,F,11
1005,Eloisa,F,11
1006,Emelie,F,11
1007,Erin,F,11
1008,Ernest,F,11
1009,Euphemia,F,11
1010,Evaline,F,11
1011,Evelena,F,11
1012,Fairy,F,11
1013,Fronnie,F,11
1014,Izora,F,11
1015,Jesse,F,11
1016,Jo,F,11
1017,Josefina,F,11
1018,Judy,F,11
1019,Lassie,F,11
1020,Lavada,F,11
1021,Lea,F,11
1022,Leafy,F,11
1023,Leonia,F,11
1024,Lera,F,11
1025,Lexie,F,11
1026,Loma,F,11
1027,Lydie,F,11
1028,Lyla,F,11
1029,Margarete,F,11
1030,Marjory,F,11
1031,Millicent,F,11
1032,Minta,F,11
1033,Myrna,F,11
1034,Myrtice,F,11
1035,Nana,F,11
1036,Nonie,F,11
1037,Norine,F,11
1038,Odette,F,11
1039,Permelia,F,11
1040,Philomene,F,11
1041,Rene,F,11
1042,Selena,F,11
1043,Sweetie,F,11
1044,Treva,F,11
1045,Trudie,F,11
1046,Vara,F,11
1047,Vernon,F,11
1048,Vola,F,11
1049,Walter,F,11
1050,Wava,F,11
1051,Zada,F,11
1052,Aggie,F,10
1053,Alcie,F,10
1054,Ana,F,10
1055,Arabella,F,10
1056,Ardella,F,10
1057,Beadie,F,10
1058,Beckie,F,10
1059,Buelah,F,10
1060,Byrd,F,10
1061,Byrdie,F,10
1062,Caldonia,F,10
1063,Carlie,F,10
1064,Carmelita,F,10
1065,Claribel,F,10
1066,Clarinda,F,10
1067,Claudine,F,10
1068,Cloe,F,10
1069,Cola,F,10
1070,Coletta,F,10
1071,Corda,F,10
1072,Delta,F,10
1073,Earl,F,10
1074,Elmire,F,10
1075,Elodie,F,10
1076,Eugene,F,10
1077,Evalena,F,10
1078,Fannye,F,10
1079,Fleta,F,10
1080,Flonnie,F,10
1081,Gay,F,10
1082,Gloria,F,10
1083,Ilah,F,10
1084,Ilo,F,10
1085,Isobel,F,10
1086,Jamie,F,10
1087,Kay,F,10
1088,Laurette,F,10
1089,Laverna,F,10
1090,Letty,F,10
1091,Littie,F,10
1092,Loda,F,10
1093,Lurline,F,10
1094,Malissie,F,10
1095,Manie,F,10
1096,Margarett,F,10
1097,Margarette,F,10
1098,Margueritte,F,10
1099,Medora,F,10
1100,Milda,F,10
1101,Missie,F,10
1102,Odile,F,10
1103,Opha,F,10
1104,Osie,F,10
1105,Otelia,F,10
1106,Otillia,F,10
1107,Ouida,F,10
1108,Phillis,F,10
1109,Prudie,F,10
1110,Roy,F,10
1111,Signa,F,10
1112,Tennessee,F,10
1113,Vannie,F,10
1114,Venie,F,10
1115,Victorine,F,10
1116,Vira,F,10
1117,Willetta,F,10
1118,Zadie,F,10
1119,Zelia,F,10
1120,Zilla,F,10
1121,Zuma,F,10
1122,Albert,F,9
1123,Almena,F,9
1124,Alzina,F,9
1125,Augustina,F,9
1126,Aura,F,9
1127,Azzie,F,9
1128,Beda,F,9
1129,Birtha,F,9
1130,Cammie,F,9
1131,Capitola,F,9
1132,Carmella,F,9
1133,Carolyne,F,9
1134,Celesta,F,9
1135,Celie,F,9
1136,Cleda,F,9
1137,Concepcion,F,9
1138,Cornie,F,9
1139,Coy,F,9
1140,Dana,F,9
1141,Debbie,F,9
1142,Delfina,F,9
1143,Dennie,F,9
1144,Dorthea,F,9
1145,Earline,F,9
1146,Earnestine,F,9
1147,Eathel,F,9
1148,Edmonia,F,9
1149,Eleonora,F,9
1150,Eleonore,F,9
1151,Ellena,F,9
1152,Ema,F,9
1153,Emogene,F,9
1154,Florice,F,9
1155,Florina,F,9
1156,Gaynell,F,9
1157,Harold,F,9
1158,Henretta,F,9
1159,Hermine,F,9
1160,Hollie,F,9
1161,Josiephine,F,9
1162,Juliana,F,9
1163,Lady,F,9
1164,Larue,F,9
1165,Lavera,F,9
1166,Leana,F,9
1167,Lema,F,9
1168,Lethia,F,9
1169,Lilie,F,9
1170,Loula,F,9
1171,Luda,F,9
1172,Mada,F,9
1173,Maebelle,F,9
1174,Mame,F,9
1175,Margurite,F,9
1176,Marye,F,9
1177,Modena,F,9
1178,Myrta,F,9
1179,Nanie,F,9
1180,Naoma,F,9
1181,Nealie,F,9
1182,Neoma,F,9
1183,Octavie,F,9
1184,Orelia,F,9
1185,Pallie,F,9
1186,Patience,F,9
1187,Roselle,F,9
1188,Roxy,F,9
1189,Sammie,F,9
1190,Sedonia,F,9
1191,Shellie,F,9
1192,Suzanne,F,9
1193,Thekla,F,9
1194,Thresa,F,9
1195,Tinnie,F,9
1196,Tracy,F,9
1197,Trula,F,9
1198,Tula,F,9
1199,Zenobia,F,9
1200,Zeta,F,9
1201,Alexandra,F,8
1202,Alexina,F,8
1203,Alverta,F,8
1204,Arminta,F,8
1205,Arthur,F,8
1206,Audry,F,8
1207,Aurilla,F,8
1208,Averil,F,8
1209,Beatriz,F,8
1210,Bonita,F,8
1211,Carlotta,F,8
1212,Cherry,F,8
1213,Clella,F,8
1214,Clemence,F,8
1215,Courtney,F,8
1216,Dorathy,F,8
1217,Dot,F,8
1218,Elenor,F,8
1219,Elfreda,F,8
1220,Elia,F,8
1221,Elida,F,8
1222,Elvia,F,8
1223,Eppie,F,8
1224,Ermine,F,8
1225,Ernie,F,8
1226,Ether,F,8
1227,Etna,F,8
1228,Eular,F,8
1229,Everline,F,8
1230,Florance,F,8
1231,Florie,F,8
1232,Fredda,F,8
1233,Frederica,F,8
1234,Fredericka,F,8
1235,Fronia,F,8
1236,Garnette,F,8
1237,Genie,F,8
1238,Gregoria,F,8
1239,Gunda,F,8
1240,Haley,F,8
1241,Hazelle,F,8
1242,Ilma,F,8
1243,Isadora,F,8
1244,Isla,F,8
1245,Jemima,F,8
1246,Jodie,F,8
1247,Johannah,F,8
1248,Jule,F,8
1249,Justina,F,8
1250,Leaner,F,8
1251,Lemma,F,8
1252,Lillis,F,8
1253,Lolita,F,8
1254,Louis,F,8
1255,Lovenia,F,8
1256,Lucina,F,8
1257,Luisa,F,8
1258,Macy,F,8
1259,Marceline,F,8
1260,Marge,F,8
1261,Marinda,F,8
1262,Media,F,8
1263,Merl,F,8
1264,Metha,F,8
1265,Mima,F,8
1266,Mirtie,F,8
1267,Nathalie,F,8
1268,Nelia,F,8
1269,Netta,F,8
1270,Noelie,F,8
1271,Orah,F,8
1272,Otha,F,8
1273,Ottilie,F,8
1274,Ozella,F,8
1275,Parlee,F,8
1276,Paul,F,8
1277,Persis,F,8
1278,Pinkey,F,8
1279,Pinky,F,8
1280,Reka,F,8
1281,Romaine,F,8
1282,Rutha,F,8
1283,Sarrah,F,8
1284,Stephanie,F,8
1285,Susannah,F,8
1286,Susanne,F,8
1287,Trannie,F,8
1288,Ula,F,8
1289,Vadie,F,8
1290,Vennie,F,8
1291,Verne,F,8
1292,Vernia,F,8
1293,Vester,F,8
1294,Violette,F,8
1295,Zillah,F,8
1296,Zina,F,8
1297,Zoa,F,8
1298,Achsa,F,7
1299,Adelle,F,7
1300,Aleta,F,7
1301,Alla,F,7
1302,Allean,F,7
1303,Alline,F,7
1304,Almedia,F,7
1305,Alverda,F,7
1306,Anabel,F,7
1307,Angelita,F,7
1308,Anice,F,7
1309,Ardell,F,7
1310,Arena,F,7
1311,Aubrey,F,7
1312,Bee,F,7
1313,Bera,F,7
1314,Bert,F,7
1315,Bettye,F,7
1316,Bina,F,7
1317,Borghild,F,7
1318,Calista,F,7
1319,Catarina,F,7
1320,Celestia,F,7
1321,Cena,F,7
1322,Charlene,F,7
1323,Chloie,F,7
1324,Cinda,F,7
1325,Clair,F,7
1326,Clela,F,7
1327,Cleta,F,7
1328,Cressie,F,7
1329,Cuba,F,7
1330,Delcie,F,7
1331,Delsie,F,7
1332,Dina,F,7
1333,Dorotha,F,7
1334,Dortha,F,7
1335,Elenore,F,7
1336,Elizbeth,F,7
1337,Elpha,F,7
1338,Erie,F,7
1339,Ethyle,F,7
1340,Etter,F,7
1341,Eudora,F,7
1342,Ever,F,7
1343,Faustina,F,7
1344,Forrest,F,7
1345,Francesca,F,7
1346,Gillie,F,7
1347,Glendora,F,7
1348,Gola,F,7
1349,Hattye,F,7
1350,Herma,F,7
1351,Hetty,F,7
1352,Hila,F,7
1353,Imelda,F,7
1354,Indiana,F,7
1355,Ines,F,7
1356,Inger,F,7
1357,Isal,F,7
1358,Jeane,F,7
1359,Jeanetta,F,7
1360,Jeannie,F,7
1361,Jinnie,F,7
1362,Jonnie,F,7
1363,Lalla,F,7
1364,Lana,F,7
1365,Launa,F,7
1366,Laurena,F,7
1367,Lelar,F,7
1368,Leo,F,7
1369,Letta,F,7
1370,Lidia,F,7
1371,Lilia,F,7
1372,Lindy,F,7
1373,Lockie,F,7
1374,Lotta,F,7
1375,Louetta,F,7
1376,Lu,F,7
1377,Lynda,F,7
1378,Madgie,F,7
1379,Mahalia,F,7
1380,Malisia,F,7
1381,Margart,F,7
1382,Marguerita,F,7
1383,Marilla,F,7
1384,Melanie,F,7
1385,Micaela,F,7
1386,Mignon,F,7
1387,Minda,F,7
1388,Minetta,F,7
1389,Mintie,F,7
1390,Nada,F,7
1391,Nannette,F,7
1392,Nila,F,7
1393,Norene,F,7
1394,Olla,F,7
1395,Orva,F,7
1396,Othelia,F,7
1397,Pairlee,F,7
1398,Pearley,F,7
1399,Pluma,F,7
1400,Portia,F,7
1401,Ragna,F,7
1402,Rebekah,F,7
1403,Refugia,F,7
1404,Refugio,F,7
1405,Renee,F,7
1406,Richard,F,7
1407,Roselee,F,7
1408,Rosena,F,7
1409,Rozella,F,7
1410,Ruie,F,7
1411,Sonia,F,7
1412,Sylvania,F,7
1413,Tekla,F,7
1414,Texie,F,7
1415,Thecla,F,7
1416,Trella,F,7
1417,Valentine,F,7
1418,Venice,F,7
1419,Verle,F,7
1420,Versie,F,7
1421,Verta,F,7
1422,Veta,F,7
1423,Vlasta,F,7
1424,Zelpha,F,7
1425,Adelene,F,6
1426,Adrienne,F,6
1427,Afton,F,6
1428,Aldea,F,6
1429,Aleda,F,6
1430,Alina,F,6
1431,Alvie,F,6
1432,Amada,F,6
1433,Amey,F,6
1434,Apollonia,F,6
1435,Appolonia,F,6
1436,Arlena,F,6
1437,Arra,F,6
1438,Artha,F,6
1439,Bama,F,6
1440,Bannie,F,6
1441,Beatrix,F,6
1442,Belvia,F,6
1443,Bena,F,6
1444,Candace,F,6
1445,Cannie,F,6
1446,Carlota,F,6
1447,Carra,F,6
1448,Cary,F,6
1449,Ceola,F,6
1450,Chaney,F,6
1451,Charlcie,F,6
1452,Christiana,F,6
1453,Chrystal,F,6
1454,Cliffie,F,6
1455,Clyda,F,6
1456,Colette,F,6
1457,Coralee,F,6
1458,Corean,F,6
1459,Cyrilla,F,6
1460,Dannie,F,6
1461,Deane,F,6
1462,Dezzie,F,6
1463,Docie,F,6
1464,Doll,F,6
1465,Dura,F,6
1466,Earle,F,6
1467,Eather,F,6
1468,Ebbie,F,6
1469,Edda,F,6
1470,Editha,F,6
1471,Edrie,F,6
1472,Elberta,F,6
1473,Elease,F,6
1474,Elgie,F,6
1475,Emmaline,F,6
1476,Estie,F,6
1477,Evah,F,6
1478,Evalina,F,6
1479,Everlena,F,6
1480,Exa,F,6
1481,Fayette,F,6
1482,Gayle,F,6
1483,Genevia,F,6
1484,Genora,F,6
1485,Georgeanna,F,6
1486,Georgena,F,6
1487,Georgette,F,6
1488,Germaine,F,6
1489,Gisella,F,6
1490,Gracia,F,6
1491,Gudrun,F,6
1492,Hollis,F,6
1493,Honor,F,6
1494,Ilda,F,6
1495,Ilene,F,6
1496,Irine,F,6
1497,Ivey,F,6
1498,Jack,F,6
1499,Jeannetta,F,6
1500,Josefita,F,6
1501,Junie,F,6
1502,Katherin,F,6
1503,Katherina,F,6
1504,Lalia,F,6
1505,Laurine,F,6
1506,Leathie,F,6
1507,Leeta,F,6
1508,Leoda,F,6
1509,Lesta,F,6
1510,Lillain,F,6
1511,Liller,F,6
1512,Lilyan,F,6
1513,Lodie,F,6
1514,Lota,F,6
1515,Louisiana,F,6
1516,Love,F,6
1517,Lovey,F,6
1518,Luanna,F,6
1519,Luberta,F,6
1520,Lucetta,F,6
1521,Luz,F,6
1522,Madelene,F,6
1523,Mai,F,6
1524,Maidie,F,6
1525,Manuelita,F,6
1526,Maranda,F,6
1527,Marcelle,F,6
1528,Marea,F,6
1529,Mariana,F,6
1530,Marybelle,F,6
1531,Marzella,F,6
1532,Melda,F,6
1533,Melina,F,6
1534,Meredith,F,6
1535,Miranda,F,6
1536,Monie,F,6
1537,Monta,F,6
1538,Mora,F,6
1539,Mozella,F,6
1540,Murl,F,6
1541,Myrtte,F,6
1542,Nelly,F,6
1543,Nolia,F,6
1544,Nonnie,F,6
1545,Ocia,F,6
1546,Oline,F,6
1547,Oneita,F,6
1548,Onnie,F,6
1549,Oral,F,6
1550,Orie,F,6
1551,Orilla,F,6
1552,Orlena,F,6
1553,Orra,F,6
1554,Otillie,F,6
1555,Ovie,F,6
1556,Ozzie,F,6
1557,Paulyne,F,6
1558,Princess,F,6
1559,Radie,F,6
1560,Rafaela,F,6
1561,Rilda,F,6
1562,Rissie,F,6
1563,Roena,F,6
1564,Sada,F,6
1565,Savanah,F,6
1566,Sevilla,F,6
1567,Silvia,F,6
1568,Susana,F,6
1569,Sylva,F,6
1570,Tenie,F,6
1571,Tess,F,6
1572,Texanna,F,6
1573,Theola,F,6
1574,Thirza,F,6
1575,Thresia,F,6
1576,Tishie,F,6
1577,Tom,F,6
1578,Velda,F,6
1579,Veola,F,6
1580,Verdia,F,6
1581,Vere,F,6
1582,Vernice,F,6
1583,Virdie,F,6
1584,Virgil,F,6
1585,Virgin,F,6
1586,Vonnie,F,6
1587,Walburga,F,6
1588,Waneta,F,6
1589,Will,F,6
1590,Zera,F,6
1591,Adalia,F,5
1592,Adine,F,5
1593,Adna,F,5
1594,Albertina,F,5
1595,Albie,F,5
1596,Alease,F,5
1597,Alexandrine,F,5
1598,Alfa,F,5
1599,Algie,F,5
1600,Almeta,F,5
1601,Alvira,F,5
1602,Ama,F,5
1603,Ammie,F,5
1604,Angella,F,5
1605,Annice,F,5
1606,Antonina,F,5
1607,Arkie,F,5
1608,Arletta,F,5
1609,Arminda,F,5
1610,Arta,F,5
1611,Artelia,F,5
1612,Assunta,F,5
1613,Astrid,F,5
1614,Atlanta,F,5
1615,Auda,F,5
1616,Austie,F,5
1617,Bamma,F,5
1618,Becky,F,5
1619,Belma,F,5
1620,Berna,F,5
1621,Bernetta,F,5
1622,Blonnie,F,5
1623,Bruce,F,5
1624,Buena,F,5
1625,Bular,F,5
1626,Burnice,F,5
1627,Carey,F,5
1628,Carlene,F,5
1629,Carola,F,5
1630,Catalina,F,5
1631,Cathern,F,5
1632,Charlotta,F,5
1633,Charmion,F,5
1634,Chessie,F,5
1635,Chloa,F,5
1636,Chlora,F,5
1637,Cindy,F,5
1638,Clarita,F,5
1639,Clem,F,5
1640,Clemie,F,5
1641,Cleona,F,5
1642,Cloie,F,5
1643,Clotilda,F,5
1644,Columbia,F,5
1645,Coralie,F,5
1646,Corina,F,5
1647,Cornelius,F,5
1648,Cruz,F,5
1649,Daisie,F,5
1650,Dasie,F,5
1651,David,F,5
1652,Deetta,F,5
1653,Dellar,F,5
1654,Dema,F,5
1655,Dorathea,F,5
1656,Dosha,F,5
1657,Doshie,F,5
1658,Dossie,F,5
1659,Earlie,F,5
1660,Echo,F,5
1661,Ednah,F,5
1662,Effa,F,5
1663,Elba,F,5
1664,Elfie,F,5
1665,Elizzie,F,5
1666,Eller,F,5
1667,Elmer,F,5
1668,Elmyra,F,5
1669,Elois,F,5
1670,Elouise,F,5
1671,Elvena,F,5
1672,Elzina,F,5
1673,Epsie,F,5
1674,Erminia,F,5
1675,Ersie,F,5
1676,Estellar,F,5
1677,Ethelle,F,5
1678,Ethlyn,F,5
1679,Eulala,F,5
1680,Eunie,F,5
1681,Evia,F,5
1682,Evy,F,5
1683,Fabiola,F,5
1684,Fedora,F,5
1685,Fidelia,F,5
1686,Fleeta,F,5
1687,Florinda,F,5
1688,Floyd,F,5
1689,Francies,F,5
1690,Frida,F,5
1691,Gabrielle,F,5
1692,Gina,F,5
1693,Girlie,F,5
1694,Gladyce,F,5
1695,Gwen,F,5
1696,Gwladys,F,5
1697,Henretter,F,5
1698,Herlinda,F,5
1699,Hermie,F,5
1700,Hildreth,F,5
1701,Icia,F,5
1702,Idelle,F,5
1703,Ileen,F,5
1704,Isma,F,5
1705,Isola,F,5
1706,Janetta,F,5
1707,Jayne,F,5
1708,Jeanie,F,5
1709,Jim,F,5
1710,Joanne,F,5
1711,Johanne,F,5
1712,Josepha,F,5
1713,Katrina,F,5
1714,Keturah,F,5
1715,Lael,F,5
1716,Lalah,F,5
1717,Lannie,F,5
1718,Laurel,F,5
1719,Lavenia,F,5
1720,Leonarda,F,5
1721,Lester,F,5
1722,Lestie,F,5
1723,Levada,F,5
1724,Lewis,F,5
1725,Lilliam,F,5
1726,Linna,F,5
1727,Loy,F,5
1728,Lulie,F,5
1729,Lulla,F,5
1730,Lurena,F,5
1731,Luttie,F,5
1732,Madalene,F,5
1733,Malissia,F,5
1734,Mamye,F,5
1735,Mandie,F,5
1736,Marcelina,F,5
1737,Margarite,F,5
1738,Margrett,F,5
1739,Marianne,F,5
1740,Mark,F,5
1741,Marry,F,5
1742,Maryellen,F,5
1743,Maudy,F,5
1744,Meadie,F,5
1745,Melvin,F,5
1746,Merna,F,5
1747,Minie,F,5
1748,Natividad,F,5
1749,Nicie,F,5
1750,Nolie,F,5
1751,Ocea,F,5
1752,Odell,F,5
1753,Okla,F,5
1754,Olie,F,5
1755,Oliva,F,5
1756,Orena,F,5
1757,Otie,F,5
1758,Ozie,F,5
1759,Pablita,F,5
1760,Pamela,F,5
1761,Patty,F,5
1762,Pearline,F,5
1763,Penelope,F,5
1764,Pennie,F,5
1765,Percy,F,5
1766,Pheba,F,5
1767,Phila,F,5
1768,Pruda,F,5
1769,Ralph,F,5
1770,Reine,F,5
1771,Rhetta,F,5
1772,Rillie,F,5
1773,Roxanna,F,5
1774,Sabra,F,5
1775,Salina,F,5
1776,Sam,F,5
1777,Sannie,F,5
1778,Saphronia,F,5
1779,Sarepta,F,5
1780,Sidonia,F,5
1781,Silla,F,5
1782,Syble,F,5
1783,Tabitha,F,5
1784,Teckla,F,5
1785,Tera,F,5
1786,Terese,F,5
1787,Teresita,F,5
1788,Tessa,F,5
1789,Texas,F,5
1790,Tomasa,F,5
1791,Tommy,F,5
1792,Toy,F,5
1793,Trinidad,F,5
1794,Trixie,F,5
1795,Vela,F,5
1796,Vianna,F,5
1797,Vicie,F,5
1798,Vila,F,5
1799,Violetta,F,5
1800,Virlie,F,5
1801,Vista,F,5
1802,Vivia,F,5
1803,Vivienne,F,5
1804,Weltha,F,5
1805,Xenia,F,5
1806,Zaidee,F,5
1807,Zylpha,F,5
1808,John,M,8321
1809,William,M,7277
1810,James,M,5335
1811,George,M,4289
1812,Charles,M,3633
1813,Frank,M,3012
1814,Joseph,M,2992
1815,Robert,M,2635
1816,Henry,M,2221
1817,Edward,M,2203
1818,Thomas,M,2153
1819,Harry,M,2128
1820,Walter,M,2015
1821,Arthur,M,1666
1822,Fred,M,1483
1823,Albert,M,1391
1824,Clarence,M,1325
1825,Willie,M,1071
1826,Roy,M,1028
1827,Paul,M,933
1828,Louis,M,913
1829,Earl,M,852
1830,Carl,M,851
1831,Ernest,M,834
1832,Samuel,M,814
1833,Raymond,M,806
1834,Charlie,M,767
1835,Joe,M,763
1836,Harold,M,753
1837,Ralph,M,736
1838,Richard,M,727
1839,David,M,707
1840,Howard,M,641
1841,Elmer,M,610
1842,Jesse,M,577
1843,Herbert,M,569
1844,Andrew,M,562
1845,Alfred,M,551
1846,Oscar,M,549
1847,Daniel,M,516
1848,Lawrence,M,509
1849,Leo,M,509
1850,Sam,M,487
1851,Will,M,485
1852,Francis,M,480
1853,Jack,M,479
1854,Lee,M,478
1855,Benjamin,M,452
1856,Herman,M,439
1857,Eugene,M,430
1858,Floyd,M,427
1859,Michael,M,413
1860,Peter,M,412
1861,Frederick,M,406
1862,Claude,M,389
1863,Ray,M,380
1864,Chester,M,378
1865,Lewis,M,377
1866,Clyde,M,370
1867,Edwin,M,346
1868,Leonard,M,342
1869,Tom,M,335
1870,Ben,M,324
1871,Edgar,M,323
1872,Martin,M,317
1873,Russell,M,300
1874,Homer,M,296
1875,Lester,M,295
1876,Otto,M,283
1877,Harvey,M,282
1878,Jim,M,279
1879,Clifford,M,272
1880,Luther,M,269
1881,Jacob,M,266
1882,Lloyd,M,263
1883,Guy,M,261
1884,Bernard,M,259
1885,Leroy,M,249
1886,Jessie,M,245
1887,Hugh,M,243
1888,Leslie,M,235
1889,Patrick,M,233
1890,Stanley,M,233
1891,Ed,M,229
1892,Eddie,M,228
1893,Anthony,M,221
1894,Leon,M,219
1895,Oliver,M,216
1896,Archie,M,212
1897,Horace,M,211
1898,Norman,M,211
1899,Philip,M,211
1900,Theodore,M,208
1901,Everett,M,207
1902,Ira,M,207
1903,Donald,M,203
1904,Alexander,M,199
1905,Allen,M,196
1906,Victor,M,196
1907,Cecil,M,192
1908,August,M,190
1909,Milton,M,188
1910,Alvin,M,179
1911,Stephen,M,179
1912,Charley,M,178
1913,Sidney,M,178
1914,Isaac,M,172
1915,Julius,M,165
1916,Percy,M,164
1917,Warren,M,160
1918,Melvin,M,158
1919,Wesley,M,156
1920,Glenn,M,150
1921,Bert,M,149
1922,Marion,M,148
1923,Virgil,M,146
1924,Alex,M,143
1925,Earnest,M,143
1926,Mack,M,140
1927,Dave,M,139
1928,Emmett,M,138
1929,Emil,M,136
1930,Maurice,M,136
1931,Rufus,M,135
1932,Willis,M,135
1933,Vincent,M,134
1934,Otis,M,133
1935,Gilbert,M,132
1936,Vernon,M,131
1937,Calvin,M,130
1938,Kenneth,M,127
1939,Morris,M,125
1940,Wilbur,M,125
1941,Johnnie,M,120
1942,Lonnie,M,120
1943,Nathan,M,119
1944,Wallace,M,119
1945,Willard,M,113
1946,Matthew,M,112
1947,Irving,M,110
1948,Felix,M,109
1949,Dennis,M,108
1950,Nelson,M,108
1951,Marvin,M,107
1952,Elbert,M,106
1953,Hubert,M,106
1954,Rudolph,M,106
1955,Gordon,M,104
1956,Jose,M,104
1957,Franklin,M,103
1958,Glen,M,102
1959,Jerry,M,102
1960,Jess,M,102
1961,Mark,M,102
1962,Reuben,M,102
1963,Ellis,M,100
1964,Marshall,M,100
1965,Sylvester,M,99
1966,Manuel,M,98
1967,Perry,M,97
1968,Roland,M,97
1969,Amos,M,96
1970,Arnold,M,96
1971,Dan,M,96
1972,Max,M,95
1973,Aaron,M,94
1974,Abraham,M,94
1975,Grover,M,93
1976,Clifton,M,92
1977,Orville,M,92
1978,Clinton,M,91
1979,Jake,M,91
1980,Jay,M,91
1981,Roscoe,M,91
1982,Bill,M,90
1983,Edmund,M,90
1984,Ollie,M,90
1985,Phillip,M,90
1986,Curtis,M,89
1987,Claud,M,88
1988,Forrest,M,88
1989,Adolph,M,86
1990,Clayton,M,86
1991,Cornelius,M,86
1992,Alonzo,M,85
1993,Mike,M,85
1994,Nicholas,M,84
1995,Bennie,M,82
1996,Harrison,M,81
1997,Adam,M,78
1998,Don,M,78
1999,Grant,M,77
2000,Gerald,M,76
2001,Elijah,M,75
2002,Owen,M,75
2003,Sherman,M,75
2004,Alva,M,74
2005,Ross,M,73
2006,Gus,M,72
2007,Levi,M,72
2008,Nathaniel,M,72
2009,Noah,M,72
2010,Jasper,M,71
2011,Steve,M,71
2012,Wilson,M,71
2013,Moses,M,70
2014,Roger,M,69
2015,Dock,M,68
2016,Harley,M,68
2017,Silas,M,68
2018,Karl,M,67
2019,Bruce,M,66
2020,Pete,M,66
2021,Irvin,M,65
2022,Jeff,M,65
2023,Jimmie,M,65
2024,Emanuel,M,64
2025,Anton,M,63
2026,Monroe,M,63
2027,Fredrick,M,62
2028,Hiram,M,62
2029,Mose,M,62
2030,Carroll,M,61
2031,Douglas,M,61
2032,Juan,M,61
2033,Wiley,M,61
2034,Christopher,M,60
2035,Timothy,M,60
2036,Grady,M,59
2037,Jerome,M,58
2038,Johnie,M,58
2039,Laurence,M,58
2040,Preston,M,58
2041,Simon,M,57
2042,Byron,M,56
2043,Wayne,M,56
2044,Austin,M,55
2045,Barney,M,55
2046,Eli,M,55
2047,Julian,M,55
2048,Loyd,M,55
2049,Abe,M,54
2050,Bob,M,54
2051,Leland,M,54
2052,Christian,M,53
2053,Clark,M,53
2054,Earle,M,53
2055,Luke,M,53
2056,Forest,M,52
2057,Ora,M,52
2058,Cleveland,M,51
2059,Ervin,M,51
2060,Solomon,M,51
2061,Augustus,M,50
2062,Edmond,M,50
2063,Millard,M,50
2064,Gustave,M,49
2065,Ivan,M,49
2066,Riley,M,49
2067,Ward,M,48
2068,Mary,M,47
2069,Erwin,M,46
2070,Louie,M,46
2071,Lynn,M,46
2072,Merle,M,46
2073,Ezra,M,45
2074,Pearl,M,45
2075,Ike,M,44
2076,Elwood,M,43
2077,Scott,M,43
2078,Tony,M,43
2079,Ulysses,M,43
2080,Vern,M,43
2081,Columbus,M,42
2082,Emory,M,42
2083,Chris,M,41
2084,Edd,M,41
2085,Wilfred,M,41
2086,Asa,M,40
2087,Dewitt,M,40
2088,Lyle,M,40
2089,Andy,M,39
2090,Enoch,M,39
2091,Hugo,M,39
2092,Irwin,M,39
2093,Murray,M,39
2094,Stewart,M,39
2095,Wade,M,39
2096,Ambrose,M,38
2097,Ferdinand,M,38
2098,Fletcher,M,38
2099,Neal,M,38
2100,Ned,M,38
2101,Tommie,M,38
2102,Aubrey,M,37
2103,Ellsworth,M,37
2104,Emery,M,37
2105,Joel,M,37
2106,Larry,M,37
2107,Ruben,M,37
2108,Antonio,M,36
2109,Marcus,M,36
2110,Pat,M,36
2111,Walker,M,36
2112,Isiah,M,35
2113,Johnny,M,35
2114,Spencer,M,35
2115,Sterling,M,35
2116,Wilbert,M,35
2117,Conrad,M,34
2118,Major,M,34
2119,Mckinley,M,34
2120,Myron,M,34
2121,Rex,M,34
2122,Van,M,34
2123,Allie,M,33
2124,Bud,M,33
2125,Clay,M,33
2126,Dallas,M,33
2127,Delbert,M,33
2128,Elisha,M,33
2129,Malcolm,M,33
2130,Mathew,M,33
2131,Miles,M,33
2132,Newton,M,33
2133,Dee,M,32
2134,Jackson,M,32
2135,Royal,M,32
2136,Anderson,M,31
2137,Boyd,M,31
2138,Clair,M,31
2139,Elliott,M,31
2140,Emmet,M,31
2141,Lon,M,31
2142,Mitchell,M,31
2143,Neil,M,31
2144,Bertram,M,30
2145,Garland,M,30
2146,Loren,M,30
2147,Chauncey,M,29
2148,Elias,M,29
2149,Granville,M,29
2150,Joshua,M,29
2151,Nick,M,29
2152,Randolph,M,29
2153,Troy,M,29
2154,Clem,M,28
2155,Clement,M,28
2156,Dewey,M,28
2157,Gene,M,28
2158,Jefferson,M,28
2159,Jeremiah,M,28
2160,Lowell,M,28
2161,Lucius,M,28
2162,Noble,M,28
2163,Oren,M,28
2164,Shirley,M,28
2165,Aloysius,M,27
2166,Bryan,M,27
2167,Burton,M,27
2168,Carlton,M,27
2169,Foster,M,27
2170,Freeman,M,27
2171,Josh,M,27
2172,Napoleon,M,27
2173,Ramon,M,27
2174,Wilmer,M,27
2175,Alton,M,26
2176,Archibald,M,26
2177,Bradley,M,26
2178,Dale,M,26
2179,Elmo,M,26
2180,Jonas,M,26
2181,Jordan,M,26
2182,Lincoln,M,26
2183,Lorenzo,M,26
2184,Matt,M,26
2185,Morgan,M,26
2186,Omer,M,26
2187,Reginald,M,26
2188,Taylor,M,26
2189,Vance,M,26
2190,Alphonse,M,25
2191,Cyrus,M,25
2192,Elvin,M,25
2193,Henderson,M,25
2194,Merrill,M,25
2195,Porter,M,25
2196,Ronald,M,25
2197,Arther,M,24
2198,Early,M,24
2199,Freddie,M,24
2200,Hollis,M,24
2201,Isaiah,M,24
2202,King,M,24
2203,Sol,M,24
2204,Sydney,M,24
2205,Ted,M,24
2206,Al,M,23
2207,Dudley,M,23
2208,Fay,M,23
2209,Herschel,M,23
2210,Jason,M,23
2211,Judson,M,23
2212,Junius,M,23
2213,Kelly,M,23
2214,Lafayette,M,23
2215,Lemuel,M,23
2216,Morton,M,23
2217,Pedro,M,23
2218,Sanford,M,23
2219,Valentine,M,23
2220,Wendell,M,23
2221,Adolphus,M,22
2222,Allan,M,22
2223,Basil,M,22
2224,Burt,M,22
2225,Dick,M,22
2226,Dwight,M,22
2227,Hans,M,22
2228,Harris,M,22
2229,Houston,M,22
2230,Judge,M,22
2231,Omar,M,22
2232,Winfield,M,22
2233,Alan,M,21
2234,Arlie,M,21
2235,Cliff,M,21
2236,Cyril,M,21
2237,Emerson,M,21
2238,Emile,M,21
2239,Haywood,M,21
2240,Lyman,M,21
2241,Rollie,M,21
2242,Wilber,M,21
2243,Zack,M,21
2244,Avery,M,20
2245,Axel,M,20
2246,Buford,M,20
2247,Carlos,M,20
2248,Dean,M,20
2249,Eric,M,20
2250,Francisco,M,20
2251,General,M,20
2252,Gust,M,20
2253,Hal,M,20
2254,Lenard,M,20
2255,Lucious,M,20
2256,Nels,M,20
2257,Ole,M,20
2258,Sandy,M,20
2259,Stuart,M,20
2260,Tommy,M,20
2261,Verne,M,20
2262,Waldo,M,20
2263,Addison,M,19
2264,Cleo,M,19
2265,Coy,M,19
2266,Elmore,M,19
2267,Elza,M,19
2268,Florence,M,19
2269,Garrett,M,19
2270,Gustav,M,19
2271,Isadore,M,19
2272,Jean,M,19
2273,Lionel,M,19
2274,Mason,M,19
2275,Maynard,M,19
2276,Melville,M,19
2277,Olin,M,19
2278,Reed,M,19
2279,Rodney,M,19
2280,Roman,M,19
2281,Ruby,M,19
2282,Washington,M,19
2283,Abram,M,18
2284,Adrian,M,18
2285,Anna,M,18
2286,Benjiman,M,18
2287,Berry,M,18
2288,Hardy,M,18
2289,Ivy,M,18
2290,Lige,M,18
2291,Milo,M,18
2292,Norbert,M,18
2293,Prince,M,18
2294,Russel,M,18
2295,Seth,M,18
2296,Wilford,M,18
2297,Wylie,M,18
2298,Carey,M,17
2299,Christ,M,17
2300,Delmar,M,17
2301,Elizabeth,M,17
2302,Green,M,17
2303,Helen,M,17
2304,Jesus,M,17
2305,Jules,M,17
2306,Noel,M,17
2307,Thurman,M,17
2308,Abner,M,16
2309,Adelard,M,16
2310,Alma,M,16
2311,Artie,M,16
2312,Buster,M,16
2313,Chas,M,16
2314,Cleve,M,16
2315,Connie,M,16
2316,Dorsey,M,16
2317,Elton,M,16
2318,Emmitt,M,16
2319,Esther,M,16
2320,Frances,M,16
2321,Hezekiah,M,16
2322,Hobart,M,16
2323,Howell,M,16
2324,Ivory,M,16
2325,Lonzo,M,16
2326,Miguel,M,16
2327,Obie,M,16
2328,Pablo,M,16
2329,Raleigh,M,16
2330,Sammie,M,16
2331,Shelby,M,16
2332,Smith,M,16
2333,Steven,M,16
2334,Vivian,M,16
2335,Webster,M,16
2336,Angus,M,15
2337,Annie,M,15
2338,Arch,M,15
2339,Clint,M,15
2340,Dominick,M,15
2341,Ethel,M,15
2342,Evert,M,15
2343,Fritz,M,15
2344,Garfield,M,15
2345,Guss,M,15
2346,Hamilton,M,15
2347,Harmon,M,15
2348,Israel,M,15
2349,Levy,M,15
2350,Logan,M,15
2351,Lucian,M,15
2352,Ludwig,M,15
2353,Madison,M,15
2354,Milford,M,15
2355,Otho,M,15
2356,Parker,M,15
2357,Phil,M,15
2358,Pink,M,15
2359,Rupert,M,15
2360,Talmage,M,15
2361,Tim,M,15
2362,Truman,M,15
2363,Albin,M,14
2364,Alvah,M,14
2365,Bernie,M,14
2366,Bruno,M,14
2367,Casper,M,14
2368,Davis,M,14
2369,Duncan,M,14
2370,Eldridge,M,14
2371,Frederic,M,14
2372,Gabriel,M,14
2373,Gerard,M,14
2374,Graham,M,14
2375,Jule,M,14
2376,Mathias,M,14
2377,Merritt,M,14
2378,Mervin,M,14
2379,Norris,M,14
2380,Odie,M,14
2381,Orval,M,14
2382,Otha,M,14
2383,Pierce,M,14
2384,Theo,M,14
2385,Wm,M,14
2386,Alvis,M,13
2387,Angelo,M,13
2388,Bertha,M,13
2389,Billie,M,13
2390,Ernst,M,13
2391,Evan,M,13
2392,Evans,M,13
2393,Gail,M,13
2394,Hazel,M,13
2395,Heber,M,13
2396,Johnson,M,13
2397,Lem,M,13
2398,Leopold,M,13
2399,Linwood,M,13
2400,Lucien,M,13
2401,Maxwell,M,13
2402,Newman,M,13
2403,Oral,M,13
2404,Orlando,M,13
2405,Oswald,M,13
2406,Palmer,M,13
2407,Paris,M,13
2408,Ransom,M,13
2409,Rogers,M,13
2410,Santiago,M,13
2411,Saul,M,13
2412,Terry,M,13
2413,Turner,M,13
2414,Warner,M,13
2415,Winfred,M,13
2416,Bonnie,M,12
2417,Buck,M,12
2418,Cal,M,12
2419,Coleman,M,12
2420,Dana,M,12
2421,Denis,M,12
2422,Denver,M,12
2423,Emma,M,12
2424,Gary,M,12
2425,Gaston,M,12
2426,Gertrude,M,12
2427,Hallie,M,12
2428,Harlan,M,12
2429,Harper,M,12
2430,Hosea,M,12
2431,Hoyt,M,12
2432,Hyman,M,12
2433,Jimmy,M,12
2434,Lacy,M,12
2435,Lillian,M,12
2436,Lonie,M,12
2437,Mahlon,M,12
2438,Merton,M,12
2439,Meyer,M,12
2440,Myrtle,M,12
2441,Olen,M,12
2442,Oran,M,12
2443,Roosevelt,M,12
2444,Thornton,M,12
2445,Tillman,M,12
2446,Watson,M,12
2447,Benton,M,11
2448,Billy,M,11
2449,Bradford,M,11
2450,Brady,M,11
2451,Cary,M,11
2452,Clara,M,11
2453,Colonel,M,11
2454,Corbett,M,11
2455,Crawford,M,11
2456,Dalton,M,11
2457,Egbert,M,11
2458,Fate,M,11
2459,Golden,M,11
2460,Isom,M,11
2461,Issac,M,11
2462,Jewel,M,11
2463,Jewell,M,11
2464,Lambert,M,11
2465,Lindsay,M,11
2466,Lindsey,M,11
2467,Mattie,M,11
2468,Murphy,M,11
2469,Murry,M,11
2470,Nat,M,11
2471,Olaf,M,11
2472,Orrin,M,11
2473,Ottis,M,11
2474,Quincy,M,11
2475,Rafael,M,11
2476,Reid,M,11
2477,Roe,M,11
2478,Seymour,M,11
2479,Sim,M,11
2480,Simeon,M,11
2481,Son,M,11
2482,Talmadge,M,11
2483,Thad,M,11
2484,Theron,M,11
2485,Tracy,M,11
2486,Vernie,M,11
2487,Walton,M,11
2488,West,M,11
2489,Wyatt,M,11
2490,Zeb,M,11
2491,Zollie,M,11
2492,Alfonso,M,10
2493,Alfredo,M,10
2494,Armand,M,10
2495,Aron,M,10
2496,Ashley,M,10
2497,Bailey,M,10
2498,Bart,M,10
2499,Benny,M,10
2500,Bishop,M,10
2501,Brooks,M,10
2502,Byrd,M,10
2503,Caleb,M,10
2504,Carleton,M,10
2505,Carlyle,M,10
2506,Carson,M,10
2507,Cletus,M,10
2508,Cloyd,M,10
2509,Collie,M,10
2510,Dayton,M,10
2511,Dominic,M,10
2512,Earlie,M,10
2513,Elie,M,10
2514,Ely,M,10
2515,Elzie,M,10
2516,Enos,M,10
2517,Enrique,M,10
2518,Ephraim,M,10
2519,Ewing,M,10
2520,Finis,M,10
2521,Geo,M,10
2522,Godfrey,M,10
2523,Harland,M,10
2524,Hartley,M,10
2525,Hayward,M,10
2526,Helmer,M,10
2527,Henery,M,10
2528,Ida,M,10
2529,Isham,M,10
2530,Jodie,M,10
2531,Jonathan,M,10
2532,June,M,10
2533,Lamar,M,10
2534,Larkin,M,10
2535,Llewellyn,M,10
2536,Louise,M,10
2537,Mat,M,10
2538,Merlin,M,10
2539,Miller,M,10
2540,Mitchel,M,10
2541,Richmond,M,10
2542,Sampson,M,10
2543,Travis,M,10
2544,Virgle,M,10
2545,Williams,M,10
2546,Acie,M,9
2547,Ada,M,9
2548,Alta,M,9
2549,Ansel,M,9
2550,Bennett,M,9
2551,Bertie,M,9
2552,Burley,M,9
2553,Butler,M,9
2554,Carter,M,9
2555,Clarance,M,9
2556,Clare,M,9
2557,Cora,M,9
2558,Doc,M,9
2559,Eldon,M,9
2560,Ellwood,M,9
2561,Elsie,M,9
2562,Emmit,M,9
2563,Essie,M,9
2564,Everette,M,9
2565,Ezekiel,M,9
2566,Fenton,M,9
2567,Grace,M,9
2568,Gregory,M,9
2569,Hamp,M,9
2570,Hershel,M,9
2571,Hubbard,M,9
2572,Isreal,M,9
2573,Ivey,M,9
2574,Jennings,M,9
2575,Joesph,M,9
2576,Jonnie,M,9
2577,Lawerence,M,9
2578,Lawson,M,9
2579,Leander,M,9
2580,Lew,M,9
2581,Lou,M,9
2582,Loy,M,9
2583,Luis,M,9
2584,Margaret,M,9
2585,Marie,M,9
2586,Martha,M,9
2587,Minnie,M,9
2588,Nellie,M,9
2589,Orie,M,9
2590,Orlo,M,9
2591,Pleas,M,9
2592,Raphael,M,9
2593,Rolla,M,9
2594,Rolland,M,9
2595,Rollin,M,9
2596,Tobe,M,9
2597,Unknown,M,9
2598,Wash,M,9
2599,Waverly,M,9
2600,Wilburn,M,9
2601,Wilton,M,9
2602,Alden,M,8
2603,Alice,M,8
2604,Allison,M,8
2605,Alpheus,M,8
2606,Alphonsus,M,8
2607,Alto,M,8
2608,Andres,M,8
2609,Antone,M,8
2610,Augusta,M,8
2611,Belton,M,8
2612,Benedict,M,8
2613,Blaine,M,8
2614,Burl,M,8
2615,Curley,M,8
2616,Damon,M,8
2617,Dell,M,8
2618,Delos,M,8
2619,Dexter,M,8
2620,Einar,M,8
2621,Elder,M,8
2622,Eliga,M,8
2623,Elwin,M,8
2624,Ephriam,M,8
2625,Felipe,M,8
2626,Ferd,M,8
2627,Ford,M,8
2628,French,M,8
2629,Gabe,M,8
2630,Galen,M,8
2631,Garnett,M,8
2632,Giles,M,8
2633,Hattie,M,8
2634,Hayes,M,8
2635,Hilton,M,8
2636,Hobert,M,8
2637,Hosie,M,8
2638,Hurley,M,8
2639,Ignatius,M,8
2640,Irl,M,8
2641,Isidore,M,8
2642,Jones,M,8
2643,Junious,M,8
2644,Kirby,M,8
2645,Leigh,M,8
2646,Lillie,M,8
2647,Maxie,M,8
2648,Mayo,M,8
2649,Melton,M,8
2650,Micheal,M,8
2651,Mont,M,8
2652,Montie,M,8
2653,Mortimer,M,8
2654,Myles,M,8
2655,Newell,M,8
2656,Nolan,M,8
2657,Ocie,M,8
2658,Okey,M,8
2659,Orion,M,8
2660,Osie,M,8
2661,Rae,M,8
2662,Randall,M,8
2663,Reese,M,8
2664,Rocco,M,8
2665,Rose,M,8
2666,Salvatore,M,8
2667,Sarah,M,8
2668,Sebastian,M,8
2669,Shellie,M,8
2670,Sheridan,M,8
2671,Sid,M,8
2672,Sigurd,M,8
2673,Spurgeon,M,8
2674,Thompson,M,8
2675,Vester,M,8
2676,Vicente,M,8
2677,Worth,M,8
2678,Young,M,8
2679,Addie,M,7
2680,Adelbert,M,7
2681,Alford,M,7
2682,Alonza,M,7
2683,Alvie,M,7
2684,Arley,M,7
2685,Art,M,7
2686,Arvil,M,7
2687,Augustine,M,7
2688,Baxter,M,7
2689,Bee,M,7
2690,Benjaman,M,7
2691,Bessie,M,7
2692,Blair,M,7
2693,Brown,M,7
2694,Bryant,M,7
2695,Burrell,M,7
2696,Cameron,M,7
2697,Casimer,M,7
2698,Chalmers,M,7
2699,Christy,M,7
2700,Clemens,M,7
2701,Clive,M,7
2702,Coley,M,7
2703,Collins,M,7
2704,Courtney,M,7
2705,Cullen,M,7
2706,Danial,M,7
2707,Dannie,M,7
2708,Doctor,M,7
2709,Doyle,M,7
2710,Duke,M,7
2711,Eben,M,7
2712,Edmon,M,7
2713,Effie,M,7
2714,Eldred,M,7
2715,Eligah,M,7
2716,Ellie,M,7
2717,Elliot,M,7
2718,Elroy,M,7
2719,Elwyn,M,7
2720,Elzy,M,7
2721,Emilio,M,7
2722,Encarnacion,M,7
2723,Ernie,M,7
2724,Estel,M,7
2725,Evander,M,7
2726,Ewell,M,7
2727,Gaither,M,7
2728,Gerhard,M,7
2729,Gottlieb,M,7
2730,Grafton,M,7
2731,Guthrie,M,7
2732,Hampton,M,7
2733,Harlow,M,7
2734,Hayden,M,7
2735,Hector,M,7
2736,Horton,M,7
2737,Hosteen,M,7
2738,Hunter,M,7
2739,Huston,M,7
2740,Jacques,M,7
2741,Jettie,M,7
2742,Jonah,M,7
2743,Josiah,M,7
2744,Kyle,M,7
2745,Lannie,M,7
2746,Lea,M,7
2747,Lennie,M,7
2748,Leonce,M,7
2749,Loran,M,7
2750,Lucy,M,7
2751,Lum,M,7
2752,Mamie,M,7
2753,Minor,M,7
2754,Moe,M,7
2755,Nestor,M,7
2756,Norval,M,7
2757,Norwood,M,7
2758,Oakley,M,7
2759,Odell,M,7
2760,Odis,M,7
2761,Orin,M,7
2762,Orland,M,7
2763,Orson,M,7
2764,Ovila,M,7
2765,Park,M,7
2766,Pierre,M,7
2767,Pinkney,M,7
2768,Price,M,7
2769,Reynold,M,7
2770,Reynolds,M,7
2771,Royce,M,7
2772,Rubin,M,7
2773,Ruth,M,7
2774,Shelley,M,7
2775,Susie,M,7
2776,Toy,M,7
2777,True,M,7
2778,Urban,M,7
2779,Vaughn,M,7
2780,Willam,M,7
2781,Winford,M,7
2782,Winston,M,7
2783,Woodie,M,7
2784,Zeke,M,7
2785,Abel,M,6
2786,Alf,M,6
2787,Alois,M,6
2788,Alwin,M,6
2789,Anson,M,6
2790,Arvel,M,6
2791,Ashby,M,6
2792,Asher,M,6
2793,Audie,M,6
2794,Barnie,M,6
2795,Bartholomew,M,6
2796,Bedford,M,6
2797,Benson,M,6
2798,Bernardo,M,6
2799,Bernice,M,6
2800,Burnie,M,6
2801,Burns,M,6
2802,Carlie,M,6
2803,Carol,M,6
2804,Casimir,M,6
2805,Cassius,M,6
2806,Cephus,M,6
2807,Chalmer,M,6
2808,Charlton,M,6
2809,Claudius,M,6
2810,Claus,M,6
2811,Clell,M,6
2812,Dillard,M,6
2813,Dillon,M,6
2814,Donnie,M,6
2815,Douglass,M,6
2816,Edson,M,6
2817,Eduardo,M,6
2818,Emit,M,6
2819,Ennis,M,6
2820,Eunice,M,6
2821,Ferris,M,6
2822,Frazier,M,6
2823,Furman,M,6
2824,Gale,M,6
2825,Gardner,M,6
2826,Gladys,M,6
2827,Gustaf,M,6
2828,Hall,M,6
2829,Harvie,M,6
2830,Hermon,M,6
2831,Hillard,M,6
2832,Holland,M,6
2833,Hudson,M,6
2834,Ignacio,M,6
2835,Irven,M,6
2836,Junior,M,6
2837,Justin,M,6
2838,Keith,M,6
2839,Kent,M,6
2840,Landon,M,6
2841,Lauren,M,6
2842,Laverne,M,6
2843,Lawyer,M,6
2844,Lemon,M,6
2845,Lindley,M,6
2846,Loyal,M,6
2847,Lucas,M,6
2848,Marcel,M,6
2849,Maude,M,6
2850,Milburn,M,6
2851,Mildred,M,6
2852,Nora,M,6
2853,Olan,M,6
2854,Olie,M,6
2855,Orley,M,6
2856,Ossie,M,6
2857,Ottie,M,6
2858,Overton,M,6
2859,Pasquale,M,6
2860,Patsy,M,6
2861,Peyton,M,6
2862,Prentiss,M,6
2863,Raymon,M,6
2864,Reinhard,M,6
2865,Reinhold,M,6
2866,Rene,M,6
2867,Rob,M,6
2868,Roby,M,6
2869,Rosco,M,6
2870,Rube,M,6
2871,Rueben,M,6
2872,Rush,M,6
2873,Shelly,M,6
2874,Shelton,M,6
2875,Sonny,M,6
2876,Stanford,M,6
2877,Terrence,M,6
2878,Tex,M,6
2879,Titus,M,6
2880,Toby,M,6
2881,Tomas,M,6
2882,Verl,M,6
2883,Verner,M,6
2884,Wayman,M,6
2885,Worley,M,6
2886,Ace,M,5
2887,Albertus,M,5
2888,Albion,M,5
2889,Alec,M,5
2890,Alexis,M,5
2891,Algie,M,5
2892,Alphonzo,M,5
2893,Ancil,M,5
2894,Arden,M,5
2895,Asberry,M,5
2896,Audrey,M,5
2897,Auther,M,5
2898,Babe,M,5
2899,Baker,M,5
2900,Ballard,M,5
2901,Bernhard,M,5
2902,Beverly,M,5
2903,Birdie,M,5
2904,Blake,M,5
2905,Booker,M,5
2906,Boss,M,5
2907,Boyce,M,5
2908,Callie,M,5
2909,Carmen,M,5
2910,Carrol,M,5
2911,Casey,M,5
2912,Cedric,M,5
2913,Charly,M,5
2914,Chin,M,5
2915,Christie,M,5
2916,Cicero,M,5
2917,Claudie,M,5
2918,Clovis,M,5
2919,Colbert,M,5
2920,Colin,M,5
2921,Collin,M,5
2922,Conley,M,5
2923,Cooper,M,5
2924,Cornelious,M,5
2925,Daisy,M,5
2926,Darrell,M,5
2927,Della,M,5
2928,Dorothy,M,5
2929,Dow,M,5
2930,Drew,M,5
2931,Durward,M,5
2932,Earley,M,5
2933,Edison,M,5
2934,Elgie,M,5
2935,Elgin,M,5
2936,Ellen,M,5
2937,Elva,M,5
2938,Elvis,M,5
2939,Erich,M,5
2940,Erick,M,5
2941,Erving,M,5
2942,Euel,M,5
2943,Eva,M,5
2944,Federico,M,5
2945,Felton,M,5
2946,Fernando,M,5
2947,Fidel,M,5
2948,Fillmore,M,5
2949,Florian,M,5
2950,Franz,M,5
2951,Frederich,M,5
2952,Gaines,M,5
2953,Garret,M,5
2954,Gaylord,M,5
2955,Geoffrey,M,5
2956,Georgia,M,5
2957,Glover,M,5
2958,Gorden,M,5
2959,Gray,M,5
2960,Gurney,M,5
2961,Gussie,M,5
2962,Harless,M,5
2963,Harlie,M,5
2964,Harm,M,5
2965,Hartford,M,5
2966,Hartwell,M,5
2967,Herb,M,5
2968,Hilding,M,5
2969,Hjalmar,M,5
2970,Hjalmer,M,5
2971,Hollie,M,5
2972,Horatio,M,5
2973,Huey,M,5
2974,Hurbert,M,5
2975,Irene,M,5
2976,Jennie,M,5
2977,Josephus,M,5
2978,Julious,M,5
2979,Kirk,M,5
2980,Lafe,M,5
2981,Laura,M,5
2982,Laurel,M,5
2983,Layton,M,5
2984,Lazarus,M,5
2985,Leighton,M,5
2986,Lenord,M,5
2987,Leonidas,M,5
2988,Less,M,5
2989,Linus,M,5
2990,Linzy,M,5
2991,Lisle,M,5
2992,Lola,M,5
2993,Loney,M,5
2994,Loranzo,M,5
2995,Love,M,5
2996,Macy,M,5
2997,Mae,M,5
2998,Manly,M,5
2999,Mannie,M,5
3000,Manning,M,5
3001,Marquis,M,5
3002,Mart,M,5
3003,Matthias,M,5
3004,Mell,M,5
3005,Meredith,M,5
3006,Merl,M,5
3007,Monte,M,5
3008,Needham,M,5
3009,Nile,M,5
3010,Nina,M,5
3011,Norton,M,5
3012,Obert,M,5
3013,Odus,M,5
3014,Orange,M,5
3015,Perley,M,5
3016,Press,M,5
3017,Reece,M,5
3018,Reuel,M,5
3019,Rosie,M,5
3020,Roswell,M,5
3021,Rudy,M,5
3022,Sadie,M,5
3023,Sebron,M,5
3024,Selmer,M,5
3025,Seward,M,5
3026,Sigmund,M,5
3027,Stclair,M,5
3028,Stephan,M,5
3029,Sumpter,M,5
3030,Terrance,M,5
3031,Theresa,M,5
3032,Thurston,M,5
3033,Tilden,M,5
3034,Tyler,M,5
3035,Vere,M,5
3036,Virginia,M,5
3037,Volney,M,5
3038,Waymon,M,5
3039,Weldon,M,5
3040,Wellington,M,5
3041,Wells,M,5
3042,Wess,M,5
3043,Westley,M,5
3044,Whit,M,5
3045,Wilfrid,M,5
3046,Wilhelm,M,5
3047,Wong,M,5
3048,Yee,M,5
