,name,sex,number
0,Mary,F,9888
1,Anna,F,4227
2,Elizabeth,F,2681
3,Emma,F,2647
4,Margaret,F,2419
5,Minnie,F,2215
6,Bertha,F,2037
7,Clara,F,1984
8,Florence,F,1964
9,Ida,F,1929
10,Ethel,F,1907
11,Annie,F,1844
12,Bessie,F,1838
13,Alice,F,1819
14,Grace,F,1692
15,Ella,F,1521
16,Martha,F,1504
17,Mabel,F,1494
18,Nellie,F,1457
19,Sarah,F,1436
20,Helen,F,1405
21,Laura,F,1364
22,Carrie,F,1344
23,Edna,F,1339
24,Pearl,F,1316
25,Lillian,F,1308
26,Cora,F,1257
27,Gertrude,F,1251
28,Edith,F,1243
29,Rose,F,1242
30,Maude,F,1162
31,Hattie,F,1135
32,Eva,F,1125
33,Frances,F,1105
34,Louise,F,1088
35,Myrtle,F,1087
36,Lillie,F,1072
37,Jennie,F,1047
38,Julia,F,1043
39,Mattie,F,1031
40,Jessie,F,1012
41,Lena,F,1004
42,Marie,F,994
43,Catherine,F,967
44,Ada,F,910
45,Agnes,F,896
46,Lula,F,891
47,Dora,F,842
48,Elsie,F,832
49,Josephine,F,816
50,Lucy,F,811
51,Fannie,F,798
52,Katherine,F,794
53,Blanche,F,763
54,Maggie,F,740
55,Nora,F,735
56,Mamie,F,716
57,Mae,F,680
58,Stella,F,664
59,Rosa,F,659
60,May,F,648
61,Ruth,F,627
62,Alma,F,623
63,Effie,F,615
64,Nettie,F,595
65,Ellen,F,579
66,Daisy,F,532
67,Lizzie,F,525
68,Sallie,F,525
69,Sadie,F,519
70,Nancy,F,511
71,Hazel,F,504
72,Irene,F,504
73,Della,F,496
74,Susie,F,485
75,Lydia,F,448
76,Katie,F,440
77,Etta,F,437
78,Esther,F,431
79,Viola,F,420
80,Lottie,F,414
81,Flora,F,408
82,Maud,F,402
83,Caroline,F,398
84,Olive,F,394
85,Addie,F,393
86,Kathryn,F,384
87,Willie,F,379
88,Mildred,F,373
89,Beulah,F,355
90,Charlotte,F,351
91,Georgia,F,351
92,Amelia,F,344
93,Harriet,F,342
94,Nannie,F,340
95,Amanda,F,338
96,Ollie,F,338
97,Emily,F,335
98,Susan,F,335
99,Mollie,F,333
100,Virginia,F,332
101,Kate,F,331
102,Lulu,F,322
103,Pauline,F,314
104,Ruby,F,309
105,Eliza,F,290
106,Jane,F,288
107,Theresa,F,284
108,Hannah,F,279
109,Rebecca,F,275
110,Belle,F,272
111,Dorothy,F,272
112,Henrietta,F,269
113,Matilda,F,266
114,Nina,F,266
115,Beatrice,F,262
116,Estella,F,260
117,Marion,F,254
118,Iva,F,253
119,Amy,F,251
120,Anne,F,249
121,Eleanor,F,247
122,Lola,F,246
123,Ann,F,239
124,Ora,F,231
125,Rachel,F,226
126,Augusta,F,221
127,Mayme,F,214
128,Sara,F,214
129,Leona,F,208
130,Lela,F,207
131,Barbara,F,204
132,Maria,F,203
133,Gladys,F,201
134,Evelyn,F,194
135,Josie,F,192
136,Sophia,F,192
137,Eula,F,188
138,Alta,F,187
139,Essie,F,185
140,Allie,F,183
141,Mable,F,182
142,Inez,F,180
143,Betty,F,178
144,Ina,F,178
145,Marguerite,F,178
146,Estelle,F,170
147,Ola,F,170
148,Millie,F,168
149,Callie,F,167
150,Vera,F,167
151,Rosie,F,162
152,Christine,F,161
153,Goldie,F,159
154,Victoria,F,157
155,Hilda,F,156
156,Bess,F,155
157,Janie,F,155
158,Rena,F,155
159,Celia,F,154
160,Winifred,F,154
161,Olga,F,153
162,Delia,F,150
163,Genevieve,F,149
164,Lucille,F,149
165,Sophie,F,149
166,Lou,F,147
167,Nell,F,146
168,Tillie,F,140
169,Louisa,F,138
170,Mathilda,F,138
171,Eunice,F,136
172,Sylvia,F,135
173,Loretta,F,134
174,Birdie,F,133
175,Lois,F,129
176,Verna,F,129
177,Bernice,F,127
178,Luella,F,127
179,Flossie,F,123
180,Frieda,F,123
181,Sue,F,123
182,Bettie,F,117
183,Alberta,F,116
184,Winnie,F,114
185,Cornelia,F,112
186,Jean,F,112
187,Leila,F,112
188,Sally,F,112
189,Roxie,F,111
190,Katharine,F,110
191,Isabel,F,109
192,Bertie,F,108
193,Hulda,F,108
194,Isabelle,F,108
195,Teresa,F,107
196,Abbie,F,104
197,Adelaide,F,104
198,Rhoda,F,104
199,Adeline,F,103
200,Dollie,F,103
201,Lelia,F,102
202,Nelle,F,100
203,Virgie,F,100
204,Elva,F,99
205,Lenora,F,98
206,Lettie,F,98
207,Carolyn,F,97
208,Selma,F,97
209,Violet,F,97
210,Geneva,F,95
211,Gertie,F,95
212,Jeannette,F,95
213,Myra,F,95
214,Hallie,F,93
215,Cecelia,F,92
216,Christina,F,92
217,Lucinda,F,92
218,Irma,F,90
219,Lora,F,90
220,Harriett,F,89
221,Hester,F,89
222,Lura,F,87
223,Johanna,F,86
224,Jeanette,F,85
225,Lucile,F,85
226,Marian,F,85
227,Cecilia,F,83
228,Fanny,F,83
229,Hettie,F,83
230,Leah,F,83
231,Lilly,F,83
232,Myrtie,F,83
233,Francis,F,82
234,Gussie,F,82
235,Linnie,F,82
236,Adele,F,80
237,Freda,F,80
238,Helena,F,78
239,Norma,F,77
240,Wilhelmina,F,77
241,Naomi,F,76
242,Claudia,F,74
243,Lila,F,74
244,Maudie,F,74
245,Elma,F,73
246,Marjorie,F,73
247,Lida,F,72
248,Elnora,F,71
249,Meta,F,71
250,Ophelia,F,70
251,Fern,F,69
252,Olivia,F,69
253,Lorena,F,68
254,Emilie,F,67
255,Lessie,F,67
256,Mittie,F,67
257,Zella,F,67
258,Alvina,F,66
259,Regina,F,66
260,Vivian,F,66
261,Madge,F,65
262,Pearlie,F,65
263,Minerva,F,64
264,Roberta,F,64
265,Eugenia,F,63
266,Phoebe,F,63
267,Dorothea,F,62
268,Erma,F,62
269,Elsa,F,61
270,Juanita,F,61
271,Mina,F,61
272,Lee,F,60
273,Bonnie,F,59
274,Lily,F,59
275,Louella,F,59
276,Velma,F,59
277,Claire,F,58
278,Cordelia,F,58
279,Isabella,F,58
280,Janet,F,58
281,Margie,F,58
282,Mabelle,F,57
283,Rosalie,F,57
284,Ivy,F,56
285,John,F,56
286,Cynthia,F,55
287,Nola,F,55
288,Pansy,F,55
289,Dovie,F,54
290,Floy,F,54
291,Ernestine,F,53
292,Kittie,F,53
293,Madeline,F,53
294,Angeline,F,52
295,Cassie,F,52
296,Edythe,F,51
297,Elvira,F,51
298,Georgie,F,51
299,Pearle,F,51
300,Priscilla,F,51
301,Kathleen,F,50
302,Lina,F,50
303,Linda,F,50
304,Malinda,F,50
305,Orpha,F,50
306,Blanch,F,49
307,Frankie,F,48
308,Polly,F,48
309,Annette,F,47
310,Antoinette,F,47
311,Fay,F,47
312,Ona,F,47
313,Artie,F,46
314,Miriam,F,46
315,Oma,F,46
316,Vina,F,46
317,Zora,F,46
318,Evie,F,45
319,Letha,F,45
320,Neva,F,45
321,Bell,F,44
322,William,F,44
323,Angie,F,43
324,Dessie,F,43
325,Ila,F,43
326,Leota,F,43
327,Alpha,F,42
328,Corinne,F,42
329,Faye,F,42
330,Rosetta,F,42
331,Anita,F,41
332,Chloe,F,41
333,Dona,F,41
334,Lona,F,41
335,Maybelle,F,41
336,Adelia,F,40
337,Cecil,F,40
338,Charity,F,40
339,Gracie,F,40
340,Opal,F,40
341,Rita,F,40
342,Vida,F,40
343,Audrey,F,39
344,Dena,F,39
345,Donna,F,39
346,Ellie,F,39
347,Nan,F,39
348,Catharine,F,38
349,Doris,F,38
350,Leola,F,38
351,Melvina,F,38
352,Rae,F,38
353,Cleo,F,37
354,Constance,F,37
355,Lenore,F,37
356,Mandy,F,37
357,Sudie,F,37
358,Tena,F,37
359,Ava,F,36
360,Lyda,F,36
361,Mertie,F,36
362,Nona,F,36
363,Isabell,F,35
364,Lennie,F,35
365,Veronica,F,35
366,Bridget,F,34
367,Cecile,F,34
368,George,F,34
369,Melissa,F,34
370,Zoe,F,34
371,Angela,F,33
372,Charles,F,33
373,Elisabeth,F,33
374,Kitty,F,33
375,Savannah,F,33
376,Zula,F,33
377,Adah,F,32
378,Alva,F,32
379,Dolly,F,32
380,Elise,F,32
381,Jimmie,F,32
382,Joanna,F,32
383,Johnnie,F,32
384,Leta,F,32
385,Mazie,F,32
386,Minna,F,32
387,Molly,F,32
388,Tessie,F,32
389,Clare,F,31
390,Clyde,F,31
391,Elmira,F,31
392,Eloise,F,31
393,Helene,F,31
394,Susanna,F,31
395,Una,F,31
396,Willa,F,31
397,Ettie,F,30
398,Leora,F,30
399,Mariah,F,30
400,Pinkie,F,30
401,Retta,F,30
402,Dixie,F,29
403,Lenna,F,29
404,Letitia,F,29
405,Margery,F,29
406,Missouri,F,29
407,Muriel,F,29
408,Octavia,F,29
409,Reba,F,29
410,Wanda,F,29
411,Erna,F,28
412,Eugenie,F,28
413,Georgiana,F,28
414,Inga,F,28
415,Louie,F,28
416,Marietta,F,28
417,Mellie,F,28
418,Odessa,F,28
419,Rosella,F,28
420,Tennie,F,28
421,Vesta,F,28
422,Zona,F,28
423,Belva,F,27
424,Beryl,F,27
425,Emelia,F,27
426,Georgianna,F,27
427,Hanna,F,27
428,Lilla,F,27
429,Lucretia,F,27
430,Mathilde,F,27
431,Rowena,F,27
432,Vada,F,27
433,Zelma,F,27
434,Antonia,F,26
435,Bella,F,26
436,Hilma,F,26
437,Iola,F,26
438,Liza,F,26
439,Lucie,F,26
440,Lue,F,26
441,Magdalena,F,26
442,Pattie,F,26
443,Paula,F,26
444,Vallie,F,26
445,Agatha,F,25
446,Aurelia,F,25
447,Besse,F,25
448,Eda,F,25
449,Emmie,F,25
450,Golda,F,25
451,Harriette,F,25
452,Hedwig,F,25
453,June,F,25
454,Marcella,F,25
455,Rilla,F,25
456,Tina,F,25
457,Vinnie,F,25
458,Berta,F,24
459,Esta,F,24
460,Ione,F,24
461,Jannie,F,24
462,Leonora,F,24
463,Alda,F,23
464,Idella,F,23
465,Jewel,F,23
466,Kathrine,F,23
467,Ludie,F,23
468,Mallie,F,23
469,Zola,F,23
470,Adaline,F,22
471,Adda,F,22
472,Albina,F,22
473,Anastasia,F,22
474,Annabelle,F,22
475,Christena,F,22
476,Docia,F,22
477,Eddie,F,22
478,Iona,F,22
479,Ira,F,22
480,Lonie,F,22
481,Lovie,F,22
482,Luna,F,22
483,Margret,F,22
484,Meda,F,22
485,Mona,F,22
486,Ray,F,22
487,Wilma,F,22
488,Almeda,F,21
489,Connie,F,21
490,Cordie,F,21
491,Era,F,21
492,Florida,F,21
493,Libbie,F,21
494,Madeleine,F,21
495,Queen,F,21
496,Tommie,F,21
497,Winnifred,F,21
498,Amalia,F,20
499,Angelina,F,20
500,Celeste,F,20
501,Jettie,F,20
502,Lavinia,F,20
503,Leatha,F,20
504,Luvenia,F,20
505,Magdalen,F,20
506,Patsy,F,20
507,Phebe,F,20
508,Shirley,F,20
509,Ursula,F,20
510,Vernie,F,20
511,Aline,F,19
512,Betsy,F,19
513,Carolina,F,19
514,Frank,F,19
515,Hassie,F,19
516,Hortense,F,19
517,James,F,19
518,Judith,F,19
519,Julie,F,19
520,Manda,F,19
521,Theo,F,19
522,Verda,F,19
523,Aimee,F,18
524,Althea,F,18
525,Arrie,F,18
526,Camilla,F,18
527,Evelina,F,18
528,Jenny,F,18
529,Lavina,F,18
530,Marcia,F,18
531,Ocie,F,18
532,Phyllis,F,18
533,Rosanna,F,18
534,Sena,F,18
535,Tilda,F,18
536,Adela,F,17
537,Avis,F,17
538,Clarissa,F,17
539,Corine,F,17
540,Elenora,F,17
541,Elizebeth,F,17
542,Imogene,F,17
543,Jeanne,F,17
544,Kizzie,F,17
545,Lauretta,F,17
546,Lelah,F,17
547,Leone,F,17
548,Mahala,F,17
549,Malissa,F,17
550,Minta,F,17
551,Myrta,F,17
552,Ossie,F,17
553,Ottilie,F,17
554,Peggy,F,17
555,Petra,F,17
556,Rosina,F,17
557,Sadye,F,17
558,Sophronia,F,17
559,Alida,F,16
560,Ara,F,16
561,Clementine,F,16
562,Coral,F,16
563,Diana,F,16
564,Donnie,F,16
565,Easter,F,16
566,Elisa,F,16
567,Genie,F,16
568,Geraldine,F,16
569,Glenna,F,16
570,Gretchen,F,16
571,Hope,F,16
572,Lilian,F,16
573,Lotta,F,16
574,Lutie,F,16
575,Magdalene,F,16
576,Malvina,F,16
577,Mame,F,16
578,Mammie,F,16
579,Maye,F,16
580,Mettie,F,16
581,Natalie,F,16
582,Samantha,F,16
583,Serena,F,16
584,Veda,F,16
585,Albertine,F,15
586,Alvena,F,15
587,America,F,15
588,Aurora,F,15
589,Carol,F,15
590,Deborah,F,15
591,Dottie,F,15
592,Eileen,F,15
593,Elda,F,15
594,Eleanore,F,15
595,Emmer,F,15
596,Estell,F,15
597,Evalyn,F,15
598,Huldah,F,15
599,Joan,F,15
600,Kathryne,F,15
601,Lonnie,F,15
602,Lucia,F,15
603,Margaretha,F,15
604,Selina,F,15
605,Valeria,F,15
606,Zetta,F,15
607,Arie,F,14
608,Arlie,F,14
609,Bulah,F,14
610,Cathrine,F,14
611,Claudie,F,14
612,Delilah,F,14
613,Dolores,F,14
614,Edyth,F,14
615,Ethelyn,F,14
616,Ethyl,F,14
617,Frona,F,14
618,Gena,F,14
619,Isa,F,14
620,Ivah,F,14
621,Kattie,F,14
622,Liddie,F,14
623,Mintie,F,14
624,Ottie,F,14
625,Rhea,F,14
626,Roma,F,14
627,Rossie,F,14
628,Selena,F,14
629,Tressa,F,14
630,Tressie,F,14
631,Winona,F,14
632,Abigail,F,13
633,Adella,F,13
634,Altha,F,13
635,Anabel,F,13
636,Annabel,F,13
637,Delila,F,13
638,Delphia,F,13
639,Donie,F,13
640,Edwina,F,13
641,Eleanora,F,13
642,Eulah,F,13
643,Evalena,F,13
644,Evangeline,F,13
645,Grayce,F,13
646,Harry,F,13
647,Icie,F,13
648,Joseph,F,13
649,Justine,F,13
650,Madie,F,13
651,Monica,F,13
652,Nita,F,13
653,Onie,F,13
654,Rachael,F,13
655,Sabina,F,13
656,Sabra,F,13
657,Vena,F,13
658,Verlie,F,13
659,Wilda,F,13
660,Ammie,F,12
661,Annetta,F,12
662,Berenice,F,12
663,Bernadette,F,12
664,Birtie,F,12
665,Carmen,F,12
666,Corrine,F,12
667,Dagmar,F,12
668,Delphine,F,12
669,Eldora,F,12
670,Elfrieda,F,12
671,Flo,F,12
672,Hertha,F,12
673,Honora,F,12
674,Idell,F,12
675,Jeanie,F,12
676,Leonie,F,12
677,Leslie,F,12
678,Loula,F,12
679,Louvenia,F,12
680,Merle,F,12
681,Nella,F,12
682,Oda,F,12
683,Paralee,F,12
684,Paulina,F,12
685,Queenie,F,12
686,Rosalia,F,12
687,Sula,F,12
688,Theodora,F,12
689,Viva,F,12
690,Wilhelmine,F,12
691,Zada,F,12
692,Adline,F,11
693,Amie,F,11
694,Beth,F,11
695,Charlie,F,11
696,Corda,F,11
697,Cornie,F,11
698,Corrie,F,11
699,Dicie,F,11
700,Dorcas,F,11
701,Edmonia,F,11
702,Edward,F,11
703,Elinor,F,11
704,Emeline,F,11
705,Ester,F,11
706,Etha,F,11
707,Etna,F,11
708,Eulalie,F,11
709,Florrie,F,11
710,Fred,F,11
711,Freddie,F,11
712,Isla,F,11
713,Josefa,F,11
714,Juliet,F,11
715,Leontine,F,11
716,Martina,F,11
717,Mima,F,11
718,Nathalie,F,11
719,Odelia,F,11
720,Osie,F,11
721,Rosamond,F,11
722,Rosemary,F,11
723,Rosia,F,11
724,Salome,F,11
725,Tennessee,F,11
726,Theresia,F,11
727,Verdie,F,11
728,Vergie,F,11
729,Villa,F,11
730,Zelia,F,11
731,Zita,F,11
732,Alyce,F,10
733,Annis,F,10
734,Bennie,F,10
735,Bobbie,F,10
736,Buna,F,10
737,Cammie,F,10
738,Cara,F,10
739,Clarice,F,10
740,Clemmie,F,10
741,Dell,F,10
742,Dina,F,10
743,Electa,F,10
744,Elta,F,10
745,Elvina,F,10
746,Ema,F,10
747,Emilia,F,10
748,Eve,F,10
749,Florine,F,10
750,Francisca,F,10
751,Frederica,F,10
752,Fredericka,F,10
753,Fronia,F,10
754,Garnet,F,10
755,Gay,F,10
756,Glennie,F,10
757,Gracia,F,10
758,Gunda,F,10
759,Gusta,F,10
760,Henry,F,10
761,India,F,10
762,Iris,F,10
763,Jesse,F,10
764,Joe,F,10
765,Katheryn,F,10
766,Katy,F,10
767,Leda,F,10
768,Lelar,F,10
769,Leonore,F,10
770,Loretto,F,10
771,Louetta,F,10
772,Magnolia,F,10
773,Maybell,F,10
774,Mercedes,F,10
775,Millicent,F,10
776,Miranda,F,10
777,Mora,F,10
778,Myrtis,F,10
779,Olie,F,10
780,Patricia,F,10
781,Pollie,F,10
782,Prudence,F,10
783,Robbie,F,10
784,Rubie,F,10
785,Tempie,F,10
786,Veva,F,10
787,Adelina,F,9
788,Adell,F,9
789,Aggie,F,9
790,Aletha,F,9
791,Alfreda,F,9
792,Amber,F,9
793,Annabell,F,9
794,Arminta,F,9
795,Arthur,F,9
796,Arvilla,F,9
797,Audra,F,9
798,Bert,F,9
799,Calla,F,9
800,Capitola,F,9
801,Carlotta,F,9
802,Charlottie,F,9
803,Christie,F,9
804,Classie,F,9
805,David,F,9
806,Dee,F,9
807,Doshie,F,9
808,Elvie,F,9
809,Enola,F,9
810,Eulalia,F,9
811,Evaline,F,9
812,Felicia,F,9
813,Gail,F,9
814,Helga,F,9
815,Henriette,F,9
816,Hermine,F,9
817,Hetty,F,9
818,Icy,F,9
819,Irena,F,9
820,Jemima,F,9
821,Karen,F,9
822,Laurie,F,9
823,Lavada,F,9
824,Lea,F,9
825,Letta,F,9
826,Leva,F,9
827,Lorene,F,9
828,Luisa,F,9
829,Margarette,F,9
830,Maxie,F,9
831,Nelly,F,9
832,Neta,F,9
833,Norah,F,9
834,Octavie,F,9
835,Odie,F,9
836,Odile,F,9
837,Omie,F,9
838,Orelia,F,9
839,Philomena,F,9
840,Ramona,F,9
841,Retha,F,9
842,Roseanna,F,9
843,Rosy,F,9
844,Ruthie,F,9
845,Savanah,F,9
846,Signe,F,9
847,Suzanne,F,9
848,Sybil,F,9
849,Tabitha,F,9
850,Theda,F,9
851,Thekla,F,9
852,Therese,F,9
853,Trudie,F,9
854,Vella,F,9
855,Vertie,F,9
856,Victorine,F,9
857,Will,F,9
858,Zoa,F,9
859,Adelle,F,8
860,Aileen,F,8
861,Alicia,F,8
862,Almira,F,8
863,Amelie,F,8
864,Anice,F,8
865,Arizona,F,8
866,Audie,F,8
867,Berdie,F,8
868,Bina,F,8
869,Camille,F,8
870,Carlota,F,8
871,Carra,F,8
872,Cathryn,F,8
873,Christiana,F,8
874,Claude,F,8
875,Clifford,F,8
876,Cordia,F,8
877,Dicy,F,8
878,Dove,F,8
879,Ednah,F,8
880,Eleonore,F,8
881,Ellar,F,8
882,Ena,F,8
883,Erie,F,8
884,Freida,F,8
885,Fronie,F,8
886,Georgina,F,8
887,Gillie,F,8
888,Golden,F,8
889,Greta,F,8
890,Gwendolyn,F,8
891,Hellen,F,8
892,Henretta,F,8
893,Hildegarde,F,8
894,Hollie,F,8
895,Imo,F,8
896,Indiana,F,8
897,Jessica,F,8
898,Jewell,F,8
899,Jodie,F,8
900,Juana,F,8
901,Judie,F,8
902,Juliana,F,8
903,Juliette,F,8
904,Lanie,F,8
905,Libby,F,8
906,Lockie,F,8
907,Lular,F,8
908,Lurline,F,8
909,Luz,F,8
910,Macie,F,8
911,Manuela,F,8
912,Margaretta,F,8
913,Margarita,F,8
914,Melinda,F,8
915,Melva,F,8
916,Mena,F,8
917,Metta,F,8
918,Nanie,F,8
919,Nena,F,8
920,Netta,F,8
921,Nonie,F,8
922,Novella,F,8
923,Opha,F,8
924,Ottilia,F,8
925,Parlee,F,8
926,Patience,F,8
927,Robert,F,8
928,Roxy,F,8
929,Sidney,F,8
930,Sina,F,8
931,Theodosia,F,8
932,Ura,F,8
933,Vennie,F,8
934,Vicie,F,8
935,Zettie,F,8
936,Alba,F,7
937,Albert,F,7
938,Albertina,F,7
939,Alverda,F,7
940,Alwine,F,7
941,Amma,F,7
942,Andrea,F,7
943,Angelita,F,7
944,Anner,F,7
945,Antonette,F,7
946,Arabella,F,7
947,Atha,F,7
948,Augustine,F,7
949,Beaulah,F,7
950,Becky,F,7
951,Beda,F,7
952,Bena,F,7
953,Beula,F,7
954,Biddie,F,7
955,Billie,F,7
956,Birtha,F,7
957,Caddie,F,7
958,Carl,F,7
959,Carmelita,F,7
960,Celesta,F,7
961,Celestine,F,7
962,Celie,F,7
963,Clemma,F,7
964,Clora,F,7
965,Daisie,F,7
966,Dale,F,7
967,Delma,F,7
968,Dessa,F,7
969,Dosha,F,7
970,Elena,F,7
971,Eleonora,F,7
972,Elia,F,7
973,Eloisa,F,7
974,Emmaline,F,7
975,Eppie,F,7
976,Ernest,F,7
977,Exie,F,7
978,Ferne,F,7
979,Fleta,F,7
980,Florance,F,7
981,Gene,F,7
982,Gina,F,7
983,Gretta,F,7
984,Gustie,F,7
985,Hazle,F,7
986,Ivory,F,7
987,Izora,F,7
988,Joy,F,7
989,Joyce,F,7
990,Junie,F,7
991,Justina,F,7
992,Lillia,F,7
993,Lissie,F,7
994,Loma,F,7
995,Louis,F,7
996,Lu,F,7
997,Lulie,F,7
998,Mabell,F,7
999,Macy,F,7
1000,Margarete,F,7
1001,Margarett,F,7
1002,Marjory,F,7
1003,Marry,F,7
1004,Medora,F,7
1005,Minda,F,7
1006,Mozelle,F,7
1007,Nadine,F,7
1008,Nelda,F,7
1009,Nevada,F,7
1010,Nonnie,F,7
1011,Onnie,F,7
1012,Orrie,F,7
1013,Osa,F,7
1014,Ouida,F,7
1015,Ova,F,7
1016,Parthenia,F,7
1017,Portia,F,7
1018,Prudie,F,7
1019,Refugia,F,7
1020,Richard,F,7
1021,Roy,F,7
1022,Shellie,F,7
1023,Silvia,F,7
1024,Susannah,F,7
1025,Thelma,F,7
1026,Thomas,F,7
1027,Tiny,F,7
1028,Ula,F,7
1029,Valerie,F,7
1030,Wealthy,F,7
1031,Weltha,F,7
1032,Yetta,F,7
1033,Zadie,F,7
1034,Zelpha,F,7
1035,Alla,F,6
1036,Alverta,F,6
1037,Anie,F,6
1038,Annice,F,6
1039,Antionette,F,6
1040,Arletta,F,6
1041,Avie,F,6
1042,Axie,F,6
1043,Bernadine,F,6
1044,Buena,F,6
1045,Bula,F,6
1046,Byrde,F,6
1047,Byrdie,F,6
1048,Candace,F,6
1049,Carrye,F,6
1050,Cathern,F,6
1051,Celestia,F,6
1052,Celina,F,6
1053,Chaney,F,6
1054,Chlora,F,6
1055,Cinda,F,6
1056,Clarinda,F,6
1057,Claudine,F,6
1058,Clella,F,6
1059,Courtney,F,6
1060,Daphne,F,6
1061,Dellie,F,6
1062,Delora,F,6
1063,Dorthy,F,6
1064,Drucilla,F,6
1065,Drusilla,F,6
1066,Dulcie,F,6
1067,Elaine,F,6
1068,Elfreda,F,6
1069,Eller,F,6
1070,Elmina,F,6
1071,Elvera,F,6
1072,Evah,F,6
1073,Flavia,F,6
1074,Fronnie,F,6
1075,Georgene,F,6
1076,Georgetta,F,6
1077,Gerda,F,6
1078,Goldia,F,6
1079,Gregoria,F,6
1080,Herma,F,6
1081,Hila,F,6
1082,Jennette,F,6
1083,Jetta,F,6
1084,Johnie,F,6
1085,Josefina,F,6
1086,Jossie,F,6
1087,Katharina,F,6
1088,Kay,F,6
1089,Lacy,F,6
1090,Lala,F,6
1091,Lana,F,6
1092,Laurel,F,6
1093,Leo,F,6
1094,Lera,F,6
1095,Letty,F,6
1096,Lillis,F,6
1097,Litha,F,6
1098,Lollie,F,6
1099,Lorraine,F,6
1100,Mada,F,6
1101,Madgie,F,6
1102,Maebelle,F,6
1103,Mahaley,F,6
1104,Maida,F,6
1105,Marianna,F,6
1106,Marianne,F,6
1107,Marinda,F,6
1108,Matie,F,6
1109,Maymie,F,6
1110,Melanie,F,6
1111,Mercy,F,6
1112,Mignon,F,6
1113,Monnie,F,6
1114,Myrle,F,6
1115,Myrna,F,6
1116,Myrtice,F,6
1117,Naoma,F,6
1118,Nealie,F,6
1119,Nelia,F,6
1120,Norine,F,6
1121,Nova,F,6
1122,Orah,F,6
1123,Oral,F,6
1124,Orra,F,6
1125,Ota,F,6
1126,Otha,F,6
1127,Ozella,F,6
1128,Percy,F,6
1129,Peter,F,6
1130,Pinkey,F,6
1131,Pluma,F,6
1132,Rafaela,F,6
1133,Ragna,F,6
1134,Sammie,F,6
1135,Sarrah,F,6
1136,Sibyl,F,6
1137,Thea,F,6
1138,Thirza,F,6
1139,Thresa,F,6
1140,Tomasa,F,6
1141,Tura,F,6
1142,Vannie,F,6
1143,Violette,F,6
1144,Zena,F,6
1145,Zillah,F,6
1146,Abby,F,5
1147,Adalene,F,5
1148,Adrienne,F,5
1149,Aida,F,5
1150,Albertha,F,5
1151,Allene,F,5
1152,Alline,F,5
1153,Altie,F,5
1154,Anaise,F,5
1155,Anis,F,5
1156,Annye,F,5
1157,Archie,F,5
1158,Arlena,F,5
1159,Armenia,F,5
1160,Arvella,F,5
1161,Auda,F,5
1162,Bama,F,5
1163,Belvia,F,5
1164,Bird,F,5
1165,Bitha,F,5
1166,Brittie,F,5
1167,Cena,F,5
1168,Christy,F,5
1169,Cindy,F,5
1170,Clarabelle,F,5
1171,Clarence,F,5
1172,Clemie,F,5
1173,Cleora,F,5
1174,Clorinda,F,5
1175,Coila,F,5
1176,Concetta,F,5
1177,Creola,F,5
1178,Cyntha,F,5
1179,Delina,F,5
1180,Dellar,F,5
1181,Dillie,F,5
1182,Dinah,F,5
1183,Docie,F,5
1184,Dola,F,5
1185,Dot,F,5
1186,Ela,F,5
1187,Elenore,F,5
1188,Elinore,F,5
1189,Elmire,F,5
1190,Else,F,5
1191,Elzora,F,5
1192,Emmy,F,5
1193,Ermine,F,5
1194,Estie,F,5
1195,Etter,F,5
1196,Eudora,F,5
1197,Eugene,F,5
1198,Eura,F,5
1199,Faith,F,5
1200,Florentine,F,5
1201,Floride,F,5
1202,Forrest,F,5
1203,Georgeanna,F,5
1204,Gertha,F,5
1205,Glen,F,5
1206,Glenn,F,5
1207,Hala,F,5
1208,Helma,F,5
1209,Hermina,F,5
1210,Hessie,F,5
1211,Hilaria,F,5
1212,Hildur,F,5
1213,Howard,F,5
1214,Ica,F,5
1215,Ilma,F,5
1216,Ima,F,5
1217,Ivie,F,5
1218,Iza,F,5
1219,Jamie,F,5
1220,Jeffie,F,5
1221,Jo,F,5
1222,Josiephine,F,5
1223,Jule,F,5
1224,Katharyn,F,5
1225,Lara,F,5
1226,Lassie,F,5
1227,Launa,F,5
1228,Leafy,F,5
1229,Leanna,F,5
1230,Lesta,F,5
1231,Levy,F,5
1232,Lidie,F,5
1233,Lilah,F,5
1234,Lilia,F,5
1235,Lilie,F,5
1236,Loda,F,5
1237,Lucina,F,5
1238,Luvina,F,5
1239,Mahalie,F,5
1240,Maie,F,5
1241,Malissia,F,5
1242,Malissie,F,5
1243,Manie,F,5
1244,Margretta,F,5
1245,Mariette,F,5
1246,Martin,F,5
1247,Maryann,F,5
1248,Melda,F,5
1249,Mira,F,5
1250,Mirtie,F,5
1251,Montie,F,5
1252,Myrl,F,5
1253,Nancie,F,5
1254,Nanna,F,5
1255,Neoma,F,5
1256,Neppie,F,5
1257,Nezzie,F,5
1258,Nolia,F,5
1259,Nolie,F,5
1260,Nollie,F,5
1261,Olevia,F,5
1262,Oline,F,5
1263,Oneida,F,5
1264,Orie,F,5
1265,Orlena,F,5
1266,Otelia,F,5
1267,Otillie,F,5
1268,Ozzie,F,5
1269,Pallie,F,5
1270,Pearly,F,5
1271,Perle,F,5
1272,Persis,F,5
1273,Philomene,F,5
1274,Rebekah,F,5
1275,Ressie,F,5
1276,Romaine,F,5
1277,Rosabelle,F,5
1278,Rubye,F,5
1279,Saddie,F,5
1280,Senie,F,5
1281,Sidonia,F,5
1282,Sigrid,F,5
1283,Sofia,F,5
1284,Stasia,F,5
1285,Susana,F,5
1286,Tacie,F,5
1287,Tacy,F,5
1288,Texana,F,5
1289,Texas,F,5
1290,Thora,F,5
1291,Tinnie,F,5
1292,Tisha,F,5
1293,Tracy,F,5
1294,Trinidad,F,5
1295,Valentine,F,5
1296,Vara,F,5
1297,Vassie,F,5
1298,Venus,F,5
1299,Vernice,F,5
1300,Verta,F,5
1301,Vessie,F,5
1302,Vivia,F,5
1303,Willis,F,5
1304,Zelda,F,5
1305,Zilpha,F,5
1306,John,M,8110
1307,William,M,7470
1308,James,M,4768
1309,George,M,4284
1310,Charles,M,4031
1311,Frank,M,2883
1312,Joseph,M,2456
1313,Henry,M,2228
1314,Thomas,M,2151
1315,Edward,M,2125
1316,Robert,M,2125
1317,Harry,M,2057
1318,Walter,M,1705
1319,Arthur,M,1489
1320,Fred,M,1454
1321,Albert,M,1294
1322,Clarence,M,892
1323,Samuel,M,802
1324,Louis,M,791
1325,Roy,M,726
1326,Joe,M,685
1327,David,M,673
1328,Ernest,M,653
1329,Charlie,M,642
1330,Richard,M,622
1331,Jesse,M,601
1332,Willie,M,590
1333,Carl,M,588
1334,Oscar,M,574
1335,Will,M,561
1336,Daniel,M,557
1337,Earl,M,537
1338,Andrew,M,520
1339,Benjamin,M,473
1340,Alfred,M,468
1341,Elmer,M,467
1342,Frederick,M,464
1343,Ralph,M,463
1344,Sam,M,463
1345,Paul,M,449
1346,Herbert,M,445
1347,Howard,M,429
1348,Peter,M,421
1349,Lee,M,400
1350,Herman,M,394
1351,Claude,M,375
1352,Raymond,M,372
1353,Michael,M,345
1354,Lewis,M,343
1355,Jim,M,339
1356,Martin,M,331
1357,Tom,M,329
1358,Eugene,M,327
1359,Francis,M,327
1360,Clyde,M,320
1361,Jacob,M,317
1362,Edwin,M,310
1363,Ben,M,305
1364,Grover,M,290
1365,Lawrence,M,283
1366,Harold,M,279
1367,Ed,M,275
1368,Luther,M,267
1369,Edgar,M,266
1370,Harvey,M,262
1371,Ray,M,258
1372,Otto,M,253
1373,Jack,M,251
1374,Hugh,M,250
1375,Homer,M,248
1376,Guy,M,238
1377,Bert,M,237
1378,Floyd,M,232
1379,Leo,M,232
1380,Charley,M,221
1381,Patrick,M,218
1382,Ira,M,215
1383,Chester,M,207
1384,Leonard,M,207
1385,Oliver,M,203
1386,Allen,M,202
1387,Theodore,M,201
1388,August,M,194
1389,Isaac,M,194
1390,Archie,M,184
1391,Jessie,M,182
1392,Alexander,M,180
1393,Leroy,M,177
1394,Lester,M,168
1395,Leslie,M,166
1396,Clifford,M,165
1397,Stephen,M,165
1398,Julius,M,164
1399,Warren,M,163
1400,Philip,M,161
1401,Horace,M,160
1402,Bernard,M,159
1403,Anthony,M,153
1404,Leon,M,147
1405,Emil,M,146
1406,Sidney,M,144
1407,Dan,M,140
1408,Everett,M,140
1409,Alex,M,136
1410,Marion,M,131
1411,Eddie,M,129
1412,Alvin,M,128
1413,Lloyd,M,127
1414,Jess,M,124
1415,Percy,M,123
1416,Calvin,M,122
1417,Milton,M,122
1418,Norman,M,119
1419,Rufus,M,119
1420,Victor,M,119
1421,Wesley,M,115
1422,Willis,M,113
1423,Perry,M,112
1424,Wilbur,M,112
1425,Dave,M,111
1426,Stanley,M,110
1427,Mack,M,109
1428,Matthew,M,108
1429,Jay,M,106
1430,Nathan,M,106
1431,Amos,M,104
1432,Gilbert,M,102
1433,Roscoe,M,102
1434,Earnest,M,99
1435,Harrison,M,99
1436,Jerry,M,98
1437,Otis,M,97
1438,Russell,M,96
1439,Jose,M,95
1440,Melvin,M,95
1441,Morris,M,95
1442,Willard,M,95
1443,Noah,M,94
1444,Dennis,M,93
1445,Adolph,M,90
1446,Emmett,M,90
1447,Jake,M,90
1448,Franklin,M,89
1449,Alonzo,M,88
1450,Maurice,M,88
1451,Wallace,M,88
1452,Moses,M,87
1453,Glenn,M,86
1454,Ross,M,85
1455,Adam,M,84
1456,Elbert,M,82
1457,Felix,M,82
1458,Fredrick,M,82
1459,Gus,M,82
1460,Cecil,M,80
1461,Phillip,M,80
1462,Cornelius,M,79
1463,Nicholas,M,79
1464,Vernon,M,79
1465,Aaron,M,78
1466,Hubert,M,78
1467,Sherman,M,78
1468,Claud,M,77
1469,Harley,M,77
1470,Virgil,M,77
1471,Lonnie,M,76
1472,Mark,M,76
1473,Abraham,M,75
1474,Elijah,M,75
1475,Hiram,M,75
1476,Levi,M,75
1477,Bob,M,74
1478,Clayton,M,74
1479,Max,M,73
1480,Mike,M,73
1481,Manuel,M,72
1482,Clinton,M,71
1483,Rudolph,M,71
1484,Sylvester,M,71
1485,Jeff,M,70
1486,Marvin,M,70
1487,Marshall,M,69
1488,Ollie,M,68
1489,Owen,M,68
1490,Anton,M,67
1491,Millard,M,67
1492,Simon,M,67
1493,Ellis,M,66
1494,Wiley,M,66
1495,Jasper,M,65
1496,Pearl,M,64
1497,Silas,M,64
1498,Bill,M,63
1499,Ora,M,63
1500,Nelson,M,62
1501,Curtis,M,61
1502,Edmund,M,61
1503,Donald,M,60
1504,Edd,M,60
1505,Johnnie,M,59
1506,Alva,M,58
1507,Barney,M,58
1508,Juan,M,57
1509,Nathaniel,M,57
1510,Christopher,M,56
1511,Monroe,M,56
1512,Irvin,M,55
1513,Irving,M,55
1514,Mose,M,55
1515,Andy,M,54
1516,Clark,M,54
1517,Cleveland,M,54
1518,Orville,M,54
1519,Reuben,M,54
1520,Steve,M,54
1521,Timothy,M,54
1522,Dock,M,53
1523,Glen,M,52
1524,Vincent,M,52
1525,Wilson,M,52
1526,Asa,M,51
1527,Augustus,M,51
1528,Eli,M,51
1529,Karl,M,49
1530,Lon,M,49
1531,Roland,M,49
1532,Bennie,M,48
1533,Grant,M,48
1534,Joel,M,48
1535,Arch,M,47
1536,Austin,M,47
1537,Byron,M,47
1538,Christian,M,47
1539,Gordon,M,47
1540,Gustave,M,47
1541,Luke,M,47
1542,Mary,M,47
1543,Pete,M,47
1544,Chris,M,46
1545,Riley,M,46
1546,Bruce,M,44
1547,Ike,M,44
1548,Preston,M,44
1549,Clifton,M,43
1550,Ferdinand,M,43
1551,Emanuel,M,42
1552,Joshua,M,41
1553,Newton,M,41
1554,Spencer,M,41
1555,Columbus,M,40
1556,Julian,M,40
1557,Major,M,40
1558,Tony,M,40
1559,Anderson,M,39
1560,Dee,M,39
1561,Don,M,39
1562,Earle,M,39
1563,Lemuel,M,39
1564,Roger,M,39
1565,Wade,M,39
1566,Antonio,M,38
1567,Arnold,M,38
1568,Chas,M,38
1569,Conrad,M,38
1570,Cyrus,M,38
1571,Jeremiah,M,38
1572,Scott,M,38
1573,Abe,M,37
1574,Neal,M,37
1575,Bud,M,36
1576,Edmond,M,36
1577,Ervin,M,35
1578,Kenneth,M,35
1579,Miles,M,35
1580,Winfield,M,35
1581,Aubrey,M,34
1582,Carroll,M,34
1583,Clement,M,34
1584,Cleve,M,34
1585,Douglas,M,34
1586,Elias,M,34
1587,Forrest,M,34
1588,Gustav,M,34
1589,Isaiah,M,34
1590,Jerome,M,34
1591,Matt,M,34
1592,Murray,M,34
1593,Ruben,M,34
1594,Emery,M,33
1595,Emory,M,33
1596,Ezra,M,33
1597,Jimmie,M,33
1598,Solomon,M,33
1599,Clem,M,32
1600,Isiah,M,32
1601,Jefferson,M,32
1602,Napoleon,M,32
1603,Van,M,32
1604,Dewitt,M,31
1605,Green,M,31
1606,Jackson,M,31
1607,Johnny,M,31
1608,Louie,M,31
1609,Mathew,M,31
1610,Wilfred,M,31
1611,Hugo,M,30
1612,Ambrose,M,29
1613,Logan,M,29
1614,Nick,M,29
1615,Wayne,M,29
1616,Chauncey,M,28
1617,Delbert,M,28
1618,Forest,M,28
1619,Johnie,M,28
1620,Laurence,M,28
1621,Mitchell,M,28
1622,Myron,M,28
1623,Ned,M,28
1624,Rex,M,28
1625,Vern,M,28
1626,Dick,M,27
1627,General,M,27
1628,Otho,M,27
1629,Ulysses,M,27
1630,Boyd,M,26
1631,Francisco,M,26
1632,Freeman,M,26
1633,Garfield,M,26
1634,Ivan,M,26
1635,Gust,M,25
1636,Lorenzo,M,25
1637,Walker,M,25
1638,Elwood,M,24
1639,Erwin,M,24
1640,Jonas,M,24
1641,Lafayette,M,24
1642,Lucius,M,24
1643,Merle,M,24
1644,Royal,M,24
1645,Burton,M,23
1646,Clay,M,23
1647,Dudley,M,23
1648,Enoch,M,23
1649,Hal,M,23
1650,Hans,M,23
1651,Loren,M,23
1652,Lyman,M,23
1653,Lynn,M,23
1654,Marcus,M,23
1655,Milo,M,23
1656,Ward,M,23
1657,Gerald,M,22
1658,Omer,M,22
1659,Sanford,M,22
1660,Wilber,M,22
1661,Allan,M,21
1662,Emile,M,21
1663,Evan,M,21
1664,Fletcher,M,21
1665,Granville,M,21
1666,Harmon,M,21
1667,Irwin,M,21
1668,Jean,M,21
1669,Malcolm,M,21
1670,Neil,M,21
1671,Allie,M,20
1672,Carlos,M,20
1673,Elisha,M,20
1674,Elton,M,20
1675,Frederic,M,20
1676,Judson,M,20
1677,Leland,M,20
1678,Loyd,M,20
1679,Stewart,M,20
1680,Taylor,M,20
1681,Ted,M,20
1682,Abram,M,19
1683,Adolphus,M,19
1684,Archibald,M,19
1685,Berry,M,19
1686,Burl,M,19
1687,Dwight,M,19
1688,Gene,M,19
1689,Lucian,M,19
1690,Nels,M,19
1691,Ole,M,19
1692,Pat,M,19
1693,Pedro,M,19
1694,Sandy,M,19
1695,Sterling,M,19
1696,Wilbert,M,19
1697,Abner,M,18
1698,Alphonse,M,18
1699,Axel,M,18
1700,Coleman,M,18
1701,Duncan,M,18
1702,Gabriel,M,18
1703,Herschel,M,18
1704,Judge,M,18
1705,Madison,M,18
1706,Morton,M,18
1707,Prince,M,18
1708,Seth,M,18
1709,Smith,M,18
1710,Stuart,M,18
1711,Tim,M,18
1712,Tommie,M,18
1713,Tommy,M,18
1714,Bennett,M,17
1715,Bertram,M,17
1716,Burt,M,17
1717,Cliff,M,17
1718,Fay,M,17
1719,Foster,M,17
1720,Garland,M,17
1721,Larry,M,17
1722,Lyle,M,17
1723,Morgan,M,17
1724,Pink,M,17
1725,Al,M,16
1726,Angus,M,16
1727,Benjiman,M,16
1728,Benton,M,16
1729,Carey,M,16
1730,Dallas,M,16
1731,Ellsworth,M,16
1732,Elza,M,16
1733,Emerson,M,16
1734,Florence,M,16
1735,Fritz,M,16
1736,Hosea,M,16
1737,Houston,M,16
1738,Lawson,M,16
1739,Phil,M,16
1740,Rollie,M,16
1741,Roman,M,16
1742,Steven,M,16
1743,Terry,M,16
1744,Alton,M,15
1745,Early,M,15
1746,Isom,M,15
1747,Israel,M,15
1748,Jesus,M,15
1749,Josh,M,15
1750,Josiah,M,15
1751,Junius,M,15
1752,Lucious,M,15
1753,Merton,M,15
1754,Noble,M,15
1755,Oren,M,15
1756,Orin,M,15
1757,Pierce,M,15
1758,Raleigh,M,15
1759,Randolph,M,15
1760,Santiago,M,15
1761,Thad,M,15
1762,Valentine,M,15
1763,Wilmer,M,15
1764,Wm,M,15
1765,Wylie,M,15
1766,Avery,M,14
1767,Buck,M,14
1768,Carson,M,14
1769,Christ,M,14
1770,Crawford,M,14
1771,Elizabeth,M,14
1772,Emma,M,14
1773,Garrett,M,14
1774,Geo,M,14
1775,Haywood,M,14
1776,Henderson,M,14
1777,Jason,M,14
1778,Lonzo,M,14
1779,Merritt,M,14
1780,Minor,M,14
1781,Olaf,M,14
1782,Olin,M,14
1783,Parker,M,14
1784,Porter,M,14
1785,Ransom,M,14
1786,Rolla,M,14
1787,Shelby,M,14
1788,Sol,M,14
1789,Sydney,M,14
1790,Thurman,M,14
1791,Waldo,M,14
1792,Zack,M,14
1793,Adrian,M,13
1794,Annie,M,13
1795,Basil,M,13
1796,Benjaman,M,13
1797,Caleb,M,13
1798,Carlton,M,13
1799,Carter,M,13
1800,Clint,M,13
1801,Elliott,M,13
1802,Elzie,M,13
1803,Hezekiah,M,13
1804,Kelly,M,13
1805,King,M,13
1806,Lew,M,13
1807,Lionel,M,13
1808,Margaret,M,13
1809,Mason,M,13
1810,Newt,M,13
1811,Orval,M,13
1812,Palmer,M,13
1813,Ramon,M,13
1814,Richmond,M,13
1815,Roderick,M,13
1816,Turner,M,13
1817,Vivian,M,13
1818,Wilford,M,13
1819,Williams,M,13
1820,Addison,M,12
1821,Albin,M,12
1822,Anna,M,12
1823,Baxter,M,12
1824,Billie,M,12
1825,Blaine,M,12
1826,Bruno,M,12
1827,Clair,M,12
1828,Clare,M,12
1829,Davis,M,12
1830,Enos,M,12
1831,Frances,M,12
1832,Hamp,M,12
1833,Harris,M,12
1834,Hollis,M,12
1835,Isadore,M,12
1836,Jordan,M,12
1837,June,M,12
1838,Louise,M,12
1839,Merrill,M,12
1840,Orrin,M,12
1841,Pablo,M,12
1842,Perley,M,12
1843,Rupert,M,12
1844,Troy,M,12
1845,Warner,M,12
1846,Washington,M,12
1847,Wilburn,M,12
1848,Young,M,12
1849,Abel,M,11
1850,Aloysius,M,11
1851,Aron,M,11
1852,Arvid,M,11
1853,Benjamine,M,11
1854,Bertha,M,11
1855,Bonnie,M,11
1856,Brown,M,11
1857,Casper,M,11
1858,Connie,M,11
1859,Cyril,M,11
1860,Dale,M,11
1861,Dorsey,M,11
1862,Emmitt,M,11
1863,Erastus,M,11
1864,Eric,M,11
1865,Ezekiel,M,11
1866,Finis,M,11
1867,Giles,M,11
1868,Hamilton,M,11
1869,Harve,M,11
1870,Issac,M,11
1871,Johnson,M,11
1872,Jonah,M,11
1873,Jules,M,11
1874,Lem,M,11
1875,Lucien,M,11
1876,Mathias,M,11
1877,Minnie,M,11
1878,Myles,M,11
1879,Orlando,M,11
1880,Ottis,M,11
1881,Reginald,M,11
1882,Rollin,M,11
1883,Saul,M,11
1884,Tracy,M,11
1885,Wash,M,11
1886,Webster,M,11
1887,Wyatt,M,11
1888,Alice,M,10
1889,Alma,M,10
1890,Alonza,M,10
1891,Alvah,M,10
1892,Antone,M,10
1893,Art,M,10
1894,Ashley,M,10
1895,Benny,M,10
1896,Bernhard,M,10
1897,Bertie,M,10
1898,Buster,M,10
1899,Cicero,M,10
1900,Colonel,M,10
1901,Dillard,M,10
1902,Doc,M,10
1903,Eldridge,M,10
1904,Elmore,M,10
1905,Ennis,M,10
1906,Ephraim,M,10
1907,Ernie,M,10
1908,Ernst,M,10
1909,Ethel,M,10
1910,Fate,M,10
1911,Ford,M,10
1912,Fulton,M,10
1913,Henery,M,10
1914,Hoyt,M,10
1915,Irl,M,10
1916,Ivy,M,10
1917,Jonathan,M,10
1918,Lemon,M,10
1919,Lindsey,M,10
1920,Lou,M,10
1921,Maynard,M,10
1922,Melville,M,10
1923,Micheal,M,10
1924,Nellie,M,10
1925,Omar,M,10
1926,Pinkney,M,10
1927,Pleasant,M,10
1928,Rube,M,10
1929,Shelton,M,10
1930,Sid,M,10
1931,Sim,M,10
1932,Theo,M,10
1933,Thornton,M,10
1934,Toney,M,10
1935,Vance,M,10
1936,Alford,M,9
1937,Archer,M,9
1938,Armand,M,9
1939,Arther,M,9
1940,Bart,M,9
1941,Benson,M,9
1942,Buford,M,9
1943,Burnett,M,9
1944,Burr,M,9
1945,Butler,M,9
1946,Cary,M,9
1947,Clara,M,9
1948,Dean,M,9
1949,Dexter,M,9
1950,Edson,M,9
1951,Egbert,M,9
1952,Elvin,M,9
1953,Emmet,M,9
1954,Evert,M,9
1955,Gaylord,M,9
1956,Graham,M,9
1957,Gustaf,M,9
1958,Hillard,M,9
1959,Howell,M,9
1960,Ida,M,9
1961,Ignacio,M,9
1962,Lenard,M,9
1963,Lige,M,9
1964,Linwood,M,9
1965,Lowell,M,9
1966,Luis,M,9
1967,Manley,M,9
1968,Marcellus,M,9
1969,Mervin,M,9
1970,Nolan,M,9
1971,Norval,M,9
1972,Oran,M,9
1973,Pierre,M,9
1974,Randall,M,9
1975,Reece,M,9
1976,Rodney,M,9
1977,Rolland,M,9
1978,Ruby,M,9
1979,Shirley,M,9
1980,Thaddeus,M,9
1981,Tobe,M,9
1982,West,M,9
1983,Willian,M,9
1984,Ace,M,8
1985,Adelbert,M,8
1986,Alberto,M,8
1987,Alf,M,8
1988,Almer,M,8
1989,Alois,M,8
1990,Alvie,M,8
1991,Andres,M,8
1992,Angelo,M,8
1993,Arlie,M,8
1994,Armond,M,8
1995,Banks,M,8
1996,Barton,M,8
1997,Bedford,M,8
1998,Beverly,M,8
1999,Boss,M,8
2000,Captain,M,8
2001,Clarance,M,8
2002,Cloyd,M,8
2003,Dawson,M,8
2004,Dayton,M,8
2005,Denis,M,8
2006,Doctor,M,8
2007,Eldon,M,8
2008,Elmo,M,8
2009,Elsworth,M,8
2010,Frazier,M,8
2011,Furman,M,8
2012,Gideon,M,8
2013,Godfrey,M,8
2014,Guss,M,8
2015,Hallie,M,8
2016,Harlan,M,8
2017,Helmer,M,8
2018,Junious,M,8
2019,Lacy,M,8
2020,Leander,M,8
2021,Len,M,8
2022,Lincoln,M,8
2023,Lora,M,8
2024,Lum,M,8
2025,Mat,M,8
2026,Merl,M,8
2027,Merlin,M,8
2028,Moody,M,8
2029,Mortimer,M,8
2030,Nat,M,8
2031,Nora,M,8
2032,Norris,M,8
2033,Orla,M,8
2034,Oswald,M,8
2035,Otha,M,8
2036,Ples,M,8
2037,Price,M,8
2038,Rafael,M,8
2039,Rich,M,8
2040,Ronald,M,8
2041,Rubin,M,8
2042,Russel,M,8
2043,Seaborn,M,8
2044,Seymour,M,8
2045,Soloman,M,8
2046,Theron,M,8
2047,Thompson,M,8
2048,Truman,M,8
2049,Vander,M,8
2050,Verne,M,8
2051,Vicente,M,8
2052,Watson,M,8
2053,Wendell,M,8
2054,Willam,M,8
2055,Winfred,M,8
2056,Zeb,M,8
2057,Alden,M,7
2058,Alfredo,M,7
2059,Almon,M,7
2060,Bartholomew,M,7
2061,Berton,M,7
2062,Bird,M,7
2063,Burley,M,7
2064,Byrd,M,7
2065,Cash,M,7
2066,Chalmer,M,7
2067,Collie,M,7
2068,Cornelious,M,7
2069,Dana,M,7
2070,Delmar,M,7
2071,Dolph,M,7
2072,Dominick,M,7
2073,Donnie,M,7
2074,Edith,M,7
2075,Elie,M,7
2076,Eliseo,M,7
2077,Elwin,M,7
2078,Ethan,M,7
2079,Ewing,M,7
2080,Finley,M,7
2081,Freddie,M,7
2082,Gardner,M,7
2083,Gary,M,7
2084,Gerhard,M,7
2085,Glover,M,7
2086,Golden,M,7
2087,Grady,M,7
2088,Hardy,M,7
2089,Haskell,M,7
2090,Heber,M,7
2091,Hector,M,7
2092,Hilary,M,7
2093,Hilton,M,7
2094,Hosteen,M,7
2095,Ivory,M,7
2096,Jule,M,7
2097,Kirby,M,7
2098,Lamar,M,7
2099,Lambert,M,7
2100,Landon,M,7
2101,Leopold,M,7
2102,Levy,M,7
2103,Llewellyn,M,7
2104,Lorenz,M,7
2105,Love,M,7
2106,Malachi,M,7
2107,Maxwell,M,7
2108,Mont,M,7
2109,Myrtle,M,7
2110,Newman,M,7
2111,Obie,M,7
2112,Odie,M,7
2113,Orley,M,7
2114,Peyton,M,7
2115,Sanders,M,7
2116,Seldon,M,7
2117,Simpson,M,7
2118,Squire,M,7
2119,Theophile,M,7
2120,Tillman,M,7
2121,Tomas,M,7
2122,Verner,M,7
2123,Webb,M,7
2124,Addie,M,6
2125,Ah,M,6
2126,Aleck,M,6
2127,Alphonsus,M,6
2128,Amon,M,6
2129,Anson,M,6
2130,Arley,M,6
2131,Asher,M,6
2132,Author,M,6
2133,Bailey,M,6
2134,Bascom,M,6
2135,Bernie,M,6
2136,Billy,M,6
2137,Birt,M,6
2138,Brad,M,6
2139,Brice,M,6
2140,Brooks,M,6
2141,Bryant,M,6
2142,Burrell,M,6
2143,Champ,M,6
2144,Cleo,M,6
2145,Colin,M,6
2146,Creed,M,6
2147,Curt,M,6
2148,Delos,M,6
2149,Denver,M,6
2150,Dolphus,M,6
2151,Eben,M,6
2152,Elam,M,6
2153,Eliga,M,6
2154,Ellwood,M,6
2155,Ely,M,6
2156,Ephram,M,6
2157,Ephriam,M,6
2158,Ethelbert,M,6
2159,Eva,M,6
2160,Evans,M,6
2161,Everette,M,6
2162,Ewald,M,6
2163,Ewell,M,6
2164,Fayette,M,6
2165,Ferd,M,6
2166,Gale,M,6
2167,Gilman,M,6
2168,Gregorio,M,6
2169,Hattie,M,6
2170,Hayes,M,6
2171,Henri,M,6
2172,Hermon,M,6
2173,Horatio,M,6
2174,Hyrum,M,6
2175,Isidore,M,6
2176,Iver,M,6
2177,Jobe,M,6
2178,Joeseph,M,6
2179,Joesph,M,6
2180,Julia,M,6
2181,Kelley,M,6
2182,Lafe,M,6
2183,Laura,M,6
2184,Lawyer,M,6
2185,Leigh,M,6
2186,Lennie,M,6
2187,Leonce,M,6
2188,Leonidas,M,6
2189,Lillian,M,6
2190,Loy,M,6
2191,Mahlon,M,6
2192,Mamie,M,6
2193,Manford,M,6
2194,Milford,M,6
2195,Miller,M,6
2196,Orion,M,6
2197,Orson,M,6
2198,Ottie,M,6
2199,Prentice,M,6
2200,Quincy,M,6
2201,Rollo,M,6
2202,Rose,M,6
2203,Rowland,M,6
2204,Rudolf,M,6
2205,Rudy,M,6
2206,Rush,M,6
2207,Sampson,M,6
2208,Selmer,M,6
2209,Shade,M,6
2210,Sheldon,M,6
2211,Shepherd,M,6
2212,Silvester,M,6
2213,Simeon,M,6
2214,Stanford,M,6
2215,Talmage,M,6
2216,Urban,M,6
2217,Vernie,M,6
2218,Volney,M,6
2219,Wes,M,6
2220,Wilton,M,6
2221,Winston,M,6
2222,Wong,M,6
2223,Woodie,M,6
2224,Wright,M,6
2225,Yancy,M,6
2226,Ab,M,5
2227,Abbie,M,5
2228,Ada,M,5
2229,Adolfo,M,5
2230,Agnes,M,5
2231,Alan,M,5
2232,Alcide,M,5
2233,Alec,M,5
2234,Alejandro,M,5
2235,Alexis,M,5
2236,Alpha,M,5
2237,Alpheus,M,5
2238,Alto,M,5
2239,Alvia,M,5
2240,Arden,M,5
2241,Arlington,M,5
2242,Arnie,M,5
2243,Arvin,M,5
2244,Ballard,M,5
2245,Bee,M,5
2246,Benito,M,5
2247,Benjamen,M,5
2248,Bessie,M,5
2249,Blair,M,5
2250,Blanche,M,5
2251,Bliss,M,5
2252,Bradley,M,5
2253,Brady,M,5
2254,Cal,M,5
2255,Camille,M,5
2256,Cassie,M,5
2257,Cassius,M,5
2258,Catherine,M,5
2259,Charly,M,5
2260,Chin,M,5
2261,Clarke,M,5
2262,Claus,M,5
2263,Cleon,M,5
2264,Cooper,M,5
2265,Cullen,M,5
2266,Dell,M,5
2267,Delmer,M,5
2268,Dennie,M,5
2269,Dewey,M,5
2270,Diego,M,5
2271,Dionicio,M,5
2272,Dixie,M,5
2273,Dominic,M,5
2274,Dora,M,5
2275,Dorr,M,5
2276,Dow,M,5
2277,Duane,M,5
2278,Ebb,M,5
2279,Eber,M,5
2280,Edmon,M,5
2281,Effie,M,5
2282,Ellie,M,5
2283,Elroy,M,5
2284,Elvis,M,5
2285,Estes,M,5
2286,Gabe,M,5
2287,Gilford,M,5
2288,Gottlieb,M,5
2289,Graves,M,5
2290,Gray,M,5
2291,Griffin,M,5
2292,Gussie,M,5
2293,Hardin,M,5
2294,Harlow,M,5
2295,Harman,M,5
2296,Hazel,M,5
2297,Hillery,M,5
2298,Humphrey,M,5
2299,Hurley,M,5
2300,Ignatius,M,5
2301,Jessee,M,5
2302,Jewel,M,5
2303,Jodie,M,5
2304,Lars,M,5
2305,Laurel,M,5
2306,Leeroy,M,5
2307,Lillard,M,5
2308,Lim,M,5
2309,Linton,M,5
2310,Ludwig,M,5
2311,Mabel,M,5
2312,Mac,M,5
2313,Mannie,M,5
2314,Mart,M,5
2315,Martha,M,5
2316,May,M,5
2317,Meyer,M,5
2318,Miner,M,5
2319,Montgomery,M,5
2320,Newell,M,5
2321,Noel,M,5
2322,Norbert,M,5
2323,Norwood,M,5
2324,Ocie,M,5
2325,Odis,M,5
2326,Okey,M,5
2327,Ola,M,5
2328,Olen,M,5
2329,Olie,M,5
2330,Orie,M,5
2331,Orr,M,5
2332,Osborn,M,5
2333,Ott,M,5
2334,Page,M,5
2335,Park,M,5
2336,Pembroke,M,5
2337,Perl,M,5
2338,Pleas,M,5
2339,Polk,M,5
2340,Prentiss,M,5
2341,Ran,M,5
2342,Raphael,M,5
2343,Rastus,M,5
2344,Reed,M,5
2345,Reinhold,M,5
2346,Robin,M,5
2347,Roe,M,5
2348,Rome,M,5
2349,Rosa,M,5
2350,Ruel,M,5
2351,Ruth,M,5
2352,Sammie,M,5
2353,Shed,M,5
2354,Solon,M,5
2355,Stacy,M,5
2356,Stonewall,M,5
2357,Sumner,M,5
2358,Tandy,M,5
2359,Terence,M,5
2360,Theodor,M,5
2361,Tip,M,5
2362,Todd,M,5
2363,Tolbert,M,5
2364,Unknown,M,5
2365,Walton,M,5
2366,Weaver,M,5
2367,Westley,M,5
2368,Wheeler,M,5
2369,Wilfrid,M,5
2370,Wilhelm,M,5
2371,Wirt,M,5
2372,Zed,M,5
