,Name,BUURTCODE_x_x,Population,food_consumed,Income per capita,Amount per capita,Type_x,green electricity,nongreen electricity,BUURTCODE_y_x,Type_y,green gas,nongreen gas,BUURTCODE,type,Water consumption,Household size,Average area,BUURTCODE_x_y,BUURTCODE_y_y,car km per capita,GWP_car,train km per capita,GWP_train,tram km per capita,GWP_bustram
0,Belgisch Park,71,8205,25301251.4,33400,3083.6381962218156,Buurt,822.9913710434532,550.4882145750721,71,Buurt,420.7082754960936,281.40628879397343,71,Buurt,71.41574446327778,1.9512485136741973,131.5629013079667,71,71,19.97303625,2414.062997,5.647509425,95.64621963,1.912140824,65.78003452
1,Westbroekpark,73,880,2767445.2,53000,3144.8240909090905,Buurt,877.9919406463872,755.3603320808854,73,Buurt,524.6205713459838,451.34533774492536,73,Buurt,78.99928386147978,1.9775280898876404,245.536612021858,73,73,18.42279242,2226.691071,5.846375196,99.01421032,1.98356372,68.23707142
2,Duttendel,74,1075,3344662.9,55800,3111.314325581395,Buurt,924.3100075984007,749.6899924015993,74,Buurt,537.3895393013958,435.8662746520926,74,Buurt,81.4430037964879,2.3118279569892475,245.536612021858,74,74,19.29336056,2331.913247,5.61676572,95.12554424,1.869057063,64.29789929
3,Nassaubuurt,48,1625,4915818.6000000015,56200,3025.1191384615395,Buurt,821.7113865947383,618.2886134052618,48,Buurt,532.00544901326,400.3022432944323,48,Buurt,82.01852670121278,2.166666666666667,184.08652809853734,48,48,19.88847996,2403.843008,5.389282975,91.27289647,1.780622788,61.25564969
4,Uilennest,75,2100,6530448.000000001,41600,3109.7371428571428,Buurt,828.823812334952,654.223806712667,75,Buurt,441.83622348738237,348.7590146078557,75,Buurt,74.15416321207164,1.8340611353711789,184.08652809853734,75,75,20.26964053,2449.912399,5.43986662,92.12958107,1.771270369,60.93391478
5,Duinzigt,76,2495,7895935.3,44200,3164.7035270541082,Buurt,770.5676440835414,702.9794501048356,76,Buurt,540.592029376438,493.1755056937024,76,Buurt,74.20584499768782,1.750877192982456,184.08652809853734,76,76,18.30611826,2212.58912,5.854567759,99.15295956,1.967611443,67.68829315
6,Waalsdorp,77,3810,11398160.199999996,49100,2991.6430971128602,Buurt,779.7890778606533,580.8802134779295,77,Buurt,471.2743959656285,351.0615620396209,77,Buurt,81.23026031782952,2.3591331269349847,184.08652809853734,77,77,19.11903412,2310.84309,5.3132093430000005,89.98451344,1.761167985,60.58638014
7,Arendsdorp,78,1305,3936874.7999999993,51600,3016.7622988505736,Buurt,687.0660561626862,532.2442886649002,78,Buurt,455.7987235327624,353.0901653561265,78,Buurt,81.34631621131489,2.5096153846153846,184.08652809853734,78,78,18.95982292,2291.599853,5.429184178,91.94866323,1.808938577,62.22974822
8,Van Hoytemastraat en omgeving,79,2360,7067285.299999998,42500,2994.612415254237,Buurt,772.3597438910145,556.6656798377992,79,Buurt,464.4254669148584,334.727075458023,79,Buurt,78.23507000261543,2.302439024390244,184.08652809853734,79,79,19.98840286,2415.920299,5.26522266,89.17181097,1.7262144730000002,59.38393564
9,Archipelbuurt,46,6100,18936065.500000004,52000,3104.273032786886,Buurt,768.9067835377404,577.0932164622596,46,Buurt,453.78105257965007,340.5796031580548,46,Buurt,77.39706822892505,1.8127786032689452,157.2407132243685,46,46,20.72097168,2504.463035,5.486105517,92.91268304,1.8043298540000001,62.07120239
10,Van Stolkpark en Scheveningse Bosjes,5,760,2379324.4999999995,55800,3130.6901315789473,Buurt,717.6140894512288,617.978015811929,5,Buurt,466.5675763098748,401.78768684801986,5,Buurt,80.70688985783609,2.2686567164179103,259.66567164179105,5,5,19.19880646,2320.484861,5.612546785,95.05409236,1.8798304069999998,64.66851579
11,Oud Scheveningen,1,2920,9101416.1,24500,3116.923321917808,Buurt,738.5820481206787,459.67137653685546,1,Buurt,386.5476139697011,240.57567370153183,1,Buurt,66.25541396608676,1.7859327217125385,114.13602980308674,1,1,21.77772847,2632.189107,5.364055387,90.84564204,1.7371447819999999,59.75995193
12,Vissershaven,2,3560,10939667.9,23800,3072.9404213483144,Buurt,717.4016696078145,455.63203825735405,2,Buurt,315.4093547413667,200.32098233728496,2,Buurt,66.59025185794033,1.9777777777777776,114.13602980308674,2,2,20.47654917,2474.92064,5.409302642,91.61194955,1.775729563,61.08731663
13,Scheveningen Badplaats,3,5390,16709663.9,28800,3100.1231725417438,Buurt,809.3052812754797,495.2772790213662,3,Buurt,449.6140451530443,275.15404390075906,3,Buurt,68.44423580972168,1.7936772046589018,114.13602980308674,3,3,21.339789800000002,2579.257168,5.454450409,92.37657212,1.792730535,61.67217132
14,Visserijbuurt,4,3860,11905001.3,26300,3084.197227979275,Buurt,770.2450903567493,483.1227852909191,4,Buurt,437.342551304256,274.31547978382696,4,Buurt,67.94066518078918,1.8829268292682928,114.13602980308674,4,4,20.36366248,2461.276466,5.508981432000001,93.30010953,1.8213284490000001,62.65597531
15,Rijslag,72,1610,4980880.1000000015,31900,3093.7143478260878,Buurt,915.2105965090518,591.2800867207619,72,Buurt,479.5568439272522,309.8220380603254,72,Buurt,69.8652015313386,1.7988826815642458,114.13602980308674,72,72,20.18663139,2439.879408,5.624791281,95.26146514,1.8798947480000001,64.6707292
16,Duindorp,100,5955,18007649.0,21200,3023.9544920235103,Buurt,921.6137969778847,492.5255816954991,100,Buurt,230.40344924447118,123.13139542387478,100,Buurt,66.16258536288561,2.093145869947276,88.49841827768014,100,100,20.78544598,2512.2557920000004,5.315008648,90.01498646,1.742652413,59.94942132
17,Statenkwartier,7,9665,29351713.800000004,43300,3036.9077909984485,Buurt,786.0087866581482,551.2648812156232,7,Buurt,477.121123129332,334.6274542115888,7,Buurt,76.93142025681877,2.1312017640573315,154.63182156133828,7,7,20.02757826,2420.655277,5.430498256,91.97091846,1.8032330280000002,62.033470200000004
18,Geuzenkwartier,8,4390,13511520.099999998,25300,3077.795011389521,Buurt,663.9170074422051,478.474792102214,8,Buurt,371.0977159502282,267.44442527984006,8,Buurt,68.38137962650839,2.0045662100456623,154.63182156133828,8,8,20.50504686,2478.365044,5.478920119,92.79099113,1.8102522269999999,62.27493942
19,Zorgvliet,41,500,1547596.3000000003,70100,3095.192600000001,Buurt,1011.9390045805886,709.2609954194113,41,Buurt,388.2666271351504,272.13337286484955,41,Buurt,83.71961334268086,1.9230769230769231,282.62307692307695,41,41,20.289305499999998,2452.2892269999998,5.529716271,93.65127477,1.825554022,62.80134029999999
20,Stadhoudersplantsoen,42,1960,6071891.999999999,34000,3097.9040816326524,Buurt,722.9952823272952,562.5659421625007,42,Buurt,403.835202741372,314.2260217484239,42,Buurt,70.14924439283907,1.7268722466960351,140.82364294330515,42,42,20.8475945,2519.7674420000003,5.432108921,91.99819669,1.774451004,61.0433326
21,Sweelinckplein en omgeving,43,5810,17868873.4,35300,3075.537590361445,Buurt,818.388023073928,603.9441628124747,43,Buurt,461.27324936894126,340.4048917670312,43,Buurt,72.27826041631545,1.933444259567388,140.82364294330515,43,43,21.25945306,2569.5471789999997,5.390418131000001,91.29212147,1.769127495,60.86019724
22,Bloemenbuurt-West,50,2340,7214083.300000003,31300,3082.941581196582,Buurt,694.6704734642078,481.39790260416817,50,Buurt,396.179254397556,274.5472413289397,50,Buurt,71.82256948697943,2.176744186046512,118.27751834556369,50,50,19.89517156,2404.6517949999998,5.443861522000001,92.19723874,1.7890233130000002,61.54463825
23,Bloemenbuurt-Oost,51,6460,19948897.9,28100,3088.064690402477,Buurt,758.1691092628056,489.7333675173802,51,Buurt,390.0953093302402,251.97899407533257,51,Buurt,68.88265722585987,1.9312406576980568,118.27751834556369,51,51,20.44788577,2471.456206,5.440143245,92.13426599,1.783192151,61.34403898
24,Bomenbuurt,52,5865,18124139.5,28400,3090.2198635976124,Buurt,754.2343132620178,489.5338026800112,52,Buurt,430.9910361497243,279.733601531435,52,Buurt,69.02984658827951,1.913539967373573,118.27751834556369,52,52,20.59972147,2489.807995,5.428201079,91.93201348,1.7765046759999998,61.11398149
25,Vogelwijk,9,5350,16333946.7,42600,3053.07414953271,Buurt,823.5441296863577,602.2222254538293,9,Buurt,483.52859088823686,353.5835586444735,9,Buurt,80.19271820270274,2.616136919315404,178.49828850855747,9,9,18.99874397,2296.304089,5.39766294,91.41481955,1.8069503969999998,62.16135234
26,Bosjes van Pex,81,400,1239857.7,34300,3099.64425,Buurt,744.0860153469544,510.91398465304565,81,Buurt,426.88600083649976,293.11399916350035,81,Buurt,72.38916617692172,2.0,111.79928825622775,81,81,20.56614078,2485.749228,5.590752387999999,94.68498245,1.862646389,64.07736409
27,Bohemen en Meer en Bos,92,4485,14282982.8,31400,3184.611549609811,Buurt,747.3607533872695,585.281387080958,92,Buurt,414.47517764272146,324.58836750778016,92,Buurt,68.8296433790858,1.7183908045977008,111.79928825622775,92,92,19.98415535,2415.406919,5.644632992999999,95.59750437,1.853999965,63.7799163
28,Ockenburgh,90,795,2430440.0,39800,3057.1572327044023,Buurt,931.9531515278467,643.895905075927,90,Buurt,494.0214622682335,341.324449681452,90,Buurt,76.40115592476656,2.7413793103448283,162.86478873239437,90,90,20.43409909,2469.789864,5.638406272999999,95.49204865,1.930813844,66.42240975
29,Kijkduin,91,1550,4890694.000000001,38700,3155.286451612904,Buurt,960.1357192088873,774.8642807911127,91,Buurt,423.345144204495,341.654855795505,91,Buurt,74.53039211572481,2.0,162.86478873239437,91,91,19.68621407,2379.395918,5.714115569,96.77426127,1.911857624,65.77029209
30,Kraayenstein,97,5875,18056842.3,30500,3073.5050723404256,Buurt,822.9770390734822,516.3080673094964,97,Buurt,328.13232426080964,205.85916510089248,97,Buurt,72.43888562859502,2.3221343873517792,165.89446640316206,97,97,20.79563946,2513.487839,5.361651922,90.80493694,1.76101848,60.58123699
31,Houtwijk,86,12820,39219373.49999999,24200,3059.233502340093,Buurt,743.4111129483756,440.48904305786476,86,Buurt,273.3129091721969,161.94450112421498,86,Buurt,68.74927434299684,2.2974910394265238,106.42470023980816,86,86,20.28787189,2452.115953,5.484680697000001,92.88855229,1.8230187119999999,62.71412247
32,Kom Loosduinen,95,4975,15481990.1,23200,3111.9578090452264,Buurt,743.6143519124672,480.214793816176,95,Buurt,323.01799902080035,208.60009143146104,95,Buurt,64.7258241888105,1.8058076225045367,106.42470023980816,95,95,20.18671152,2439.889093,5.571142845,94.35287523,1.834773314,63.11849547
33,Waldeck-Zuid,6,2035,6314406.6,22900,3102.902506142506,Buurt,855.9344816032053,569.1269434582198,6,Buurt,332.10257886204363,220.8212540617893,6,Buurt,65.2964052997939,1.7543103448275863,105.6414806750136,6,6,19.73456473,2385.239874,5.578911263999999,94.48444116,1.839023799,63.26471747
34,Nieuw Waldeck,40,7210,22057294.3,20000,3059.26411927878,Buurt,706.8834902248021,418.9486873064046,40,Buurt,325.1067528882001,192.68104184134216,40,Buurt,65.5429032959585,2.105109489051095,105.6414806750136,40,40,20.19877288,2441.346903,5.47788531,92.77346561,1.8139002359999998,62.40043549
35,Rosenburg,82,2910,9151801.2,24700,3144.948865979381,Buurt,657.1092362837701,461.44746474715765,82,Buurt,328.55461814188504,230.72373237357888,82,Buurt,65.53976630147008,1.8774193548387097,105.6414806750136,82,82,20.30996384,2454.7861199999998,5.615459638,95.10342443,1.847540604,63.557706200000005
36,Componistenbuurt,93,1825,5702903.3999999985,31700,3124.8785753424654,Buurt,826.2949349809413,562.0886266628942,93,Buurt,440.0188474898508,299.32361826357374,93,Buurt,69.70681712075813,1.7718446601941746,105.6414806750136,93,93,20.11421113,2431.126254,5.660916591,95.87328339,1.867513056,64.24478352
37,Waldeck-Noord,94,3150,10044775.4,29300,3188.817587301586,Buurt,864.3671303093251,696.4582665160718,94,Buurt,318.823941507538,256.8903442067477,94,Buurt,66.14351986525567,1.563275434243176,105.6414806750136,94,94,19.11054607,2309.817172,5.828306992000001,98.70820721,1.931455645,66.44448851
38,Vruchtenbuurt,53,7165,21880487.3,29900,3053.801437543615,Buurt,703.3836070710116,451.3547041641592,53,Buurt,382.6838015482132,245.5646283191978,53,Buurt,71.85727635372827,2.2602523659305995,121.32093541202671,53,53,20.26549273,2449.411071,5.37463895,91.02488525,1.768985495,60.85531226
39,Eykenduinen,83,2635,8161390.800000003,27400,3097.3020113852003,Buurt,722.965570888398,469.292493627731,83,Buurt,394.89716056929296,256.33623601514716,83,Buurt,69.26738246121322,1.9962121212121209,121.32093541202671,83,83,21.04906243,2544.118085,5.370687002,90.95795506,1.747538587,60.11751182
40,Heesterbuurt,54,6805,20905932.3,22400,3072.1428802351206,Buurt,726.2936748017657,409.848867446581,54,Buurt,389.4618256183381,219.7740303699057,54,Buurt,64.8723243577388,1.821954484605087,90.03127530364372,54,54,21.391906,2585.55625,5.409048609,91.60764724,1.774219385,61.03536462
41,Valkenboskwartier,55,11435,35351830.0,22600,3091.5461303017046,Buurt,787.1129694123586,448.87303845821435,55,Buurt,455.1566301384508,259.56571354322824,55,Buurt,64.98833394548235,1.8608624898291293,90.03127530364372,55,55,21.75102756,2628.961872,5.461459858,92.49528415,1.799261354,61.89683965
42,Rond de Energiecentrale,10,5955,18571077.8,22000,3118.5689000839634,Buurt,719.5378435277472,457.2379751120512,10,Buurt,290.5176269642548,184.61251577294084,10,Buurt,64.69559604247151,1.810030395136778,96.43868421052632,10,10,21.88143525,2644.723741,5.515990728999999,93.41881898,1.822452084,62.69462975
43,Koningsplein en omgeving,44,7575,23571091.5,27700,3111.6952475247526,Buurt,872.8082590266803,542.3006518644089,44,Buurt,497.7460754288698,309.26382556122934,44,Buurt,67.76199647098454,1.7595818815331008,96.43868421052632,44,44,22.02052799,2661.5353379999997,5.4176846329999995,91.75390695,1.769448329,60.87123433
44,Zeeheldenkwartier,45,11845,37106319.49999999,29200,3132.6567750105523,Buurt,797.2850131173433,511.3515423913102,45,Buurt,377.2866579930285,241.97885488160216,45,Buurt,67.73885006427773,1.7117052023121389,100.58468208092484,45,45,22.05130801,2665.2555989999996,5.527523885,93.61414452,1.825541206,62.80089941
45,Willemspark,47,1490,4764963.2,47300,3197.961879194631,Buurt,902.6227126427467,670.2631933975216,47,Buurt,333.11076299910894,247.3590356586092,47,Buurt,74.05581986489148,1.6021505376344083,141.03548387096774,47,47,22.19024445,2682.0483050000003,5.477799786,92.77201718,1.7857760269999998,61.43292755
46,Haagse Bos,49,425,1355986.7000000002,40000,3190.556941176471,Buurt,525.2982743690995,386.23113739560637,49,Buurt,349.02368565463655,256.62337316889284,49,Buurt,69.68680588104449,1.6346153846153846,138.0884615384615,49,49,21.36752727,2582.609688,5.650043332,95.68913387,1.8418283969999998,63.36119914
47,Landen,61,5155,15840887.299999995,21800,3072.9170320077587,Buurt,718.4091513904831,428.8750387162094,61,Buurt,332.9213140590044,198.7469691611702,61,Buurt,63.8734998811996,1.7868284228769498,100.49727437916414,61,61,20.64538701,2495.3274109999998,5.455610008,92.39621109999999,1.796200761,61.79155143
48,Kampen,67,2455,7584907.7,22700,3089.5754378818738,Buurt,747.1823915573372,454.5284027400151,67,Buurt,403.7803833163389,245.62898531909906,67,Buurt,63.61507432371498,1.6476510067114094,100.49727437916414,67,67,21.29044095,2573.2925649999997,5.403976512000001,91.52174620000001,1.7594680759999999,60.52790115
49,Marlot,68,805,2387354.8,58400,2965.658136645963,Buurt,976.6073705358141,617.6783437499003,68,Buurt,627.4820303442672,396.8657957426895,68,Buurt,84.80654105767027,2.5967741935483866,100.49727437916414,68,68,19.02198233,2299.112818,5.468168184,92.60889637,1.849562748,63.62727048
50,Burgen en Horsten,69,6285,19478228.6,25300,3099.161272871917,Buurt,805.5864600423607,504.6999361390235,69,Buurt,362.68827638270784,227.2242136729803,69,Buurt,65.81398426904886,1.7629733520336606,100.49727437916414,69,69,20.56415428,2485.509128,5.488644742999999,92.95568737,1.79853315,61.87178853
51,Bezuidenhout-West,64,3580,10830166.099999998,21600,3025.1860614525126,Buurt,768.0964371368477,472.16892599164385,64,Buurt,170.68809714152175,104.92642799814304,64,Buurt,63.747968937096175,1.6689976689976689,99.61454357916452,64,64,19.83722174,2397.647627,5.946634285,100.7121982,2.076343751,71.42882046
52,Bezuidenhout-Midden,65,4285,13051611.900000002,37600,3045.8837572928833,Buurt,813.771669974666,531.0357979366526,65,Buurt,429.6714417466237,280.3869013105525,65,Buurt,72.87241222438769,1.859002169197397,99.61454357916452,65,65,21.15645689,2557.098434,5.379538064,91.10785665,1.762829475,60.64353748
53,Bezuidenhout-Oost,66,9010,28089301.0,32200,3117.5694783573804,Buurt,723.4601589651585,469.9083205021002,66,Buurt,427.01794748675206,277.3605208817274,66,Buurt,69.07488627647615,1.7178265014299332,99.61454357916452,66,66,22.23980139,2688.038059,5.421422552,91.81721234,1.7540507730000001,60.34153915
