,created,screenname,followers,favourites,text
0,2018-12-16 23:59:23,grabus_ajdin,33,131,b'RT @AR72014: #wallpapers #iPhone \n#iPhoneXSMax #iPhoneXS #iPhoneX #iPhoneXR \n\nFragments #wallpaper for \n\n- iPhone XS MAX - iPhone XR\nhttps:\xe2\x80\xa6'
1,2018-12-16 23:53:09,irish2417,7,349,b'DONUT Pop Up Universal Mobile Phone Grip with Car Mount -(Great stocking stuffer) https://t.co/Pz2uql3uFp @eBay\xe2\x80\xa6 https://t.co/gOJ8HCWUMo'
2,2018-12-16 23:51:59,irish2417,7,349,b'Sale - Green Adhesive Silicone Credit Card Pouch For Cell Phone - https://t.co/xBg0fC7fXP @eBay #shopping #sale\xe2\x80\xa6 https://t.co/VLi31flwuu'
3,2018-12-16 23:51:00,irish2417,7,349,b'Black Adhesive Silicone Credit Card Pouch For Cell Phone -  https://t.co/jWvJL1IZe9 @eBay #shopping #sale #deals\xe2\x80\xa6 https://t.co/cWrlVWib9M'
4,2018-12-16 23:41:40,rplesia26,12,84,"b'@iPhone_News The thing is, we as the consumer knew the notch was still going to be on the phone even though the scr\xe2\x80\xa6 https://t.co/q7DDoVEoPo'"
5,2018-12-16 23:41:37,Jason_bkroo,1204,2958,b'Lucky to #work and #live in such a #beautiful #city #bridge #citylife #view #views #pic #picoftheday #iphonex\xe2\x80\xa6 https://t.co/bbtGRqtX8E'
6,2018-12-16 23:33:28,AndreaCoventry,8322,1668,b'RT @ucfoodietv: Hot Off the Presses! For Christmas. The TV Studio in Your Hand.  Shoot great vacation videos or create your own TV show off\xe2\x80\xa6'
7,2018-12-16 23:30:03,SWIFTUNLOCK,1513,65,"b'Sim Unlock #Sprint #Boost #ATT #Tmobile iPhone X,8,7,6 #neterair #iphonex #iphone #swiftunlock #iphonex #unlockcode\xe2\x80\xa6 https://t.co/Gp8V7c7KGm'"
8,2018-12-16 23:26:23,NeahMhelTwenty,18,334,b'RT @AR72014: #wallpapers #iPhone #iOS #homescreen #lockscreen \n\nBlack &amp; Colors #wallpaper for \n\n- #iPhoneXSMAX\n- #iPhoneXS\n- #iPhoneX\n- #iP\xe2\x80\xa6'
9,2018-12-16 23:26:10,momtograndma,13964,5911,"b'RT @ucfoodietv: Winter golf trip ahead?  Use your iPhone at first.  Yes, the iPhone Improves Your Golf Game https://t.co/U9S19cCsSi #iPhone\xe2\x80\xa6'"
10,2018-12-16 23:23:29,bluedarkArt,3329,5965,b'SOLD! Thank You! #Rainbow #Piano #Keyboard #Music #Party #iPhoneX #Case \xf0\x9f\x91\x89 https://t.co/aM9WR5zU8k \xf0\x9f\x8e\xb9\xf0\x9f\x8e\xb6\xf0\x9f\x8e\xb5\xe2\x80\xa6 https://t.co/sOnn6WFEHD'
11,2018-12-16 23:21:58,icgreen,57,24,b'U see the ingredients! This is good after gym eating right here!!! Betcha mouth water!! #Geefilmworkz #greeneyedent\xe2\x80\xa6 https://t.co/0GVkIyP0XA'
12,2018-12-16 23:15:53,BethkazV,2904,27207,"b""I'm trying to win @ProClipUSA giveaway for an #iPhoneX and mounting solution! Enter for your chance to win: https://t.co/138GALTUgd"""
13,2018-12-16 23:14:58,wlai,979,12898,b'@martin_casado @Apple Note that at least the iPhoneX defended against the attack so not sure if the conclusion is j\xe2\x80\xa6 https://t.co/wAxjpqoaCN'
14,2018-12-16 23:06:49,adamyh,130,6882,b'RT @AR72014: #wallpapers #iPhone \n#iPhoneXSMax #iPhoneXS #iPhoneX #iPhoneXR \n\nBlack &amp; Multicolors #wallpaper for \n\n- iPhone XS MAX \n- iPhon\xe2\x80\xa6'
15,2018-12-16 23:04:05,akashpathak89,58,381,b'RT @TechTicTok1: Apple getting sued over alleged false screen size and pixel count advertisement\nhttps://t.co/ldZaIi4rAh\n#AppleFalseAdverti\xe2\x80\xa6'
16,2018-12-16 23:03:02,5280fixit,787,250,b'Inside the #iphonex \n5280Fixit 11215 Washington\n303-720-1577\n\n#5280fixit #northglenn #denver #thornton #repairs\xe2\x80\xa6 https://t.co/hIArJVxaqr'
17,2018-12-16 23:02:47,adamyh,130,6882,b'RT @AR72014: #wallpapers #iPhone \n#iPhoneXSMax #iPhoneXS #iPhoneX #iPhoneXR \n\nBlack &amp; Red #wallpaper for \n\n- iPhone XS MAX - iPhone XR\nhttp\xe2\x80\xa6'
18,2018-12-16 22:59:48,tanukiti_TAA,58,356,b'@jackpot_present iPhoneX  AirPods'
19,2018-12-16 22:59:22,_ChrisMaier,530,85696,b'RT @AR72014: #wallpapers #iPhone \n#iPhoneXSMax #iPhoneXS #iPhoneX #iPhoneXR \n\nBlack &amp; Blue #wallpaper for \n\n- iPhone XS MAX - iPhone XR\nhtt\xe2\x80\xa6'
20,2018-12-16 22:56:55,xarcrius,234,3425,b'Just a few of the fantastic #fireworks at this years Christmas in the Park. \n#iPhonePhotography #iPhoneX @ Sports P\xe2\x80\xa6 https://t.co/uUv8evcGix'
21,2018-12-16 22:56:36,avatuxford,352,3774,"b'@sydneycrouch what phone do you have, is it the iPhone x or iPhoneX max xx'"
22,2018-12-16 22:54:11,Diamond_babe_,318,5518,b'Well I cracked my screen and not my front screen the fuckin glass back iPhoneX. Do they even sell tempered glass for the back?'
23,2018-12-16 22:49:56,itsmeedwax,53,113,b'Eye contact is more intimate than words will ever be.\n.\n.\n.\n.\n.\n.\n.\n.\n.\n.\n.\n.\n.\n#photography #photooftheday\xe2\x80\xa6 https://t.co/tag9236gmT'
24,2018-12-16 22:49:37,StefanoCaracci1,858,2330,b'Good night guys!\n#me #myself #selfie #night #goodnight #man #guy #boy #teen #instaboy #instaguy #instaman\xe2\x80\xa6 https://t.co/UwozFD9pvT'
25,2018-12-16 22:42:50,Metaserph,1366,6415,b'RT @fresk0_: Today\xe2\x80\x99s look! \xf0\x9f\x92\xac icons @xkisanagi\xf0\x9f\x97\xaf wall @RoyalDosanjh \xf0\x9f\x92\xadwidget @Payrun76 #whatsonyourhomescreen \xef\xa3\xbf #iPhoneX https://t.co/0dgJaswU\xe2\x80\xa6'
26,2018-12-16 22:40:04,UlakCases,24898,1817,"b'\xf0\x9f\x8e\x84Crystal Clear iPhone XR Case Only $8.99! \xe2\xad\x90\xef\xb8\x8f\xe2\xad\x90\xef\xb8\x8f\xe2\xad\x90\xef\xb8\x8f\xe2\xad\x90\xef\xb8\x8f\xe2\xad\x90\xef\xb8\x8fReview ""This is a beefy, solid TPU case. It\'s a clean transpare\xe2\x80\xa6 https://t.co/2PxeCyesD6'"
27,2018-12-16 22:36:37,kaplanimation,405,2877,"b'Hello, and welcome back to A Very Jake Holiday Special \xf0\x9f\x92\x9d (iPhoneX by @lexiekaback) https://t.co/AWFO5PC4tE https://t.co/EwkuLPnHXE'"
28,2018-12-16 22:30:18,samizami78,157,15336,b'RT @AR72014: #wallpapers #iPhone \n#iPhoneXSMax #iPhoneXS #iPhoneX #iPhoneXR \n\nBlack &amp; Multicolors #wallpaper for \n\n- iPhone XS MAX \n- iPhon\xe2\x80\xa6'
29,2018-12-16 22:28:23,SJsPhoneShop,16,96,b'Need a special custom phone case? I would love to design something just for you.  For more details please send me a\xe2\x80\xa6 https://t.co/IJcFHj76zk'
30,2018-12-16 22:26:50,itsmeedwax,53,113,b'Missing you like the desert miss the rain. #home \n.\n.\n.\n.\n.\n.\n.\n.\n.\n.\n.\n.\n.\n.\n.\n.\n.\n.\n.\n.\n#photography\xe2\x80\xa6 https://t.co/wSPM23a0zC'
31,2018-12-16 22:22:42,Mado223ios,705,4315,b'RT @AR72014: #wallpapers #iPhone \n#iPhoneXSMax #iPhoneXS #iPhoneX #iPhoneXR \n\nBlack &amp; Multicolors #wallpaper for \n\n- iPhone XS MAX \n- iPhon\xe2\x80\xa6'
32,2018-12-16 22:12:50,untalsaldana10,9,576,b'RT @AR72014: #wallpapers #iPhone \n#iPhoneXSMax #iPhoneXS #iPhoneX #iPhoneXR \n\nBlack &amp; Multicolors #wallpaper for \n\n- iPhone XS MAX \n- iPhon\xe2\x80\xa6'
33,2018-12-16 22:11:49,Saviour_Tech,3,0,b'Excited for Christmas? Keep an eye on Christmas countdown deals!\n-\n-\nVisit: https://t.co/8WaIzFuQTH\n-\n-\xe2\x80\xa6 https://t.co/NpOUQDW4Pc'
34,2018-12-16 22:03:33,hbum0923,1018,9607,b'\xf0\x9f\x96\xa4\xf0\x9f\x92\x9c\xf0\x9f\x92\x9b\n #IPhoneX @ Western Cape https://t.co/l4BYKdlt38'
35,2018-12-16 22:02:40,photosbykag,1378,2107,b'Holiday #lights video! Need something to get you in the holiday mood? Quick video of Xmas lights in LA\xe2\x80\x99s South Bay.\xe2\x80\xa6 https://t.co/A6ot45Ttgz'
36,2018-12-16 22:01:57,bebopsplace,452,6,b'Tufted #Titmouse #Bird 3OtterBox #iPhoneX Case https://t.co/atXYcyDqub via @zazzle'
37,2018-12-16 22:00:55,UtdAll,215,13065,b'RT @fresk0_: Today\xe2\x80\x99s look! \xf0\x9f\x92\xac icons @xkisanagi\xf0\x9f\x97\xaf wall @RoyalDosanjh \xf0\x9f\x92\xadwidget @Payrun76 #whatsonyourhomescreen \xef\xa3\xbf #iPhoneX https://t.co/0dgJaswU\xe2\x80\xa6'
38,2018-12-16 22:00:44,MBTecH_DK,20,319,b'RT @AR72014: #wallpapers #iPhone \n#iPhoneXSMax #iPhoneXS #iPhoneX #iPhoneXR \n\nBlack &amp; Multicolors #wallpaper for \n\n- iPhone XS MAX \n- iPhon\xe2\x80\xa6'
39,2018-12-16 22:00:37,MBTecH_DK,20,319,b'RT @AR72014: #wallpapers #iPhone #iOS #homescreen #lockscreen \n\nBlack &amp; Colors #wallpaper for \n\n- #iPhoneXSMAX\n- #iPhoneXS\n- #iPhoneX\n- #iP\xe2\x80\xa6'
40,2018-12-16 21:57:56,Payrun76,442,12219,b'RT @fresk0_: Today\xe2\x80\x99s look! \xf0\x9f\x92\xac icons @xkisanagi\xf0\x9f\x97\xaf wall @RoyalDosanjh \xf0\x9f\x92\xadwidget @Payrun76 #whatsonyourhomescreen \xef\xa3\xbf #iPhoneX https://t.co/0dgJaswU\xe2\x80\xa6'
41,2018-12-16 21:51:33,karim_024,568,5081,b'RT @fresk0_: Today\xe2\x80\x99s look! \xf0\x9f\x92\xac icons @xkisanagi\xf0\x9f\x97\xaf wall @RoyalDosanjh \xf0\x9f\x92\xadwidget @Payrun76 #whatsonyourhomescreen \xef\xa3\xbf #iPhoneX https://t.co/0dgJaswU\xe2\x80\xa6'
42,2018-12-16 21:50:14,AppleEducate,266,11,b'RT @poortals: The Witch owns the Bitch - the iPad/Alexa shotgun music marriage. https://t.co/5VEcPxTrgU \xe2\x80\xa6 \n#apple #homekit #homepod #smarth\xe2\x80\xa6'
43,2018-12-16 21:45:02,TechNowOrNever,5143,68,b'RT @poortals: The Witch owns the Bitch - the iPad/Alexa shotgun music marriage. https://t.co/5VEcPxTrgU \xe2\x80\xa6 \n#apple #homekit #homepod #smarth\xe2\x80\xa6'
44,2018-12-16 21:44:21,iGeekAppleBOT,327,0,b'RT @poortals: The Witch owns the Bitch - the iPad/Alexa shotgun music marriage. https://t.co/5VEcPxTrgU \xe2\x80\xa6 \n#apple #homekit #homepod #smarth\xe2\x80\xa6'
45,2018-12-16 21:44:21,AlanGeek1,137,12719,b'RT @AR72014: #wallpapers #iPhone #iOS #homescreen #lockscreen \n\nBlack &amp; Colors #wallpaper for \n\n- #iPhoneXSMAX\n- #iPhoneXS\n- #iPhoneX\n- #iP\xe2\x80\xa6'
46,2018-12-16 21:43:10,kaplanimation,405,2877,"b'Hello, and welcome back to A Very Jake Holiday Special \xf0\x9f\x92\x9d (iPhoneX by @babygotkaback) @ Fremont, California https://t.co/bukoaIAWX5'"
47,2018-12-16 21:42:44,DonDenich,97,214,b'RT @AR72014: #wallpapers #iPhone \n#iPhoneXSMax #iPhoneXS #iPhoneX #iPhoneXR \n\nBlack &amp; Blue #wallpaper for \n\n- iPhone XS MAX - iPhone XR\nhtt\xe2\x80\xa6'
48,2018-12-16 21:42:33,yaichetech,355,325,b'Discount : 14% OFF  i10 TWS Mini Bluetooth Binaural Earbuds Stereo In-ear Earphone - WHITE  \nbuy her \xf0\x9f\x91\x89\xe2\x80\xa6 https://t.co/6iAFecj9uw'
49,2018-12-16 21:41:03,poortals,145,1931,b'The Witch owns the Bitch - the iPad/Alexa shotgun music marriage. https://t.co/5VEcPxTrgU \xe2\x80\xa6 \n#apple #homekit\xe2\x80\xa6 https://t.co/phYZ9sA2dc'
50,2018-12-16 21:40:50,HeadKatelin,157,1977,"b'Super, Super Happy! Just got this in the mail. This is my first iPhonex. Want to get one too? I participated in the\xe2\x80\xa6 https://t.co/3ZxXwxBAGQ'"
51,2018-12-16 21:40:28,manabouttown75,220,698,"b""@moment just purchased original wide lens for #iPhoneX, I have the #moment case but lens still won't fit. \xf0\x9f\x98\x95 What gives?"""
52,2018-12-16 21:38:57,vlics,1487,69,"b'RT @Wattpad_au: Apple iPhone X, Fully Unlocked 5.8"", 64 GB - Silver\n\nPrice: $ 1,067\nGet here: https://t.co/uBkk2AZ5A2\n\ntags:\n#apple #iphone\xe2\x80\xa6'"
53,2018-12-16 21:37:26,Wattpad_au,877,1850,"b'Apple iPhone X, Fully Unlocked 5.8"", 64 GB - Silver\n\nPrice: $ 1,067\nGet here: https://t.co/uBkk2AZ5A2\n\ntags:\n#apple\xe2\x80\xa6 https://t.co/JNrapLa5io'"
54,2018-12-16 21:35:12,kaynis1,120,1315,"b'My mum will say ""awon ti wan yo npanu, awon ti eebi npa awon yen nrankun"" that\'s the story of Nigeria. The poor wan\xe2\x80\xa6 https://t.co/eSUfes3qkd'"
55,2018-12-16 21:34:16,textonscreen,940,21310,b'RT @textonscreen: Multiple cities have rejected 5G wireless deployments to protect their communities from health ravages of wireless indust\xe2\x80\xa6'
56,2018-12-16 21:32:53,Thizzlamic69,71,1840,b'RT @AR72014: #wallpapers #iPhone \n#iPhoneXSMax #iPhoneXS #iPhoneX #iPhoneXR \n\nBlack &amp; Multicolors #wallpaper for \n\n- iPhone XS MAX \n- iPhon\xe2\x80\xa6'
57,2018-12-16 21:32:39,KatiaCi05193045,1,100,"b'RT @BIBITM1: a small Try, For New Channel\nplz SUBSCRIBE It, The aim of this channel to uploads Your talents and\xc2\xa0 creativities\xc2\xa0\n\n#instagood\xe2\x80\xa6'"
58,2018-12-16 21:31:57,suleiman101077,49,8081,b'RT @AR72014: #wallpapers #iPhone \n#iPhoneXSMax #iPhoneXS #iPhoneX #iPhoneXR \n\nBlack &amp; Multicolors #wallpaper for \n\n- iPhone XS MAX \n- iPhon\xe2\x80\xa6'
59,2018-12-16 21:31:09,AlanGeek1,137,12719,b'RT @AR72014: #wallpapers #iPhone \n#iPhoneXSMax #iPhoneXS #iPhoneX #iPhoneXR \n\nSpace v2 #wallpaper for \n\n- iPhone XS MAX - iPhone XR\nhttps:/\xe2\x80\xa6'
60,2018-12-16 21:26:49,Shaqq23,258,23019,b'RT @AR72014: #wallpapers #iPhone \n#iPhoneXSMax #iPhoneXS #iPhoneX #iPhoneXR \n\nNebula Fire #wallpaper for \n\n- iPhone XS MAX - iPhone XR\nhttp\xe2\x80\xa6'
61,2018-12-16 21:24:05,Shaqq23,258,23019,b'RT @AR72014: #wallpapers #iPhone \n#iPhoneXSMax #iPhoneXS #iPhoneX #iPhoneXR \n\nBlack &amp; Multicolors #wallpaper for \n\n- iPhone XS MAX \n- iPhon\xe2\x80\xa6'
62,2018-12-16 21:23:15,Shaqq23,258,23019,b'RT @AR72014: #wallpapers #iPhone \n#iPhoneXSMax #iPhoneXS #iPhoneX #iPhoneXR \n\nAbstracted ART v2 #wallpaper for \n\n- iPhone XS MAX - iPhone X\xe2\x80\xa6'
63,2018-12-16 21:23:10,MyAppleEden,967,1,"b'Microsoft releases Hummingbird, An AI-powered news app for Android and iOS\nRead more \xe2\x9e\x99 https://t.co/rXgBvAtAda\xe2\x80\xa6 https://t.co/9OaqK3PhJx'"
64,2018-12-16 21:22:23,Huig23111926,0,0,"b'@snapchatsupport So I got the iPhonex and on Snapchat the camera quality is awful. I look blurry,pale, or even as i\xe2\x80\xa6 https://t.co/ocL6zOAQf3'"
65,2018-12-16 21:21:23,smitbeat64,687,7057,b'RT @AR72014: #wallpapers #iPhone \n#iPhoneXSMax #iPhoneXS #iPhoneX #iPhoneXR \n\nBlack &amp; Multicolors #wallpaper for \n\n- iPhone XS MAX \n- iPhon\xe2\x80\xa6'
66,2018-12-16 21:18:54,kristyndante,560,5074,"b'@CNBC @CNBCMakeIt Justin ""Piper""\nClaris Works \nGoogle Earth\nGoogle Drive\nGoogle Cloud\nGoogle Pixel 1,2,3\nGoogle G S\xe2\x80\xa6 https://t.co/kzxpz1cUj8'"
67,2018-12-16 21:18:00,BonnieE02115685,0,92,"b'RT @jasontayl0r: 12,998\xe2\x80\x99 - \xf0\x9f\x93\xb8 mitchlovin3 \n\xe2\x80\xa2\n\xe2\x80\xa2\n\xe2\x80\xa2\n\xe2\x80\xa2\n#snow #snowboarding #vsco #iphonex #colorado #breckenridge #puremountainfun @ Breckenridg\xe2\x80\xa6'"
68,2018-12-16 21:09:34,brendanzworld,68,195,b'@RTEplayer app is not updating on LG store? Also iPhoneX I only get ads currently with no sound; then no programme\xe2\x80\xa6 https://t.co/g9qBqATgV0'
69,2018-12-16 21:09:21,ikos1972,67,30,b'Beautiful day today. #sundayfunday #sunday #weekend #holidays #landscape #landscapephotography #toronto #brickworks\xe2\x80\xa6 https://t.co/pnVRctvT31'
70,2018-12-16 21:08:48,Jim_Gresham,6401,418,b'RT @AR72014: #wallpapers #iPhone #iOS #homescreen #lockscreen \n\nBlack &amp; Colors #wallpaper for \n\n- #iPhoneXSMAX\n- #iPhoneXS\n- #iPhoneX\n- #iP\xe2\x80\xa6'
71,2018-12-16 21:03:35,Jim_Gresham,6401,418,b'RT @AR72014: #wallpapers #iPhone \n#iPhoneXSMax #iPhoneXS #iPhoneX #iPhoneXR \n\nBlack &amp; Multicolors #wallpaper for \n\n- iPhone XS MAX \n- iPhon\xe2\x80\xa6'
72,2018-12-16 20:59:58,jetblackiphonex,24,892,b'RT @AR72014: #wallpapers #iPhone \n#iPhoneXSMax #iPhoneXS #iPhoneX #iPhoneXR \n\nBlack &amp; Multicolors #wallpaper for \n\n- iPhone XS MAX \n- iPhon\xe2\x80\xa6'
73,2018-12-16 20:59:12,robfromthe314,208,3678,b'RT @AR72014: #wallpapers #iPhone \n#iPhoneXSMax #iPhoneXS #iPhoneX #iPhoneXR \n\nBlack &amp; Multicolors #wallpaper for \n\n- iPhone XS MAX \n- iPhon\xe2\x80\xa6'
74,2018-12-16 20:57:57,AR72014,23586,137,b'#wallpapers #iPhone \n#iPhoneXSMax #iPhoneXS #iPhoneX #iPhoneXR \n\nBlack &amp; Multicolors #wallpaper for \n\n- iPhone XS M\xe2\x80\xa6 https://t.co/Zd8p5fMLI7'
75,2018-12-16 20:50:16,MyiOSEden,192,0,"b'Microsoft releases Hummingbird, An AI-powered news app for Android and iOS\nRead more \xe2\x9e\xa4 https://t.co/w3jEbB1amk\xe2\x80\xa6 https://t.co/uJXk8yqcg8'"
76,2018-12-16 20:50:03,irish2417,7,349,b'Black Adhesive Silicone Credit Card Pouch For Cell Phone - https://t.co/8A6nTFCQEi @eBay #shopping #sale #deals\xe2\x80\xa6 https://t.co/er6EauUJlI'
77,2018-12-16 20:48:43,irish2417,7,349,b'Green Adhesive Silicone Credit Card Pouch For Cell Phone - https://t.co/xBg0fC7fXP @eBay #shopping #sale #deals\xe2\x80\xa6 https://t.co/9s1iDvpL5m'
78,2018-12-16 20:47:42,irish2417,7,349,b'BLACK Pop Up Universal Mobile Phone Grip WITH Clip Car Mount Included https://t.co/fRCTRBins7 @eBay #shopping #sale\xe2\x80\xa6 https://t.co/BGL4FJ1lIW'
79,2018-12-16 20:47:11,irish2417,7,349,b'OPAL Pop Up Universal Mobile Phone Grip Holder with Clip Car Mount - https://t.co/73oekklLI0 @eBay  #shopping #sale\xe2\x80\xa6 https://t.co/KT6L90Q20b'
80,2018-12-16 20:47:05,stevenwoj,563,16337,"b'@degarts Ready to help. Here is a sample of my work, made to for @apple #iPhoneX #NJDevils #SMSports https://t.co/mMYzBYWkih'"
81,2018-12-16 20:46:18,kristyndante,560,5074,"b'@NASA @Space_Station Justin ""Piper""\nClaris Works \nGoogle Earth\nGoogle Drive\nGoogle Cloud\nGoogle Pixel 1,2,3\nGoogle\xe2\x80\xa6 https://t.co/OZ3PreJI5O'"
82,2018-12-16 20:44:13,surej7929,200,60,b'He was resting in the shade on my car and was looking at where the unlock beep came from\xf0\x9f\x98\x8d truly made my day! #iphon\xe2\x80\xa6 https://t.co/olsC4R55IS'
83,2018-12-16 20:40:51,jazzy005,339,1915,"b""I'm trying to win @ProClipUSA giveaway for an #iPhoneX and mounting solution! Enter for your chance to win: https://t.co/jMGWyYhvCU"""
84,2018-12-16 20:39:18,Vairaag_,328,24780,b'What is going on with Face ID? It\xe2\x80\x99s not working today..\xf0\x9f\xa4\x94\xf0\x9f\xa4\xb7\xf0\x9f\x8f\xbb\xe2\x80\x8d\xe2\x99\x80\xef\xb8\x8f #iphoneX @AppleSupport'
85,2018-12-16 20:34:19,PlayBookEden,129,1,"b'Microsoft releases Hummingbird, An AI-powered news app for Android and iOS\nRead more \xc2\xbb https://t.co/oJiG0sYGiv\xe2\x80\xa6 https://t.co/OdeDmpka8V'"
86,2018-12-16 20:23:03,sehrlick,476,758,b'Eaton Centre at Christmas is one of my favorite haunts. #HoHoHolidays #iPhoneX https://t.co/HdpTt3SYgu'
87,2018-12-16 20:19:10,GlobalDental_UK,1468,58,b'RT @dentist001: #beautiful #sunset #lusail #doha #qatar #zigzag #clouds #sun #lights #shadow #see #sun #sky #building #architecture #syrian\xe2\x80\xa6'
88,2018-12-16 20:18:21,estern53,100,6469,"b'#sternfoto #strrnfoto.com #brooklyn #newyork #newyorkcity #iphonex @ Williamsburg, Brooklyn https://t.co/jPumWCXixe'"
89,2018-12-16 20:16:20,DustinFinn,599,2146,b'Dear @verizon @VerizonSupport what does this mean? #Vaugue #Errors #iOS #iPhoneX #iOS12 https://t.co/GIAoBuzzks'
90,2018-12-16 20:11:43,kristyndante,560,5074,"b'@ColumbiaRecords @LittleMix @djsnake Justin ""Piper""\nClaris Works \nGoogle Earth\nGoogle Drive\nGoogle Cloud\nGoogle Pix\xe2\x80\xa6 https://t.co/mZKc2No5x3'"
91,2018-12-16 20:02:15,dentist001,82,391,b'#beautiful #sunset #lusail #doha #qatar #zigzag #clouds #sun #lights #shadow #see #sun #sky #building #architecture\xe2\x80\xa6 https://t.co/VlSgbHFGcA'
92,2018-12-16 20:01:56,ChrisHutchy,205,152,b'\xf0\x9f\x8e\x84\xf0\x9f\x92\xa1 @ The O2 before Macca #christmaslights #street #london #night #city #iphonex https://t.co/OxfMQfK0JW https://t.co/Y10kKi8uC4'
93,2018-12-16 19:57:39,SpitzLoverz,50,1458,b'Cool sunday\n#spitz #pomeranian #spitznain #dog #fluffy #cute #doggo #pet #happy #iphonex https://t.co/liyoLtvdbQ https://t.co/o6V9hd3wWx'
94,2018-12-16 19:52:17,BigFreezy,353,43,b'Using the Ol\xe2\x80\x99Noggin #shotoniphone #christmas #high_larry_us #rawthentic #raw #rawlife #rawlifeie #rawpapers\xe2\x80\xa6 https://t.co/O3O9kod9b5'
95,2018-12-16 19:51:14,ccrepon88,91,175,b'#Lawsuit alleges #Apple falsely advertised the #screensize of the #iPhoneX - Digital Trends https://t.co/LyKL5KmupY https://t.co/YjQvOI2tga'
96,2018-12-16 19:50:57,__Zaharaddeen,183,1878,"b""@MamaAndidi Most of them are snapping with their friends' iphoneX or know how to rub foundations on their faces\xf0\x9f\x98\x87"""
97,2018-12-16 19:49:20,gasoline_hearts,36,52,"b'I know, I know, this page is for cars, but guys cmon, the precision is crazy \xf0\x9f\x98\xaf.\n\xf0\x9f\x8e\xa5: @rosie.technology \nFollow\xe2\x80\xa6 https://t.co/ByQ5VmQDpG'"
98,2018-12-16 19:47:36,_iblobl,4084,1954,b'#WizKids have #FUN with #Maths! \n\nhttps://t.co/bXhxNY2DpV\n\n#Apps #Games #Addition #Subtraction #School #Teacher\xe2\x80\xa6 https://t.co/9W0s5jXrmn'
99,2018-12-16 19:47:00,Av62712,227,6749,b'RT @AR72014: #wallpapers #iPhone \n#iPhoneXSMax #iPhoneXS #iPhoneX #iPhoneXR \n\nBlack &amp; Red #wallpaper for \n\n- iPhone XS MAX - iPhone XR\nhttp\xe2\x80\xa6'
100,2018-12-16 19:43:58,ATSOPRO,7026,113274,b'RT @PetPawtraits_: Cactus Travel Mug \n\n https://t.co/mfmn4ABZGn \n\n#craftbuzz #crafthour\n#iphoneX #giftsforgirls #etsymntt #atsocialmedia #e\xe2\x80\xa6'
101,2018-12-16 19:42:28,Av62712,227,6749,b'RT @AR72014: #wallpapers #iPhone \n#iPhoneXSMax #iPhoneXS #iPhoneX #iPhoneXR \n\nBlack &amp; Blue #wallpaper for \n\n- iPhone XS MAX - iPhone XR\nhtt\xe2\x80\xa6'
102,2018-12-16 19:37:48,auwalup,625,18730,b'RT @igor_os777: Apple reportedly sued for making false screen size claims of the iPhone X-series https://t.co/t9Hsvw0E31 #Apple #IPhoneX ht\xe2\x80\xa6'
103,2018-12-16 19:33:40,CatTongueGrips,49,32,b'Get wild with our DINO-SORE-US gription!  We love seeing where our fans are taking their gription and which styles\xe2\x80\xa6 https://t.co/sgOnXS8lx3'
104,2018-12-16 19:26:36,BostonFixYourI,87,3,b'It\xe2\x80\x99s Sunday! And you know it\xe2\x80\x99s time for a new time lapse! This Sunday we have an iPhone X with a broken OLED.\xe2\x80\xa6 https://t.co/k2IrrYL9aZ'
105,2018-12-16 19:21:17,pimpampet,259,1693,b'Metal snake. \n\n#amsterdam #igamsterdam #leidseplein #tram #coldweather #iphoneography #shotoniphone #iphonex\xe2\x80\xa6 https://t.co/iGUuifzbAs'
106,2018-12-16 19:16:14,realcasepeace,256,4,b'Yamaha Valentino Rossi Phone Case For iPhone 5 5s 6 6s Plus 7 7 Plus\n@realcasepeace\nhttps://t.co/OP0arevKiM\nBuy now\xe2\x80\xa6 https://t.co/r1AO9EkiC4'
107,2018-12-16 19:15:19,Laffy89,24,769,b'A Beautiful evening on the Lee tonight \n.\n.\n.\n.\n.\n.\n#shotoniphone #shotoniphonex #iphonex #apple #iphonephotography\xe2\x80\xa6 https://t.co/Q5zJnxBMpj'
108,2018-12-16 19:06:21,karthik_uppu,120,17,b'@JioCare I am unable to access internet when connected to mobile data after the latest update (ios 12.1.1) on iphon\xe2\x80\xa6 https://t.co/Z2i3KHDLoQ'
109,2018-12-16 19:01:14,spencerdawson3,640,16945,b'RT @fresk0_: Today\xe2\x80\x99s look! \xf0\x9f\x92\xac icons @xkisanagi\xf0\x9f\x97\xaf wall @RoyalDosanjh \xf0\x9f\x92\xadwidget @Payrun76 #whatsonyourhomescreen \xef\xa3\xbf #iPhoneX https://t.co/0dgJaswU\xe2\x80\xa6'
110,2018-12-16 19:01:09,GetIPhoneX1,91,0,b'RT @strategic_tm: 1st time in history #Apple India Official Partner store giveaway #BelkinWirelessCharger worth Rs. 2999 absolutely \xe2\x80\x9cfree\xe2\x80\x9d\xe2\x80\xa6'
111,2018-12-16 18:59:20,tega_agoreyo,354,4555,b'RT @MrKelvinstech: iPhoneX       256gb- 270k    Sim free\niPhoneX        64gb-    260k sim free\niPhone 8+  256gb-   230k\niPhone 8+ 64gb-\xe2\x80\xa6'
112,2018-12-16 18:56:11,kleinmone,2815,34474,b'RT @fresk0_: Today\xe2\x80\x99s look! \xf0\x9f\x92\xac icons @xkisanagi\xf0\x9f\x97\xaf wall @RoyalDosanjh \xf0\x9f\x92\xadwidget @Payrun76 #whatsonyourhomescreen \xef\xa3\xbf #iPhoneX https://t.co/0dgJaswU\xe2\x80\xa6'
113,2018-12-16 18:55:02,poweredbyjava,187,27303,b'RT @AR72014: #wallpapers #iPhone \n#iPhoneXSMax #iPhoneXS #iPhoneX #iPhoneXR \n\nBlack &amp; Blue #wallpaper for \n\n- iPhone XS MAX - iPhone XR\nhtt\xe2\x80\xa6'
114,2018-12-16 18:51:15,sandeepbaliga,1381,18960,b'1st time in history #Apple India Official Partner store giveaway #BelkinWirelessCharger worth Rs. 2999 absolutely \xe2\x80\x9c\xe2\x80\xa6 https://t.co/YBddPZLckH'
115,2018-12-16 18:50:03,whitestonedome,8191,5929,b'Dome Fix for iPhone X _ Full version https://t.co/WhNRaD40Uz  @YouTube\n#DomeFixFuntion you can cover the minor scra\xe2\x80\xa6 https://t.co/xyL7A7G8kw'
116,2018-12-16 18:49:31,alfredorc_,291,12155,b'RT @AR72014: #wallpapers #iPhone #iOS #homescreen #lockscreen \n\nBlack &amp; Colors #wallpaper for \n\n- #iPhoneXSMAX\n- #iPhoneXS\n- #iPhoneX\n- #iP\xe2\x80\xa6'
117,2018-12-16 18:46:51,Galle_Watch,1646,159,b'RT @Jassagu: Galle-vanting away! \xf0\x9f\x98\x8d\xf0\x9f\x98\x8d \n-\n-\n#wilytravels #wilygalle #wilysrilanka #travelgram #travelogue #galle #srilanka #travelphotography\xe2\x80\xa6'
118,2018-12-16 18:46:46,Jassagu,1562,254,b'Galle-vanting away! \xf0\x9f\x98\x8d\xf0\x9f\x98\x8d \n-\n-\n#wilytravels #wilygalle #wilysrilanka #travelgram #travelogue #galle #srilanka\xe2\x80\xa6 https://t.co/6nc5lrvvkP'
119,2018-12-16 18:42:52,Jassagu,1562,254,b'Rickshaw or Tuktuk they all take you to your desired destination.. For now I\xe2\x80\x99m headed to the\xe2\x80\xa6 https://t.co/UmaDYAPXlW'
120,2018-12-16 18:38:06,rmarciab_,947,1810,b'RT @rmarciab_: Who trynna but I brand new iphoneX for 590?????????'
121,2018-12-16 18:32:55,vaibhav_418,44,104,b'RT @TechTicTok1: Apple getting sued over alleged false screen size and pixel count advertisement\nhttps://t.co/ldZaIi4rAh\n#AppleFalseAdverti\xe2\x80\xa6'
122,2018-12-16 18:32:35,fresk0_,254,4471,b'Today\xe2\x80\x99s look! \xf0\x9f\x92\xac icons @xkisanagi\xf0\x9f\x97\xaf wall @RoyalDosanjh \xf0\x9f\x92\xadwidget @Payrun76 #whatsonyourhomescreen \xef\xa3\xbf #iPhoneX https://t.co/0dgJaswUKY'
123,2018-12-16 18:30:52,jayrrrey,15890,236802,b'@DannyIsEnvy An iPhoneX need it for school'
124,2018-12-16 18:30:04,CodeUnlock,210,1,b'#CodeUnlock neter Air 2.0 PRO Unlock SIM - [Unlocks most MAJOR CARRIERS INSTANTLY https://t.co/gt5cGOIn0s\xe2\x80\xa6 https://t.co/z4l45jehSX'
125,2018-12-16 18:27:01,Na_thi_,206,659,b'RT @AndraDayMusic: Thank you @Topsify for adding @AndraDayMusic\xe2\x80\x99s \xe2\x80\x9cWinter Wonderland\xe2\x80\x9d to your Xmas playlist! Follow the playlist for a chan\xe2\x80\xa6'
126,2018-12-16 18:24:44,Life4allboy,39,7,b'RT @AR72014: #wallpapers #iPhone #iOS #homescreen #lockscreen \n\nBlack &amp; Colors #wallpaper for \n\n- #iPhoneXSMAX\n- #iPhoneXS\n- #iPhoneX\n- #iP\xe2\x80\xa6'
127,2018-12-16 18:23:04,GodsBadAssBlade,6,96,b'@pewdiepie My google maps just gave me this and after i turned on my location it gave me this link to an IphoneX gi\xe2\x80\xa6 https://t.co/06Cv0jg2r2'
128,2018-12-16 18:22:01,suro_jitt,133,242,b'People\xe2\x80\x99s Choice Award 2018 \xe2\x80\x93 Winners Announced \nCredit - Smartprix\n.\n.\n.\n.\n#iphonex #iphone8 #asus #oppo #VivoNex\xe2\x80\xa6 https://t.co/S9jjCy5VwT'
129,2018-12-16 18:21:24,suro_jitt,133,242,b'People\xe2\x80\x99s Choice Award 2018 \xe2\x80\x93 Winners Announced\xc2\xa0\nCredit - @smartprix\n.\n.\n.\n.\n#iphonex #iphone8 #asus #oppo #VivoNex\xe2\x80\xa6 https://t.co/lF6yaRNgQB'
130,2018-12-16 18:21:02,kidd81,3247,1458,b'#WizKids have #FUN with #Maths! \n\nhttps://t.co/RTSShYqsy8\n\n#Apps #Games #Addition #Subtraction #School #Teacher\xe2\x80\xa6 https://t.co/YiKRIdx5om'
131,2018-12-16 18:16:52,Manoj29564416,24,2324,b'RT @AR72014: #wallpapers #iPhone #iOS #homescreen #lockscreen \n\nBlack &amp; Colors #wallpaper for \n\n- #iPhoneXSMAX\n- #iPhoneXS\n- #iPhoneX\n- #iP\xe2\x80\xa6'
132,2018-12-16 18:15:46,8278JOGADOR8728,582,8191,b'RT @samir_uu2548: Win iPhone X\nhttps://t.co/vFBvw6hvzy\n#iphoneX #iPhoneXSMax  #iPhoneXS  #win #GiftCard #azamonGiftcard https://t.co/WhoXVx\xe2\x80\xa6'
133,2018-12-16 18:15:14,samir_uu2548,261,242,b'Win iPhone X\nhttps://t.co/vFBvw6hvzy\n#iphoneX #iPhoneXSMax  #iPhoneXS  #win #GiftCard #azamonGiftcard https://t.co/WhoXVx6sh1'
134,2018-12-16 18:13:33,MPtr87,159,491,"b'RT @evankirstel: What it takes to make an iPhone, from its initial design to the raw materials and components needed to make it a reality.\xe2\xa0\x80\xe2\x80\xa6'"
135,2018-12-16 18:13:27,Mintu53703821,1247,78,b'Offer\n\nhttps://t.co/6N4eiD78Wx\nhttps://t.co/HNXIoSNy2T \nhttps://t.co/Ztox4R2XTH \nhttps://t.co/aCXC642zxY\xe2\x80\xa6 https://t.co/IBoOL26vDl'
136,2018-12-16 18:12:53,TrippBraden,26890,8265,"b'RT @evankirstel: What it takes to make an iPhone, from its initial design to the raw materials and components needed to make it a reality.\xe2\xa0\x80\xe2\x80\xa6'"
137,2018-12-16 18:12:02,Rickyal71643998,28,0,"b'This is the beginning of a new week, a loyal sugar baby who needs iPhoneX max, iPhone Xr. At&amp;t,Verizon and sprint p\xe2\x80\xa6 https://t.co/TMgORPiBm0'"
138,2018-12-16 18:09:02,Ayeitsnanaa_,382,16056,"b'I want an iPhoneX for Christmas, nothing too expensive ya know.'"
139,2018-12-16 18:06:24,swisslakeview,488,97,b'#christmassy moment in @GrindelwaldCH last year \xf0\x9f\x8e\x84\xe2\x9d\x84\xef\xb8\x8f\xf0\x9f\x92\x99 have a cozy eve \xf0\x9f\x92\xab #IphoneX #swissmountainview #exploretheworld\xe2\x80\xa6 https://t.co/j9w56JRocu'
140,2018-12-16 18:02:25,BlackSheep_dsg,34,5086,b'RT @AR72014: #wallpapers #iPhone \n#iPhoneXSMax #iPhoneXS #iPhoneX #iPhoneXR \n\nBlack &amp; Blue #wallpaper for \n\n- iPhone XS MAX - iPhone XR\nhtt\xe2\x80\xa6'
141,2018-12-16 18:01:10,TechTicTok1,15,3,b'Apple getting sued over alleged false screen size and pixel count advertisement\nhttps://t.co/ldZaIi4rAh\xe2\x80\xa6 https://t.co/yAWy2GxUpR'
142,2018-12-16 18:01:06,elp_88,5,1,"b'#iPhoneX #mandms #pepsi #london #ELPstate @ London, United Kingdom https://t.co/OCxbReq821'"
143,2018-12-16 18:00:39,Luis425499,277,2134,b'RT @AR72014: #wallpapers #iPhone \n#iPhoneXSMax #iPhoneXS #iPhoneX #iPhoneXR \n\nBlack &amp; Red #wallpaper for \n\n- iPhone XS MAX - iPhone XR\nhttp\xe2\x80\xa6'
144,2018-12-16 18:00:26,Musikbessesener,483,1607,b'RT @raceday_me: Did a battery test today: running for 2 hours and 37 minutes while listening to podcasts only drained 12%(!) of my battery\xe2\x80\xa6'
145,2018-12-16 17:46:51,ThatGuyAleki,28,306,b'Why didn\xe2\x80\x99t anyone tell me I could use gifs as wallpapers on my #iPhoneX ?!?!?!?!'
146,2018-12-16 17:46:50,MeetTheAuthor,50893,4319,"b'RT @evankirstel: What it takes to make an iPhone, from its initial design to the raw materials and components needed to make it a reality.\xe2\xa0\x80\xe2\x80\xa6'"
147,2018-12-16 17:40:28,ajmarton,48,354,b'Sunday morning. Arthur Meyerson inspired. WLA. #iphonography\n#iphoneography #iphonephotoawards \n#iphone10\n#iphoneX\xe2\x80\xa6 https://t.co/APs3dvS2Ji'
148,2018-12-16 17:36:59,danceontheflor,40,18,b'Unboxing! #iphone #apple #iphonex #iphonexphotography #iphoneonly #applestore #iphonexsilver\xe2\x9c\x8c\xef\xb8\x8f\xf0\x9f\x98\x98 https://t.co/I48MIgobzp'
149,2018-12-16 17:30:12,Samuel_2407,2,0,b'She finds new place to take rest always ! #cat #cats #catsofinstagram #catstagram #cats_of_world #iphonex\xe2\x80\xa6 https://t.co/2dLGZ7UBkd'
150,2018-12-16 17:28:08,leeandesignVN,141,794,b'My iDevice #apple #imac #iphonex #ipadpro2018 #ipadmini https://t.co/54IRxqLFia'
151,2018-12-16 17:23:38,mike_hs_,124,8252,b'RT @AR72014: #wallpapers #iPhone \n#iPhoneXSMax #iPhoneXS #iPhoneX #iPhoneXR \n\nBlack &amp; Blue #wallpaper for \n\n- iPhone XS MAX - iPhone XR\nhtt\xe2\x80\xa6'
152,2018-12-16 17:19:03,wine_genie,146,73,"b'RT @evankirstel: What it takes to make an iPhone, from its initial design to the raw materials and components needed to make it a reality.\xe2\xa0\x80\xe2\x80\xa6'"
153,2018-12-16 17:18:38,Gillespiev123,302,7135,b'My grandma got an iPhoneX Max and a new Car....okay then'
154,2018-12-16 17:16:52,ryanaround,152,13,b'It\xe2\x80\x99s a dog eat dog world. #art #garden #creepy #funny #hayesvalley #sanfrancisco #iphonex #lightroom #hdr\xe2\x80\xa6 https://t.co/TLTmITwRHt'
155,2018-12-16 17:15:06,raceday_me,33,9,b'Did a battery test today: running for 2 hours and 37 minutes while listening to podcasts only drained 12%(!) of my\xe2\x80\xa6 https://t.co/Y6hOsNDuY7'
156,2018-12-16 17:11:08,yadhell,104,2192,b'RT @AR72014: #wallpapers #iPhone #iOS #homescreen #lockscreen \n\nBlack &amp; Colors #wallpaper for \n\n- #iPhoneXSMAX\n- #iPhoneXS\n- #iPhoneX\n- #iP\xe2\x80\xa6'
157,2018-12-16 17:06:49,SkorpionBot,400,4691,"b'Christmas Tree \xf0\x9f\x8e\x84\n\xe2\x9c\xa9\n\xe2\x9c\xa9\n\xe2\x9c\xa9\n\xe2\x9c\xa9\n\xe2\x9c\xa9\n\xe2\x80\x94\xe2\x80\x94\xe2\x80\x94\xe2\x80\x94\xe2\x80\x94\nIf you download ad share this photo, credit me: tag and mention @emanuele_esp in y\xe2\x80\xa6 https://t.co/7WEFlMDmv1'"
158,2018-12-16 17:04:45,korytellers,15163,235775,"b""RT @TheWeirdTeacher: We chose a piece of technology to research, did a slide show, and more we're building it. This iPhoneX with contact ch\xe2\x80\xa6"""
159,2018-12-16 17:03:19,rlwatson19745,4794,35728,b'RT @ucfoodietv: Hot Off the Presses! For Christmas. The TV Studio in Your Hand.  Shoot great vacation videos or create your own TV show off\xe2\x80\xa6'
160,2018-12-16 17:02:16,bestproductsell,3889,266,b'Spigen Ultra Hybrid Designed for #Apple #iPhoneXs Case (2018) / Designed for Apple #iPhoneX Case (2017) - Crystal C\xe2\x80\xa6 https://t.co/QOq0usDXle'
161,2018-12-16 16:52:25,_scottplummer,782,4458,b'RT @AR72014: #wallpapers #iPhone #iOS #homescreen #lockscreen \n\nBlack &amp; Colors #wallpaper for \n\n- #iPhoneXSMAX\n- #iPhoneXS\n- #iPhoneX\n- #iP\xe2\x80\xa6'
162,2018-12-16 16:51:07,rmcntrl,41,152,"b""i also need a  new phone eventually but i'm not a tool enough to buy the iphoneX"""
163,2018-12-16 16:50:07,nkhex19,70,370,b'RT @AR72014: #wallpapers #iPhone \n#iPhoneXSMax #iPhoneXS #iPhoneX #iPhoneXR \n\nBlack &amp; Red #wallpaper for \n\n- iPhone XS MAX - iPhone XR\nhttp\xe2\x80\xa6'
164,2018-12-16 16:48:14,bestproductsell,3889,266,b'Bestand 2 in 1 Phone Wireless Charging Stand &amp; #AppleWatch Charging Stand Holder for #Apple iWatch/#iPhoneX/ 8 Plus\xe2\x80\xa6 https://t.co/zDKSfYB0RJ'
165,2018-12-16 16:47:57,AielloMiller,330,12853,b'RT @AR72014: #iOS #wallpaper #lockscreen #homescreen #Christmas2018  \n\ntake a look at my #Christmas\xf0\x9f\x8e\x84#wallpapers Pack produced for you (a li\xe2\x80\xa6'
166,2018-12-16 16:45:57,sleepcalm80,245,2926,"b'Be a MAN APPLE! Be a MAN apple @iBooks @applemusic Now, your repaired iPhoneX at your official APPLE STORE in Franc\xe2\x80\xa6 https://t.co/ReBY652SX8'"
167,2018-12-16 16:40:31,sleepcalm80,245,2926,"b'Be a MAN APPLE! Be a MAN apple @iBooks @applemusic Now, your repaired iPhoneX at your official APPLE STORE in Franc\xe2\x80\xa6 https://t.co/J15EERSHbU'"
168,2018-12-16 16:40:00,ADanielHill,2526,1818,"b'RT @HackRead: iPhone X, Xiaomi Mi 6 &amp; Samsung Galaxy S9 hacked at #Pwn2Own\n\nRead More: https://t.co/QE1Elys38H\n\n#Security #Hacking #Vulnera\xe2\x80\xa6'"
169,2018-12-16 16:36:55,NakhleNaji,107,51,b'The amazing view of JBR #skyline/#waterfront in #dubai #uae #jbr #dubainights #jumeirah #night #nightphotography\xe2\x80\xa6 https://t.co/9d0ZL07ZTv'
170,2018-12-16 16:31:51,Logowhirl,2469,16568,b'Get a Website in as low as $199 \nhttps://t.co/hRsAoyfN3X\n\n#webdesign #websitedesign #photoshop #uitrends #sketch\xe2\x80\xa6 https://t.co/OOM7sByuIa'
