,Date,Day,Cases_Guinea,Cases_Liberia,Cases_SierraLeone,Cases_Nigeria,Cases_Senegal,Cases_UnitedStates,Cases_Spain,Cases_Mali,Deaths_Guinea,Deaths_Liberia,Deaths_SierraLeone,Deaths_Nigeria,Deaths_Senegal,Deaths_UnitedStates,Deaths_Spain,Deaths_Mali
0,8/18/2014,149,579.0,972.0,907.0,15.0,,,,,396.0,576.0,374.0,4.0,,,,
1,8/16/2014,147,543.0,834.0,848.0,15.0,,,,,394.0,466.0,365.0,4.0,,,,
2,8/13/2014,144,519.0,786.0,810.0,12.0,,,,,380.0,413.0,348.0,4.0,,,,
3,8/11/2014,142,510.0,670.0,783.0,12.0,,,,,377.0,355.0,334.0,3.0,,,,
4,8/9/2014,140,506.0,599.0,730.0,13.0,,,,,373.0,323.0,315.0,2.0,,,,
5,8/6/2014,137,495.0,554.0,717.0,13.0,,,,,367.0,294.0,298.0,2.0,,,,
6,8/4/2014,135,495.0,516.0,691.0,9.0,,,,,363.0,282.0,286.0,1.0,,,,
7,8/1/2014,132,485.0,468.0,646.0,4.0,,,,,358.0,255.0,273.0,1.0,,,,
8,7/30/2014,129,472.0,391.0,574.0,3.0,,,,,346.0,227.0,252.0,1.0,,,,
9,7/27/2014,126,460.0,329.0,533.0,1.0,,,,,339.0,156.0,233.0,1.0,,,,
10,7/23/2014,123,427.0,249.0,525.0,0.0,,,,,319.0,129.0,224.0,0.0,,,,
11,7/20/2014,120,415.0,224.0,454.0,,,,,,314.0,127.0,219.0,,,,,
12,7/17/2014,117,410.0,196.0,442.0,,,,,,310.0,116.0,206.0,,,,,
13,7/14/2014,114,411.0,174.0,397.0,,,,,,310.0,106.0,197.0,,,,,
14,7/12/2014,112,406.0,172.0,386.0,,,,,,304.0,105.0,194.0,,,,,
15,7/8/2014,108,409.0,142.0,337.0,,,,,,309.0,88.0,142.0,,,,,
16,7/6/2014,106,408.0,131.0,305.0,,,,,,307.0,84.0,127.0,,,,,
17,7/2/2014,102,412.0,115.0,252.0,,,,,,305.0,75.0,101.0,,,,,
18,6/30/2014,100,413.0,107.0,239.0,,,,,,303.0,65.0,99.0,,,,,
19,6/22/2014,92,,51.0,,,,,,,,34.0,,,,,,
20,6/20/2014,90,390.0,,158.0,,,,,,270.0,,34.0,,,,,
21,6/19/2014,89,,41.0,,,,,,,,25.0,,,,,,
22,6/18/2014,88,390.0,,136.0,,,,,,267.0,,28.0,,,,,
23,6/17/2014,87,,,97.0,,,,,,,,49.0,,,,,
24,6/16/2014,86,398.0,33.0,,,,,,,264.0,24.0,,,,,,
25,6/10/2014,80,351.0,13.0,89.0,,,,,,226.0,24.0,7.0,,,,,
26,6/5/2014,75,,13.0,81.0,,,,,,,,6.0,,,,,
27,6/3/2014,73,344.0,13.0,,,,,,,215.0,12.0,6.0,,,,,
28,6/1/2014,71,328.0,13.0,79.0,,,,,,208.0,12.0,6.0,,,,,
29,5/28/2014,67,291.0,13.0,50.0,,,,,,193.0,12.0,6.0,,,,,
30,5/27/2014,66,281.0,12.0,16.0,,,,,,186.0,11.0,5.0,,,,,
31,5/23/2014,62,258.0,12.0,0.0,,,,,,174.0,11.0,0.0,,,,,
32,5/12/2014,51,248.0,12.0,0.0,,,,,,171.0,11.0,0.0,,,,,
33,5/10/2014,49,233.0,12.0,0.0,,,,,,157.0,11.0,0.0,,,,,
34,5/7/2014,46,236.0,13.0,0.0,,,,,,158.0,11.0,0.0,,,,,
35,5/5/2014,44,235.0,13.0,0.0,,,,,,157.0,11.0,0.0,,,,,
36,5/3/2014,42,231.0,13.0,0.0,,,,,,155.0,11.0,0.0,,,,,
37,5/1/2014,40,226.0,13.0,0.0,,,,,,149.0,11.0,0.0,,,,,
38,4/26/2014,35,224.0,,0.0,,,,,,143.0,,0.0,,,,,
39,4/24/2014,33,,35.0,0.0,,,,,,,,0.0,,,,,
40,4/23/2014,32,218.0,,0.0,,,,,,141.0,,0.0,,,,,
41,4/22/2014,31,,,0.0,,,,,,,,0.0,,,,,
42,4/21/2014,30,,34.0,,,,,,,,11.0,,,,,,
43,4/20/2014,29,208.0,,,,,,,,136.0,6.0,,,,,,
44,4/17/2014,26,203.0,27.0,,,,,,,129.0,,,,,,,
45,4/16/2014,25,197.0,27.0,,,,,,,122.0,13.0,,,,,,
46,4/15/2014,24,,,12.0,,,,,,,,,,,,,
47,4/14/2014,23,168.0,,,,,,,,108.0,,,,,,,
48,4/11/2014,20,159.0,26.0,2.0,,,,,,106.0,13.0,2.0,,,,,
49,4/9/2014,18,158.0,25.0,2.0,,,,,,101.0,12.0,2.0,,,,,
50,4/7/2014,16,151.0,21.0,2.0,,,,,,95.0,10.0,2.0,,,,,
51,4/4/2014,13,143.0,18.0,2.0,,,,,,86.0,7.0,2.0,,,,,
52,4/1/2014,10,127.0,8.0,2.0,,,,,,83.0,5.0,2.0,,,,,
53,3/31/2014,9,122.0,8.0,2.0,,,,,,80.0,4.0,2.0,,,,,
54,3/29/2014,7,112.0,7.0,,,,,,,70.0,2.0,,,,,,
55,3/28/2014,6,112.0,3.0,2.0,,,,,,70.0,3.0,2.0,,,,,
56,3/27/2014,5,103.0,8.0,6.0,,,,,,66.0,6.0,5.0,,,,,
57,3/26/2014,4,86.0,,,,,,,,62.0,,,,,,,
58,3/25/2014,3,86.0,,,,,,,,60.0,,,,,,,
59,3/24/2014,2,86.0,,,,,,,,59.0,,,,,,,
60,3/22/2014,0,49.0,,,,,,,,29.0,,,,,,,
