,0
company_permalink,0
company_name,0
company_category_code,57
company_country_code,0
company_state_code,36
company_region,0
company_city,44
investor_permalink,0
investor_name,0
investor_category_code,5000
investor_country_code,239
investor_state_code,714
investor_region,0
investor_city,274
funding_round_type,0
funded_at,0
funded_month,0
funded_quarter,0
funded_year,0
raised_amount_usd,299
