,0,1,2,3,4,5,6,7,8
31,231,"Raul Neto, G",UTAH,40,8.7,-1.35,1.88,0.53,0.56
11,211,"Terrence Jones, PF",NO/MIL,54,23.5,-0.28,-0.74,-1.02,0.75
5,205,"Cristiano Felicio, PF",CHI,66,15.8,-1.50,0.77,-0.73,0.80
4,204,"Kris Humphries, PF",ATL,56,12.3,-1.91,1.77,-0.14,0.81
17,217,"Matthew Dellavedova, PG",MIL,76,26.1,-1.37,0.01,-1.35,0.69
40,240,"Jonas Valanciunas, C",TOR,80,25.8,-1.20,-0.31,-1.51,0.48
21,221,"Darrell Arthur, F",DEN,41,15.6,0.19,-0.62,-0.43,0.64
25,225,"Quincy Acy, F",DAL/BKN,38,14.7,-1.09,0.80,-0.30,0.62
24,224,"Delon Wright, G",TOR,27,16.5,-1.84,2.09,0.25,0.63
27,227,"Ian Mahinmi, C",WSH,31,17.9,-1.91,1.63,-0.27,0.61
35,235,"Brandan Wright, F",MEM,28,16.0,-1.28,1.16,-0.13,0.52
29,229,"Bobby Portis, F",CHI,64,15.6,-0.85,-0.13,-0.98,0.60
2,202,"Glenn Robinson III, SF",IND,69,20.7,-1.56,0.57,-0.99,0.86
34,234,"Nerlens Noel, C",DAL/PHI,51,20.5,-0.61,-0.51,-1.12,0.53
19,219,"Shawn Long, C",PHI,18,13.0,2.45,-0.34,2.11,0.66
36,236,"Evan Turner, SG",POR,65,25.5,-2.67,1.26,-1.41,0.51
1,201,"Salah Mejri, C",DAL,73,12.4,-3.41,3.02,-0.39,0.88
33,233,"E'Twaun Moore, SG",NO,73,24.9,0.29,-1.73,-1.44,0.54
26,226,"Beno Udrih, PG",DET,39,14.4,-0.65,0.48,-0.17,0.62
10,210,"Dorian Finney-Smith, SF",DAL,81,20.3,-2.70,1.55,-1.15,0.76
20,220,"Tyler Zeller, C",BOS,51,10.3,-0.92,0.85,-0.07,0.65
37,237,"Dante Cunningham, F",NO,66,25.0,-0.77,-0.65,-1.42,0.51
6,206,"Taurean Prince, PF",ATL,59,16.6,-2.27,1.55,-0.72,0.79
8,208,"D'Angelo Russell, SG",LAL,63,28.7,1.65,-2.90,-1.26,0.78
0,RK,NAME,TEAM,GP,MPG,ORPM,DRPM,RPM,WINS
14,214,"Boban Marjanovic, C",DET,35,8.4,0.54,1.11,1.66,0.71
22,222,"Cory Joseph, PG",TOR,80,25.0,-1.63,0.24,-1.39,0.63
13,213,"Kosta Koufos, C",SAC,71,20.0,-2.73,1.62,-1.11,0.71
38,238,"Richaun Holmes, C",PHI,57,20.9,0.61,-1.87,-1.26,0.51
39,239,"Tyreke Evans, G",NO/SAC,40,19.7,-0.52,-0.41,-0.94,0.50
3,203,"Solomon Hill, F",NO,80,29.7,-1.20,-0.16,-1.36,0.84
18,218,"Tomas Satoransky, SG",WSH,57,12.6,-2.37,1.91,-0.46,0.67
12,212,"Trevor Booker, F",BKN,71,24.7,-0.98,-0.33,-1.30,0.71
23,223,"Rodney McGruder, SG",MIA,78,25.2,-1.30,-0.09,-1.38,0.63
28,228,"Luis Scola, F",BKN,36,12.8,0.27,-0.28,-0.01,0.61
30,230,"Gerald Green, SG",BOS,47,11.4,0.12,-0.44,-0.33,0.57
7,207,"Tyler Ulis, G",PHX,61,18.4,0.07,-0.98,-0.90,0.79
32,232,"Justin Hamilton, C",BKN,64,18.4,-0.20,-1.01,-1.21,0.55
16,216,"JaMychal Green, F",MEM,77,27.3,-2.48,1.13,-1.35,0.70
15,215,"Corey Brewer, SG",HOU/LAL,82,15.6,-0.91,-0.16,-1.07,0.71
9,209,"Malik Beasley, SG",DEN,22,7.5,3.21,1.23,4.44,0.77
