,Mouse ID,Timepoint,Tumor Volume (mm3),Metastatic Sites
946,n763,20,49.2581258142,1
947,q787,20,50.229934186099996,2
948,y163,20,54.57107607060001,1
949,g570,20,54.643295405500005,1
950,g989,20,55.3261220232,1
951,s141,20,51.621645702799995,1
952,q511,20,52.6727120546,0
953,s121,20,52.005065899899996,2
954,t718,20,52.6367000006,2
955,k210,20,51.9976185453,0
956,u149,20,50.3780578929,0
957,n671,20,54.822520906099996,0
958,o302,20,56.1776114258,0
959,q633,20,53.287286808000005,1
960,x822,20,51.9149096805,2
961,a685,20,49.490559016999995,0
962,m957,20,38.9093491935,1
963,w575,20,55.591815495,1
964,l733,20,53.244311567,1
965,c757,20,52.8186340079,1
966,w151,20,49.5542629542,2
967,g296,20,51.4471183001,2
968,s185,20,36.8668757626,0
969,a897,20,54.5957054124,3
970,c264,20,54.568195702299995,1
971,f545,20,58.841188880299995,1
972,y769,20,55.0257243359,2
973,l471,20,52.2283269846,0
974,l661,20,52.617490027200006,1
975,b313,20,53.979679695200005,1
976,a401,20,52.20451135729999,2
977,b759,20,54.44303502060001,0
978,k754,20,52.6934227606,1
979,c302,20,54.0809083649,3
980,j296,20,54.005342088999996,3
981,l490,20,51.9054469916,1
982,l509,20,48.0704516203,2
983,w914,20,41.108092328000005,0
984,k894,20,50.981639363199996,1
985,e227,20,56.607552103100005,1
986,a275,20,50.513436516999995,1
987,x581,20,51.2079694323,3
988,o562,20,53.6168634714,1
989,c139,20,56.7420068107,0
990,c282,20,51.9505742324,0
991,v719,20,54.0486076896,1
992,v991,20,57.740694589600004,2
993,s337,20,49.2020540787,1
994,c927,20,55.481689223900005,1
995,t994,20,56.527951594799994,1
996,a788,20,54.0609833167,1
997,c895,20,53.676839604499996,2
998,l897,20,44.813093430600006,0
999,f345,20,49.6133830266,0
1000,c559,20,52.6043669453,2
1001,r944,20,43.225671192600004,1
1002,p438,20,52.9052986063,0
1003,o795,20,60.610059159799995,3
1004,y865,20,52.361982411599996,1
1005,x773,20,49.7397128983,3
1006,w193,20,50.005138074499996,0
1007,j365,20,50.939352777399996,1
1008,q483,20,50.2398558011,1
1009,j119,20,48.1582093856,1
1010,e476,20,55.249272955100004,0
1011,w167,20,57.548156688999995,0
1012,q582,20,51.1859764799,2
1013,p136,20,54.9137985665,1
1014,w584,20,53.3235074308,1
1015,b487,20,53.4276634446,0
1016,y478,20,56.8488501637,1
1017,g316,20,45.933322187899996,1
1018,a203,20,55.173336477700005,1
1019,o287,20,50.8561407771,2
1020,j246,20,44.020370085500005,0
1021,j235,20,52.942901685699994,1
1022,m550,20,53.7579447558,3
1023,a818,20,54.8346244991,0
1024,i901,20,55.9744050244,0
1025,v923,20,39.6482956778,0
1026,c758,20,43.1263113953,1
1027,v295,20,55.731375354899996,3
1028,k862,20,57.057848183500006,1
1029,z578,20,36.890016346799996,0
1030,o331,20,58.9657204314,1
1031,g791,20,41.2118970031,0
1032,w697,20,54.2280909812,3
1033,c819,20,49.7624147548,1
1034,k403,20,32.9977285776,1
1035,m133,20,52.636882487,1
1036,j984,20,54.37251566689999,1
1037,c832,20,56.7102335288,1
1038,q597,20,41.9255865973,0
1039,t565,20,39.0702137997,0
1040,c402,20,54.883320442700004,2
1041,h333,20,51.997806181099996,2
1042,k510,20,52.105573819300005,1
1043,o973,20,51.9569930962,1
1044,l700,20,50.7347681083,1
1045,p981,20,50.3580694704,0
1046,m650,20,56.7779387968,2
1047,j989,20,41.6353442608,1
1048,b879,20,53.9834356818,1
1049,g107,20,62.7060314471,0
1050,a644,20,45.8650646108,0
1051,y793,20,40.7164281529,2
1052,i557,20,43.9678951624,0
1053,e291,20,52.533764786999996,1
1054,c580,20,55.575321945,2
1055,k382,20,57.8243507069,2
1056,w422,20,53.676243359,1
1057,s508,20,35.9286508321,0
1058,e584,20,50.344920952799995,2
1059,x264,20,53.074269727,1
1060,e213,20,52.6137628852,2
1061,r921,20,44.136315884700004,0
1062,j755,20,55.49660752810001,1
1063,e662,20,44.0012957974,0
1064,r701,20,54.114137417799995,0
1065,y260,20,50.7295817393,3
1066,i177,20,35.345361359099996,0
1067,r811,20,40.772802703400004,0
1068,s565,20,57.0461891185,1
1069,m546,20,36.7122953532,0
1070,a366,20,57.2859874161,0
1071,t724,20,57.229409142799994,0
1072,p387,20,56.5876167975,0
1073,v289,20,54.2500539748,0
1074,h246,20,57.9359121766,1
1075,l725,20,59.615154796800006,2
1076,z969,20,57.8987782255,2
1077,w540,20,50.6727274492,2
1078,i334,20,39.6878316954,0
1079,v835,20,51.296542658999996,2
1080,a444,20,41.714618737100004,0
1081,t451,20,51.063677928999994,0
1082,a492,20,53.677192528199996,0
1083,g288,20,42.9571200134,1
1084,x402,20,50.4147504143,2
1085,n923,20,52.599206108000004,1
1086,i738,20,38.5311363449,0
1087,n364,20,37.4788684978,0
1088,f234,20,51.11271292560001,2
1089,m601,20,34.2557316964,1
1090,f993,20,52.0795100926,1
1091,c458,20,39.505135082399995,2
1092,u196,20,46.1053630289,1
1093,a411,20,38.0873731814,1
1094,x930,20,52.5560657478,0
1095,u327,20,53.189879068100005,0
1096,q610,20,46.5854334737,0
1097,b559,20,55.654455716899996,1
1098,j913,20,42.168341324699995,0
1099,v603,20,53.7212419313,0
1100,g497,20,55.0969935585,1
1101,z795,20,53.2806571743,1
1102,a520,20,35.9477451367,0
1103,d474,20,51.731494160299995,0
1104,d251,20,37.6520908462,1
1105,s710,20,42.629962657600004,1
1106,r604,20,51.9027529201,1
1107,x401,20,36.065834708000004,0
1108,m269,20,61.1458663804,0
1109,a963,20,51.4637344829,0
1110,p189,20,56.5302044709,3
1111,g989,20,54.6576500822,1
1112,n304,20,49.2533086334,1
1113,u149,25,52.9253484646,0
1114,x264,25,56.8910528277,2
1115,l725,25,65.008828889,2
1116,i177,25,34.082180303099996,1
1117,l471,25,52.8475589322,1
1118,r944,25,41.0869910555,1
1119,v295,25,57.6918591767,3
1120,x930,25,53.726101300699995,0
1121,c927,25,56.5455194684,2
1122,a520,25,36.5585812854,1
1123,y865,25,57.173538463,2
1124,b559,25,57.043669290699995,1
1125,m546,25,37.4444454297,0
1126,v991,25,60.016747332799994,2
1127,l700,25,54.234501806400004,1
1128,w167,25,61.868576732,0
1129,s710,25,43.0604087491,1
1130,n304,25,53.970859244799996,2
1131,k210,25,54.613972794300004,0
1132,p438,25,54.510574925,0
1133,x581,25,51.9352831811,3
1134,q582,25,51.9682105622,2
1135,r604,25,52.9368581162,1
1136,j119,25,42.4171658876,1
1137,l490,25,55.810033590799996,2
1138,q483,25,52.4300664882,1
1139,a275,25,53.5760641671,1
1140,a818,25,56.9662733232,0
1141,l733,25,54.951668263500004,1
1142,o287,25,52.0684864185,3
1143,z969,25,63.1456521274,2
1144,m133,25,54.0824366171,2
1145,t565,25,37.3422097633,0
1146,l509,25,44.006257018,2
1147,o795,25,65.7417772276,4
1148,t724,25,59.826067973,1
1149,b759,25,55.0836323492,0
1150,b487,25,56.0577490854,1
1151,u196,25,46.7053253976,1
1152,r701,25,57.89848998,1
1153,y478,25,57.8269759771,1
1154,x773,25,51.1044210864,3
1155,x822,25,54.0413332582,2
1156,o809,25,52.3181740669,1
1157,i557,25,44.59621854270001,0
1158,p136,25,56.2814765233,1
1159,c559,25,54.555441683000005,2
1160,m269,25,64.8930197554,0
1161,a788,25,56.7702802971,1
1162,x401,25,36.617120313499996,0
1163,a963,25,52.1298037405,0
1164,l897,25,45.3546791646,0
1165,s337,25,50.9706888979,2
1166,b313,25,55.7451462776,1
1167,j989,25,39.9341124852,1
1168,q511,25,57.2575828717,0
1169,t451,25,55.527553445200006,0
1170,c302,25,55.0762285293,3
1171,o926,25,54.7633385212,3
1172,p981,25,52.5447048014,1
1173,c264,25,56.966768764099996,2
1174,d251,25,38.0975132842,1
1175,w540,25,52.600269551800004,2
1176,j365,25,51.810320400600006,1
1177,j913,25,37.8606693634,0
1178,a411,25,38.7014384033,1
1179,k894,25,52.3258383266,2
1180,g296,25,55.6701066045,3
1181,w914,25,40.2919166099,0
1182,q610,25,40.146450191599996,0
1183,w575,25,58.5873216927,1
1184,h333,25,53.7309143434,2
1185,m601,25,33.1187560745,1
1186,q633,25,55.6831017,1
1187,f234,25,52.178602209,2
1188,f545,25,60.2534813862,1
1189,x402,25,52.4317366358,2
1190,a401,25,54.2098355061,3
1191,a492,25,54.70122868399999,1
1192,a444,25,42.2913943669,0
1193,c458,25,37.7531496418,2
1194,z795,25,57.9470998402,2
1195,g989,25,56.0455635335,1
1196,s185,25,33.9499403692,0
1197,a366,25,59.0117281702,0
1198,s187,25,56.4852198404,1
1199,s565,25,58.5536107924,1
1200,r921,25,42.655340893099996,1
1201,o302,25,60.517102525,0
1202,g570,25,56.8494055954,1
1203,j755,25,58.055818216400006,1
1204,e213,25,55.224476148,2
1205,t718,25,55.876587873999995,3
1206,u364,25,35.5036155664,2
1207,g558,25,55.754082566,2
1208,e584,25,51.3864190841,2
1209,e291,25,55.1389525025,2
1210,a644,25,41.481224077600004,0
1211,o562,25,54.742733155500005,1
1212,r811,25,37.6140106808,0
1213,r107,25,57.70666715390001,1
1214,p387,25,58.098489458500005,0
1215,i635,25,52.9288232312,1
1216,w350,25,52.8059151802,1
1217,k403,25,33.4645773532,1
1218,j984,25,57.0643547939,1
1219,p310,25,55.3418341569,2
1220,a897,25,56.4133197742,3
1221,a699,25,51.8463814709,0
1222,w697,25,57.610394297,3
1223,c402,25,58.269888527,2
1224,b742,25,38.617684334699995,0
1225,k862,25,58.719297297299995,2
1226,t198,25,56.184663987,3
1227,c758,25,43.602267302600005,1
1228,c757,25,57.106418205,2
1229,s141,25,53.8043703838,1
1230,i901,25,56.5751949982,0
1231,b879,25,56.4699874382,2
1232,v923,25,40.1564126858,1
1233,y769,25,58.3359590128,3
1234,g791,25,35.5693993504,1
1235,c282,25,56.292200388000005,1
1236,s121,25,55.65068131899999,2
1237,g107,25,64.6636257923,0
1238,k804,25,55.6748079834,1
1239,w151,25,51.8690586965,2
1240,d474,25,54.2793246201,0
1241,e227,25,60.600291685600006,1
1242,m550,25,57.620682368999994,4
1243,r554,25,33.893345148499996,3
1244,f345,25,53.078894402799996,0
1245,c139,25,61.4619697626,0
1246,g288,25,42.368692385,1
1247,p189,25,62.108959561300004,3
1248,g497,25,57.524446106199996,2
1249,g316,25,46.8092246925,1
1250,y260,25,54.437561723,4
1251,c895,25,57.5341928813,2
1252,i334,25,38.2488173201,1
1253,h246,25,59.5488536968,1
1254,k483,25,57.4320073076,2
1255,z578,25,37.4141141905,0
1256,c766,25,58.214624371999996,3
1257,a577,25,54.38093153810001,2
1258,c819,25,51.8283570592,1
1259,q597,25,42.5757070942,1
1260,c832,25,58.8918164429,2
1261,i669,25,53.3031845548,2
1262,a685,25,51.93995092270001,0
1263,a262,25,60.1318621679,2
1264,m650,25,62.2535969021,2
1265,y163,25,56.1763845158,1
1266,n671,25,56.174457851099994,0
1267,v289,25,56.7200954451,0
1268,b128,25,43.262144827700006,1
1269,m957,25,37.695431538200005,1
1270,o973,25,53.179814707700004,1
1271,n763,25,53.4058705293,2
1272,o331,25,61.102305748199996,1
1273,j296,25,55.76714817,3
1274,q132,25,52.780489297200006,4
1275,w584,25,55.6508379117,1
1276,j246,25,44.5552259519,0
1277,e476,25,57.4086380039,0
1278,c580,25,56.2890623117,2
1279,u327,25,56.0596340925,0
1280,i386,25,56.68786391770001,3
1281,s152,25,64.1191421308,2
1282,w422,25,56.9579171512,2
1283,v603,25,56.0752300146,1
1284,a251,25,57.4146456985,1
1285,l661,25,53.180656782700005,2
1286,k382,25,59.503903917799995,3
1287,i738,25,34.9734376085,0
1288,n923,25,56.85546497520001,2
1289,e662,25,44.6645943219,1
1290,n364,25,33.2050082421,0
1291,q787,25,52.713187855200005,2
1292,y793,25,38.992733904,2
1293,z581,25,54.3164068167,2
1294,s508,25,36.3385689369,0
1295,a203,25,56.7932083242,1
1296,m650,30,64.90188754729999,3
1297,n763,30,55.41365960979999,3
1298,z578,30,37.8159348669,0
1299,c758,30,44.1182702761,1
1300,v923,30,40.7522162629,2
1301,k862,30,60.605439789799995,3
1302,g570,30,60.3287170509,1
1303,e584,30,54.9844076668,3
1304,t198,30,56.9249743083,3
1305,s141,30,55.841410065,1
1306,c139,30,64.1498707741,1
1307,w422,30,60.0966346716,3
1308,b742,30,39.1679494956,0
1309,i557,30,45.2613838113,0
1310,u364,30,35.9783343964,2
1311,g316,30,44.221479879600004,2
1312,r921,30,43.4193807663,1
1313,m550,30,60.8565427184,4
1314,e213,30,56.458728642299995,3
1315,a203,30,59.5231972822,1
1316,a644,30,37.2111206315,0
1317,j755,30,60.0072097835,1
1318,r107,30,58.406472558500006,1
1319,p387,30,63.2692455226,0
1320,c895,30,60.9697113308,2
1321,r811,30,38.242066388699996,0
1322,c580,30,58.0465694091,3
1323,f345,30,54.3637973094,1
1324,o302,30,62.03059364479999,1
1325,e662,30,45.350232415600004,1
1326,b879,30,60.9076148061,2
1327,s565,30,63.6689667821,1
1328,t718,30,57.7041137204,3
1329,g558,30,58.9528291072,3
1330,c757,30,60.0985718432,2
1331,i901,30,60.5918575471,0
1332,i635,30,53.5970381963,2
1333,s187,30,60.00878262649999,2
1334,c402,30,63.7431942843,2
1335,a699,30,54.37934505,0
1336,c264,30,57.823915560699994,2
1337,p136,30,57.0528054555,1
1338,g497,30,61.1081859982,2
1339,d251,30,38.718256383800004,2
1340,r554,30,32.6806545885,3
1341,j365,30,54.4048817649,1
1342,z581,30,56.2867499051,2
1343,a492,30,56.201041043500005,1
1344,a444,30,42.786278345700005,0
1345,q787,30,55.0362062491,2
1346,a401,30,55.9101615864,3
1347,f545,30,65.8939860721,1
1348,x402,30,54.3515846335,3
1349,f234,30,56.873816543100006,2
1350,a251,30,59.8612412853,1
1351,q633,30,58.0572525749,1
1352,c458,30,38.342008229899996,2
1353,v603,30,57.99055377609999,1
1354,j246,30,38.044082019,1
1355,w575,30,60.1530652379,1
1356,w914,30,40.99311013,0
1357,q610,30,40.6683425615,1
1358,i386,30,59.1336402878,3
1359,m601,30,31.758274905100002,1
1360,k894,30,54.400122789300006,3
1361,u327,30,57.3140723863,0
1362,g296,30,57.997706416599996,3
1363,j913,30,34.7572404559,0
1364,q132,30,54.65654872100001,4
1365,i334,30,39.0055543531,1
1366,x401,30,32.915291864000004,0
1367,o809,30,54.832628797299996,1
1368,c559,30,57.146143883,2
1369,o331,30,66.3306634729,1
1370,a897,30,59.9169344271,3
1371,a577,30,57.0318618675,2
1372,j984,30,61.2405057258,1
1373,q597,30,43.339161229300004,1
1374,k403,30,31.0994975278,1
1375,w350,30,55.8799089617,1
1376,c832,30,60.4963757866,2
1377,s185,30,32.959670775999996,1
1378,w584,30,58.2684424837,1
1379,y163,30,59.41253724,2
1380,g989,30,59.0822939412,1
1381,h333,30,55.4552897489,2
1382,a262,30,64.9580917839,3
1383,w697,30,60.7206359101,3
1384,p981,30,56.3391043173,1
1385,c302,30,57.419743886999996,3
1386,t451,30,59.2758226844,0
1387,k483,30,59.747077081899995,2
1388,q511,30,59.364353504499995,1
1389,o973,30,57.7699595186,1
1390,l897,30,39.3527920101,1
1391,j989,30,34.6717810711,1
1392,g288,30,42.8744605586,1
1393,s337,30,52.747717676099995,3
1394,a963,30,53.4016673771,1
1395,k804,30,59.24061511359999,2
1396,d474,30,55.3413415734,0
1397,a788,30,60.4137090758,1
1398,m269,30,67.71250988220001,1
1399,o926,30,56.9173983838,3
1400,b128,30,40.6053348648,1
1401,a366,30,63.440686273599994,1
1402,r701,30,60.3418187213,1
1403,m957,30,38.2124793925,1
1404,v295,30,59.3337720245,3
1405,b759,30,55.742828691899994,1
1406,n364,30,33.8177579986,0
1407,z969,30,65.8410127448,3
1408,w151,30,56.7671582075,2
1409,l700,30,56.6532149954,1
1410,o287,30,54.5030012211,3
1411,t724,30,64.2345946982,2
1412,r944,30,41.680791107,1
1413,x773,30,52.813115177,4
1414,l509,30,44.708054732600004,2
1415,a275,30,54.4447131688,2
1416,g107,30,69.1605198228,0
1417,s508,30,35.4740223478,0
1418,l471,30,58.0936044633,1
1419,u196,30,47.622816356,2
1420,p438,30,56.4064217341,0
1421,j296,30,56.803061207,3
1422,n923,30,59.632560523100004,3
1423,a411,30,39.1307372379,1
1424,l733,30,56.3190653669,1
1425,p189,30,67.1045366507,4
1426,n304,30,55.0390198529,3
1427,q582,30,52.64889349560001,2
1428,g791,30,34.952582842300004,1
1429,n671,30,60.1651804559,0
1430,e227,30,62.4643851526,2
1431,o795,30,68.2170697425,4
1432,r604,30,54.688215356,2
1433,x581,30,55.4928260178,3
1434,c819,30,56.0989981962,1
1435,l490,30,57.918381316499996,3
1436,a818,30,60.0723719791,0
1437,c766,30,60.2559244984,3
1438,l725,30,66.5995451484,3
1439,q483,30,54.952225851,1
1440,t565,30,32.8689161734,0
1441,j119,30,43.0136811371,1
1442,l661,30,55.3290993571,2
1443,m546,30,37.9699336498,0
1444,x822,30,55.4451548315,2
1445,k210,30,59.9895097609,1
1446,w167,30,67.1978718559,0
1447,h246,30,63.5996095357,1
1448,s710,30,43.5717032336,1
1449,v991,30,62.7436430758,3
1450,b559,30,61.19038662609999,1
1451,i738,30,35.5787798701,1
1452,z795,30,59.789635903999994,2
1453,c282,30,59.005902068500006,1
1454,e476,30,57.99279743,1
1455,k382,30,63.469441546400006,4
1456,y769,30,61.071948864300005,3
1457,o562,30,59.653524533900004,1
1458,i177,30,34.711473016,1
1459,y478,30,59.3746145163,1
1460,y865,30,59.0332753041,3
1461,a520,30,36.9477098106,1
1462,x264,30,58.1586942342,3
1463,a685,30,55.4538551891,1
1464,y793,30,35.72602314,2
1465,y260,30,58.5826763418,4
1466,c927,30,60.7539246042,2
1467,i334,35,39.769552101799995,2
1468,l897,35,37.682766641,1
1469,o809,35,55.629428464600004,1
1470,a520,35,37.6247102563,1
1471,p189,35,67.87377675180001,4
1472,k483,35,60.5415615864,2
1473,x822,35,56.7965666526,2
1474,a963,35,56.8139764581,1
1475,l725,35,69.125701726,3
1476,l733,35,57.6007977375,1
1477,m269,35,68.689917354,1
1478,y478,35,61.888026776800004,1
1479,s185,35,28.32853059,1
1480,s337,35,54.810812508400005,3
1481,o973,35,60.2422193118,1
1482,d474,35,56.47911256890001,0
1483,h246,35,67.211270096,2
1484,j989,35,35.1155898014,1
1485,k804,35,62.117278866099994,2
1486,e227,35,66.9491213569,3
1487,w151,35,58.3391409547,2
1488,q511,35,60.8386605931,1
1489,l700,35,61.4626035412,1
1490,t451,35,63.7569896424,0
1491,e662,35,43.220276364700005,1
1492,z581,35,58.6283987816,3
1493,c264,35,61.0747950616,2
1494,w914,35,41.6649157736,1
1495,l661,35,56.4741287099,2
1496,v603,35,63.189431838599994,1
1497,j246,35,38.7532654788,1
1498,q610,35,36.561652291,2
1499,l509,35,40.2072885023,2
1500,m546,35,38.6275358055,1
1501,w575,35,63.6864450308,2
1502,i386,35,64.9254203733,3
1503,y865,35,61.153139910600004,3
1504,n364,35,34.4875220422,1
1505,i738,35,36.1759526888,1
1506,k894,35,55.3626623753,4
1507,c282,35,59.8876547494,1
1508,g296,35,60.3845197846,4
1509,u327,35,58.089028365,1
1510,j913,35,35.1701484317,0
1511,y769,35,63.4306322123,3
1512,m601,35,30.834357039,1
1513,a444,35,41.735950834200004,0
1514,q633,35,63.125659298100004,1
1515,l471,35,61.4059991646,1
1516,a251,35,60.9038845483,1
1517,x401,35,30.2068248766,0
1518,n304,35,57.12241925560001,4
1519,o795,35,69.0850941547,4
1520,p136,35,57.6307819529,1
1521,n923,35,60.3562943168,3
1522,r604,35,59.217000146000004,2
1523,t565,35,33.5156706323,0
1524,d251,35,37.7085294203,2
1525,j365,35,56.9612001622,2
1526,c559,35,59.4550407417,2
1527,a492,35,57.3085537947,1
1528,g497,35,64.0948892973,2
1529,z969,35,69.17624606689999,4
1530,a401,35,60.347144674,3
1531,f545,35,66.74292417310001,1
1532,u196,35,47.0014654238,2
1533,x402,35,55.2409622264,3
1534,r554,35,33.0693370516,3
1535,q787,35,60.3338524187,3
1536,f234,35,57.748758312,2
1537,j296,35,58.714482958199994,3
1538,c302,35,62.2365715655,3
1539,c832,35,61.124487169700004,2
1540,g288,35,38.9541145767,1
1541,f345,35,56.5233272649,1
1542,g107,35,71.9051172092,0
1543,b559,35,65.7057627543,1
1544,r701,35,64.730010445,1
1545,m550,35,62.5391538587,4
1546,x773,35,55.1927363917,4
1547,b128,35,37.967644366900004,1
1548,p387,35,66.4922037978,1
1549,t724,35,67.7443279491,2
1550,s565,35,64.77657908649999,2
1551,r811,35,36.003020161,1
1552,i635,35,55.679996556800006,2
1553,o287,35,55.1182902851,4
1554,c766,35,65.9523679089,4
1555,o926,35,58.593993177200005,3
1556,r944,35,40.4017654219,2
1557,i901,35,62.1273356091,0
1558,g316,35,44.7028329625,2
1559,a818,35,63.298545858400004,0
1560,m650,35,69.2657468118,4
1561,b879,35,64.2608863279,2
1562,z578,35,38.504824438,0
1563,n763,35,57.3824129586,3
1564,y793,35,36.3278695997,2
1565,u364,35,35.4594897809,2
1566,k382,35,66.079184831,4
1567,t718,35,60.4638985119,3
1568,e584,35,58.0865598876,3
1569,e476,35,60.0643402029,1
1570,v991,35,63.8953129437,4
1571,g558,35,60.8621588345,4
1572,z795,35,60.435654163900004,2
1573,i557,35,45.9419490139,0
1574,p438,35,57.5385554628,1
1575,w167,35,68.1342881703,0
1576,i177,35,35.152166204299995,1
1577,a203,35,61.93165006939999,2
1578,a644,35,35.128630831399995,0
1579,c927,35,61.8722736528,3
1580,j755,35,62.732857600500004,1
1581,y260,35,59.603558210900005,4
1582,w422,35,61.4096199392,4
1583,x264,35,61.2996077776,4
1584,g570,35,62.3304203966,2
1585,e213,35,58.2458543541,3
1586,q483,35,59.253484331,1
1587,c757,35,64.2911635123,2
1588,a411,35,39.7172358898,1
1589,o562,35,65.3607674211,1
1590,a685,35,58.0926292504,1
1591,a897,35,64.0528731025,3
1592,g989,35,62.5708796137,2
1593,o331,35,70.126237536,2
1594,q597,35,43.8072014225,1
1595,j984,35,64.0553989564,1
1596,v295,35,61.8931526689,3
1597,q582,35,53.71315791520001,2
1598,k862,35,66.5807224433,3
1599,j119,35,43.7657053733,1
1600,k210,35,63.329330227,1
1601,y163,35,61.7301956164,2
1602,a275,35,56.35353803939999,2
1603,w350,35,56.683557576800006,1
1604,s508,35,35.846140698,0
1605,k403,35,26.546993430700002,1
1606,a699,35,56.5106823354,1
1607,s710,35,44.1605187913,1
1608,c402,35,65.80796270020001,2
1609,c819,35,57.7295346636,1
1610,x581,35,58.0775829251,3
1611,c139,35,67.8214196868,1
1612,a262,35,66.5619630236,4
1613,m957,35,32.5628391419,1
1614,b742,35,39.8475755554,0
1615,c758,35,37.802385459899995,1
1616,v923,35,41.4392415569,2
1617,w697,35,63.6890421576,3
1618,p981,35,59.1310229741,1
1619,t198,35,57.735941156,3
1620,g791,35,30.9603919427,1
1621,a262,40,69.592731975,4
1622,a644,40,35.7794508609,0
1623,i334,40,40.442370366999995,2
1624,a520,40,38.259724974099996,1
1625,k894,40,58.647056157,4
1626,e662,40,44.0067238476,2
1627,n364,40,34.9547331119,1
1628,k403,40,24.3655047062,1
1629,b128,40,38.3797259008,2
1630,i177,40,35.5579327877,2
1631,c302,40,63.281071482399994,4
1632,s508,40,32.798171188299996,0
1633,y478,40,65.9711201741,1
1634,t718,40,61.530398900200005,3
1635,c282,40,65.0217994401,2
1636,o795,40,70.26647886960001,4
1637,m546,40,35.1145752025,1
1638,z578,40,34.0220933558,0
1639,g791,40,31.3694057336,1
1640,c758,40,32.8331885798,1
1641,d251,40,38.2654037868,2
1642,c264,40,65.7083227208,2
1643,u196,40,43.4536867949,2
1644,c757,40,66.6043677097,2
1645,r811,40,36.5200328965,1
1646,c766,40,67.68529455779999,4
1647,e227,40,70.7152176003,3
1648,n763,40,58.011145829600004,4
1649,f545,40,71.1081183452,1
1650,r944,40,41.042044904,2
1651,x773,40,55.9876755056,4
1652,s185,40,25.4721432616,1
1653,a897,40,67.211742786,4
1654,q787,40,62.03412670310001,3
1655,a444,40,42.5049255428,0
1656,m601,40,31.378045301900002,1
1657,t565,40,33.9493413058,0
1658,q597,40,44.471821213199995,2
1659,j989,40,35.501190136700004,1
1660,u327,40,60.466545411800006,1
1661,b879,40,67.1891266642,2
1662,j755,40,67.2077102951,1
1663,y260,40,60.9141762702,4
1664,g570,40,68.5258561579,2
1665,a275,40,60.921538678699996,3
1666,s710,40,40.1719201094,1
1667,s565,40,67.2210069793,2
1668,p387,40,69.0388761787,1
1669,l471,40,63.84485785,1
1670,i635,40,56.8424351425,3
1671,e476,40,61.5252758296,1
1672,k382,40,67.4209552138,4
1673,j119,40,44.5850895996,1
1674,i901,40,64.3034545102,0
1675,a203,40,63.593490019499995,2
1676,b742,40,38.255627397800005,0
1677,w422,40,63.0725846692,4
1678,k862,40,67.5713412826,4
1679,t198,40,59.1299599699,4
1680,k210,40,66.62283627560001,2
1681,a699,40,58.605448163599995,1
1682,f345,40,58.315592504099996,1
1683,v923,40,42.1510147986,2
1684,m550,40,68.2107201909,4
1685,l661,40,59.205668760500004,3
1686,o287,40,57.1971928996,4
1687,v295,40,65.4660744433,3
1688,e213,40,60.2365479716,3
1689,w151,40,62.187950389099996,2
1690,p189,40,74.10609077310001,4
1691,t724,40,69.7283255901,2
1692,q483,40,64.19234113520001,1
1693,r701,40,66.6407217789,1
1694,p438,40,59.3052880573,1
1695,a818,40,69.2738137369,1
1696,x264,40,63.2832882078,4
1697,c927,40,64.18322918060001,4
1698,a411,40,40.2588176479,1
1699,j296,40,60.0726884804,3
1700,a685,40,60.5679037056,2
1701,z795,40,62.3766388411,3
1702,v991,40,64.8511286037,4
1703,h246,40,71.1508346844,2
1704,u364,40,36.0241375158,2
1705,o562,40,71.1724632085,1
1706,m957,40,32.9476148417,1
1707,c819,40,62.175704646099994,1
1708,x581,40,60.280405485799996,3
1709,e584,40,62.8168708302,4
1710,g558,40,61.7749626799,4
1711,y793,40,31.4754107558,2
1712,i557,40,46.821069715600004,1
1713,j984,40,67.7770803588,1
1714,l725,40,73.69349381880001,3
1715,g316,40,45.56582103109999,2
1716,p136,40,61.3802488668,1
1717,r604,40,60.1861153114,2
1718,a492,40,57.9284989721,1
1719,k483,40,64.13872489020001,3
1720,o973,40,64.4878124585,2
1721,j365,40,62.327170655500005,2
1722,d474,40,60.233732778100006,1
1723,l509,40,40.7708125938,2
1724,z581,40,60.053739633999996,3
1725,a401,40,61.7686053849,4
1726,g497,40,67.7428140557,2
1727,x402,40,56.6917229436,3
1728,y865,40,63.469549459899994,3
1729,q633,40,68.4986387581,2
1730,z969,40,70.3149041142,4
1731,a251,40,63.0950756519,1
1732,w914,40,35.6113086052,2
1733,w575,40,64.938406207,3
1734,r554,40,31.804841329699997,3
1735,i386,40,67.2896214667,4
1736,j913,40,31.001860776100003,1
1737,g296,40,62.2219149274,4
1738,i738,40,36.8438979862,2
1739,c832,40,62.5723181635,2
1740,c559,40,60.86184431229999,3
1741,x401,40,28.167397323099998,0
1742,n304,40,59.8305066732,4
1743,w350,40,62.324347690100005,2
1744,m650,40,70.7970678729,4
1745,c402,40,70.2222967893,2
1746,b559,40,69.9696164479,1
1747,o926,40,59.903044476999995,3
1748,c139,40,69.4281409486,2
1749,l897,40,38.3439015408,1
1750,x822,40,59.5556846563,2
1751,l700,40,62.9866779843,1
1752,t451,40,67.654795994,1
1753,y163,40,63.6206795825,2
1754,q511,40,63.1944280711,2
1755,l733,40,59.443506495200005,1
1756,m269,40,70.21464418640001,1
1757,y769,40,64.2510276139,4
1758,g288,40,36.356851210500004,1
1759,n923,40,66.22960553909999,3
1760,a963,40,58.4637868525,1
1761,o331,40,71.4477425103,3
1762,s337,40,56.9948158925,4
1763,n364,45,31.0953350465,1
1764,b128,45,38.9828777369,2
1765,l661,45,59.8519555174,3
1766,y865,45,64.7298365528,3
1767,y769,45,68.5947449754,4
1768,b559,45,73.0513633905,1
1769,t565,45,34.4552979914,0
1770,c282,45,65.8151653496,2
1771,l509,45,41.4830076486,3
1772,j296,45,61.8490233555,3
1773,a411,45,38.407618303,1
1774,p189,45,75.2949359046,4
1775,m650,45,73.9013991214,4
1776,q597,45,45.220868879499996,2
1777,g288,45,37.0740242155,1
1778,o331,45,78.56701362140001,4
1779,y163,45,67.68556862300001,3
1780,i334,45,36.3745103858,2
1781,c139,45,72.2267308995,2
1782,c832,45,65.415954505,3
1783,a262,45,70.7176205811,4
1784,z581,45,62.754451407299996,3
1785,g497,45,69.87225079470001,2
1786,a251,45,65.5257428523,1
1787,q787,45,66.0964747731,3
1788,r554,45,32.3773568408,3
1789,k483,45,66.1969115113,3
1790,w151,45,67.5274823673,3
1791,g316,45,40.159220298600005,2
1792,m550,45,69.2535031225,4
1793,e227,45,73.2129385077,3
1794,a685,45,66.08306589,3
1795,s508,45,30.2762317489,0
1796,h246,45,74.1040856682,2
1797,y793,45,31.8962383998,2
1798,c766,45,69.8231457684,4
1799,z578,45,30.6386957475,0
1800,m957,45,33.3290977815,1
1801,e662,45,40.6590062721,2
1802,e476,45,62.4354040184,1
1803,k382,45,73.7156189986,4
1804,a203,45,67.9734187806,2
1805,w422,45,67.9895300127,4
1806,f345,45,60.9187665154,1
1807,y260,45,62.909440620299996,4
1808,m546,45,30.564625086,1
1809,a818,45,74.9977644288,2
1810,l471,45,67.7486617382,1
1811,s337,45,62.1096510197,4
1812,a963,45,62.76509316520001,1
1813,q511,45,68.61106074770001,3
1814,k403,45,22.0501262735,1
1815,t451,45,68.711630197,1
1816,o926,45,62.327966062899996,4
1817,l897,45,38.8468756907,1
1818,c302,45,64.5752215711,4
1819,w350,45,64.957561848,2
1820,c402,45,74.0403901771,3
1821,v923,45,40.6581236579,2
1822,c758,45,33.3976525121,1
1823,j984,45,70.6538316181,1
1824,a699,45,62.1914143712,1
1825,a897,45,72.2559630577,4
1826,t198,45,64.9113626787,4
1827,k862,45,69.2991490732,4
1828,j989,45,36.134852433,1
1829,b742,45,38.9396326337,0
1830,m269,45,75.1236895484,1
1831,c264,45,67.9421210707,2
1832,g296,45,68.16319517069999,4
1833,j913,45,31.5604695499,1
1834,w575,45,68.4012859299,3
1835,k894,45,60.7527041686,4
1836,a444,45,43.0475426023,0
1837,q633,45,70.8277963054,2
1838,w914,45,36.0410473598,2
1839,a401,45,66.79415598920001,4
1840,f545,45,73.3244322804,1
1841,x402,45,61.6196061525,3
1842,j365,45,64.2940849315,2
1843,m601,45,28.4309641063,1
1844,d251,45,37.311235519499995,2
1845,a492,45,60.1220105157,1
1846,x401,45,28.4840328114,0
1847,p136,45,63.488696780299996,2
1848,c559,45,61.840058422,4
1849,s185,45,23.3435978665,1
1850,i738,45,37.3118457744,2
1851,i901,45,65.3418108738,0
1852,c757,45,69.04284081770001,3
1853,t724,45,75.1132880077,2
1854,s710,45,40.728577871599995,1
1855,x581,45,64.63494887479999,3
1856,a275,45,62.9993561904,3
1857,a520,45,38.8103663256,1
1858,k210,45,68.9231845721,3
1859,j119,45,38.1251643976,1
1860,y478,45,66.842634534,1
1861,l725,45,76.66881741729999,3
1862,x822,45,61.386660315200004,3
1863,l700,45,63.9466404372,1
1864,l733,45,64.2998300327,1
1865,n304,45,63.5863951382,4
1866,o795,45,73.0594543492,4
1867,u196,45,40.6677129221,3
1868,r604,45,62.670759039,3
1869,z969,45,73.8678447583,4
1870,g791,45,29.1284718087,1
1871,i635,45,58.633404140100005,3
1872,o287,45,59.7419006401,4
1873,r701,45,69.7785440734,1
1874,r811,45,37.2256503301,1
1875,u327,45,66.2688013293,2
1876,s565,45,72.58896446770001,2
1877,g570,45,70.4927876341,2
1878,i557,45,47.6859630331,1
1879,a644,45,32.9785219169,1
1880,j755,45,69.56362075979999,1
1881,e213,45,63.105696295200005,4
1882,e584,45,68.3597766991,4
1883,t718,45,63.4236951662,4
1884,o562,45,72.4554211616,2
1885,i177,45,33.5624021721,3
1886,v991,45,70.1677489854,4
1887,z795,45,65.74107029390001,3
1888,r944,45,41.5815207362,2
1889,u364,45,31.0239229361,3
1890,p438,45,61.4338922251,1
1891,x773,45,58.63497148689999,4
1892,b879,45,72.5552389364,2
