,nombre,n_concursados,n_aprobados,año
0,UNIV. DE CHILE,204,86,2010
1,PONT. UNIV. CATOLICA DE CHILE,180,100,2010
2,UNIV. DE CONCEPCION,95,41,2010
3,UNIV. AUSTRAL DE CHILE,48,25,2010
4,UNIV. DE SANTIAGO DE CHILE,62,21,2010
5,UNIV. TECNICA FEDERICO SANTA MARIA,37,19,2010
6,PONT. UNIV. CATOLICA DE VALPARAISO,53,13,2010
7,UNIV. DE LA FRONTERA,20,12,2010
8,UNIV. ANDRES BELLO,22,8,2010
9,UNIV. CATOLICA DEL NORTE,22,9,2010
10,UNIV. DE TALCA,22,9,2010
11,UNIV. DEL BIO-BIO,17,5,2010
12,UNIV. DE LOS ANDES,14,4,2010
13,UNIV. DEL DESARROLLO,11,6,2010
14,UNIV. DE VALPARAISO,21,5,2010
15,UNIV. DE ANTOFAGASTA,18,8,2010
16,UNIV. DIEGO PORTALES,11,2,2010
17,UNIV. DE TARAPACA,10,6,2010
18,UNIV. ADOLFO IBAÑEZ,9,3,2010
19,UNIV. DE LA SERENA,9,3,2010
20,UNIV. ALBERTO HURTADO,7,3,2010
21,UNIV. ARTURO PRAT,7,2,2010
22,UNIV. ACADEMIA DE HUMANISMO CRISTIANO,4,1,2010
23,UNIV. CATOLICA DE LA STMA. CONCEPCION,8,1,2010
24,UNIV. DE PLAYA ANCHA CS. EDUCACION,5,1,2010
25,UNIV. DE MAGALLANES,3,0,2010
26,UNIV. CATOLICA CARDENAL SILVA HENRIQUEZ,1,1,2010
27,UNIV. CATOLICA DE TEMUCO,3,0,2010
28,UNIV. SANTO TOMAS,3,1,2010
29,UNIV. DE LOS LAGOS,12,0,2010
30,OTRAS UNIVERSIDADES,32,0,2010
0,UNIV. DE CHILE,219,130,2011
1,PONT. UNIV. CATOLICA DE CHILE,160,103,2011
2,UNIV. DE CONCEPCION,93,45,2011
3,UNIV. DE SANTIAGO DE CHILE,66,31,2011
4,PONT. UNIV. CATOLICA DE VALPARAISO,54,27,2011
5,UNIV. AUSTRAL DE CHILE,47,24,2011
6,UNIV. TECNICA FEDERICO SANTA MARIA,28,17,2011
7,UNIV. DE TALCA,33,15,2011
8,UNIV. CATOLICA DEL NORTE,24,9,2011
9,UNIV. DE VALPARAISO,24,8,2011
10,UNIV. ANDRES BELLO,19,8,2011
11,UNIV. DE TARAPACA,16,7,2011
12,UNIV. DE LA SERENA,14,7,2011
13,UNIV. ADOLFO IBAÑEZ,13,7,2011
14,UNIV. DIEGO PORTALES,15,6,2011
15,UNIV. DE ANTOFAGASTA,13,6,2011
16,UNIV. ALBERTO HURTADO,11,6,2011
17,UNIV. DE LOS ANDES,10,6,2011
18,UNIV. DE LA FRONTERA,17,4,2011
19,UNIV. CATOLICA DE TEMUCO,9,4,2011
20,UNIV. DE LOS LAGOS,15,3,2011
21,UNIV. DEL BIO-BIO,12,3,2011
22,UNIV. ACADEMIA DE HUMANISMO CRISTIANO,4,3,2011
23,UNIV. CATOLICA DEL MAULE,7,2,2011
24,UNIV. METROPOLITANA DE CS. DE LA EDUCACION,5,2,2011
25,UNIV. DE MAGALLANES,4,2,2011
26,UNIV. TECNOLOGICA METROPOLITANA,3,2,2011
27,UNIV. CATOLICA DE LA STMA. CONCEPCION,9,1,2011
28,UNIV. CENTRAL DE CHILE,6,1,2011
29,UNIV. DEL DESARROLLO,3,1,2011
30,UNIV. DE PLAYA ANCHA CS. EDUCACION,3,0,2011
31,UNIV. DE ATACAMA,2,0,2011
32,UNIV. SANTO TOMAS,1,0,2011
33,UNIV. BOLIVARIANA,0,0,2011
34,UNIV. CS. DE LA INFORMATICA,0,0,2011
35,UNIV. DEL PACIFICO,0,0,2011
36,OTRAS UNIVERSIDADES,17,0,2011
0,UNIV. DE CHILE,251,152,2012
1,PONT. UNIV. CATOLICA DE CHILE,142,89,2012
2,UNIV. DE CONCEPCION,97,48,2012
3,UNIV. AUSTRAL DE CHILE,44,32,2012
4,UNIV. DE SANTIAGO DE CHILE,84,39,2012
5,PONT. UNIV. CATOLICA DE VALPARAISO,56,30,2012
6,UNIV. ANDRES BELLO,25,14,2012
7,UNIV. DE LA FRONTERA,26,18,2012
8,UNIV. TECNICA FEDERICO SANTA MARIA,39,23,2012
9,UNIV. DE VALPARAISO,27,15,2012
10,UNIV. DE TARAPACA,29,10,2012
11,UNIV. DE TALCA,28,10,2012
12,UNIV. DEL BIO-BIO,31,10,2012
13,UNIV. DE LOS LAGOS,21,11,2012
14,UNIV. DEL DESARROLLO,15,6,2012
15,UNIV. DE ANTOFAGASTA,11,5,2012
16,UNIV. DIEGO PORTALES,20,10,2012
17,UNIV. CATOLICA DEL NORTE,24,9,2012
18,UNIV. CATOLICA DE TEMUCO,11,7,2012
19,UNIV. DE LOS ANDES,21,7,2012
20,UNIV. ADOLFO IBANEZ,18,10,2012
21,UNIV. DE LA SERENA,9,6,2012
22,UNIV. ALBERTO HURTADO,6,5,2012
23,UNIV. ACADEMIA DE HUMANISMO CRISTIANO,5,3,2012
24,UNIV. SANTO TOMAS,3,1,2012
25,UNIV. VINA DEL MAR,2,1,2012
26,UNIV. ARTURO PRAT,5,2,2012
27,UNIV. DE MAGALLANES,2,1,2012
28,UNIV. METROPOLITANA DE CS. DE LA EDUCACION,4,0,2012
29,UNIV. CATOLICA DEL MAULE,5,1,2012
30,UNIV. DE PLAYA ANCHA CS. EDUCACION,8,1,2012
31,UNIV. CATOLICA DE LA STMA. CONCEPCION,15,0,2012
32,UNIV. DE ATACAMA,2,1,2012
33,UNIV. INTERNACIONAL SEK,5,0,2012
34,UNIV. TECNOLOGICA METROPOLITANA,2,1,2012
35,UNIV. MAYOR,3,0,2012
36,UNIV. CATOLICA CARDENAL SILVA HENRIQUEZ,2,0,2012
37,UNIV. UCINF,1,0,2012
38,UNIV. DEL PACIFICO,0,0,2012
39,UNIV. SAN SEBASTIAN,1,0,2012
40,OTRAS UNIVERSIDADES,15,0,2012
0,UNIVERSIDAD DE CHILE,211,129,2013
1,PONTIFICIA UNIVERSIDAD CATÓLICA DE CHILE,184,115,2013
2,UNIVERSIDAD DE CONCEPCIÓN,105,61,2013
3,UNIVERSIDAD DE SANTIAGO DE CHILE,75,42,2013
4,UNIVERSIDAD AUSTRAL DE CHILE,58,37,2013
5,PONTIFICIA UNIVERSIDAD CATÓLICA DE VALPARAÍSO,54,29,2013
6,UNIVERSIDAD TÉCNICA FEDERICO SANTA MARÍA,37,23,2013
7,UNIVERSIDAD ANDRÉS BELLO,32,21,2013
8,UNIVERSIDAD DE TALCA,31,20,2013
9,UNIVERSIDAD DE LA FRONTERA,27,16,2013
10,UNIVERSIDAD CATÓLICA DEL NORTE,29,15,2013
11,UNIVERSIDAD DIEGO PORTALES,25,13,2013
12,UNIVERSIDAD DE VALPARAÍSO,27,12,2013
13,UNIVERSIDAD DE LOS ANDES,23,12,2013
14,UNIVERSIDAD DEL BÍO-BÍO,27,9,2013
15,UNIVERSIDAD ADOLFO IBÁÑEZ,13,8,2013
16,UNIVERSIDAD DE LOS LAGOS,15,6,2013
17,UNIVERSIDAD DE ANTOFAGASTA,10,6,2013
18,UNIVERSIDAD DE TARAPACÁ,14,5,2013
19,UNIVERSIDAD DEL DESARROLLO,11,5,2013
20,UNIVERSIDAD ALBERTO HURTADO,10,5,2013
21,UNIVERSIDAD CATÓLICA DE LA SANTÍSIMA CONCEPCIÓN,10,5,2013
22,UNIVERSIDAD CATÓLICA DEL MAULE,11,3,2013
0,UNIV. DE CHILE,253,125,2014
1,PONT. UNIV. CATOLICA DE CHILE,202,118,2014
2,UNIV. DE CONCEPCION,108,46,2014
3,UNIV. DE SANTIAGO DE CHILE,74,33,2014
4,PONT. UNIV. CATOLICA DE VALPARAISO,69,31,2014
5,UNIV. AUSTRAL DE CHILE,49,22,2014
6,UNIV. DIEGO PORTALES,41,21,2014
7,UNIV. ANDRES BELLO,36,19,2014
8,UNIV. TECNICA FEDERICO SANTA MARIA,36,19,2014
9,UNIV. ALBERTO HURTADO,22,16,2014
10,UNIV. DE VALPARAISO,33,14,2014
11,UNIV. DE TALCA,33,12,2014
12,UNIV. DE LOS ANDES,26,9,2014
13,UNIV. DE LA FRONTERA,29,8,2014
14,UNIV. CATOLICA DEL NORTE,21,8,2014
15,UNIV. DEL BIO-BIO,25,7,2014
16,UNIV. DE LA SERENA,11,7,2014
17,UNIV. DEL DESARROLLO,18,5,2014
18,UNIV. DE ANTOFAGASTA,14,5,2014
19,UNIV. CATOLICA DE TEMUCO,19,4,2014
20,UNIV. ADOLFO IBAÑEZ,14,4,2014
21,UNIV. AUTONOMA DE CHILE,12,4,2014
22,UNIV. DE TARAPACA,10,4,2014
23,UNIV. DE MAGALLANES,8,4,2014
24,UNIV. DE LOS LAGOS,11,3,2014
25,UNIV. ACADEMIA DE HUMANISMO CRISTIANO,9,2,2014
26,UNIV. CENTRAL DE CHILE,9,2,2014
27,UNIV. CATOLICA DE LA STMA. CONCEPCION,6,2,2014
28,UNIV. ARTURO PRAT,4,2,2014
29,UNIV. CATOLICA DEL MAULE,15,1,2014
30,UNIV. DE PLAYA ANCHA CS. EDUCACION,8,1,2014
31,UNIV. BERNARDO O'HIGGINS,3,1,2014
32,UNIV. MAYOR,3,1,2014
33,UNIV. CATOLICA CARDENAL SILVA HENRIQUEZ,2,1,2014
34,UNIV. SANTO TOMAS,2,1,2014
35,UNIV. SAN SEBASTIAN,1,1,2014
36,UNIV. TECNOLOGICA METROPOLITANA,1,1,2014
37,UNIV. DE LA REPUBLICA,0,0,2014
38,UNIV. METROPOLITANA DE CS. DE LA EDUCACION,6,0,2014
39,UNIV. ARTES Y CIENCIAS SOCIALES,3,0,2014
40,UNIV. FINIS TERRAE,2,0,2014
41,UNIV. DE ATACAMA,1,0,2014
42,UNIV. DEL PACIFICO,1,0,2014
43,UNIV. VIÑA DEL MAR,0,0,2014
0,UNIV. DE CHILE,289,123,2015
1,PONT. UNIV. CATOLICA DE CHILE,225,108,2015
2,UNIV. DE CONCEPCION,112,46,2015
3,PONT. UNIV. CATOLICA DE VALPARAISO,70,33,2015
4,UNIV. TECNICA FEDERICO SANTA MARIA,50,24,2015
5,UNIV. DE SANTIAGO DE CHILE,77,31,2015
6,UNIV. AUSTRAL DE CHILE,68,30,2015
7,UNIV. CATOLICA DEL NORTE,37,10,2015
8,UNIV. DE VALPARAISO,33,9,2015
9,UNIV. DE ANTOFAGASTA,14,2,2015
10,UNIV. DE LA SERENA,16,3,2015
11,UNIV. DEL BIO-BIO,30,4,2015
12,UNIV. DE LA FRONTERA,34,16,2015
13,UNIV. DE PLAYA ANCHA CS. EDUCACION,6,1,2015
14,UNIV. FINIS TERRAE,2,1,2015
15,UNIV. ADOLFO IBANEZ,18,9,2015
16,UNIV. ANDRES BELLO,49,17,2015
17,UNIV. DE MAGALLANES,2,1,2015
18,UNIV. DE TALCA,40,18,2015
19,UNIV. DE ATACAMA,1,1,2015
20,UNIV. DE TARAPACA,22,5,2015
21,UNIV. SANTO TOMAS,6,1,2015
22,UNIV. ACADEMIA DE HUMANISMO CRISTIANO,11,1,2015
23,UNIV. MAYOR,3,2,2015
24,UNIV. ARTURO PRAT,5,3,2015
25,UNIV. DIEGO PORTALES,39,19,2015
26,UNIV. DE LOS ANDES,28,11,2015
27,UNIV. BERNARDO O'HIGGINS,6,0,2015
28,UNIV. AUTONOMA DE CHILE,48,6,2015
29,UNIV. UCINF,0,0,2015
30,UNIV. DEL DESARROLLO,15,5,2015
31,UNIV. SAN SEBASTIAN,5,0,2015
32,UNIV. CATOLICA DE TEMUCO,18,5,2015
33,UNIV. CATOLICA DE LA STMA. CONCEPCION,5,1,2015
34,UNIV. CATOLICA DEL MAULE,10,1,2015
35,UNIV. DE LOS LAGOS,17,5,2015
36,UNIV. TECNOLOGICA METROPOLITANA,4,1,2015
37,UNIV. ALBERTO HURTADO,17,9,2015
38,UNIV. CATOLICA CARDENAL SILVA HENRIQUEZ,7,0,2015
39,UNIV. METROPOLITANA DE CS.DE LA EDUCACION,6,0,2015
40,UNIV. CENTRAL DE CHILE,4,0,2015
41,UNIV. ADVENTISTA DE CHILE,1,0,2015
42,UNIV. ARTES Y CIENCIAS SOCIALES,1,0,2015
43,UNIV. DEL PACIFICO,1,0,2015
44,UNIV. VINA DEL MAR,1,0,2015
0,PONT. UNIV. CATOLICA DE CHILE,268,113,2016
1,UNIV. DE CHILE,338,109,2016
2,UNIV. DE CONCEPCION,144,43,2016
3,PONT. UNIV. CATOLICA DE VALPARAISO,91,27,2016
4,UNIV. DE SANTIAGO DE CHILE,92,27,2016
5,UNIV. AUSTRAL DE CHILE,71,21,2016
6,UNIV. ANDRES BELLO,60,20,2016
7,UNIV. TECNICA FEDERICO SANTA MARIA,63,19,2016
8,UNIV. DE TALCA,55,17,2016
9,UNIV. DE VALPARAISO,41,13,2016
10,UNIV. DE LA FRONTERA,46,12,2016
11,UNIV. DE LOS ANDES,31,12,2016
12,UNIV. DIEGO PORTALES,40,9,2016
13,UNIV. ALBERTO HURTADO,17,7,2016
14,UNIV. DEL BIO-BIO,42,5,2016
15,UNIV. CATOLICA DE LA STMA. CONCEPCION,9,5,2016
16,UNIV. CATOLICA DEL NORTE,33,4,2016
17,UNIV. ADOLFO IBANEZ,33,4,2016
18,UNIV. DEL DESARROLLO,18,4,2016
19,UNIV. DE LA SERENA,19,3,2016
20,UNIV. DE MAGALLANES,8,3,2016
21,UNIV. DE TARAPACA,23,3,2016
22,UNIV. CATOLICA DE TEMUCO,22,3,2016
23,UNIV. ACADEMIA DE HUMANISMO CRISTIANO,7,2,2016
24,UNIV. AUTONOMA DE CHILE,26,2,2016
25,UNIV. DE LOS LAGOS,12,2,2016
26,UNIV. METROPOLITANA DE CS.DE LA EDUCACION,10,1,2016
27,UNIV. DE ANTOFAGASTA,17,1,2016
28,UNIV. ARTURO PRAT,3,1,2016
29,UNIV. BERNARDO O'HIGGINS,7,1,2016
30,UNIV. CATOLICA DEL MAULE,13,1,2016
31,UNIV. DE PLAYA ANCHA CS. EDUCACION,11,0,2016
32,UNIV. FINIS TERRAE,1,0,2016
33,UNIV. DE ATACAMA,5,0,2016
34,UNIV. DE LAS AMERICAS,0,0,2016
35,UNIV. SANTO TOMAS,4,0,2016
36,UNIV. MAYOR,4,0,2016
37,UNIV. SAN SEBASTIAN,3,0,2016
38,UNIV. CATOLICA CARDENAL SILVA HENRIQUEZ,4,0,2016
39,UNIV. CENTRAL DE CHILE,3,0,2016
40,UNIV. DEL PACIFICO,2,0,2016
41,UNIV. TECNOLOGICA METROPOLITANA,2,0,2016
42,UNIV. IBEROAMERICANA DE CIENCIA Y TEC.,0,0,2016
43,UNIV. VIÑA DEL MAR,0,0,2016
