,nombre,n_concursados,n_aprobados,año
0,UNIV. DE CHILE,251,152,2012
1,PONT. UNIV. CATOLICA DE CHILE,142,89,2012
2,UNIV. DE CONCEPCION,97,48,2012
3,UNIV. AUSTRAL DE CHILE,44,32,2012
4,UNIV. DE SANTIAGO DE CHILE,84,39,2012
5,PONT. UNIV. CATOLICA DE VALPARAISO,56,30,2012
6,UNIV. ANDRES BELLO,25,14,2012
7,UNIV. DE LA FRONTERA,26,18,2012
8,UNIV. TECNICA FEDERICO SANTA MARIA,39,23,2012
9,UNIV. DE VALPARAISO,27,15,2012
10,UNIV. DE TARAPACA,29,10,2012
11,UNIV. DE TALCA,28,10,2012
12,UNIV. DEL BIO-BIO,31,10,2012
13,UNIV. DE LOS LAGOS,21,11,2012
14,UNIV. DEL DESARROLLO,15,6,2012
15,UNIV. DE ANTOFAGASTA,11,5,2012
16,UNIV. DIEGO PORTALES,20,10,2012
17,UNIV. CATOLICA DEL NORTE,24,9,2012
18,UNIV. CATOLICA DE TEMUCO,11,7,2012
19,UNIV. DE LOS ANDES,21,7,2012
20,UNIV. ADOLFO IBANEZ,18,10,2012
21,UNIV. DE LA SERENA,9,6,2012
22,UNIV. ALBERTO HURTADO,6,5,2012
23,UNIV. ACADEMIA DE HUMANISMO CRISTIANO,5,3,2012
24,UNIV. SANTO TOMAS,3,1,2012
25,UNIV. VINA DEL MAR,2,1,2012
26,UNIV. ARTURO PRAT,5,2,2012
27,UNIV. DE MAGALLANES,2,1,2012
28,UNIV. METROPOLITANA DE CS. DE LA EDUCACION,4,0,2012
29,UNIV. CATOLICA DEL MAULE,5,1,2012
30,UNIV. DE PLAYA ANCHA CS. EDUCACION,8,1,2012
31,UNIV. CATOLICA DE LA STMA. CONCEPCION,15,0,2012
32,UNIV. DE ATACAMA,2,1,2012
33,UNIV. INTERNACIONAL SEK,5,0,2012
34,UNIV. TECNOLOGICA METROPOLITANA,2,1,2012
35,UNIV. MAYOR,3,0,2012
36,UNIV. CATOLICA CARDENAL SILVA HENRIQUEZ,2,0,2012
37,UNIV. UCINF,1,0,2012
38,UNIV. DEL PACIFICO,0,0,2012
39,UNIV. SAN SEBASTIAN,1,0,2012
40,OTRAS UNIVERSIDADES,15,0,2012
