,school_name,reading_score
0,Bailey High School,80.85822637106185
1,Cabrera High School,83.97578040904197
2,Figueroa High School,81.15801966768396
3,Griffin High School,83.816757493188
4,Hernandez High School,80.9344120819849
5,Huang High School,81.18272197463148
6,Shelton High School,83.72572402044293
7,Wilson High School,83.98948751642575
