,OrderID,ProductID,UnitPrice,Quantity,Discount
1117,10673,16,17.45,3,0.0
1322,10750,14,23.25,5,0.150000006
545,10453,70,12.0,25,0.10000000099999999
1816,10948,55,24.0,4,0.0
2020,11030,59,55.0,100,0.25
290,10357,26,24.9,16,0.0
1913,10989,6,25.0,40,0.0
692,10512,60,34.0,12,0.150000006
680,10507,48,12.75,15,0.150000006
178,10314,58,10.6,30,0.10000000099999999
1936,10998,75,7.75,30,0.0
970,10615,55,24.0,5,0.0
1968,11009,60,34.0,9,0.0
466,10421,77,10.4,10,0.150000006
112,10290,29,99.0,15,0.0
1033,10640,69,36.0,20,0.25
754,10532,66,17.0,24,0.0
1963,11008,28,45.6,70,0.050000000999999995
1522,10831,38,263.5,8,0.0
959,10611,60,34.0,15,0.0
172,10312,28,36.4,4,0.0
1161,10691,1,18.0,30,0.0
1656,10880,23,9.0,30,0.200000003
778,10539,33,2.5,15,0.0
557,10458,28,36.4,30,0.0
1860,10966,62,49.3,12,0.150000006
1358,10762,56,38.0,60,0.0
169,10310,62,39.4,5,0.0
1114,10671,65,21.05,12,0.0
1951,11003,1,18.0,4,0.0
1355,10762,39,18.0,16,0.0
1538,10836,60,34.0,60,0.0
212,10327,58,10.6,30,0.200000003
1104,10668,55,24.0,4,0.10000000099999999
510,10440,29,99.0,24,0.150000006
1911,10988,7,30.0,60,0.0
22,10255,36,15.2,25,0.0
337,10374,58,10.6,15,0.0
1308,10746,13,6.0,6,0.0
1876,10975,75,7.75,10,0.0
513,10442,11,16.8,30,0.0
745,10529,55,24.0,14,0.0
1524,10832,13,6.0,3,0.200000003
206,10326,4,17.6,24,0.0
714,10518,44,19.45,9,0.0
672,10504,2,19.0,12,0.0
158,10306,54,5.9,5,0.0
1564,10845,58,13.25,60,0.10000000099999999
1849,10962,13,6.0,77,0.0
1086,10660,20,81.0,21,0.0
1400,10781,74,10.0,35,0.0
125,10294,43,36.8,15,0.0
737,10526,1,18.0,8,0.150000006
591,10470,18,50.0,30,0.0
74,10276,10,24.8,15,0.0
936,10603,22,21.0,48,0.0
1045,10645,18,62.5,20,0.0
1661,10882,49,20.0,20,0.150000006
1833,10955,75,7.75,12,0.200000003
703,10515,27,43.9,120,0.0
1252,10722,31,12.5,50,0.0
1617,10863,58,13.25,12,0.150000006
1742,10919,16,17.45,24,0.0
1510,10828,20,81.0,5,0.0
770,10537,51,53.0,6,0.0
1187,10698,70,15.0,8,0.050000000999999995
81,10278,73,12.0,25,0.0
1163,10691,43,46.0,40,0.0
587,10468,43,36.8,15,0.0
593,10470,64,26.6,8,0.0
440,10413,62,39.4,40,0.0
1729,10913,33,2.5,40,0.25
324,10369,29,99.0,20,0.0
1960,11007,8,40.0,30,0.0
436,10411,44,15.5,40,0.200000003
675,10504,61,28.5,25,0.0
2132,11077,4,22.0,1,0.0
773,10537,73,15.0,9,0.0
216,10329,19,7.3,10,0.050000000999999995
376,10389,62,39.4,20,0.0
724,10522,8,40.0,24,0.0
926,10597,57,19.5,20,0.0
1368,10767,42,14.0,2,0.0
1681,10890,41,9.65,14,0.0
1732,10915,17,39.0,10,0.0
264,10346,56,30.4,20,0.0
1154,10687,36,19.0,6,0.25
303,10361,39,14.4,54,0.10000000099999999
1844,10960,24,4.5,10,0.25
760,10534,54,7.45,10,0.200000003
793,10544,67,14.0,7,0.0
1281,10733,52,7.0,25,0.0
159,10307,62,39.4,10,0.0
1926,10994,59,55.0,18,0.050000000999999995
915,10593,69,36.0,20,0.200000003
269,10348,1,14.4,15,0.150000006
750,10530,61,28.5,20,0.0
1979,11013,68,12.5,2,0.0
602,10474,40,14.7,21,0.0
1786,10936,36,19.0,30,0.200000003
563,10459,72,27.8,40,0.0
281,10353,38,210.8,50,0.200000003
592,10470,23,7.2,15,0.0
1700,10898,13,6.0,5,0.0
649,10493,66,13.6,10,0.10000000099999999
356,10382,74,8.0,50,0.0
1186,10698,65,21.05,65,0.050000000999999995
1160,10690,77,13.0,30,0.25
726,10522,40,18.4,25,0.200000003
1247,10719,54,7.45,40,0.25
843,10562,62,49.3,10,0.10000000099999999
1895,10982,43,46.0,9,0.0
1018,10634,18,62.5,50,0.0
2030,11033,69,36.0,36,0.10000000099999999
1548,10839,72,34.8,15,0.10000000099999999
1067,10654,39,18.0,20,0.10000000099999999
749,10530,43,46.0,25,0.0
26,10257,27,35.1,25,0.0
683,10509,28,45.6,3,0.0
1089,10662,68,12.5,10,0.0
1109,10670,67,14.0,25,0.0
761,10535,11,21.0,50,0.10000000099999999
985,10621,70,15.0,20,0.0
225,10332,47,7.6,16,0.200000003
1172,10694,59,55.0,25,0.0
701,10515,9,97.0,16,0.150000006
2057,11046,12,38.0,20,0.050000000999999995
814,10553,11,21.0,15,0.0
425,10407,11,16.8,30,0.0
30,10258,5,17.0,65,0.200000003
121,10293,63,35.1,5,0.0
690,10512,46,12.0,9,0.150000006
566,10461,21,8.0,40,0.25
423,10406,36,15.2,5,0.10000000099999999
1869,10972,17,39.0,6,0.0
1868,10971,29,123.79,14,0.0
297,10359,60,27.2,80,0.050000000999999995
1579,10850,25,14.0,20,0.150000006
473,10425,55,19.2,10,0.25
1918,10990,55,24.0,65,0.150000006
439,10413,1,14.4,24,0.0
1643,10873,28,45.6,3,0.0
2099,11064,55,24.0,4,0.10000000099999999
1386,10775,10,31.0,6,0.0
2104,11066,19,9.2,42,0.0
261,10345,19,7.3,80,0.0
1874,10974,63,43.9,10,0.0
1802,10943,13,6.0,15,0.0
233,10335,32,25.6,6,0.200000003
1746,10921,35,18.0,10,0.0
1735,10916,16,17.45,6,0.0
1453,10803,25,14.0,15,0.050000000999999995
565,10460,75,6.2,4,0.25
2135,11077,8,40.0,2,0.10000000099999999
1922,10991,76,18.0,90,0.200000003
526,10446,31,10.0,3,0.10000000099999999
1128,10677,33,2.5,8,0.150000006
1652,10878,20,81.0,20,0.050000000999999995
117,10291,51,42.4,2,0.10000000099999999
2028,11032,59,55.0,30,0.0
1287,10736,65,21.05,40,0.0
1749,10922,24,4.5,35,0.0
2084,11058,61,28.5,4,0.0
2088,11060,60,34.0,4,0.0
2058,11046,32,32.0,15,0.050000000999999995
134,10298,2,15.2,40,0.0
1809,10945,31,12.5,10,0.0
717,10519,60,34.0,10,0.050000000999999995
507,10439,74,8.0,30,0.0
1293,10739,52,7.0,18,0.0
16,10253,49,16.0,40,0.0
833,10558,52,7.0,30,0.0
2002,11023,43,46.0,30,0.0
1818,10949,10,31.0,30,0.0
2068,11052,61,28.5,10,0.200000003
702,10515,16,17.45,50,0.0
353,10382,18,50.0,9,0.0
1773,10930,58,13.25,30,0.200000003
774,10538,70,15.0,7,0.0
516,10443,11,16.8,6,0.200000003
211,10327,30,20.7,35,0.200000003
332,10372,60,27.2,70,0.25
1083,10659,31,12.5,20,0.050000000999999995
364,10385,68,10.0,8,0.200000003
28,10257,77,10.4,15,0.0
2035,11035,35,18.0,60,0.0
637,10488,59,44.0,30,0.0
1385,10774,66,17.0,50,0.0
266,10347,39,14.4,50,0.150000006
1597,10856,42,14.0,20,0.0
1724,10911,17,39.0,12,0.0
1365,10766,2,19.0,40,0.0
620,10481,60,27.2,40,0.0
360,10384,20,64.8,28,0.0
102,10286,35,14.4,100,0.0
1302,10743,46,12.0,28,0.050000000999999995
2025,11031,71,21.5,16,0.0
148,10303,65,16.8,30,0.10000000099999999
256,10343,68,10.0,4,0.050000000999999995
1763,10927,52,7.0,5,0.0
1305,10745,44,19.45,16,0.0
1233,10715,10,31.0,21,0.0
1129,10678,12,38.0,100,0.0
682,10508,39,18.0,10,0.0
864,10572,16,17.45,12,0.10000000099999999
1079,10658,21,10.0,60,0.0
706,10516,18,62.5,25,0.10000000099999999
1166,10692,63,43.9,20,0.0
1770,10930,21,10.0,36,0.0
414,10403,16,13.9,21,0.150000006
318,10367,65,16.8,15,0.0
162,10308,70,12.0,5,0.0
396,10396,72,27.8,21,0.0
50,10265,70,12.0,20,0.0
1170,10693,73,15.0,15,0.150000006
935,10602,77,13.0,5,0.25
1985,11017,3,10.0,25,0.0
1840,10958,5,21.35,20,0.0
1478,10814,41,9.65,20,0.0
1971,11011,58,13.25,40,0.050000000999999995
807,10550,21,10.0,6,0.10000000099999999
1145,10684,47,9.5,40,0.0
2105,11066,34,14.0,35,0.0
524,10446,19,7.3,12,0.10000000099999999
387,10393,26,24.9,70,0.25
1266,10728,30,25.89,15,0.0
1718,10909,16,17.45,15,0.0
520,10444,35,14.4,8,0.0
788,10542,11,21.0,15,0.050000000999999995
1946,11001,55,24.0,6,0.0
1893,10981,38,263.5,60,0.0
1228,10714,2,19.0,30,0.25
1637,10871,17,39.0,16,0.050000000999999995
503,10438,57,15.6,15,0.200000003
2040,11037,70,15.0,4,0.0
2154,11077,77,13.0,2,0.0
579,10465,40,14.7,20,0.0
108,10288,68,10.0,3,0.10000000099999999
223,10332,18,50.0,40,0.200000003
77,10277,62,39.4,12,0.0
1714,10907,75,7.75,14,0.0
519,10444,26,24.9,15,0.0
623,10483,77,10.4,30,0.050000000999999995
1150,10686,17,39.0,30,0.200000003
2090,11061,60,34.0,15,0.0
558,10458,43,36.8,20,0.0
961,10612,36,19.0,55,0.0
893,10582,57,19.5,4,0.0
2116,11071,13,6.0,10,0.050000000999999995
2063,11049,2,19.0,10,0.200000003
920,10595,61,28.5,120,0.25
762,10535,40,18.4,10,0.10000000099999999
348,10380,53,26.2,20,0.10000000099999999
1300,10742,60,34.0,50,0.0
641,10490,59,44.0,60,0.0
1779,10932,75,7.75,20,0.10000000099999999
1722,10910,61,28.5,5,0.0
1294,10740,28,45.6,5,0.200000003
1924,10993,29,123.79,50,0.25
1333,10754,40,18.4,3,0.0
573,10464,4,17.6,16,0.200000003
1747,10921,63,43.9,40,0.0
1208,10706,59,55.0,8,0.0
1416,10789,18,62.5,30,0.0
2139,11077,14,23.25,1,0.029999999
956,10610,36,19.0,21,0.25
351,10381,74,8.0,14,0.0
1784,10935,18,62.5,4,0.25
404,10399,77,10.4,14,0.0
1826,10952,28,45.6,2,0.0
1551,10841,10,31.0,16,0.0
1024,10636,4,22.0,25,0.0
1201,10704,4,22.0,6,0.0
147,10303,40,14.7,40,0.10000000099999999
445,10415,33,2.0,20,0.0
1520,10831,19,9.2,2,0.0
1236,10716,51,53.0,7,0.0
529,10447,65,16.8,35,0.0
1559,10843,51,53.0,4,0.25
245,10339,62,39.4,28,0.0
1454,10803,59,55.0,15,0.050000000999999995
809,10551,16,17.45,40,0.150000006
1253,10722,68,12.5,45,0.0
1753,10924,10,31.0,20,0.10000000099999999
782,10540,38,263.5,30,0.0
39,10261,35,14.4,20,0.0
740,10527,4,22.0,50,0.10000000099999999
568,10461,55,19.2,60,0.25
1031,10638,72,34.8,60,0.0
1318,10748,56,38.0,28,0.0
1378,10771,71,21.5,16,0.0
166,10309,43,36.8,20,0.0
595,10471,56,30.4,20,0.0
9,10251,57,15.6,15,0.050000000999999995
1657,10880,61,28.5,30,0.200000003
393,10395,69,28.8,8,0.0
388,10393,31,10.0,32,0.0
1566,10846,4,22.0,21,0.0
438,10412,14,18.6,20,0.10000000099999999
674,10504,53,32.8,10,0.0
990,10623,19,9.2,15,0.10000000099999999
124,10294,17,31.2,15,0.0
1422,10791,29,123.79,14,0.050000000999999995
799,10547,36,19.0,60,0.0
1535,10836,22,21.0,52,0.0
394,10396,23,7.2,40,0.0
1819,10949,17,39.0,6,0.0
461,10420,70,12.0,8,0.10000000099999999
333,10372,72,27.8,42,0.25
1532,10834,30,25.89,20,0.050000000999999995
1230,10714,47,9.5,50,0.25
168,10310,16,13.9,10,0.0
876,10575,63,43.9,6,0.0
176,10313,36,15.2,12,0.0
896,10583,60,34.0,24,0.150000006
608,10476,70,12.0,12,0.0
1466,10809,52,7.0,20,0.0
1135,10680,31,12.5,20,0.25
1533,10835,59,55.0,15,0.0
1087,10661,39,18.0,3,0.200000003
1005,10628,1,18.0,25,0.0
1285,10735,61,28.5,20,0.10000000099999999
523,10445,54,5.9,15,0.0
859,10569,76,18.0,30,0.0
668,10502,53,32.8,6,0.0
862,10571,14,23.25,11,0.150000006
46,10263,74,8.0,36,0.25
1953,11003,52,7.0,10,0.0
962,10612,49,20.0,18,0.0
114,10290,77,10.4,10,0.0
317,10367,54,5.9,18,0.0
1249,10720,71,21.5,8,0.0
1655,10879,76,18.0,10,0.0
741,10527,36,19.0,30,0.10000000099999999
146,10302,43,36.8,12,0.0
1239,10717,54,7.45,15,0.0
235,10336,4,17.6,18,0.10000000099999999
1449,10802,51,53.0,30,0.25
835,10558,73,15.0,3,0.0
426,10407,69,28.8,15,0.0
475,10426,56,30.4,5,0.0
2026,11032,36,19.0,35,0.0
141,10300,68,10.0,20,0.0
515,10442,66,13.6,60,0.0
389,10394,13,4.8,10,0.0
1250,10721,44,19.45,50,0.050000000999999995
1912,10988,62,49.3,40,0.10000000099999999
173,10312,43,36.8,24,0.0
752,10531,59,55.0,2,0.0
1975,11012,71,21.5,60,0.050000000999999995
628,10485,3,8.0,20,0.10000000099999999
407,10400,49,16.0,30,0.0
868,10573,17,39.0,18,0.0
36,10260,62,39.4,15,0.25
1919,10990,61,28.5,66,0.150000006
1179,10697,19,9.2,7,0.25
1601,10858,7,30.0,5,0.0
597,10472,51,42.4,18,0.0
1200,10703,73,15.0,35,0.0
2145,11077,41,9.65,3,0.0
361,10384,60,27.2,15,0.0
1379,10772,29,123.79,18,0.0
786,10541,65,21.05,36,0.10000000099999999
1227,10713,46,12.0,24,0.0
98,10284,67,11.2,5,0.25
2089,11060,77,13.0,10,0.0
1004,10627,73,15.0,35,0.150000006
1508,10827,10,31.0,15,0.0
1316,10748,23,9.0,44,0.0
1514,10829,13,6.0,10,0.0
1155,10688,10,31.0,18,0.10000000099999999
279,10352,54,5.9,20,0.150000006
295,10359,16,13.9,56,0.050000000999999995
234,10335,51,42.4,48,0.200000003
1148,10685,41,9.65,4,0.0
1696,10896,45,9.5,15,0.0
1417,10789,35,18.0,15,0.0
1411,10786,75,7.75,42,0.200000003
733,10524,43,46.0,60,0.0
1263,10727,17,39.0,20,0.050000000999999995
434,10410,59,44.0,16,0.0
2072,11054,33,2.5,10,0.0
1203,10704,48,12.75,24,0.0
487,10431,47,7.6,30,0.25
54,10267,76,14.4,15,0.150000006
890,10580,41,9.65,9,0.050000000999999995
390,10394,62,39.4,10,0.0
325,10369,56,30.4,18,0.25
2118,11072,41,9.65,40,0.0
1467,10810,13,6.0,7,0.0
1063,10652,42,14.0,20,0.0
1219,10711,19,9.2,12,0.0
1932,10997,52,7.0,20,0.25
902,10587,35,18.0,20,0.0
551,10455,61,22.8,25,0.0
1389,10776,42,14.0,12,0.050000000999999995
596,10472,24,3.6,80,0.050000000999999995
67,10273,33,2.0,20,0.0
2125,11075,46,12.0,30,0.150000006
1689,10894,13,6.0,28,0.050000000999999995
2048,11040,21,10.0,20,0.0
823,10555,14,23.25,30,0.200000003
1035,10641,2,19.0,50,0.0
446,10416,19,7.3,20,0.0
462,10420,73,12.0,20,0.10000000099999999
6,10250,51,42.4,35,0.150000006
2114,11070,31,12.5,20,0.0
1283,10734,30,25.89,15,0.0
2091,11062,53,32.8,10,0.200000003
288,10356,69,28.8,20,0.0
1959,11006,29,123.79,2,0.25
857,10568,10,31.0,5,0.0
979,10619,21,10.0,42,0.0
1366,10766,7,30.0,35,0.0
229,10334,52,5.6,8,0.0
1645,10875,19,9.2,25,0.0
1042,10644,18,62.5,4,0.10000000099999999
1405,10784,39,18.0,2,0.150000006
416,10404,26,24.9,30,0.050000000999999995
511,10440,61,22.8,90,0.150000006
1085,10659,70,15.0,40,0.050000000999999995
1046,10645,36,19.0,15,0.0
1616,10863,1,18.0,20,0.150000006
1872,10973,41,9.65,6,0.0
1069,10655,41,9.65,20,0.200000003
1845,10960,41,9.65,24,0.0
1044,10644,46,12.0,21,0.10000000099999999
1995,11021,20,81.0,15,0.0
863,10571,42,14.0,28,0.150000006
638,10488,73,12.0,20,0.200000003
1118,10673,42,14.0,6,0.0
75,10276,13,4.8,10,0.0
1330,10752,69,36.0,3,0.0
1636,10871,16,17.45,12,0.050000000999999995
1102,10667,71,21.5,14,0.200000003
1444,10800,51,53.0,10,0.10000000099999999
734,10524,54,7.45,15,0.0
12,10252,33,2.0,25,0.050000000999999995
2056,11045,51,53.0,24,0.0
1100,10666,65,21.05,10,0.0
368,10387,28,36.4,6,0.0
1107,10670,23,9.0,32,0.0
1697,10896,56,38.0,16,0.0
1721,10910,49,20.0,10,0.0
309,10363,75,6.2,12,0.0
802,10549,31,12.5,55,0.150000006
2107,11068,28,45.6,8,0.150000006
1335,10755,56,38.0,30,0.25
375,10389,55,19.2,15,0.0
52,10267,40,14.7,50,0.0
1573,10847,60,34.0,45,0.200000003
1851,10962,69,36.0,9,0.0
2032,11034,44,19.45,12,0.0
1841,10958,7,30.0,6,0.0
1964,11008,34,14.0,90,0.050000000999999995
2096,11064,17,39.0,77,0.10000000099999999
96,10284,44,15.5,21,0.0
889,10580,14,23.25,15,0.050000000999999995
1489,10818,32,32.0,20,0.0
1955,11004,76,18.0,6,0.0
840,10561,44,19.45,10,0.0
496,10436,46,9.6,5,0.0
1973,11012,19,9.2,50,0.050000000999999995
1191,10700,68,12.5,40,0.200000003
1943,11001,7,30.0,60,0.0
237,10337,26,24.9,24,0.0
2055,11045,33,2.5,15,0.0
2022,11031,13,6.0,80,0.0
811,10551,44,19.45,40,0.0
845,10563,52,7.0,70,0.0
772,10537,72,34.8,21,0.0
1257,10724,61,28.5,5,0.0
277,10351,65,16.8,10,0.050000000999999995
0,10248,11,14.0,12,0.0
712,10518,24,4.5,5,0.0
25,10256,77,10.4,12,0.0
64,10272,72,27.8,24,0.0
1321,10749,76,18.0,10,0.0
1232,10714,58,13.25,12,0.25
2000,11022,69,36.0,30,0.0
220,10330,26,24.9,50,0.150000006
1930,10997,32,32.0,50,0.0
2050,11041,63,43.9,30,0.0
1947,11002,13,6.0,56,0.0
815,10553,16,17.45,14,0.0
2149,11077,60,34.0,2,0.059999999000000005
1923,10992,72,34.8,2,0.0
1812,10946,77,13.0,40,0.0
905,10588,42,14.0,100,0.200000003
32,10259,21,8.0,10,0.0
1121,10675,14,23.25,30,0.0
574,10464,43,36.8,3,0.0
1362,10764,3,10.0,20,0.10000000099999999
665,10500,28,45.6,8,0.050000000999999995
1094,10664,56,38.0,12,0.150000006
2146,11077,46,12.0,3,0.02
442,10414,19,7.3,18,0.050000000999999995
1793,10939,2,19.0,10,0.150000006
1588,10852,62,49.3,50,0.0
757,10533,73,15.0,24,0.050000000999999995
379,10390,35,14.4,40,0.10000000099999999
615,10479,59,44.0,60,0.0
800,10548,34,14.0,10,0.25
1542,10837,47,9.5,40,0.25
1650,10877,16,17.45,30,0.25
1726,10912,11,21.0,40,0.25
270,10348,23,7.2,25,0.0
1952,11003,40,18.4,10,0.0
2033,11034,61,28.5,6,0.0
723,10522,1,18.0,40,0.200000003
952,10608,56,38.0,28,0.0
109,10289,3,8.0,30,0.0
1420,10790,7,30.0,3,0.150000006
856,10567,59,55.0,40,0.200000003
1485,10817,26,31.23,40,0.150000006
792,10544,28,45.6,7,0.0
1996,11021,26,31.23,63,0.0
1733,10915,33,2.5,30,0.0
556,10458,26,24.9,30,0.0
62,10272,20,64.8,6,0.0
934,10601,59,55.0,35,0.0
855,10567,51,53.0,3,0.0
1120,10674,23,9.0,5,0.0
1,10248,42,9.8,10,0.0
1806,10944,44,19.45,18,0.25
1859,10966,56,38.0,12,0.150000006
1034,10640,70,15.0,15,0.25
580,10465,45,7.6,30,0.10000000099999999
1229,10714,17,39.0,27,0.25
1680,10890,34,14.0,10,0.0
1000,10626,53,32.8,12,0.0
1738,10917,30,25.89,1,0.0
1458,10805,34,14.0,10,0.0
250,10341,59,44.0,9,0.150000006
988,10622,68,12.5,18,0.200000003
899,10585,47,9.5,15,0.0
1835,10956,47,9.5,14,0.0
1855,10964,38,263.5,5,0.0
399,10398,35,14.4,30,0.0
1435,10796,64,33.25,35,0.200000003
465,10421,53,26.2,15,0.150000006
221,10330,72,27.8,25,0.150000006
1795,10940,7,30.0,8,0.0
548,10454,46,9.6,10,0.200000003
1587,10852,17,39.0,6,0.0
711,10517,70,15.0,6,0.0
488,10432,26,24.9,10,0.0
1344,10757,62,49.3,30,0.0
271,10349,54,5.9,24,0.0
1173,10694,70,15.0,50,0.0
528,10447,19,7.3,40,0.0
44,10263,24,3.6,28,0.0
883,10577,75,7.75,20,0.0
1468,10810,25,14.0,5,0.0
1998,11021,72,34.8,35,0.0
2001,11023,7,30.0,4,0.0
1582,10851,2,19.0,5,0.050000000999999995
559,10458,56,30.4,15,0.0
464,10421,26,24.9,30,0.0
2129,11076,19,9.2,10,0.25
1699,10897,30,25.89,36,0.0
1688,10893,36,19.0,20,0.0
126,10294,60,27.2,21,0.0
1207,10706,43,46.0,24,0.0
1799,10941,68,12.5,80,0.25
751,10530,76,18.0,50,0.0
4,10249,51,42.4,40,0.0
1193,10701,59,55.0,42,0.150000006
110,10289,64,26.6,9,0.0
1555,10842,11,21.0,15,0.0
459,10420,9,77.6,20,0.10000000099999999
1373,10769,41,9.65,30,0.050000000999999995
698,10514,56,38.0,70,0.0
2081,11057,70,15.0,3,0.0
816,10553,22,21.0,24,0.0
362,10385,7,24.0,10,0.200000003
161,10308,69,28.8,1,0.0
1671,10886,10,31.0,70,0.0
666,10501,54,7.45,20,0.0
1346,10758,26,31.23,20,0.0
1663,10883,24,4.5,8,0.0
1211,10707,70,15.0,28,0.150000006
1798,10941,62,49.3,30,0.25
2147,11077,52,7.0,2,0.0
365,10386,24,3.6,15,0.0
1788,10937,34,14.0,20,0.0
1884,10978,40,18.4,10,0.0
1685,10893,24,4.5,10,0.0
1404,10784,36,19.0,30,0.0
1271,10729,21,10.0,30,0.0
2073,11054,67,14.0,20,0.0
1397,10780,77,13.0,15,0.0
940,10605,16,17.45,30,0.050000000999999995
1429,10794,14,23.25,15,0.200000003
1407,10785,10,31.0,10,0.0
1213,10708,36,19.0,5,0.0
2144,11077,39,18.0,2,0.050000000999999995
1054,10648,24,4.5,15,0.150000006
1347,10758,52,7.0,60,0.0
1706,10902,62,49.3,6,0.150000006
1072,10656,47,9.5,6,0.10000000099999999
27,10257,39,14.4,6,0.0
521,10444,41,7.7,30,0.0
1076,10657,47,9.5,10,0.0
1771,10930,27,43.9,25,0.0
99,10285,1,14.4,45,0.200000003
1958,11006,1,18.0,8,0.0
543,10452,44,15.5,100,0.050000000999999995
2093,11063,34,14.0,30,0.0
202,10325,13,4.8,12,0.0
1804,10943,46,12.0,15,0.0
534,10449,52,5.6,20,0.0
1296,10740,45,9.5,40,0.200000003
771,10537,58,13.25,20,0.0
1877,10976,28,45.6,20,0.0
1518,10830,60,34.0,30,0.0
1916,10990,21,10.0,65,0.0
1727,10912,29,123.79,60,0.25
939,10604,76,18.0,10,0.10000000099999999
1275,10730,65,21.05,10,0.050000000999999995
1306,10745,59,55.0,45,0.0
1679,10890,17,39.0,15,0.0
660,10498,40,18.4,5,0.0
759,10534,40,18.4,10,0.200000003
836,10559,41,9.65,12,0.050000000999999995
371,10388,45,7.6,15,0.200000003
1690,10894,69,36.0,50,0.050000000999999995
136,10298,59,44.0,30,0.25
1807,10944,56,38.0,18,0.0
1568,10846,74,10.0,20,0.0
779,10539,49,20.0,6,0.0
1111,10670,75,7.75,25,0.0
1313,10747,41,9.65,35,0.0
2,10248,72,34.8,5,0.0
887,10579,15,15.5,10,0.0
123,10294,1,14.4,18,0.0
832,10558,51,53.0,20,0.0
1554,10841,77,13.0,15,0.0
1575,10848,5,21.35,30,0.0
1836,10956,51,53.0,8,0.0
1541,10837,40,18.4,25,0.0
1602,10858,27,43.9,10,0.0
1326,10751,30,25.89,30,0.0
167,10309,71,17.2,3,0.0
849,10565,24,4.5,25,0.10000000099999999
994,10624,28,45.6,10,0.0
1409,10786,8,40.0,30,0.200000003
1496,10822,62,49.3,3,0.0
267,10347,40,14.7,4,0.0
1777,10932,62,49.3,14,0.10000000099999999
133,10297,72,27.8,20,0.0
1013,10633,12,38.0,36,0.150000006
1530,10833,53,32.8,9,0.10000000099999999
2083,11058,60,34.0,21,0.0
2046,11039,49,20.0,60,0.0
501,10438,19,7.3,15,0.200000003
398,10397,51,42.4,18,0.150000006
2039,11036,59,55.0,30,0.0
651,10494,56,30.4,30,0.0
599,10473,71,17.2,12,0.0
255,10343,64,26.6,50,0.0
17,10254,24,3.6,15,0.150000006
561,10459,7,24.0,16,0.050000000999999995
1782,10934,6,25.0,20,0.0
1254,10722,75,7.75,42,0.0
1950,11002,55,24.0,40,0.0
1182,10697,70,15.0,30,0.25
1345,10757,64,33.25,24,0.0
676,10505,62,49.3,3,0.0
179,10314,62,39.4,25,0.10000000099999999
400,10398,55,19.2,120,0.10000000099999999
429,10408,54,5.9,6,0.0
120,10293,24,3.6,10,0.0
1050,10646,77,13.0,35,0.25
1984,11016,36,19.0,16,0.0
963,10612,60,34.0,40,0.0
1609,10861,17,39.0,42,0.0
401,10399,68,10.0,60,0.0
1492,10819,75,7.75,20,0.0
1415,10788,75,7.75,40,0.050000000999999995
344,10379,41,7.7,8,0.10000000099999999
282,10354,1,14.4,12,0.0
1741,10918,60,34.0,25,0.25
199,10324,59,44.0,40,0.150000006
689,10512,24,4.5,10,0.150000006
2069,11053,18,62.5,35,0.200000003
1204,10705,31,12.5,20,0.0
1903,10985,32,32.0,35,0.10000000099999999
382,10391,13,4.8,18,0.0
68,10273,40,14.7,60,0.050000000999999995
1682,10891,30,25.89,15,0.050000000999999995
540,10451,65,16.8,28,0.10000000099999999
1683,10892,59,55.0,40,0.050000000999999995
1556,10842,43,46.0,5,0.0
537,10450,54,5.9,6,0.200000003
1091,10663,42,14.0,30,0.050000000999999995
1517,10830,39,18.0,28,0.0
1882,10978,8,40.0,20,0.150000006
191,10321,35,14.4,10,0.0
973,10616,70,15.0,15,0.050000000999999995
458,10419,69,28.8,20,0.050000000999999995
137,10298,62,39.4,15,0.0
980,10619,22,21.0,40,0.0
86,10281,19,7.3,1,0.0
605,10475,66,13.6,60,0.150000006
1125,10676,19,9.2,7,0.0
1907,10986,77,13.0,15,0.0
1430,10794,54,7.45,6,0.200000003
273,10350,69,28.8,18,0.10000000099999999
958,10611,2,19.0,10,0.0
1006,10629,29,123.79,20,0.0
2122,11073,24,4.5,20,0.0
941,10605,59,55.0,20,0.050000000999999995
739,10526,56,38.0,30,0.150000006
808,10550,61,28.5,10,0.10000000099999999
614,10479,53,26.2,28,0.0
1314,10747,63,43.9,9,0.0
1433,10796,26,31.23,21,0.200000003
1132,10678,54,7.45,30,0.0
806,10550,19,9.2,10,0.0
913,10592,26,31.23,5,0.050000000999999995
1752,10923,67,14.0,24,0.200000003
1123,10675,58,13.25,30,0.0
222,10331,54,5.9,15,0.0
853,10566,76,18.0,10,0.0
1560,10844,22,21.0,35,0.0
497,10436,56,30.4,40,0.10000000099999999
347,10380,30,20.7,18,0.10000000099999999
1674,10887,25,14.0,5,0.0
693,10513,21,10.0,40,0.200000003
1980,11014,41,9.65,28,0.10000000099999999
1319,10749,56,38.0,15,0.0
132,10297,39,14.4,60,0.0
1325,10751,26,31.23,12,0.10000000099999999
51,10266,12,30.4,12,0.050000000999999995
1572,10847,45,9.5,36,0.200000003
1475,10812,77,13.0,20,0.0
320,10368,21,8.0,5,0.10000000099999999
1957,11005,59,55.0,10,0.0
1794,10939,67,14.0,40,0.150000006
1716,10908,52,7.0,14,0.050000000999999995
369,10387,59,44.0,12,0.0
2064,11049,12,38.0,4,0.200000003
2101,11065,30,25.89,4,0.25
2128,11076,14,23.25,20,0.25
874,10574,64,33.25,6,0.0
1778,10932,72,34.8,16,0.0
1410,10786,30,25.89,15,0.200000003
1451,10802,62,49.3,5,0.25
1513,10829,8,40.0,20,0.0
45,10263,30,20.7,60,0.25
340,10376,31,10.0,42,0.050000000999999995
194,10323,25,11.2,4,0.0
535,10449,62,39.4,35,0.0
572,10463,42,11.2,50,0.0
2103,11066,16,17.45,3,0.0
2066,11051,24,4.5,10,0.200000003
1443,10800,11,21.0,50,0.10000000099999999
1889,10979,27,43.9,30,0.0
1525,10832,25,14.0,10,0.200000003
972,10616,56,38.0,14,0.0
1116,10672,71,21.5,12,0.0
1073,10657,15,15.5,50,0.0
1797,10941,31,12.5,44,0.25
1539,10836,64,33.25,30,0.0
1167,10693,9,97.0,6,0.0
1130,10678,33,2.5,30,0.0
616,10479,64,26.6,30,0.0
1442,10799,59,55.0,25,0.0
2016,11029,63,43.9,12,0.0
1231,10714,56,38.0,18,0.25
1701,10899,39,18.0,8,0.150000006
987,10622,2,19.0,20,0.0
1459,10805,38,263.5,10,0.0
1021,10635,4,22.0,10,0.10000000099999999
2024,11031,64,33.25,20,0.0
218,10329,38,210.8,20,0.050000000999999995
2010,11026,51,53.0,10,0.0
1834,10956,21,10.0,12,0.0
35,10260,57,15.6,50,0.0
274,10351,38,210.8,20,0.050000000999999995
1931,10997,46,12.0,20,0.25
502,10438,34,11.2,20,0.200000003
1658,10880,70,15.0,50,0.200000003
1457,10804,49,20.0,4,0.150000006
238,10337,36,15.2,20,0.0
1222,10712,53,32.8,3,0.050000000999999995
1660,10882,42,14.0,25,0.0
700,10514,75,7.75,50,0.0
157,10306,53,26.2,10,0.0
1935,10998,74,10.0,20,0.0
350,10380,70,12.0,30,0.0
1547,10839,58,13.25,30,0.10000000099999999
385,10393,14,18.6,42,0.25
42,10262,56,30.4,2,0.0
415,10403,48,10.2,70,0.150000006
349,10380,60,27.2,6,0.10000000099999999
957,10611,1,18.0,6,0.0
422,10406,28,36.4,42,0.10000000099999999
456,10418,74,8.0,15,0.0
2049,11041,2,19.0,30,0.200000003
47,10264,2,15.2,35,0.0
728,10523,20,81.0,15,0.10000000099999999
530,10447,71,17.2,2,0.0
746,10529,68,12.5,20,0.0
391,10395,46,9.6,28,0.10000000099999999
1310,10746,62,49.3,9,0.0
870,10573,53,32.8,25,0.0
2018,11030,5,21.35,70,0.0
448,10416,57,15.6,20,0.0
23,10255,59,44.0,30,0.0
29,10258,2,15.2,50,0.200000003
1954,11004,26,31.23,6,0.0
719,10520,53,32.8,5,0.0
263,10346,17,31.2,36,0.10000000099999999
1352,10760,43,46.0,30,0.25
1649,10876,64,33.25,20,0.0
1447,10801,29,123.79,20,0.25
1289,10737,13,6.0,4,0.0
1615,10862,52,7.0,8,0.0
1608,10860,76,18.0,20,0.0
2113,11070,16,17.45,30,0.150000006
1552,10841,56,38.0,30,0.0
2115,11071,7,30.0,15,0.050000000999999995
2140,11077,16,17.45,2,0.029999999
1569,10847,1,18.0,80,0.200000003
1175,10695,12,38.0,4,0.0
1969,11010,7,30.0,20,0.0
1857,10965,51,53.0,16,0.0
846,10564,17,39.0,16,0.050000000999999995
395,10396,71,17.2,60,0.0
981,10620,24,4.5,5,0.0
1264,10727,56,38.0,10,0.050000000999999995
1829,10954,16,17.45,28,0.150000006
424,10406,40,14.7,2,0.10000000099999999
299,10360,29,99.0,35,0.0
1632,10869,68,12.5,20,0.0
1119,10673,43,46.0,6,0.0
291,10357,60,27.2,8,0.200000003
1413,10787,29,123.79,20,0.050000000999999995
569,10462,13,4.8,1,0.0
522,10445,39,14.4,6,0.0
1705,10902,55,24.0,30,0.150000006
500,10437,53,26.2,15,0.0
1511,10828,38,263.5,2,0.0
170,10311,42,11.2,6,0.0
140,10300,66,13.6,30,0.0
100,10285,40,14.7,40,0.200000003
1269,10728,60,34.0,15,0.0
1025,10636,58,13.25,6,0.0
880,10576,31,12.5,20,0.0
253,10342,36,15.2,40,0.200000003
1861,10967,19,9.2,12,0.0
453,10418,2,15.2,60,0.0
1110,10670,73,15.0,50,0.0
1497,10822,70,15.0,6,0.0
1631,10869,23,9.0,50,0.0
1904,10986,11,21.0,30,0.0
380,10390,46,9.6,45,0.0
1149,10685,47,9.5,15,0.0
292,10358,24,3.6,10,0.050000000999999995
1745,10920,50,16.25,24,0.0
1896,10983,13,6.0,84,0.150000006
40,10262,5,17.0,12,0.200000003
619,10481,49,16.0,24,0.0
992,10623,24,4.5,3,0.0
930,10599,62,49.3,10,0.0
1940,11000,4,22.0,25,0.25
1843,10959,75,7.75,20,0.150000006
2108,11068,43,46.0,36,0.150000006
284,10355,24,3.6,25,0.0
612,10478,10,24.8,20,0.050000000999999995
467,10422,26,24.9,2,0.0
1380,10772,59,55.0,25,0.0
2152,11077,73,15.0,2,0.01
460,10420,13,4.8,2,0.10000000099999999
346,10379,65,16.8,20,0.10000000099999999
625,10484,40,14.7,10,0.0
409,10401,56,30.4,70,0.0
1581,10850,70,15.0,30,0.150000006
2029,11033,53,32.8,70,0.10000000099999999
1878,10977,39,18.0,30,0.0
1479,10814,43,46.0,20,0.150000006
2031,11034,21,10.0,15,0.10000000099999999
1406,10784,72,34.8,30,0.150000006
1019,10634,51,53.0,15,0.0
1961,11007,29,123.79,10,0.0
681,10508,13,6.0,10,0.0
715,10519,10,31.0,16,0.050000000999999995
581,10465,50,13.0,25,0.0
1902,10985,18,62.5,8,0.10000000099999999
1103,10668,31,12.5,8,0.10000000099999999
2133,11077,6,25.0,1,0.02
2077,11055,57,19.5,20,0.0
971,10616,38,263.5,15,0.050000000999999995
1941,11000,24,4.5,30,0.25
1469,10810,70,15.0,5,0.0
644,10491,44,15.5,15,0.150000006
645,10491,77,10.4,7,0.150000006
2112,11070,2,19.0,20,0.150000006
653,10495,41,7.7,20,0.0
1015,10633,26,31.23,35,0.150000006
1734,10915,54,7.45,10,0.0
1647,10875,49,20.0,15,0.0
663,10499,49,20.0,25,0.0
1618,10864,35,18.0,4,0.0
61,10271,33,2.0,24,0.0
2148,11077,55,24.0,2,0.0
1886,10979,7,30.0,18,0.0
1831,10954,45,9.5,30,0.0
604,10475,31,10.0,35,0.150000006
1965,11008,71,21.5,21,0.0
2123,11074,16,17.45,14,0.050000000999999995
83,10280,24,3.6,12,0.0
1036,10641,40,18.4,60,0.0
669,10502,67,14.0,30,0.0
993,10623,35,18.0,30,0.10000000099999999
1925,10993,41,9.65,35,0.25
1023,10635,22,21.0,40,0.0
2120,11072,64,33.25,130,0.0
656,10497,56,30.4,14,0.0
927,10597,65,21.05,12,0.200000003
1424,10792,2,19.0,10,0.0
2027,11032,38,263.5,25,0.0
1074,10657,41,9.65,24,0.0
1713,10906,61,28.5,15,0.0
296,10359,31,10.0,70,0.050000000999999995
236,10337,23,7.2,40,0.0
640,10489,16,13.9,18,0.0
24,10256,53,26.2,15,0.0
2006,11024,71,21.5,50,0.0
1077,10657,56,38.0,45,0.0
798,10547,32,32.0,24,0.150000006
1512,10829,2,19.0,10,0.0
450,10417,46,9.6,2,0.25
810,10551,35,18.0,20,0.150000006
1003,10627,62,49.3,15,0.0
1591,10854,13,6.0,65,0.150000006
492,10434,76,14.4,18,0.150000006
710,10517,59,55.0,4,0.0
1500,10823,59,55.0,40,0.10000000099999999
1731,10914,71,21.5,25,0.0
1384,10774,31,12.5,2,0.25
671,10503,65,21.05,20,0.0
1767,10929,21,10.0,60,0.0
72,10275,24,3.6,12,0.050000000999999995
1448,10802,30,25.89,25,0.25
1675,10888,2,19.0,20,0.0
119,10293,18,50.0,12,0.0
705,10515,60,34.0,84,0.150000006
257,10343,76,14.4,15,0.0
184,10317,1,14.4,20,0.0
829,10557,64,33.25,30,0.0
444,10415,17,31.2,2,0.0
654,10495,77,10.4,5,0.0
954,10609,10,31.0,10,0.0
1071,10656,44,19.45,28,0.10000000099999999
305,10362,25,11.2,50,0.0
357,10383,13,4.8,20,0.0
412,10402,23,7.2,60,0.0
417,10404,42,11.2,40,0.050000000999999995
687,10511,7,30.0,50,0.150000006
1664,10884,21,10.0,40,0.050000000999999995
1659,10881,73,15.0,10,0.0
1168,10693,54,7.45,60,0.150000006
111,10290,5,17.0,20,0.0
1383,10773,75,7.75,7,0.200000003
1112,10671,16,17.45,10,0.0
1687,10893,30,25.89,35,0.0
1258,10725,41,9.65,12,0.0
1583,10851,25,14.0,10,0.050000000999999995
101,10285,53,26.2,36,0.200000003
531,10448,26,24.9,6,0.0
1595,10855,65,21.05,15,0.150000006
33,10259,37,20.8,1,0.0
231,10335,2,15.2,7,0.200000003
310,10363,76,14.4,12,0.0
1049,10646,71,21.5,30,0.25
2005,11024,65,21.05,21,0.0
694,10513,32,32.0,50,0.200000003
1801,10942,49,20.0,28,0.0
392,10395,53,26.2,70,0.10000000099999999
1064,10653,16,17.45,30,0.10000000099999999
276,10351,44,15.5,77,0.050000000999999995
1484,10816,62,49.3,20,0.050000000999999995
57,10269,33,2.0,60,0.050000000999999995
907,10590,1,18.0,20,0.0
866,10572,40,18.4,50,0.0
232,10335,31,10.0,25,0.200000003
1710,10904,58,13.25,15,0.0
479,10429,50,13.0,40,0.0
562,10459,46,9.6,20,0.050000000999999995
259,10344,8,32.0,70,0.25
999,10625,60,34.0,10,0.0
1256,10724,10,31.0,16,0.0
747,10529,69,36.0,10,0.0
1349,10759,32,32.0,10,0.0
139,10299,70,12.0,20,0.0
1673,10886,77,13.0,40,0.0
1545,10838,18,62.5,25,0.25
768,10536,60,34.0,35,0.25
1196,10702,3,10.0,6,0.0
1218,10710,47,9.5,5,0.0
834,10558,53,32.8,18,0.0
165,10309,42,11.2,2,0.0
965,10613,13,6.0,8,0.10000000099999999
192,10322,52,5.6,20,0.0
34,10260,41,7.7,16,0.25
1828,10953,31,12.5,50,0.050000000999999995
2042,11038,52,7.0,2,0.0
960,10612,10,31.0,70,0.0
1790,10938,43,46.0,24,0.25
1544,10838,1,18.0,4,0.25
14,10253,31,10.0,20,0.0
790,10543,12,38.0,30,0.150000006
1917,10990,34,14.0,60,0.150000006
2065,11050,76,18.0,50,0.10000000099999999
326,10370,1,14.4,15,0.150000006
633,10486,74,8.0,16,0.0
1789,10938,13,6.0,20,0.25
1197,10702,76,18.0,15,0.0
1178,10696,46,12.0,18,0.0
1846,10961,52,7.0,6,0.050000000999999995
43,10263,16,13.9,60,0.25
1334,10755,47,9.5,30,0.25
363,10385,60,27.2,20,0.200000003
854,10567,31,12.5,60,0.200000003
1374,10769,52,7.0,15,0.050000000999999995
88,10281,35,14.4,4,0.0
841,10561,51,53.0,50,0.0
472,10424,68,10.0,30,0.200000003
509,10440,16,13.9,49,0.150000006
586,10468,30,20.7,8,0.0
2052,11042,61,28.5,4,0.0
1282,10734,6,25.0,30,0.0
1711,10904,62,49.3,35,0.0
1338,10756,18,62.5,21,0.200000003
1012,10632,33,2.5,20,0.050000000999999995
1516,10830,6,25.0,6,0.0
1762,10927,20,81.0,5,0.0
869,10573,34,14.0,40,0.0
549,10455,39,14.4,20,0.0
154,10305,29,99.0,25,0.10000000099999999
1360,10763,22,21.0,6,0.0
1775,10931,57,19.5,30,0.0
860,10570,11,21.0,15,0.050000000999999995
1190,10700,34,14.0,12,0.200000003
1043,10644,43,46.0,20,0.0
2138,11077,13,6.0,4,0.0
1698,10897,29,123.79,80,0.0
252,10342,31,10.0,56,0.200000003
1561,10845,23,9.0,70,0.10000000099999999
1439,10798,72,34.8,10,0.0
1401,10782,31,12.5,1,0.0
989,10623,14,23.25,21,0.0
2014,11028,59,55.0,24,0.0
1137,10681,19,9.2,30,0.10000000099999999
383,10392,69,28.8,50,0.0
1622,10866,2,19.0,21,0.25
1399,10781,56,38.0,20,0.200000003
374,10389,10,24.8,16,0.0
215,10328,68,10.0,10,0.0
1703,10901,41,9.65,30,0.0
1624,10866,30,25.89,40,0.25
2098,11064,53,32.8,25,0.10000000099999999
875,10575,59,55.0,12,0.0
652,10495,23,7.2,10,0.0
1165,10691,62,49.3,48,0.0
210,10327,11,16.8,50,0.200000003
1944,11001,22,21.0,25,0.0
145,10302,28,36.4,28,0.0
469,10423,59,44.0,20,0.0
1486,10817,38,263.5,30,0.0
443,10414,33,2.0,50,0.0
600,10474,14,18.6,12,0.0
334,10373,58,10.6,80,0.200000003
1483,10816,38,263.5,30,0.050000000999999995
1082,10658,77,13.0,70,0.050000000999999995
