,Age Group,Sex,Don't know/Refused/Missing,Normal Weight,Obese,Overweight,Underweight
0,Age 18 to 24,Female,569,3113,937,1177,313
1,Age 18 to 24,Male,143,3003,857,1642,191
2,Age 25 to 34,Female,1449,5099,3116,3053,296
3,Age 25 to 34,Male,243,3159,2414,3933,109
4,Age 35 to 44,Female,1364,6409,4548,4558,265
5,Age 35 to 44,Male,276,2684,3882,5395,78
6,Age 45 to 54,Female,1803,8617,7250,6649,388
7,Age 45 to 54,Male,332,3696,5618,7609,90
8,Age 55 to 64,Female,2774,10072,9414,9155,515
9,Age 55 to 64,Male,392,4551,6839,9220,138
10,Age 65 or older,Female,2812,17703,11501,15732,1293
11,Age 65 or older,Male,399,7660,6839,12328,266
