,TrackID
0,0
1,1
2,2
3,3
4,4
5,5
6,6
7,7
8,8
9,9
10,10
11,11
12,23
13,24
14,25
15,26
16,27
17,28
18,29
19,30
20,31
21,32
22,33
23,34
24,35
25,36
26,37
27,38
28,39
29,40
30,41
31,42
32,43
33,44
34,45
35,46
36,47
37,48
38,49
39,50
40,51
41,52
42,53
43,54
44,55
45,56
46,57
47,58
48,59
49,60
50,61
51,62
52,63
53,64
54,65
55,66
56,67
57,68
58,69
59,70
60,71
61,72
62,73
63,74
64,75
65,76
66,77
67,78
