,2012-12-05,0.17657143
3,2013-08-23,0.64685714
7,2014-03-25,0.027999999999999997
4,2013-09-17,0.7644286
34,2018-10-25,0.12
28,2017-08-15,0.057
32,2018-04-24,0.028999999999999998
29,2017-10-09,0.023
0,2013-01-08,0.29414287
27,2017-07-03,0.057999999999999996
16,2015-09-13,0.022000000000000002
25,2017-04-23,0.01
22,2016-09-18,0.063
24,2017-03-14,0.068
33,2018-06-07,0.048
26,2017-05-26,0.015
6,2014-02-26,0.063
11,2014-09-28,0.051
19,2016-04-28,0.031
2,2013-06-28,0.5292857
12,2015-03-21,0.019
1,2013-03-15,0.4117143
21,2016-07-24,0.026000000000000002
14,2015-06-16,0.018666668
10,2014-08-12,0.03
36,2019-02-15,0.053
8,2014-05-13,0.011000000000000001
23,2016-11-07,0.065500006
5,2013-10-26,0.882
15,2015-07-27,0.020333333000000002
17,2015-10-29,0.127
31,2018-03-15,0.01
9,2014-06-25,0.0205
13,2015-05-15,0.017
30,2018-02-11,0.11
20,2016-06-04,0.063
35,2018-12-19,0.054000000000000006
18,2016-03-05,0.024
