,company,title,location,summary,salary,href,rate,reviews,org_salary_period
0,3Q Digital,1,1,1,1,1,1,1,1
1,AAD Partners,2,2,2,2,2,2,2,2
2,AFI Environmental,1,1,1,1,1,1,1,1
3,"AIS, Inc",1,1,1,1,1,1,1,1
4,Activ8 Recruitment & Solutions,1,1,1,1,1,1,1,1
5,Adecco,2,2,2,2,2,2,2,2
6,"Advanced Biological Marketing, Inc.",2,2,2,2,2,2,2,2
7,Advanced Technology Solutions,1,1,1,1,1,1,1,1
8,AiCure,4,4,4,4,4,4,4,4
9,All-In Analytics,6,6,6,6,6,6,6,6
10,Altius Diagnostics Laboratory,1,1,1,1,1,1,1,1
11,American University,1,1,1,1,1,1,1,1
12,Apex Life Sciences,1,1,1,1,1,1,1,1
13,"Apex Staffing, Inc.",2,2,2,2,2,2,2,2
14,Auto Soss Inc.,1,1,1,1,1,1,1,1
15,Averity,17,17,17,17,17,17,17,17
16,Avlino,1,1,1,1,1,1,1,1
17,Axio Research LLC,65,65,65,65,65,65,65,65
18,BICP,1,1,1,1,1,1,1,1
19,BNSF,1,1,1,1,1,1,1,1
20,BNY Mellon,4,4,4,4,4,4,4,4
21,Barrington James,1,1,1,1,1,1,1,1
22,Basepair,2,2,2,2,2,2,2,2
23,BiSoft,1,1,1,1,1,1,1,1
24,Biotech Partners,1,1,1,1,1,1,1,1
25,Biz League inc,3,3,3,3,3,3,3,3
26,Biz2Credit Inc.,48,48,48,48,48,48,48,48
27,Brielle Technologies,2,2,2,2,2,2,2,2
28,Central Intelligence Agency,2,2,2,2,2,2,2,2
29,"City of Plano, Texas",1,1,1,1,1,1,1,1
30,City of Seattle,1,1,1,1,1,1,1,1
31,"Coastal Risk Consulting, LLC",2,2,2,2,2,2,2,2
32,Columbia University,1,1,1,1,1,1,1,1
33,"Computer Staff, Inc.",1,1,1,1,1,1,1,1
34,Crossover,1,1,1,1,1,1,1,1
35,CyberCoders,1,1,1,1,1,1,1,1
36,"DSoft Technology, Engineering and Analysis, Inc.",1,1,1,1,1,1,1,1
37,DataCamp,2,2,2,2,2,2,2,2
38,Dataspace,1,1,1,1,1,1,1,1
39,Defined Clarity,3,3,3,3,3,3,3,3
40,Delta Dallas,1,1,1,1,1,1,1,1
41,Dept of State Health Services,1,1,1,1,1,1,1,1
42,Direct Client,5,5,5,5,5,5,5,5
43,DiscoverOrg,1,1,1,1,1,1,1,1
44,"East River BioSolutions, Inc.",2,2,2,2,2,2,2,2
45,Encore Fire Protection,1,1,1,1,1,1,1,1
46,Enterprise Peak,5,5,5,5,5,5,5,5
47,Evio Labs,2,2,2,2,2,2,2,2
48,Florida International University,1,1,1,1,1,1,1,1
49,FlowCommand Inc.,13,13,13,13,13,13,13,13
50,Fortira Inc,2,2,2,2,2,2,2,2
51,Fusion Global Solutions,1,1,1,1,1,1,1,1
52,Gene Friend Way,1,1,1,1,1,1,1,1
53,"Global Channel Management, Inc.",1,1,1,1,1,1,1,1
54,Gradient.io,2,2,2,2,2,2,2,2
55,Hamlyn Williams,1,1,1,1,1,1,1,1
56,"Happy Faces Personnel Group, Inc.",1,1,1,1,1,1,1,1
57,Harnham,20,20,20,20,20,20,20,20
58,Health Research Incorporated,2,2,2,2,2,2,2,2
59,HireNetworks,1,1,1,1,1,1,1,1
60,Hirewell,1,1,1,1,1,1,1,1
61,HumanEdge,1,1,1,1,1,1,1,1
62,IDM People,1,1,1,1,1,1,1,1
63,Imbibe,45,45,45,45,45,45,45,45
64,Incedoinc,3,3,3,3,3,3,3,3
65,Insight Global,18,18,18,18,18,18,18,18
66,Interface Financial Group (IFG),2,2,2,2,2,2,2,2
67,Intertel,41,41,41,41,41,41,41,41
68,Invenia Resourcing,1,1,1,1,1,1,1,1
69,JDSAT,2,2,2,2,2,2,2,2
70,Jackson Lewis,1,1,1,1,1,1,1,1
71,Jobs for America's Graduates,1,1,1,1,1,1,1,1
72,Jobspring Partners,8,8,8,8,8,8,8,8
73,K&M Systems,1,1,1,1,1,1,1,1
74,Kaiser Tech Inc,2,2,2,2,2,2,2,2
75,Kasisto,1,1,1,1,1,1,1,1
76,Kids on 45th,1,1,1,1,1,1,1,1
77,King County,2,2,2,2,2,2,2,2
78,King County Housing Authority,64,64,64,64,64,64,64,64
79,LaGuardia Community College,1,1,1,1,1,1,1,1
80,Lease Advisors,66,66,66,66,66,66,66,66
81,"Lenmar Consulting, Inc.",1,1,1,1,1,1,1,1
82,Lennon Wright Associates,4,4,4,4,4,4,4,4
83,Liberty Mutual,2,2,2,2,2,2,2,2
84,MINDPORTS AI,2,2,2,2,2,2,2,2
85,Marccx Media,2,2,2,2,2,2,2,2
86,Mei Messaging,3,3,3,3,3,3,3,3
87,Mercury Data Science,2,2,2,2,2,2,2,2
88,MetroPlus Health Plan,1,1,1,1,1,1,1,1
89,Metropolitan Transportation Commission,2,2,2,2,2,2,2,2
90,Miami Dade College,1,1,1,1,1,1,1,1
91,Mobile Programming,1,1,1,1,1,1,1,1
92,Momentum Staffing Group,1,1,1,1,1,1,1,1
93,Muckleshoot Indian Tribe,3,3,3,3,3,3,3,3
94,Myntra Pvt Ltd,1,1,1,1,1,1,1,1
95,National Security Agency,3,3,3,3,3,3,3,3
96,Naval Air Warfare Center Training Systems Division,1,1,1,1,1,1,1,1
97,Net-Consultants,5,5,5,5,5,5,5,5
98,New York City ADMIN FOR CHILDREN'S SVCS,1,1,1,1,1,1,1,1
99,New York City BOARD OF CORRECTION,2,2,2,2,2,2,2,2
100,New York City DEPARTMENT OF SANITATION,1,1,1,1,1,1,1,1
101,New York City DEPARTMENT OF TRANSPORTATION,1,1,1,1,1,1,1,1
102,New York City DEPT OF CITYWIDE ADMIN SVCS,2,2,2,2,2,2,2,2
103,New York City DEPT OF DESIGN & CONSTRUCTION,1,1,1,1,1,1,1,1
104,New York City DEPT OF ENVIRONMENT PROTECTION,6,6,6,6,6,6,6,6
105,New York City DEPT OF HEALTH/MENTAL HYGIENE,19,19,19,19,19,19,19,19
106,New York City HRA/DEPT OF SOCIAL SERVICES,2,2,2,2,2,2,2,2
107,New York City HUMAN RIGHTS COMMISSION,2,2,2,2,2,2,2,2
108,New York City OFFICE OF MANAGEMENT & BUDGET,2,2,2,2,2,2,2,2
109,New York City POLICE DEPARTMENT,1,1,1,1,1,1,1,1
110,New York State Psychiatry Institute,2,2,2,2,2,2,2,2
111,North Orange County Community College District (NO...,1,1,1,1,1,1,1,1
112,Oakton Community College,1,1,1,1,1,1,1,1
113,Octane Lending,1,1,1,1,1,1,1,1
114,OfficeTeam,1,1,1,1,1,1,1,1
115,On-Board Companies,1,1,1,1,1,1,1,1
116,Oregon Health & Science University,2,2,2,2,2,2,2,2
117,PT Consultants Inc.,4,4,4,4,4,4,4,4
118,Patrick & Associates,1,1,1,1,1,1,1,1
119,Payette Group,1,1,1,1,1,1,1,1
120,Peritus INC.,1,1,1,1,1,1,1,1
121,Philip J. Boren Inc.,1,1,1,1,1,1,1,1
122,Piper Companies,1,1,1,1,1,1,1,1
123,Polymath Blockchain,1,1,1,1,1,1,1,1
124,Porcaro Stolarek Mete Partners LLC,2,2,2,2,2,2,2,2
125,"PreCyte, Inc.",1,1,1,1,1,1,1,1
126,Premier Client,1,1,1,1,1,1,1,1
127,ProFocus,1,1,1,1,1,1,1,1
128,Pure Search on behalf of an Investment Firm,4,4,4,4,4,4,4,4
129,QuantConnect,2,2,2,2,2,2,2,2
130,Quest Groups LLC,4,4,4,4,4,4,4,4
131,Radiant Recruiting Services,1,1,1,1,1,1,1,1
132,"Research Foundation for Mental Hygiene, Inc.",4,4,4,4,4,4,4,4
133,Research Foundation of SUNY,1,1,1,1,1,1,1,1
134,Research Foundation of The City University of New...,3,3,3,3,3,3,3,3
135,"RiGi Group, LLC",51,51,51,51,51,51,51,51
136,Riskpulse,2,2,2,2,2,2,2,2
137,Riverway Business Services,1,1,1,1,1,1,1,1
138,Roc,2,2,2,2,2,2,2,2
139,Rouse Services,1,1,1,1,1,1,1,1
140,"S.F.EXPRESS CO.,LTD.",1,1,1,1,1,1,1,1
141,SE2S,2,2,2,2,2,2,2,2
142,SFL Scientific,1,1,1,1,1,1,1,1
143,SSN Group,2,2,2,2,2,2,2,2
144,Saddle Butte Systems,1,1,1,1,1,1,1,1
145,Salish Sea Expeditions,1,1,1,1,1,1,1,1
146,Seattle Community Colleges,1,1,1,1,1,1,1,1
147,Senseye,1,1,1,1,1,1,1,1
148,ServerLogic,1,1,1,1,1,1,1,1
149,SmartHop,2,2,2,2,2,2,2,2
150,Smith Hanley Associates,2,2,2,2,2,2,2,2
151,Standard Homeopathic Company / Hyland's,1,1,1,1,1,1,1,1
152,State of Washington Dept. of Ecology,1,1,1,1,1,1,1,1
153,State of Washington Dept. of Fish and Wildlife,1,1,1,1,1,1,1,1
154,Strategic Employment Partners,3,3,3,3,3,3,3,3
155,StreetID,2,2,2,2,2,2,2,2
156,SyaRose Technology Services Inc.,1,1,1,1,1,1,1,1
157,Synchrony,1,1,1,1,1,1,1,1
158,Tagup Inc.,1,1,1,1,1,1,1,1
159,Tandem Recruiting Group,1,1,1,1,1,1,1,1
160,Tech talenta,1,1,1,1,1,1,1,1
161,TekHiring.com,1,1,1,1,1,1,1,1
162,"The Hagan-Ricci Group, Inc.",2,2,2,2,2,2,2,2
163,The Norland Group,1,1,1,1,1,1,1,1
164,The State of Florida,2,2,2,2,2,2,2,2
165,The University of Pittsburgh,1,1,1,1,1,1,1,1
166,Thinkful,124,124,124,124,124,124,124,124
167,Total Brain,1,1,1,1,1,1,1,1
168,Tsalach Corporate Finance,1,1,1,1,1,1,1,1
169,Twine,1,1,1,1,1,1,1,1
170,U.S. Federal Government,1,1,1,1,1,1,1,1
171,US Department of Defense,1,1,1,1,1,1,1,1
172,US Department of the Navy,1,1,1,1,1,1,1,1
173,USC,1,1,1,1,1,1,1,1
174,United States District Court,1,1,1,1,1,1,1,1
175,University of California - San Francisco,1,1,1,1,1,1,1,1
176,University of California Berkeley,2,2,2,2,2,2,2,2
177,University of Houston,3,3,3,3,3,3,3,3
178,University of Miami,5,5,5,5,5,5,5,5
179,University of Texas at Austin,4,4,4,4,4,4,4,4
180,University of Washington,11,11,11,11,11,11,11,11
181,User Research International,1,1,1,1,1,1,1,1
182,Veear Projects,2,2,2,2,2,2,2,2
183,VeraData,1,1,1,1,1,1,1,1
184,Workbridge Associates,24,24,24,24,24,24,24,24
185,Wyzoo,2,2,2,2,2,2,2,2
186,XOS,1,1,1,1,1,1,1,1
187,Zenabi,1,1,1,1,1,1,1,1
188,pymetrics,1,1,1,1,1,1,1,1
189,the Osborne Association,1,1,1,1,1,1,1,1
