,PRECINCT,ELIGIBLE_VOTERS,POLLS,EARLY_VOING,ABSENTEE,PROVISIONAL
0,001-000,612,408,39,19,3
1,001-001,27791,13648,5179,1247,462
2,001-002,13695,6576,2601,495,307
3,001-003,14068,6283,3236,512,258
4,001-004,12918,5424,3067,567,213
5,001-005,11399,5094,2285,317,194
6,001-006,9058,3938,1931,260,132
7,001-007,6237,3284,881,223,114
8,001-008,6015,2583,1239,200,60
9,001-009,4288,1906,934,134,76
10,001-010,4189,2067,908,201,56
11,001-011,3749,2076,666,121,48
12,001-012,6124,2584,1425,224,147
13,001-013,3960,1752,999,148,65
14,001-014,4533,1845,1199,269,106
15,001-015,4957,2197,966,189,68
16,001-016,4270,2004,439,423,71
17,001-017,5307,2050,1266,107,132
18,001-018,2717,1102,475,105,43
19,001-019,2207,833,632,77,60
20,001-020,2375,866,670,114,24
21,001-021,2073,835,459,56,41
22,001-022,4847,1729,1170,260,78
23,001-023,543,234,108,32,44
24,001-024,1370,615,320,55,17
25,001-025,1211,591,181,26,16
26,001-026,3337,1311,539,70,95
27,002-000,721,460,33,29,4
28,002-001,20077,9820,3978,648,308
29,002-002,14273,6318,3319,447,205
30,002-003,10637,4853,2024,426,200
31,002-004,12739,5385,3090,366,233
32,002-005,11192,4909,2888,465,193
33,002-006,10013,4383,2467,324,171
34,002-007,10541,4939,2326,379,217
35,002-008,11895,4902,3097,429,219
36,002-009,4301,1807,972,110,121
37,002-010,10486,4090,3007,386,173
38,002-011,7976,2986,1934,194,181
39,002-012,6131,1837,2136,159,229
40,002-013,8042,3141,2139,287,189
41,002-014,8493,3099,2417,236,149
42,002-015,10350,4047,3082,422,143
43,002-016,4998,2105,1115,175,133
44,002-017,7597,2763,1944,218,87
45,002-018,4803,2244,1065,186,111
46,002-019,3404,1582,488,104,78
47,002-020,2770,1260,650,65,64
48,002-021,3899,2011,714,163,31
49,002-022,2567,1256,333,58,19
50,002-023,3018,1390,642,109,56
51,002-024,4817,1801,1441,159,77
52,002-025,713,423,158,34,16
53,002-026,2133,883,658,97,36
54,002-027,2181,810,768,81,52
55,002-028,295,104,95,7,20
56,002-029,2747,947,904,114,71
57,002-030,438,144,175,20,9
58,002-031,2257,748,774,45,37
59,003-000,692,438,57,20,6
60,003-001,26125,11837,5722,766,373
61,003-002,12399,5555,2524,512,178
62,003-003,15653,6943,3327,608,295
63,003-004,7752,3834,1226,231,135
64,003-005,9572,4029,2285,510,142
65,003-006,13032,6152,2644,610,229
66,003-007,11397,5324,1810,544,122
67,003-008,8679,4348,1523,396,129
68,003-009,4539,2297,757,225,84
69,003-010,5578,2539,1213,404,62
70,003-011,5434,2566,1206,314,59
71,003-012,4425,2150,864,152,65
72,003-013,4574,2013,1074,335,60
73,003-014,3063,1431,382,147,21
74,003-015,1500,867,190,79,40
75,003-016,2128,1092,295,48,26
76,003-017,2016,1075,307,58,32
77,003-018,2522,1246,353,84,35
78,003-019,1935,1068,272,64,26
79,003-020,1628,944,211,36,33
80,003-021,2487,1211,401,42,37
81,003-022,1761,917,316,57,25
82,003-023,1657,909,257,46,25
83,003-024,2327,1269,253,80,45
84,003-025,1901,816,369,32,56
85,004-001,21492,10870,4122,779,239
86,004-002,14970,6506,3047,591,345
87,004-003,11809,5357,2724,581,147
88,004-004,7353,3313,1783,370,76
89,004-005,4666,2099,983,164,115
90,004-006,5538,2300,1286,213,126
91,004-007,6922,2559,1772,361,258
92,004-008,6775,2949,1555,303,88
93,004-009,4744,2327,996,232,107
94,004-010,2385,851,645,125,84
95,004-011,2251,970,470,86,28
96,004-012,6374,2391,1912,265,208
97,004-013,2409,1129,474,128,37
98,004-014,4911,1941,1117,215,95
99,004-015,2820,1449,476,133,58
100,004-016,1950,877,410,108,25
101,004-017,1987,965,217,52,51
102,004-018,1836,711,491,103,34
103,004-019,1924,770,556,70,54
104,004-020,1984,814,570,117,34
105,004-021,2932,1369,580,117,57
106,004-022,2042,1014,358,55,20
107,004-023,3287,1318,901,169,44
108,004-024,2225,923,559,90,46
109,004-025,316,158,13,7,2
110,004-026,666,234,212,24,11
111,005-001,21166,11240,2819,814,299
112,005-002,10553,5677,1805,470,178
113,005-003,9081,4821,1762,355,55
114,005-004,12542,7053,1660,558,161
115,005-005,8394,4382,1419,297,104
116,005-006,3356,1733,624,160,29
117,005-007,1708,731,468,91,14
118,005-008,2070,945,526,120,35
119,005-009,1255,608,322,72,13
120,005-010,1089,422,345,64,28
121,005-011,1860,877,462,90,19
122,005-012,1600,755,359,94,27
123,005-013,1880,971,379,120,32
124,005-014,1982,769,591,114,45
125,005-015,1072,553,215,64,15
126,005-016,1480,581,456,79,10
127,005-017,2172,1246,265,90,36
128,005-018,2045,1010,429,96,39
129,005-019,1712,741,433,133,33
130,005-020,1938,723,551,146,32
131,005-021,2661,1376,467,102,40
132,005-022,2150,1170,338,105,21
133,005-023,1395,553,413,80,22
134,005-024,1742,808,433,117,18
135,005-025,1887,775,524,90,7
136,005-026,3571,1598,685,141,56
137,005-027,1851,882,369,106,29
138,005-028,957,455,157,84,16
139,005-029,864,452,138,29,17
140,005-030,1079,459,232,36,4
141,005-031,659,229,183,49,4
142,005-032,654,290,183,25,5
143,005-033,1831,871,416,103,19
144,005-034,1171,576,292,42,8
145,005-035,183,81,44,5,1
146,006-001,21627,11328,3736,870,327
147,006-002,16358,8325,3270,593,175
148,006-003,5771,2444,1319,196,116
149,006-004,5238,2091,1368,186,184
150,006-005,8357,3352,2085,311,224
151,006-006,5772,2805,908,135,116
152,006-007,4479,1870,921,137,149
153,006-008,3699,1710,756,150,73
154,006-009,4188,1835,983,165,73
155,006-010,4720,1822,1445,200,89
156,006-011,3695,1380,995,199,61
157,006-012,3500,1473,810,137,91
158,006-013,4873,2018,1247,148,85
159,006-014,6122,2295,1817,208,136
160,006-015,3706,1626,818,147,83
161,006-016,2763,1240,547,87,65
162,006-017,3665,1502,874,188,46
163,006-018,5581,2105,1785,248,94
164,006-019,5145,1957,1460,359,71
165,006-020,2880,1119,868,182,43
166,006-021,2555,1120,688,100,31
167,006-022,4439,1799,1006,146,90
168,006-023,1662,820,382,82,38
169,006-024,1713,739,429,101,21
170,006-025,1675,878,326,126,15
171,006-026,2650,993,757,293,37
172,006-027,1062,560,174,60,6
173,006-028,1654,734,409,114,28
174,006-029,1097,588,216,76,29
175,006-030,1813,835,449,127,23
176,006-031,1513,670,318,126,22
177,006-032,1503,555,515,118,24
178,007-001,19104,9966,3059,718,332
179,007-002,22277,11042,3946,760,374
180,007-003,16558,7574,3331,551,252
181,007-004,15658,6707,3810,546,257
182,007-005,4523,1947,1117,149,66
183,007-006,7733,3405,2124,348,84
184,007-007,8504,4147,1803,315,87
185,007-008,3985,1886,922,146,37
186,007-009,3585,1443,661,112,41
187,007-010,2506,1174,605,97,49
188,007-011,824,314,257,48,6
189,007-012,1250,642,251,56,29
190,007-013,2221,1111,442,113,12
191,007-014,1554,856,219,70,21
192,007-015,2015,1027,410,125,18
193,007-016,2030,1084,347,92,30
194,007-017,1336,747,162,88,21
195,007-018,2146,1077,399,138,41
196,007-019,1439,534,463,61,41
197,007-020,1708,865,244,60,19
198,007-021,2454,1142,496,92,22
199,007-022,2388,835,871,128,25
200,007-023,2864,1045,904,177,25
201,007-024,2346,1166,412,156,22
202,007-025,2195,1084,427,92,29
203,007-026,2081,978,397,128,17
204,007-027,3061,1031,963,167,36
205,008-000,2093,1320,50,55,25
206,008-001,17075,9444,2841,630,185
207,008-002,9193,4471,1812,425,101
208,008-003,7707,3888,1167,244,137
209,008-004,6301,2857,1580,235,125
210,008-005,3074,1084,369,364,69
211,008-006,6115,2252,934,147,155
212,008-007,3947,1742,477,103,114
213,008-008,3142,1216,915,242,55
214,008-009,3117,1510,612,191,46
215,008-010,5254,2109,1099,238,97
216,008-011,2100,901,304,62,113
217,008-012,2387,1266,440,164,22
218,008-013,2587,1370,492,126,32
219,008-014,1477,738,299,107,13
220,008-015,1689,953,331,81,18
221,008-016,939,530,146,48,12
222,008-017,1962,1107,323,128,21
223,008-018,976,505,184,80,2
224,008-019,2463,1218,562,165,37
225,008-020,1420,743,271,66,22
226,008-021,605,248,185,43,5
227,008-022,1993,965,492,103,25
228,008-023,748,354,180,64,30
229,008-024,1159,551,255,100,13
230,008-025,1739,873,357,89,24
231,008-026,36,14,7,0,0
232,008-027,1476,544,490,96,21
233,008-028,427,222,91,19,1
234,009-000,830,532,28,21,16
235,009-001,15179,7943,2836,743,171
236,009-002,11823,6325,1992,520,149
237,009-003,5322,2369,1137,320,120
238,009-004,7395,3559,1617,412,137
239,009-005,6413,2877,1408,525,98
240,009-006,6109,2717,1312,284,96
241,009-007,8116,4345,1313,306,129
242,009-008,4349,2207,593,180,103
243,009-009,3456,1838,547,141,74
244,009-010,5967,2321,1059,459,111
245,009-011,2751,1076,511,194,74
246,009-012,3104,1346,541,115,107
247,009-013,2977,1432,650,158,57
248,009-014,3852,1799,648,133,89
249,009-015,4221,1784,709,148,134
250,009-016,1023,626,92,26,26
251,009-017,1296,699,143,36,33
252,009-018,2221,1173,266,38,33
253,009-019,2232,1114,335,59,46
254,009-020,3090,1179,484,56,78
255,009-021,3368,1668,473,97,31
256,009-022,3568,1710,521,98,71
257,009-023,2917,1409,500,106,56
258,009-024,3533,1650,681,136,40
259,009-025,2498,1250,474,66,55
260,009-026,1369,680,226,98,27
261,009-027,18,12,2,0,0
262,009-028,2076,766,424,74,77
263,009-029,442,159,54,37,764
264,010-000,1245,802,35,27,7
265,010-001,9147,4840,1332,348,160
266,010-002,2910,1427,434,100,95
267,010-003,2009,1017,274,95,65
268,010-004,2636,1393,385,109,109
269,010-005,339,213,32,23,15
270,010-006,14,9,3,1,6
271,010-007,678,284,157,45,3
272,011-000,845,541,51,40,19
273,011-001,8228,4701,1153,401,106
274,011-002,3252,1678,649,142,47
275,011-003,5664,2583,1309,225,80
276,011-004,2298,1002,625,81,133
277,011-005,3829,1480,1038,122,54
278,011-006,4304,1858,858,217,110
279,011-007,5359,2481,1237,212,57
280,011-008,2005,1017,390,65,23
281,011-009,2530,1246,511,75,47
282,011-010,2979,1163,819,92,42
283,011-011,3377,1427,916,102,51
284,011-012,3408,1385,991,88,37
285,011-013,1042,411,311,26,47
286,011-014,2673,1057,930,81,31
287,011-015,1975,1219,129,127,19
288,011-016,1720,740,318,39,43
289,011-017,3282,1486,839,83,34
290,011-018,644,299,177,22,7
291,011-019,2590,1018,777,47,46
292,011-020,81,29,22,2,0
293,011-021,662,314,130,15,10
294,011-022,3665,1288,1313,182,34
295,011-023,876,559,117,36,13
296,011-024,364,153,72,12,2
297,011-026,351,224,54,5,5
298,011-027,16,10,2,0,0
299,012-000,1998,1141,142,84,108
300,012-001,8642,4532,1164,392,113
301,012-002,3112,1402,364,92,67
302,012-003,3704,1764,502,74,80
303,012-004,5039,2230,681,116,90
304,012-005,3754,1832,473,100,53
305,012-006,3436,1593,391,71,108
306,012-007,4872,2224,666,82,106
307,012-008,3418,1692,483,134,112
308,012-009,2619,1088,371,81,62
309,012-010,3764,1529,625,76,123
310,012-011,4071,1655,598,62,159
311,012-012,3479,1567,590,89,63
312,012-013,1663,455,451,23,33
313,013-000,1456,897,57,37,16
314,013-001,14740,8387,1976,719,269
315,013-002,3082,1557,522,98,65
316,013-003,4983,2148,1132,146,89
317,013-004,3620,1704,853,98,75
318,013-005,3753,1668,757,116,58
319,013-006,1575,714,157,20,66
320,013-007,3306,1399,272,50,154
321,013-008,3382,1621,380,56,102
322,013-009,4881,2042,621,66,149
323,013-010,1447,536,267,57,39
324,013-011,1958,1020,249,91,36
325,013-012,1557,897,186,74,15
326,013-013,84,44,12,3,8
327,014-000,529,224,48,19,7
328,014-001,9950,5816,1525,341,116
329,014-002,10628,5340,2104,423,150
330,014-003,5414,2451,1135,144,106
331,014-004,2541,1065,374,67,133
332,014-005,1272,469,227,15,176
333,014-006,3224,1557,559,65,35
334,014-007,2413,1093,461,66,21
335,014-008,3376,1486,604,59,84
336,014-009,3435,1510,696,74,64
337,014-010,2304,1036,525,68,43
338,014-011,2408,959,550,62,30
339,014-012,1985,1097,268,50,35
340,014-013,2303,956,486,63,35
341,014-014,587,262,95,19,18
342,015-001,7293,3419,1275,183,104
343,015-002,6711,3196,1201,185,128
344,015-003,5568,2332,1158,133,148
345,015-004,4124,1448,908,88,127
346,015-005,6974,2608,1767,165,91
347,015-006,4060,1998,736,90,118
348,015-007,4259,1785,688,92,96
349,015-008,3282,1597,594,59,29
350,015-009,3704,1510,677,81,89
351,015-010,3874,1668,569,78,97
352,015-011,4112,1764,558,64,105
353,015-012,2169,1070,297,30,57
354,015-013,2378,1104,318,39,93
355,015-014,2190,951,304,32,53
356,015-015,3028,1253,308,95,36
357,015-016,3061,1260,367,54,39
358,015-017,4779,2041,697,57,220
359,015-018,5056,2173,639,71,114
360,015-019,3382,1506,850,81,68
361,015-020,6207,2526,798,151,127
362,015-021,4930,1930,845,128,48
363,015-022,4482,2196,533,46,76
364,015-023,5568,1898,747,71,171
365,015-024,2487,860,530,67,42
366,015-025,3360,1539,672,76,93
367,015-026,1881,980,418,54,16
368,016-000,1430,867,145,55,2
369,016-001,4339,2449,590,155,48
370,016-002,1225,419,147,13,16
371,016-003,818,280,93,3,78
372,016-004,532,184,53,13,5
373,016-005,1678,566,243,53,20
374,016-006,1553,557,261,35,40
375,016-007,1357,501,233,28,33
376,016-008,875,287,148,15,44
377,016-009,1425,575,158,19,65
378,016-010,928,317,121,18,41
379,016-011,654,263,82,10,52
380,016-012,1675,637,200,16,26
381,016-013,1644,503,356,31,79
382,016-014,2778,703,865,55,114
383,017-001,1794,1145,140,56,40
384,017-002,2462,905,323,75,61
385,018-000,1381,900,66,55,14
386,018-001,4349,2506,498,116,67
387,018-002,4031,2061,484,134,104
388,019-001,1191,495,138,17,100
389,019-002,1835,580,186,20,41
390,019-003,167,54,12,4,39
391,020-000,1285,807,109,27,19
392,020-001,1475,523,169,19,82
393,020-002,657,208,85,8,19
394,020-003,1794,462,295,35,23
395,020-004,230,107,21,3,18
396,020-005,997,348,153,17,47
397,020-006,2924,883,706,75,122
398,020-007,1958,590,446,42,52
399,020-008,594,177,107,11,17
400,020-009,600,231,43,16,40
401,020-010,435,129,19,21,10
402,020-011,1427,484,44,13,99
403,021-000,804,512,70,16,6
404,021-001,889,309,208,62,25
405,021-002,1475,632,252,87,30
406,021-003,1631,709,137,25,91
407,021-004,458,200,48,7,28
408,022-001,2426,1074,349,121,52
409,022-002,1575,832,216,94,28
410,023-000,1771,913,155,53,21
411,023-001,1376,671,119,59,46
412,023-002,956,454,77,30,49
413,023-003,2032,991,159,89,44
414,024-000,1245,725,82,71,13
415,024-001,717,401,67,54,23
416,024-002,865,464,80,51,23
417,024-003,1654,905,176,105,41
418,024-004,2425,1335,215,121,78
419,024-005,3059,1775,336,139,58
420,025-001,2612,934,690,50,81
421,025-002,1892,632,438,35,62
422,025-003,1589,752,112,90,59
423,025-004,2147,903,84,32,37
424,025-005,1905,797,156,25,49
425,025-006,939,399,67,15,39
426,025-007,507,203,19,2,26
427,025-008,2204,880,109,17,95
428,025-009,1087,493,58,19,36
429,025-010,1210,517,114,14,68
430,025-011,630,277,16,9,14
431,025-012,1212,510,35,16,12
432,025-013,738,277,13,6,44
433,025-014,992,371,27,5,58
434,025-015,995,389,28,19,49
435,025-016,1414,495,44,17,45
436,025-017,340,139,41,9,1
437,025-018,234,101,29,7,8
438,026-000,1778,1012,122,87,512
439,026-001,313,143,4,3,9
440,026-002,1543,541,105,16,35
441,026-003,1214,504,121,24,87
442,026-004,940,372,71,31,24
443,026-005,487,204,49,5,10
444,026-006,927,386,71,24,18
445,026-007,1107,456,156,31,35
446,026-008,1264,601,232,76,28
447,026-009,2752,1037,741,92,68
448,026-010,2000,694,350,46,59
449,026-011,902,272,125,18,13
450,026-012,554,213,33,6,30
451,026-013,805,349,36,9,14
452,026-014,715,313,33,6,13
453,026-015,1451,496,339,19,43
454,026-016,1222,368,327,15,150
455,026-017,415,193,46,8,29
456,026-018,1056,397,233,8,45
457,026-019,1318,535,211,21,63
458,026-020,705,263,104,6,31
459,026-021,873,346,133,16,80
460,026-022,686,250,146,12,6
461,026-023,1097,407,206,16,23
462,026-024,1957,600,487,36,70
463,026-025,1464,480,254,57,60
464,026-026,1583,523,356,26,32
465,026-027,1326,421,361,32,52
466,026-028,1097,283,350,19,10
467,026-029,3875,1139,1056,72,42
468,026-030,857,365,166,10,12
469,026-031,707,317,130,11,12
470,026-032,1677,647,335,19,13
471,026-033,1449,519,323,13,24
472,027-001,2022,727,493,40,70
473,027-002,569,343,106,21,8
474,027-003,595,243,158,24,13
475,027-004,589,258,80,16,8
476,027-005,2218,976,367,55,44
477,027-006,2790,1058,612,50,43
478,027-007,1172,432,225,49,10
479,027-008,2299,970,395,62,49
480,027-009,1313,637,196,17,31
481,027-010,692,382,40,23,20
482,027-011,2279,1167,276,61,47
483,027-012,541,271,73,14,16
484,027-013,2726,1032,407,53,88
485,027-014,2343,1020,417,68,47
486,027-015,1912,769,397,36,54
487,027-016,669,297,127,23,6
488,027-017,1155,487,230,41,11
489,027-018,2064,713,322,79,90
490,027-019,742,246,152,18,31
491,027-020,2243,681,678,85,34
492,027-021,2344,827,621,47,73
493,027-022,2576,795,795,110,41
494,027-023,584,215,167,9,4
495,027-024,634,174,176,6,29
496,027-025,1214,363,370,22,41
497,027-026,903,218,341,23,70
498,027-027,1594,404,578,32,208
499,027-028,1269,347,389,34,27
500,027-029,893,298,210,12,11
501,027-030,1394,421,387,28,39
502,027-031,2186,743,591,27,75
503,027-032,2261,883,496,74,46
504,027-033,2279,780,619,68,64
505,027-034,1435,520,236,35,33
506,027-035,2842,666,776,44,35
507,027-036,888,312,148,13,34
508,027-037,665,308,118,55,11
509,027-038,1358,511,253,59,33
510,027-039,808,476,108,51,20
511,027-040,1468,747,298,112,18
512,027-041,1775,807,424,156,15
513,027-042,1642,800,315,135,24
514,027-043,767,378,171,58,7
515,027-044,1199,618,231,99,20
516,027-045,1686,877,277,158,16
517,027-046,835,452,153,98,10
518,027-047,1119,562,147,48,7
519,027-048,895,331,245,42,23
520,027-049,2761,1125,722,235,41
521,027-050,1149,554,288,68,6
522,027-051,252,110,26,21,24
523,027-052,2545,668,609,58,49
524,027-053,1530,507,257,37,69
525,027-054,568,166,87,6,63
526,027-055,793,274,85,7,41
527,027-056,963,315,164,12,13
528,027-057,1963,468,500,51,26
529,027-058,596,173,129,9,29
530,027-059,888,218,241,15,42
531,027-060,1537,420,503,30,37
532,027-061,737,219,204,22,5
533,027-062,1912,545,469,105,29
534,027-063,1841,565,473,74,43
535,027-064,1723,640,389,97,52
536,027-065,2925,991,632,210,47
537,027-066,2220,734,495,154,106
538,027-067,2112,738,408,86,39
539,028-001,1289,402,331,15,26
540,028-002,2029,588,597,72,46
541,028-003,449,142,111,6,17
542,028-004,664,250,132,15,13
543,028-005,1615,498,443,34,38
544,028-006,2319,728,607,47,49
545,028-007,1098,423,269,22,39
546,028-008,1428,419,341,58,25
547,028-009,1909,717,331,43,66
548,028-010,1969,555,711,46,28
549,028-011,1973,527,666,67,36
550,028-012,1259,361,443,40,30
551,028-013,1357,358,352,73,43
552,028-014,545,214,120,6,19
553,028-015,1863,660,459,71,62
554,029-001,1760,1042,202,69,15
555,029-002,1557,970,156,60,21
556,029-003,1163,690,121,43,13
557,031-000,1035,608,80,28,4
558,034-000,1303,794,135,46,14
559,Unable to Determine,0,0,0,0,2266
