,StoreType,Store,Dept,Weekly_Sales,IsHoliday,Assortment,CompetitionDistance,CompetitionOpenSinceMonth,CompetitionOpenSinceYear,Promo2,Promo2SinceWeek,Promo2SinceYear,PromoInterval
0,a,57226,57226,57226,57226,57226,57226,41417,41417,57226,37972,37972,37972
1,c,13598,13598,13598,13598,13598,13598,13598,13598,13598,2297,2297,2297
2,d,29176,29176,29176,29176,29176,29176,18186,18186,29176,15786,15786,15786
