,user_id,time,bet,win
0,user_919,[2019-01-01 14:06:51,,
1,user_973,[2019-01-01 14:51:16,,
2,user_903,[2019-01-01 16:31:16,,
3,user_954,[2019-01-01 17:17:51,,
4,user_954,[2019-01-01 21:31:18,,
5,user_917,[2019-01-01 23:34:55,156789.0,
6,user_900,[2019-01-01 4:37:25,,
7,user_980,[2019-01-01 6:31:23,,
8,user_906,[2019-01-02 10:57:08,,
9,user_952,[2019-01-02 16:55:06,,
10,user_972,[2019-01-02 20:47:54,,
11,user_966,[2019-01-02 21:32:20,,
12,user_964,[2019-01-02 21:32:35,,
13,user_978,[2019-01-02 5:25:40,,
14,user_917,[2019-01-02 8:57:36,145732.0,1987653.0
15,user_968,[2019-01-02 9:32:24,,
16,user_974,[2019-01-03 10:43:41,,
17,user_998,[2019-01-03 11:29:08,,
18,user_990,[2019-01-03 13:12:46,,
19,user_942,[2019-01-03 14:03:21,98753.0,
20,user_929,[2019-01-03 17:20:23,,
21,user_976,[2019-01-03 18:24:25,,
22,user_927,[2019-01-03 18:45:54,,
23,user_998,[2019-01-03 2:48:25,,
24,user_951,[2019-01-03 5:30:43,,
25,user_949,[2019-01-03 5:49:42,,
26,user_976,[2019-01-04 1:59:34,,
27,user_987,[2019-01-04 11:50:21,,
28,user_976,[2019-01-04 12:49:31,,
29,user_942,[2019-01-04 13:59:42,1678321.0,9876543.0
30,user_985,[2019-01-04 15:07:26,,
31,user_992,[2019-01-04 17:05:30,,
32,user_929,[2019-01-04 18:21:37,,
33,user_949,[2019-01-04 19:22:43,,
34,user_937,[2019-01-04 2:59:24,,
35,user_954,[2019-01-04 21:52:08,,
36,user_913,[2019-01-04 23:16:33,,
37,user_948,[2019-01-04 4:00:52,,
38,user_954,[2019-01-04 5:40:14,,
39,user_916,[2019-01-05 1:54:07,,
40,user_942,[2019-01-05 10:44:56,,
41,user_954,[2019-01-05 13:13:21,,
42,user_985,[2019-01-05 14:36:15,,
43,user_938,[2019-01-05 18:09:15,,
44,user_997,[2019-01-05 20:55:29,,
45,user_940,[2019-01-05 3:50:10,,
46,user_918,[2019-01-05 3:56:22,,
47,user_960,[2019-01-05 4:36:52,,
48,user_905,[2019-01-05 5:11:21,,
49,user_924,[2019-01-05 6:06:11,,
50,user_958,[2019-01-05 7:33:05,,
51,user_918,[2019-01-06 18:19:59,,
52,user_952,[2019-01-06 18:45:28,,
53,user_920,[2019-01-06 20:33:50,,
54,user_943,[2019-01-06 21:06:57,,
55,user_903,[2019-01-06 3:21:56,,
56,user_935,[2019-01-06 8:10:06,,
57,user_954,[2019-01-06 9:33:18,,
58,user_915,[2019-01-07 0:23:47,,
59,user_921,[2019-01-07 1:05:59,,
60,user_999,[2019-01-07 10:07:52,,
61,user_982,[2019-01-07 13:24:18,,
62,user_916,[2019-01-07 14:57:44,,
63,user_928,[2019-01-07 15:38:24,,
64,user_918,[2019-01-07 18:18:38,,
65,user_944,[2019-01-07 19:45:03,,
66,user_966,[2019-01-07 2:59:32,,
67,user_987,[2019-01-07 21:46:13,5000.0,
68,user_912,[2019-01-07 5:50:28,,
69,user_969,[2019-01-07 7:04:23,,
70,user_901,[2019-01-07 8:45:59,,
71,user_995,[2019-01-07 9:56:20,,
72,user_982,[2019-01-08 0:41:58,,
73,user_974,[2019-01-08 1:03:26,,
74,user_933,[2019-01-08 1:22:31,,
75,user_986,[2019-01-08 10:14:31,,
76,user_971,[2019-01-08 11:38:06,,
77,user_977,[2019-01-08 13:06:25,,
78,user_974,[2019-01-08 14:43:12,,
79,user_978,[2019-01-08 2:22:29,,
80,user_979,[2019-01-08 20:05:23,,
81,user_910,[2019-01-08 21:14:57,123981.0,
82,user_958,[2019-01-08 21:21:14,,
83,user_994,[2019-01-08 3:37:48,,
84,user_964,[2019-01-08 6:56:25,,
85,user_907,[2019-01-08 6:58:19,,
86,user_935,[2019-01-09 10:10:50,,
87,user_915,[2019-01-09 17:43:11,,
88,user_941,[2019-01-09 17:50:56,,
89,user_905,[2019-01-09 17:53:01,,
90,user_989,[2019-01-09 20:18:14,,
91,user_900,[2019-01-09 3:05:07,,
92,user_964,[2019-01-09 3:05:33,100.0,
93,user_954,[2019-01-10 0:41:05,,
94,user_955,[2019-01-10 1:44:39,,
95,user_943,[2019-01-10 12:16:22,100.0,
96,user_971,[2019-01-10 15:17:48,,
97,user_978,[2019-01-10 18:36:02,,
98,user_990,[2019-01-10 2:17:43,,
99,user_991,[2019-01-10 3:55:38,,
100,user_906,[2019-01-10 6:34:42,,
101,user_996,[2019-01-10 7:32:17,100.0,
102,user_926,[2019-01-11 13:07:41,,
103,user_984,[2019-01-11 13:43:37,,
104,user_916,[2019-01-11 15:01:53,,
105,user_957,[2019-01-11 20:06:17,,
106,user_994,[2019-01-11 6:27:50,,
107,user_914,[2019-01-11 6:33:57,,
108,user_955,[2019-01-11 7:48:01,,
109,user_989,[2019-01-11 8:31:04,,
110,user_920,[2019-01-11 8:52:01,,
111,user_990,[2019-01-12 0:24:04,,
112,user_988,[2019-01-12 0:41:00,,
113,user_949,[2019-01-12 11:35:22,,
114,user_966,[2019-01-12 13:25:30,,
115,user_955,[2019-01-12 14:29:19,,
116,user_923,[2019-01-12 15:30:11,,
117,user_967,[2019-01-12 18:48:09,,
118,user_915,[2019-01-12 22:04:43,,
119,user_945,[2019-01-12 22:14:13,,
120,user_993,[2019-01-12 22:23:14,,
121,user_924,[2019-01-12 4:50:34,,
122,user_908,[2019-01-12 8:55:52,,
123,user_966,[2019-01-13 0:45:59,,
124,user_930,[2019-01-13 13:51:26,,
125,user_981,[2019-01-13 14:43:36,,
126,user_976,[2019-01-13 18:06:57,,
127,user_986,[2019-01-13 22:39:26,,
128,user_966,[2019-01-13 4:21:02,,
129,user_927,[2019-01-13 5:03:30,,
130,user_993,[2019-01-14 1:14:30,,
131,user_990,[2019-01-14 10:38:33,,
132,user_908,[2019-01-14 11:31:43,,
133,user_954,[2019-01-14 12:56:34,,
134,user_952,[2019-01-14 13:14:58,,
135,user_936,[2019-01-14 20:00:42,,
136,user_935,[2019-01-14 4:49:23,,
137,user_907,[2019-01-15 1:16:06,,
138,user_917,[2019-01-15 1:50:50,,
139,user_949,[2019-01-15 15:43:02,,
140,user_922,[2019-01-15 16:40:58,100.0,
141,user_973,[2019-01-15 17:04:00,,
142,user_962,[2019-01-15 18:13:14,,
143,user_942,[2019-01-15 2:01:38,,
144,user_985,[2019-01-15 20:34:36,,
145,user_995,[2019-01-15 22:44:59,,
146,user_929,[2019-01-15 7:56:32,,
147,user_940,[2019-01-16 1:00:44,,
148,user_913,[2019-01-16 14:29:37,,
149,user_985,[2019-01-16 14:51:36,,
150,user_944,[2019-01-16 19:58:56,,
151,user_982,[2019-01-16 21:54:22,100.0,4749.0
152,user_933,[2019-01-16 4:08:49,,
153,user_936,[2019-01-16 5:51:25,,
154,user_977,[2019-01-16 6:04:59,,
155,user_910,[2019-01-17 1:45:02,,
156,user_908,[2019-01-17 16:10:18,,
157,user_965,[2019-01-17 16:46:52,,
158,user_986,[2019-01-17 2:39:35,,
159,user_990,[2019-01-17 3:30:38,,
160,user_933,[2019-01-17 9:10:37,,
161,user_903,[2019-01-17 9:58:09,,
162,user_959,[2019-01-18 14:44:47,,
163,user_935,[2019-01-18 15:20:12,,
164,user_917,[2019-01-18 21:36:48,,
165,user_972,[2019-01-18 21:57:07,,
166,user_907,[2019-01-18 23:10:15,,
167,user_922,[2019-01-18 3:18:35,,
168,user_906,[2019-01-18 9:50:48,,
169,user_910,[2019-01-19 15:33:22,,
170,user_905,[2019-01-19 17:50:09,,
171,user_949,[2019-01-19 18:58:50,,
172,user_941,[2019-01-19 19:57:19,,
173,user_908,[2019-01-19 2:12:47,,
174,user_976,[2019-01-19 2:29:51,,
175,user_908,[2019-01-19 7:21:13,700.0,
176,user_987,[2019-01-19 9:17:35,7650.0,
177,user_941,[2019-01-20 0:17:00,,
178,user_963,[2019-01-20 1:16:09,,
179,user_904,[2019-01-20 13:51:48,,
180,user_927,[2019-01-20 13:57:39,,
181,user_960,[2019-01-20 19:20:49,,
182,user_972,[2019-01-20 20:12:03,100.0,
183,user_931,[2019-01-20 3:06:35,,
184,user_945,[2019-01-20 7:07:43,,
185,user_992,[2019-01-20 9:43:39,,
186,user_971,[2019-01-21 0:25:16,,
187,user_973,[2019-01-21 0:29:43,,
188,user_959,[2019-01-21 10:51:52,,
189,user_964,[2019-01-21 18:34:44,200.0,4667.0
190,user_914,[2019-01-21 19:03:25,,
191,user_1000,[2019-01-21 19:31:34,,
192,user_986,[2019-01-21 21:15:46,,
193,user_962,[2019-01-21 23:31:36,,
194,user_986,[2019-01-21 4:53:07,,
195,user_966,[2019-01-21 5:07:36,,
196,user_946,[2019-01-21 5:35:47,,
197,user_980,[2019-01-21 8:10:48,,
198,user_970,[2019-01-21 8:12:58,,
199,user_939,[2019-01-21 8:49:20,,
200,user_931,[2019-01-22 16:09:06,400.0,
201,user_931,[2019-01-22 2:45:39,,
202,user_969,[2019-01-22 3:32:22,100.0,
203,user_961,[2019-01-22 4:05:55,,
204,user_958,[2019-01-22 4:51:27,,
205,user_931,[2019-01-22 5:26:59,300.0,4319.0
206,user_998,[2019-01-22 7:15:00,,
207,user_981,[2019-01-22 7:58:34,,
208,user_971,[2019-01-22 9:31:52,,
209,user_911,[2019-01-23 16:58:18,,
210,user_924,[2019-01-23 18:20:59,,
211,user_989,[2019-01-23 18:47:21,,
212,user_961,[2019-01-23 2:43:22,100.0,
213,user_964,[2019-01-23 21:04:30,300.0,
214,user_905,[2019-01-23 3:40:49,8700.0,27068.0
215,user_950,[2019-01-23 5:49:28,,
216,user_952,[2019-01-24 12:57:32,200.0,
217,user_979,[2019-01-24 15:28:13,,
218,user_980,[2019-01-24 21:12:22,,
219,user_990,[2019-01-24 23:16:50,,
220,user_942,[2019-01-24 5:03:17,,
221,user_956,[2019-01-24 7:45:40,,
222,user_900,[2019-01-24 8:40:53,,
223,user_913,[2019-01-24 9:48:17,100.0,
224,user_977,[2019-01-25 1:32:17,,
225,user_939,[2019-01-25 11:19:28,,
226,user_900,[2019-01-25 12:45:46,,
227,user_988,[2019-01-25 15:38:34,,
228,user_951,[2019-01-25 17:02:53,100.0,
229,user_995,[2019-01-25 17:35:05,,
230,user_907,[2019-01-25 2:42:00,9954.0,29565.0
231,user_904,[2019-01-25 3:13:57,,
232,user_998,[2019-01-25 8:57:20,500.0,5069.0
233,user_973,[2019-01-26 0:23:22,,
234,user_916,[2019-01-26 1:14:55,,
235,user_922,[2019-01-26 10:41:06,,
236,user_985,[2019-01-26 11:16:27,,
237,user_950,[2019-01-26 11:54:29,,
238,user_985,[2019-01-26 13:30:56,,
239,user_968,[2019-01-26 16:02:16,,
240,user_918,[2019-01-26 19:56:31,,
241,user_922,[2019-01-26 20:28:23,,
242,user_906,[2019-01-26 6:21:10,,
243,user_930,[2019-01-26 6:21:38,100.0,
244,user_985,[2019-01-26 6:54:11,,
245,user_909,[2019-01-26 8:38:34,,
246,user_943,[2019-01-27 1:18:47,100.0,
247,user_960,[2019-01-27 1:54:59,,
248,user_935,[2019-01-27 18:14:22,,
249,user_935,[2019-01-27 2:32:21,,
250,user_984,[2019-01-27 20:54:28,,
251,user_971,[2019-01-27 3:23:22,,
252,user_905,[2019-01-27 5:39:56,950.0,
253,user_958,[2019-01-27 9:57:23,,
254,user_989,[2019-01-28 0:35:40,,
255,user_983,[2019-01-28 11:14:56,,
256,user_962,[2019-01-28 11:27:42,,
257,user_949,[2019-01-28 16:49:12,,
258,user_904,[2019-01-28 17:05:59,,
259,user_945,[2019-01-28 17:37:11,,
260,user_1000,[2019-01-28 20:57:37,800.0,
261,user_973,[2019-01-28 22:46:50,,
262,user_902,[2019-01-28 3:12:06,,
263,user_947,[2019-01-29 1:34:05,,
264,user_923,[2019-01-29 10:08:23,,
265,user_998,[2019-01-29 10:37:55,500.0,6294.0
266,user_938,[2019-01-29 10:47:06,,
267,user_926,[2019-01-29 12:50:05,,
268,user_973,[2019-01-29 16:12:03,,
269,user_937,[2019-01-29 18:31:27,,
270,user_990,[2019-01-29 19:54:38,,
271,user_989,[2019-01-29 2:33:38,,
272,user_902,[2019-01-29 2:59:37,,
273,user_986,[2019-01-29 4:33:47,,
274,user_949,[2019-01-29 5:48:05,100.0,
275,user_973,[2019-01-29 8:29:54,,
276,user_919,[2019-01-30 10:06:00,,
277,user_997,[2019-01-30 12:50:45,,
278,user_989,[2019-01-30 12:58:07,,
279,user_958,[2019-01-30 9:18:01,,
280,user_948,[2019-01-31 10:21:33,,
281,user_980,[2019-01-31 13:31:52,,
282,user_983,[2019-01-31 14:46:03,,
283,user_948,[2019-01-31 16:56:24,,
284,user_927,[2019-01-31 2:25:43,100.0,
285,user_986,[2019-01-31 22:50:11,,
286,user_906,[2019-01-31 3:07:14,,
287,user_927,[2019-01-31 3:21:57,,
288,user_975,[2019-01-31 4:57:32,,
289,user_905,[2019-01-31 6:29:53,12945.0,
290,user_945,[2019-01-31 7:16:14,500.0,
291,user_953,[2019-01-31 9:15:44,,
292,user_978,[2019-02-01 15:13:13,,
293,user_998,[2019-02-01 15:17:22,500.0,
294,user_931,[2019-02-02 12:34:44,700.0,6516.0
295,user_999,[2019-02-02 15:28:36,,
296,user_903,[2019-02-02 17:17:43,,
297,user_906,[2019-02-02 18:53:20,,
298,user_913,[2019-02-02 22:15:10,,
299,user_976,[2019-02-02 6:01:13,,
300,user_916,[2019-02-02 6:15:01,,
301,user_939,[2019-02-02 9:09:54,,
302,user_958,[2019-02-03 12:39:58,,
303,user_971,[2019-02-03 14:27:44,,
304,user_939,[2019-02-03 16:03:23,,
305,user_988,[2019-02-03 2:24:23,,
306,user_986,[2019-02-03 2:52:28,,
307,user_918,[2019-02-03 22:14:22,,
308,user_952,[2019-02-03 4:15:12,300.0,
309,user_966,[2019-02-04 0:28:07,,
310,user_900,[2019-02-04 11:51:46,,
311,user_910,[2019-02-04 13:58:06,,
312,user_935,[2019-02-04 15:03:23,,
313,user_936,[2019-02-04 6:23:34,,
314,user_900,[2019-02-05 10:41:57,,
315,user_924,[2019-02-05 13:00:43,,
316,user_969,[2019-02-05 13:39:37,,
317,user_921,[2019-02-05 14:08:57,,
318,user_919,[2019-02-05 14:33:44,,
319,user_916,[2019-02-05 16:33:46,,
320,user_913,[2019-02-05 17:09:37,,
321,user_925,[2019-02-05 17:33:39,,
322,user_959,[2019-02-05 18:14:18,,
323,user_972,[2019-02-05 19:40:52,,
324,user_901,[2019-02-05 21:16:53,,
325,user_971,[2019-02-05 21:48:02,,
326,user_972,[2019-02-05 23:21:07,,
327,user_947,[2019-02-05 23:40:17,,
328,user_955,[2019-02-05 8:34:25,100.0,
329,user_934,[2019-02-06 0:18:15,,
330,user_935,[2019-02-06 1:47:41,300.0,
331,user_990,[2019-02-06 10:33:49,,
332,user_984,[2019-02-06 13:49:28,,
333,user_949,[2019-02-06 15:06:37,300.0,
334,user_920,[2019-02-06 18:13:08,,
335,user_967,[2019-02-06 22:54:50,,
336,user_992,[2019-02-06 3:40:40,,
337,user_959,[2019-02-06 5:49:12,,
338,user_982,[2019-02-06 5:55:23,,
339,user_926,[2019-02-07 0:02:52,,
340,user_925,[2019-02-07 1:39:16,,
341,user_904,[2019-02-07 13:28:06,,
342,user_922,[2019-02-07 17:27:13,200.0,
343,user_971,[2019-02-07 20:53:58,500.0,
344,user_941,[2019-02-07 22:36:18,,
345,user_934,[2019-02-07 3:18:17,,
346,user_970,[2019-02-08 0:48:07,,
347,user_985,[2019-02-08 10:27:06,,
348,user_900,[2019-02-08 10:36:47,200.0,5290.0
349,user_903,[2019-02-08 11:06:00,500.0,
350,user_997,[2019-02-08 13:27:54,,
351,user_987,[2019-02-08 13:42:30,9876.0,
352,user_976,[2019-02-08 20:39:06,,
353,user_951,[2019-02-08 23:53:00,,
354,user_991,[2019-02-08 5:19:06,,
355,user_964,[2019-02-08 8:42:28,400.0,
356,user_933,[2019-02-09 10:31:04,,
357,user_936,[2019-02-09 13:24:46,,
358,user_953,[2019-02-09 19:17:07,,
359,user_984,[2019-02-09 2:13:55,,
360,user_921,[2019-02-09 23:20:21,400.0,6067.0
361,user_974,[2019-02-09 23:47:43,,
362,user_931,[2019-02-09 3:03:39,700.0,
363,user_934,[2019-02-09 4:04:18,,
364,user_901,[2019-02-09 4:25:35,,
365,user_963,[2019-02-09 6:20:03,,
366,user_972,[2019-02-10 10:20:58,,
367,user_943,[2019-02-10 11:09:24,100.0,5456.0
368,user_999,[2019-02-10 12:30:22,,
369,user_979,[2019-02-10 15:21:52,,
370,user_949,[2019-02-10 15:29:22,500.0,
371,user_928,[2019-02-10 16:01:45,,
372,user_994,[2019-02-10 17:29:12,,
373,user_921,[2019-02-10 17:53:37,900.0,
374,user_965,[2019-02-10 19:10:29,,
375,user_965,[2019-02-10 19:12:33,,
376,user_903,[2019-02-10 20:23:10,700.0,6726.0
377,user_956,[2019-02-10 21:31:10,,
378,user_917,[2019-02-10 23:13:48,,
379,user_990,[2019-02-10 5:24:36,,
380,user_1000,[2019-02-10 5:33:25,,
381,user_940,[2019-02-10 8:40:42,,
382,user_903,[2019-02-11 17:05:25,900.0,
383,user_960,[2019-02-11 18:20:26,,
384,user_972,[2019-02-11 18:48:39,300.0,5035.0
385,user_987,[2019-02-11 2:35:29,,
386,user_902,[2019-02-11 23:58:24,,
387,user_901,[2019-02-11 3:20:04,,
388,user_983,[2019-02-11 3:30:08,,
389,user_989,[2019-02-11 7:18:37,,
390,user_980,[2019-02-12 11:02:10,,
391,user_930,[2019-02-12 12:02:03,300.0,
392,user_934,[2019-02-12 13:14:29,,
393,user_943,[2019-02-12 15:09:38,300.0,5245.0
394,user_968,[2019-02-12 16:54:00,,
395,user_969,[2019-02-12 2:33:27,,
396,user_933,[2019-02-12 4:02:45,,
397,user_915,[2019-02-12 5:16:35,,
398,user_997,[2019-02-12 6:19:29,,
399,user_981,[2019-02-13 1:19:34,,
400,user_918,[2019-02-13 10:04:39,300.0,
401,user_975,[2019-02-13 11:06:21,,
402,user_925,[2019-02-13 12:43:02,,
403,user_917,[2019-02-13 13:51:30,,
404,user_962,[2019-02-13 15:07:38,,
405,user_925,[2019-02-13 15:22:49,,
406,user_951,[2019-02-13 19:58:10,500.0,
407,user_966,[2019-02-13 20:05:00,,
408,user_992,[2019-02-13 21:42:31,,
409,user_912,[2019-02-13 21:51:31,,
410,user_949,[2019-02-13 22:37:59,600.0,
411,user_955,[2019-02-13 3:34:33,,
412,user_933,[2019-02-13 5:19:24,,
413,user_924,[2019-02-13 6:50:18,100.0,
414,user_914,[2019-02-13 7:42:18,,
415,user_978,[2019-02-13 8:16:07,,
416,user_946,[2019-02-13 8:30:41,100.0,
417,user_961,[2019-02-13 9:54:00,300.0,
418,user_984,[2019-02-14 0:18:27,,
419,user_927,[2019-02-14 11:12:30,,
420,user_919,[2019-02-14 11:38:05,,
421,user_928,[2019-02-14 14:54:22,,
422,user_995,[2019-02-14 18:41:36,,
423,user_909,[2019-02-14 4:43:12,,
424,user_976,[2019-02-14 5:12:56,,
425,user_924,[2019-02-14 5:58:10,300.0,
426,user_914,[2019-02-14 6:52:36,,
427,user_943,[2019-02-14 8:46:12,700.0,
428,user_973,[2019-02-15 0:14:11,,
429,user_956,[2019-02-15 1:24:54,,
430,user_927,[2019-02-15 16:50:42,,
431,user_973,[2019-02-15 20:10:37,100.0,
432,user_956,[2019-02-15 21:07:07,100.0,
433,user_949,[2019-02-15 21:39:21,800.0,
434,user_944,[2019-02-15 22:17:01,,
435,user_968,[2019-02-15 6:02:40,,
436,user_942,[2019-02-15 8:27:35,,
437,user_987,[2019-02-16 0:15:38,12548.0,
438,user_998,[2019-02-16 15:53:57,600.0,
439,user_950,[2019-02-16 17:20:51,,
440,user_935,[2019-02-16 4:09:41,500.0,
441,user_950,[2019-02-16 6:02:10,,
442,user_969,[2019-02-16 6:32:08,,
443,user_981,[2019-02-16 7:19:21,,
444,user_958,[2019-02-16 9:24:48,,
445,user_934,[2019-02-17 10:12:52,,
446,user_985,[2019-02-17 10:30:34,100.0,
447,user_928,[2019-02-17 14:48:14,,
448,user_984,[2019-02-17 16:44:12,,
449,user_955,[2019-02-17 16:52:33,,
450,user_1000,[2019-02-17 2:34:32,,
451,user_908,[2019-02-17 20:40:57,,
452,user_954,[2019-02-17 22:59:24,100.0,
453,user_972,[2019-02-17 23:23:44,400.0,
454,user_910,[2019-02-17 5:44:39,,
455,user_966,[2019-02-18 2:54:38,,
456,user_980,[2019-02-18 21:10:32,,
457,user_934,[2019-02-18 4:59:38,,
458,user_937,[2019-02-18 5:24:30,100.0,
459,user_930,[2019-02-18 8:13:59,400.0,
460,user_941,[2019-02-19 10:03:51,300.0,
461,user_924,[2019-02-19 17:10:32,300.0,5266.0
462,user_975,[2019-02-19 19:50:07,,
463,user_938,[2019-02-19 3:53:00,,
464,user_959,[2019-02-19 4:15:34,,
465,user_900,[2019-02-20 10:41:42,200.0,
466,user_964,[2019-02-20 11:51:03,400.0,
467,user_917,[2019-02-20 12:26:16,,
468,user_990,[2019-02-20 14:28:07,,
469,user_979,[2019-02-20 15:03:15,100.0,3691.0
470,user_901,[2019-02-20 18:03:08,,
471,user_959,[2019-02-20 20:32:30,700.0,
472,user_916,[2019-02-21 0:19:55,,
473,user_923,[2019-02-21 10:18:03,,
474,user_1000,[2019-02-21 12:01:29,,
475,user_911,[2019-02-21 17:37:25,,
476,user_906,[2019-02-21 18:29:28,,
477,user_960,[2019-02-21 21:27:45,,
478,user_972,[2019-02-21 6:06:12,400.0,
479,user_987,[2019-02-22 10:37:56,,
480,user_999,[2019-02-22 10:47:12,,
481,user_960,[2019-02-22 17:02:20,400.0,
482,user_943,[2019-02-22 20:09:40,800.0,
483,user_926,[2019-02-22 20:10:10,,
484,user_951,[2019-02-22 20:36:03,600.0,
485,user_953,[2019-02-22 20:55:03,,
486,user_987,[2019-02-22 21:56:03,300.0,
487,user_970,[2019-02-22 8:22:38,400.0,
488,user_963,[2019-02-23 0:54:33,,
489,user_939,[2019-02-23 12:49:05,,
490,user_956,[2019-02-23 16:47:08,,
491,user_931,[2019-02-23 21:15:21,900.0,
492,user_905,[2019-02-23 23:12:07,27000.0,
493,user_993,[2019-02-23 3:51:41,,
494,user_945,[2019-02-23 4:05:15,700.0,
495,user_956,[2019-02-23 6:38:48,,
496,user_984,[2019-02-23 8:14:35,,
497,user_999,[2019-02-23 8:45:49,,
498,user_937,[2019-02-23 9:22:24,,
499,user_989,[2019-02-24 1:09:18,,
