,last_credit_pull_d
Nov-2016,883
Oct-2016,401
Aug-2014,205
Aug-2016,112
Jul-2014,106
Jul-2016,83
Mar-2016,57
Sep-2014,52
Sep-2016,40
Dec-2015,39
Feb-2014,37
Apr-2014,36
Jan-2016,34
Feb-2013,34
Mar-2014,33
Apr-2016,33
Nov-2015,33
Jan-2015,31
Feb-2016,31
May-2016,30
Apr-2015,28
Jul-2015,27
Jun-2014,26
Mar-2013,25
Oct-2015,24
Jun-2016,24
Dec-2013,24
May-2014,22
Jun-2015,22
Jan-2014,22
Oct-2014,19
Mar-2015,19
Apr-2013,19
Sep-2015,18
Nov-2013,17
Jun-2013,17
Aug-2013,16
Feb-2015,16
Dec-2012,16
Oct-2013,16
Aug-2012,15
Aug-2015,15
Sep-2012,15
Nov-2014,15
Apr-2012,15
May-2013,15
Jul-2013,14
May-2015,14
Feb-2012,14
Mar-2012,14
May-2012,13
Sep-2013,13
Dec-2014,13
Nov-2012,12
Jan-2012,11
Jun-2012,11
Sep-2011,10
Aug-2011,10
Jul-2012,9
Oct-2012,8
Oct-2011,7
Dec-2011,6
Nov-2011,3
Jul-2011,1
