,last_credit_pull_d
Nov-2016,804
Oct-2016,336
Oct-2013,109
Sep-2013,104
Oct-2015,78
Nov-2013,67
Sep-2015,64
Feb-2016,50
Nov-2015,48
Mar-2016,48
Sep-2016,45
Apr-2016,44
Aug-2013,42
Feb-2013,41
Jul-2015,38
Aug-2016,35
Mar-2013,34
Dec-2015,32
Aug-2015,32
Jan-2015,32
Apr-2014,31
Jun-2016,31
Jan-2016,30
May-2015,29
May-2016,27
Apr-2013,25
Feb-2012,24
Feb-2015,24
Jul-2016,24
Jul-2014,23
Jan-2014,22
Nov-2014,22
Oct-2014,22
Nov-2012,22
Jul-2013,21
Mar-2015,21
Aug-2014,20
Oct-2012,20
Jun-2013,20
Dec-2013,20
Sep-2014,20
Dec-2014,19
May-2014,19
Aug-2012,18
Jun-2014,17
Apr-2012,17
Dec-2012,17
Mar-2014,16
May-2013,16
Jun-2015,15
Aug-2011,15
Oct-2011,15
Mar-2011,15
Jul-2011,15
Sep-2012,14
May-2011,14
Apr-2015,14
Feb-2014,13
May-2012,13
Jun-2011,13
Feb-2011,13
Mar-2012,12
Jul-2012,12
Jan-2012,11
Jun-2012,11
Dec-2011,10
Sep-2011,9
Apr-2011,9
Nov-2011,8
Nov-2010,8
Dec-2010,6
Sep-2010,5
Oct-2010,4
Jan-2013,3
Jan-2011,2
