,last_credit_pull_d
Nov-2016,741
Oct-2016,261
Mar-2013,179
Feb-2013,177
May-2013,129
Apr-2013,121
Mar-2016,50
Sep-2016,39
Jun-2016,38
Jul-2016,34
Sep-2012,33
May-2016,32
Feb-2012,31
Aug-2016,31
Apr-2016,30
Jan-2016,28
Dec-2015,27
Jan-2015,27
Feb-2016,27
Apr-2012,26
Oct-2012,25
Mar-2011,25
Mar-2014,24
Mar-2012,24
Jun-2012,24
Jul-2015,24
Jul-2011,23
Aug-2012,23
Aug-2015,22
Sep-2015,22
May-2015,22
Aug-2011,22
May-2012,22
Oct-2015,22
Sep-2013,21
Apr-2015,20
Nov-2015,20
Dec-2011,20
Jul-2010,19
Feb-2015,19
Nov-2012,18
Sep-2014,18
Dec-2012,17
Feb-2014,17
Jan-2012,17
Feb-2011,17
May-2011,16
Jun-2011,16
Jun-2015,15
Oct-2010,15
Dec-2010,15
Nov-2013,15
Apr-2011,15
May-2014,14
Oct-2011,13
Dec-2014,13
Sep-2011,13
Oct-2013,13
Oct-2014,13
Jan-2014,13
Jul-2014,13
Jul-2012,13
Mar-2015,12
Sep-2010,12
Nov-2014,12
Nov-2011,12
Nov-2010,11
Aug-2014,10
Dec-2013,9
Jun-2013,9
Jun-2010,9
Apr-2014,9
Aug-2010,9
Jun-2014,9
Jan-2011,9
Aug-2013,8
Jul-2013,7
Feb-2010,5
Apr-2010,5
Mar-2010,5
May-2010,4
Jan-2013,1
