,anime_id,name,genre,type,episodes,rating,members
16,23273,Shigatsu wa Kimi no Uso,Music,TV,22,8.92,416397
80,877,Nana,Music,TV,47,8.55,197256
110,12531,Sakamichi no Apollon,Music,TV,12,8.48,146592
118,1698,Nodame Cantabile,Music,TV,23,8.46,157025
144,57,Beck,Music,TV,26,8.4,148328
161,5690,Nodame Cantabile Finale,Music,TV,11,8.38,67697
163,34240,Shelter,Music,Music,1,8.38,71136
186,9617,K-On! Movie,Music,Movie,1,8.34,115252
234,4477,Nodame Cantabile: Paris-hen,Music,TV,11,8.27,70822
239,3702,Detroit Metal City,Music,OVA,12,8.26,104893
249,31988,Hibike! Euphonium 2,Music,TV,13,8.25,47716
320,24997,Love Live! The School Idol Movie,Music,Movie,1,8.18,38118
329,731,Interstella5555: The 5tory of The 5ecret 5tar 5ystem,Music,Music,1,8.17,31464
366,7791,K-On!!,Music,TV,26,8.14,246276
421,1089,Macross: Do You Remember Love?,Music,Movie,1,8.09,19240
426,122,Full Moon wo Sagashite,Music,TV,52,8.08,59374
436,1088,Macross,Music,TV,36,8.07,44157
451,19111,Love Live! School Idol Project 2nd Season,Music,TV,13,8.06,91864
452,7222,Macross F Movie 2: Sayonara no Tsubasa,Music,Movie,1,8.06,17826
482,27989,Hibike! Euphonium,Music,TV,13,8.03,134694
496,3572,Macross F,Music,TV,25,8.02,95551
522,17949,The Everlasting Guilty Crown,Music,Music,1,8.0,11663
541,18245,White Album 2,Music,TV,13,7.98,91075
618,5310,Macross F Movie 1: Itsuwari no Utahime,Music,Movie,1,7.93,20637
620,8038,Nodame Cantabile Finale Special,Music,Special,1,7.93,23388
638,30745,Kyoukai no Kanata Movie: I'll Be Here - Kako-hen - Yakusoku no Kizuna,Music,Special,1,7.92,10306
674,13629,Furiko,Music,Special,1,7.89,8809
679,9734,K-On!!: Keikaku!,Music,Special,1,7.89,50496
697,6862,K-On!: Live House!,Music,Special,1,7.88,70787
712,5680,K-On!,Music,TV,13,7.87,386048
717,2594,Piano no Mori,Music,Movie,1,7.87,24278
734,4454,Macross F: Close Encounter - Deculture Edition,Music,Special,1,7.86,8911
758,14941,AKB0048: Next Stage,Music,TV,13,7.84,22302
821,28069,Shigatsu wa Kimi no Uso: Moments,Music,OVA,1,7.81,41368
837,22819,Aikatsu! Movie,Music,Movie,1,7.79,2813
850,17249,Pretty Rhythm: Rainbow Live,Music,TV,51,7.79,4838
933,10278,The iDOLM@STER,Music,TV,25,7.75,81155
934,2557,Trapp Ikka Monogatari,Music,TV,40,7.75,2839
976,2724,Daicon Opening Animations,Music,Special,2,7.72,7174
1029,15051,Love Live! School Idol Project,Music,TV,13,7.7,155281
1040,15061,Aikatsu!,Music,TV,178,7.69,16990
1047,1579,Kiniro no Corda: Primo Passo,Music,TV,25,7.69,63134
1109,17437,The iDOLM@STER Movie: Kagayaki no Mukougawa e!,Music,Movie,1,7.66,12262
1135,2768,CLAMP in Wonderland 2,Music,Music,1,7.64,13985
1163,32526,Love Live! Sunshine!!,Music,TV,13,7.63,45246
1194,8197,So Ra No Wo To Specials,Music,Special,2,7.62,16491
1216,9930,Snow Halation,Music,Music,1,7.61,8731
1235,1047,On Your Mark,Music,Music,1,7.6,13661
1236,22539,"One More Time, One More Chance",Music,Music,1,7.6,5660
1240,10257,Pretty Rhythm: Aurora Dream,Music,TV,51,7.6,9431
1248,6802,So Ra No Wo To,Music,TV,12,7.6,84390
1259,3392,Kiniro no Corda: Primo Passo - Hitonatsu no Encore,Music,Special,1,7.59,17967
1269,10445,Perfect Day,Music,Music,1,7.59,7743
1292,11889,The iDOLM@STER: 765 Pro to Iu Monogatari,Music,Special,1,7.58,13342
1305,6187,Nodame Cantabile OVA,Music,OVA,1,7.57,17667
1325,6399,Higashi no Eden: Falling Down,Music,Music,1,7.56,9881
1343,12149,AKB0048,Music,TV,13,7.55,37763
1361,1021,Kaikan Phrase,Music,TV,44,7.55,8142
1371,165,RahXephon,Music,TV,26,7.55,66751
1411,1203,Nitaboh,Music,Movie,1,7.53,4413
1417,12711,Uta no☆Prince-sama♪ Maji Love 2000%,Music,TV,13,7.53,61551
1432,10918,Kowarekake no Orgel (Movie),Music,Movie,1,7.52,9404
1495,31665,Hibike! Euphonium: Kakedasu Monaka,Music,Special,1,7.5,17770
1522,9213,Kowarekake no Orgel,Music,OVA,1,7.49,24876
1524,30829,Love Live! School Idol Project 2nd Season Recap,Music,OVA,1,7.5,3213
1601,10050,Macross F Music Clip Shuu: Nyankuri,Music,Music,1,7.47,3010
1607,1655,Nerima Daikon Brothers,Music,TV,12,7.47,5374
1650,15793,"Senki Zesshou Symphogear G: In the Distance, That Day, When the Star Became Music...",Music,TV,13,7.46,25750
1651,21573,Senki Zesshou Symphogear GX: Believe in Justice and Hold a Determination to Fist.,Music,TV,13,7.46,17466
1657,19251,Uta no☆Prince-sama♪ Maji Love 2000%: Shining Star Xmas,Music,Special,1,7.46,13903
1724,13333,Tari Tari,Music,TV,13,7.44,80960
1734,6401,ef: A Tale of Melodies. - Prologue,Music,Special,1,7.43,13745
1745,32953,Koi ni Naritai Aquarium,Music,Music,1,7.43,1683
1770,5065,Detroit Metal City: Birth of the Metal Devil,Music,Special,1,7.42,16101
1778,31989,Hibike! Euphonium Movie: Kitauji Koukou Suisougaku-bu e Youkoso,Music,Movie,1,7.42,8349
1781,10805,Kami nomi zo Shiru Sekai: 4-nin to Idol,Music,OVA,1,7.42,57797
1799,3051,Yes! Precure 5 Movie: Kagami no Kuni no Miracle Daibouken!,Music,Movie,1,7.42,2319
1837,32174,"The iDOLM@STER Cinderella Girls: Anytime, Anywhere with Cinderella.",Music,Special,1,7.41,2602
1867,14951,Wonderful Rush,Music,Music,1,7.4,6807
1878,3508,Genius Party,Music,Movie,7,7.39,18612
1879,6795,Genius Party Beyond,Music,Movie,5,7.39,10660
1891,6713,Ranma ½: Nettou Uta Gassen,Music,OVA,2,7.39,3676
1926,30344,The iDOLM@STER Cinderella Girls 2nd Season,Music,TV,12,7.38,16736
1959,10321,Uta no☆Prince-sama♪ Maji Love 1000%,Music,TV,13,7.37,105723
1960,31178,Uta no☆Prince-sama♪ Maji Love Legend Star,Music,TV,13,7.37,12757
1973,31780,Kimi no Kokoro wa Kagayaiteru kai?,Music,Music,1,7.35,2762
1993,17901,All Alone With You,Music,Music,1,7.35,7612
2046,28013,Macross Δ,Music,TV,26,7.34,30308
2049,11033,"Natsu-iro Egao de 1, 2, Jump!",Music,Music,1,7.34,6939
2069,24429,Daze,Music,Music,1,7.33,2919
2089,20877,Music S.T.A.R.T!!,Music,Music,1,7.33,5729
2099,5504,Shinkyoku Soukai Polyphonica Crimson S,Music,TV,12,7.33,16720
2125,12637,Mo Gyutto Love de Sekkinchuu!,Music,Music,1,7.32,6713
2138,14835,The iDOLM@STER Shiny Festa,Music,OVA,3,7.32,9893
2170,12623,Egomama,Music,Music,1,7.29,1471
2183,34085,Sakura Nagashi,Music,Music,1,7.29,2945
2197,12079,Black★Rock Shooter,Music,Music,1,7.29,40641
2291,4705,Tengen Toppa Gurren Lagann: Parallel Works,Music,Music,8,7.27,22213
2297,30845,Aikatsu! Music Award: Minna de Shou wo MoracchaimaShow!,Music,Movie,1,7.26,1028
2307,6361,ef: A Tale of Memories. - Prologue,Music,Special,1,7.26,21002
2311,243,Gravitation,Music,TV,13,7.26,67916
2317,5717,Kiniro no Corda: Secondo Passo,Music,Special,2,7.26,24379
2357,23043,Re Boot,Music,Music,1,7.25,1544
2388,30771,Mudai,Music,Music,1,7.24,1242
2409,1397,Macross 7,Music,TV,49,7.23,15420
2418,21189,"Wake Up, Girls! Shichinin no Idol",Music,Movie,1,7.23,14420
2449,29513,Aki no Kanade,Music,Movie,1,7.21,9611
2463,21853,Love Live! School Idol Project Recap,Music,Special,1,7.21,4249
2475,9733,The TV Show,Music,Music,1,7.21,2066
2484,9907,Bokura no Live Kimi to no Life,Music,Music,1,7.2,10426
2504,31919,PriPara Movie: Mi~nna no Akogare♪ Let's Go☆Prix Paris,Music,Movie,1,7.2,502
2510,23587,The iDOLM@STER Cinderella Girls,Music,TV,13,7.2,33042
2528,33299,Magic-Kyun! Renaissance,Music,TV,13,7.19,12095
2555,604,Mahou no Stage Fancy Lala,Music,TV,26,7.18,5991
2574,21439,Uta no☆Prince-sama♪ Maji Love Revolutions,Music,TV,13,7.18,27997
2592,11569,Precure All Stars DX the Dance Live♥: Miracle Dance Stage e Youkoso,Music,OVA,1,7.17,1057
2594,27441,Show By Rock!!,Music,TV,12,7.17,32061
2595,32038,Show By Rock!! #,Music,TV,12,7.17,8964
2601,30419,"Wake Up, Girls! Beyond the Bottom",Music,Movie,1,7.18,2555
2621,1025,Kachou Ouji,Music,TV,13,7.16,16111
2649,31370,Tonkatsu DJ Agetarou,Music,TV,12,7.16,6342
2671,32030,MEMORiES MELODiES,Music,Music,1,7.15,699
2683,28841,"Wake Up, Girls! Seishun no Kage",Music,Movie,1,7.15,3560
2810,11487,Sekiranun Graffiti,Music,Music,1,7.11,4014
2837,1869,Nana Recaps,Music,Special,3,7.1,11447
2841,6749,Prince of Tennis: The Band of Princes Film Kick the Future,Music,Music,1,7.1,3826
2842,10824,Ranma ½: DoCo Music Video,Music,OVA,1,7.1,1775
2862,32700,Heart Realize,Music,Music,1,7.09,1626
2868,1457,Key the Metal Idol,Music,OVA,15,7.09,7949
2870,10720,Korekuraide Utau,Music,Music,1,7.09,1395
2881,8348,Tengen Toppa Gurren Lagann: Parallel Works 2,Music,Music,7,7.09,13361
2890,1049,Cello Hiki no Gauche (1982),Music,Movie,1,7.08,6524
2906,30375,Starmyu,Music,TV,12,7.08,21032
2907,33033,Starmyu OVA,Music,OVA,2,7.08,2447
2930,1399,Macross 7 Encore,Music,OVA,3,7.07,5616
2948,30903,Children Record,Music,Music,2,7.06,745
2967,32468,Nirvana,Music,Music,1,7.06,1760
2974,21409,The iDOLM@STER Cinderella Girls 2nd Anniversary PV,Music,Music,1,7.06,2408
2995,1400,Macross 7 Movie: Ginga ga Ore wo Yondeiru!,Music,Movie,1,7.05,5270
3008,15673,Tell Your World,Music,Music,1,7.05,2630
3011,26453,Tribe Cool Crew,Music,TV,50,7.05,3334
3033,10122,Kowarekake no Orgel Special,Music,Special,1,7.04,7198
3039,30514,Nisekoimonogatari,Music,ONA,1,7.04,17116
3046,32160,Precure All Stars Movie: Minna de Utau♪ - Kiseki no Mahou,Music,Movie,1,7.04,699
3058,19023,"Wake Up, Girls!",Music,TV,12,7.04,29679
3059,6165,White Album 2nd Season,Music,TV,13,7.04,24889
3098,1890,Clover,Music,Music,1,7.02,8524
3118,11751,"Senki Zesshou Symphogear: Meteoroid-Falling, Burning, and Disappear, Then...",Music,TV,13,7.02,47588
3144,5043,Hurricane Live! 2032,Music,Special,6,7.01,1039
3191,2274,CLAMP in Wonderland,Music,Music,1,6.99,12267
3212,1935,Megazone 23,Music,OVA,4,6.99,6483
3243,6209,Macross 7 Plus,Music,Special,11,6.98,3894
3247,12863,Pretty Rhythm: Dear My Future,Music,TV,51,6.98,3347
3269,1727,Shinkyoku Soukai Polyphonica,Music,TV,12,6.97,22282
3273,21065,Yakusoku (ONA),Music,ONA,1,6.97,615
3283,20745,Love Live! School Idol Project OVA,Music,OVA,1,6.96,21188
3294,2728,TWO-MIX: White Reflection,Music,Music,1,6.96,1708
3332,13281,FlashBack,Music,Music,1,6.94,1508
3398,21333,Kazoku no Hanashi,Music,ONA,1,6.92,436
3411,33037,Tsukiuta. The Animation,Music,TV,13,6.92,11183
3415,13053,Aimai Elegy,Music,Music,1,6.91,1646
3439,33420,RESTART POiNTER,Music,Music,1,6.91,364
3464,2938,Idol Densetsu Eriko,Music,TV,51,6.9,1776
3493,17725,Magical☆Star Kanon 100%,Music,OVA,1,6.89,18291
3496,25375,Moon Pride,Music,Music,1,6.89,2478
3509,4943,Yousei Florence,Music,Movie,1,6.89,891
3531,32151,Senki Zesshou Symphogear GX: Believe in Justice and Hold a Determination to Fist. Specials,Music,Special,4,6.88,1363
3540,22513,Freely Tomorrow,Music,Music,1,6.87,1199
3585,12659,Nisoku Hokou,Music,Music,1,6.86,1116
3590,23871,Puchimas!!: Petit Petit iDOLM@STER - Fuyu→Kotatsu←Haru,Music,OVA,1,6.85,1246
3600,28723,Aikatsu!: Dai Starmiya Ichigo Matsuri Zenyasai!!,Music,Special,1,6.85,630
3603,10036,Boku no Chikyuu wo Mamotte: Kiniro no Toki Nasarete,Music,Special,1,6.85,610
3641,13755,Feeling from Mountain and Water,Music,Movie,1,6.82,437
3645,5036,Hurricane Live! 2033,Music,Special,7,6.84,972
3664,24823,Days,Music,Music,1,6.83,2907
3726,27419,"Tari Tari: Kumottari, Kagayaitari, Mata Itsuka Utattari",Music,Special,1,6.82,3466
3734,1497,Aru Machi Kado no Monogatari,Music,Movie,1,6.81,1724
3766,21707,Pretty Rhythm Movie: All Star Selection - Prism Show☆Best Ten,Music,Movie,1,6.81,777
3767,25857,PriPara Movie: Mi~nna Atsumare! Prism☆Tours,Music,Movie,1,6.81,803
3785,28789,3-gatsu no Lion meets Bump of Chicken,Music,Music,1,6.8,2160
3804,671,Lemon Angel Project,Music,TV,13,6.8,5763
3822,6670,8-gatsu no Symphony: Shibuya 2002-2003,Music,Movie,1,6.79,789
3883,6666,Passion,Music,Music,1,6.78,2100
3890,17933,Pyuu to Fuku! Jaguar,Music,OVA,3,6.78,312
3894,8230,True Tears Epilogue,Music,Music,1,6.78,8053
3899,33046,B-Project: Kodou＊Ambitious,Music,TV,12,6.77,17506
3902,2495,Chance Triangle Session,Music,TV,13,6.77,3005
3906,2953,Egao,Music,Music,1,6.77,8814
3932,4467,Universe,Music,Music,1,6.77,1275
3945,2224,Hikari no Densetsu,Music,TV,19,6.76,2028
4008,12935,Utakata Hanabi,Music,Music,1,6.75,1375
4013,1998,Amazing Nuts!,Music,Music,4,6.74,6650
4020,5016,Fluximation,Music,Music,14,6.74,2240
4027,32730,Love Live! x Watering KissMint Collaboration CM,Music,Special,1,6.73,1729
4039,4720,White Album,Music,TV,13,6.74,54376
4040,1958,Wish,Music,Music,1,6.74,5321
4100,31096,Hibike! Euphonium: Suisougaku-bu no Nichijou,Music,Special,7,6.72,12196
4147,18781,Puchimas!: Petit iDOLM@STER - Takatsuki Gold Densetsu Special!! Haruka-san Matsuri,Music,Special,6,6.71,2284
4172,13799,Pokemon: Meloetta no Kirakira Recital,Music,Movie,1,6.7,3937
4174,30103,Precure All Stars Movie: Haru no Carnival♪ - Ima Koko kara,Music,Music,1,6.7,501
4175,15781,Puchimas!: Petit iDOLM@STER Episode 0,Music,OVA,1,6.7,3038
4182,20613,Viva Namida,Music,Music,1,6.7,2376
4186,6533,Atarashii Sekai,Music,Music,1,6.69,1477
4199,2456,Mori no Densetsu,Music,Movie,1,6.69,1032
4214,6137,Tsuki no Waltz,Music,Music,1,6.69,1499
4242,21451,Nihonbashi Koukashita R Keikaku,Music,Music,1,6.68,1325
4257,2729,X²: Double X,Music,Music,1,6.68,2976
4266,31048,Burenai Ai de,Music,Music,1,6.67,522
4283,5288,RahXephon Specials,Music,Special,2,6.67,2566
4306,12661,Light Lag,Music,Music,1,6.66,891
4308,32446,MONSTER GENERATiON,Music,Music,1,6.66,468
4318,27741,Shounen Hollywood: Holly Stage for 50,Music,TV,13,6.66,3800
4321,18799,Take Your Way,Music,Music,1,6.66,1387
4330,31573,Brave Beats,Music,TV,22,6.65,2299
4344,11583,Kami nomi zo Shiru Sekai: Natsu-iro Surprise,Music,Music,1,6.65,5772
4350,31560,Miss Monochrome: The Animation 3,Music,TV,13,6.66,7905
4358,17913,Redial,Music,Music,1,6.66,1710
4402,32311,Beautiful World,Music,Music,1,6.62,1215
4403,13253,Blossom,Music,Movie,1,6.63,2825
4444,11507,Kami nomi zo Shiru Sekai: Nonstop!! Hunters,Music,Music,1,6.62,6634
4446,15279,Kira Kira 5th Anniversary Live Anime: Kick Start Generation,Music,OVA,1,6.62,1381
4449,32031,Leopard Eyes,Music,Music,1,6.62,473
4476,30384,Miss Monochrome: The Animation 2,Music,TV,13,6.61,12064
4502,32481,Love Live! Kouhaku Special Anime,Music,Special,1,6.59,1291
4562,21103,Utopia,Music,Music,1,6.59,3519
4586,7295,Koi Tsubomi,Music,Music,1,6.58,1242
4598,28511,Precure All Stars Movie: Haru no Carnival♪,Music,Movie,1,6.58,988
4604,8603,Tegami: Haikei Juugo no Kimi e,Music,Music,1,6.58,653
4605,30218,The iDOLM@STER Cinderella Girls: Special Program,Music,Special,1,6.57,1802
4607,19081,Weekender Girl,Music,Music,1,6.58,1174
4615,30907,Eine Kleine,Music,Music,1,6.57,261
4682,21041,Follow Me,Music,Music,1,6.55,1165
4691,9035,Lupin the Third,Music,Music,1,6.55,1484
4698,4890,Peut-etre Toi,Music,Music,1,6.55,1532
4738,10849,Shinryaku! Ika Musume: Ika Ice Tabena-ika?,Music,Music,1,6.54,3600
4739,15453,Shinryaku! Ika Musume: Kore ga Umi e no Ai Jana-ika!,Music,Music,1,6.54,2162
4766,20033,Miss Monochrome: The Animation,Music,TV,13,6.53,30403
4778,7659,Aisubeki Mirai e,Music,Music,1,6.52,966
4790,22049,Just Awake,Music,Music,1,6.52,1057
4802,13153,Renkyori Enai,Music,Music,1,6.52,719
4808,31894,"The iDOLM@STER Million Live! ""Dreaming!"" Animation PV",Music,Music,1,6.52,658
4815,17010,Yasashii March: The Tender March,Music,Music,1,6.52,699
4849,3007,Bronze: Kouji Nanjo Cathexis,Music,OVA,1,6.5,2929
4864,20971,Kiniro no Corda: Blue♪Sky,Music,TV,12,6.5,15742
4886,17020,D.C.III: Da Capo III Special,Music,Special,1,6.49,3008
5033,17068,Transfer,Music,Music,1,6.45,797
5039,33689,Dive to Blue,Music,Music,1,6.44,199
5081,34252,STAR BEAT!: Hoshi no Kodou,Music,Music,1,6.39,230
5114,3819,Sasurai no Taiyou,Music,TV,26,6.42,316
5115,31540,Sekkou Boys,Music,TV,12,6.42,28303
5119,3507,Survival,Music,Music,1,6.42,2153
5126,12683,Yumeyume,Music,Music,1,6.42,915
5139,32202,Kimi ni Maji Kyun!,Music,OVA,1,6.42,1801
5153,21861,Airy Me,Music,Music,1,6.4,1561
5156,3671,"Genesis Climber Mospeada: Love, Live, Alive",Music,OVA,1,6.4,712
5215,32264,Dear Brave,Music,Music,1,6.38,522
5222,10132,Jin Sheng Yuan,Music,Music,1,6.38,406
5229,29511,Ongaku Shoujo,Music,Movie,1,6.38,6289
5240,30445,"Wake Up, Girls! Deai no Kiroku: A Brief Recording",Music,OVA,1,6.39,810
5259,28179,Miss Monochrome: The Animation - Manager,Music,OVA,1,6.37,3808
5260,32233,MitchiriNeko March,Music,Music,1,6.37,126
5269,2103,TO-Y,Music,OVA,1,6.37,1275
5272,25833,Zephyr,Music,Special,1,6.37,1478
5300,20365,Another: Misaki Mei - Shizuka ni,Music,Music,1,6.36,10775
5343,20929,Galo Sengen,Music,Music,1,6.34,586
5349,31762,King of Prism by Pretty Rhythm,Music,Movie,1,6.34,2897
5359,22215,Pretty Rhythm: All Star Selection,Music,TV,11,6.34,1145
5374,16233,Yowai Mushi,Music,Special,1,6.34,1154
5377,33326,Aftermath,Music,Music,1,6.33,258
5382,16646,Hanamaru Youchien: Panda Neko Taisou,Music,Special,8,6.34,1430
5390,15177,Macross FB7: Ore no Uta wo Kike!,Music,Movie,1,6.33,2398
5407,17897,Hana wa Saku,Music,Special,1,6.32,762
5421,4033,The iDOLM@STER Live For You!,Music,OVA,1,6.32,6601
5434,6215,Dr.,Music,Music,1,6.31,1616
5460,25641,Monotonous Purgatory,Music,Music,1,6.3,515
5484,1561,Lovedol: Lovely Idol,Music,TV,12,6.29,5825
5491,32039,Show By Rock!! Short!!,Music,TV,12,6.29,5672
5496,7939,Animation!,Music,OVA,13,6.28,407
5503,25495,fake!fake!,Music,Music,1,6.28,548
5505,33808,Girlfriend (Note),Music,ONA,3,6.28,1942
5523,29123,World Calling,Music,Music,1,6.28,578
5528,23365,By Your Side,Music,Music,1,6.27,550
5532,33045,Dream Festival!,Music,ONA,12,6.27,4761
5539,4129,Mahou no Tenshi Creamy Mami: Curtain Call,Music,Music,1,6.27,298
5540,7415,Mukougaoka Chisato wa Tada Mitsumeteita no Datta,Music,Music,1,6.27,794
5573,20555,SoniAni: Super Sonico The Animation,Music,TV,12,6.26,45748
5583,1224,Aquarian Age: Sign for Evolution,Music,TV,13,6.25,9268
5615,12121,Towa no Kizuna,Music,Music,1,6.25,1692
5627,3506,Connected,Music,Music,1,6.24,2697
5651,28433,Baymax,Music,Music,1,6.23,651
5678,30168,Miss Monochrome: Watashi dake no Monogatari,Music,Music,1,6.22,1634
5680,8312,Piece,Music,Music,1,6.22,1143
5707,23037,Bakumatsu Rock,Music,TV,12,6.2,18680
5711,19235,"Dance, Dance, Dance",Music,Music,1,6.2,376
5718,1926,Jishu Seisaku Movie Binchou-tan,Music,Music,1,6.2,1781
5757,14359,Vocaloid China Project Senden Animation,Music,Music,5,6.19,1582
5771,8446,SAI: Part 1 / Revolving... to the Core,Music,Music,1,6.18,306
5775,3818,Soratobu Toshi Keikaku,Music,Music,1,6.18,1163
5789,4689,Kaze no Toori Michi,Music,Music,1,6.17,1902
5813,32826,Yuuki no Baton,Music,Music,1,6.16,549
5815,20855,Bacterial Contamination,Music,Music,1,6.15,1643
5821,4126,Mahou no Tenshi Creamy Mami: Lovely Serenade,Music,Music,1,6.15,385
5825,3176,Nessa no Haou Gandalla,Music,TV,26,6.15,637
5833,23151,Shounen Hollywood: Holly Stage for 49,Music,TV,13,6.15,10776
5834,32343,Subarashii Sekai,Music,Music,1,6.15,165
5840,25077,Bakumatsu Rock: Mystery! Onsen Kaijiken ze yo!!,Music,OVA,1,6.14,1455
5844,3525,Extra,Music,Music,1,6.14,2401
5845,32747,Fake Style II,Music,Music,1,6.14,82
5856,28715,Rusty Nail,Music,Music,1,6.14,417
5861,8939,Bohemian Rhapsody,Music,Music,1,6.13,3005
5863,32745,Fake Style,Music,Music,1,6.13,85
5868,12755,Mahoutsukai Jiji,Music,ONA,1,6.13,1039
5869,25113,Majokko Shimai no Yoyo to Nene Movie Extra: Hatsukoi - Mikako Komatsu,Music,Special,1,6.13,863
5882,23483,Decorator,Music,Music,1,6.12,880
5884,10691,Downloader,Music,Music,1,6.12,3680
5901,8921,Believe,Music,Music,1,6.11,616
5905,32600,Kanojo wa Zombie,Music,Music,1,6.11,387
5917,24109,Tooryanse,Music,Music,1,6.11,305
5927,31977,Hanabi,Music,Music,1,6.1,162
5932,328,Piano,Music,TV,10,6.1,5674
5934,31072,Show By Rock!!: Legend of Shingan Crimsonz,Music,ONA,3,6.1,516
5938,27789,Yodaka no Hoshi (Music),Music,Music,1,6.1,478
5940,10799,Chime,Music,Music,1,6.09,3125
5947,30886,Mu Di,Music,Movie,1,6.09,145
5949,4097,Nanmu Ichibyousokusai,Music,Movie,1,6.09,251
5954,6641,Tonari no 801-chan R,Music,OVA,1,6.09,1947
5961,19521,GAME OVER feat. Hatsune Miku,Music,Music,1,6.08,1400
5970,28247,Pankis! 2-jigen,Music,TV,24,6.08,331
5977,32338,Yes! BanG_Dream!,Music,Music,1,6.06,353
5979,15423,Antinotice,Music,Music,1,6.07,744
5983,11543,Hate You,Music,Music,1,6.07,1222
5984,2465,Idol Bouei-tai Hummingbird,Music,OVA,4,6.07,825
5985,32748,La Primavera,Music,Music,1,6.07,86
5986,13195,"Misenai Namida wa, Kitto Itsuka",Music,Music,1,6.07,279
5989,24179,Strobe Light,Music,Music,1,6.07,313
5991,5263,Tomorrow's Song,Music,Music,1,6.07,507
5996,29291,Behind a Smile,Music,Music,1,6.06,292
5997,7953,Defend Love,Music,Music,1,6.06,1162
6001,29778,Himitsu Spark,Music,Music,1,6.06,367
6004,8667,Koi Hanabi,Music,Music,1,6.06,235
6009,10679,Maria†Holic: Run Run Riru Ran Ran Rara,Music,Music,1,6.06,2778
6011,8724,Nobiro Nobiro Daisuki na Ki,Music,Music,1,6.06,168
6021,7771,Chiisana Jumbo,Music,Movie,1,6.05,202
6023,4158,Dore Dore no Uta,Music,Music,1,6.05,1658
6035,30909,vivi,Music,Music,1,6.05,134
6061,33236,Committed RED,Music,Music,1,6.03,140
6063,11795,Forsaken,Music,Music,1,6.03,583
6088,16506,Three Monks,Music,Movie,1,6.02,196
6089,3685,4-Day Weekend,Music,Music,1,6.01,1712
6090,32750,Ashita e Mukau Hito,Music,Music,1,6.02,105
6093,32139,DušaN,Music,Music,1,6.01,419
6094,9732,Full Moon Party,Music,Music,1,6.01,1020
6111,21641,Planet:Valkyrie,Music,ONA,1,6.0,883
6117,20913,6♥Princess,Music,Music,1,5.99,1807
6122,4012,First Squad,Music,Music,1,5.99,4946
6126,2072,Idol Project,Music,OVA,4,5.99,958
6129,18643,Kita e: Pure Session,Music,Music,1,5.99,212
6132,19727,Nexus,Music,Music,1,5.99,1884
6135,3820,Space Station No.9,Music,Music,1,5.99,1629
6139,7518,Boku wa Kuma,Music,Music,1,5.98,985
6140,29943,Crazy for It,Music,Movie,1,5.98,539
6142,19519,Dream Creator feat. GUMI,Music,Music,1,5.98,571
6143,33911,Gakuen Handsome: Legend of Sexy,Music,Music,2,6.0,363
6148,10519,Mahou Shoujo Sonico★Magica,Music,ONA,1,5.98,13266
6159,29770,Kikyuu,Music,Music,1,5.97,247
6165,6412,Yuki Terai,Music,OVA,6,5.97,280
6169,17693,Erementar Gerad: Aozora no Senki,Music,Music,1,5.96,759
6170,19187,Fake Doll,Music,Music,1,5.96,893
6171,33905,Hatsune Miku: Hiyashite Narasou Okashi no Ii Oto,Music,ONA,1,5.97,578
6173,32256,Mahou no Tenshi Creamy Mami: Zutto Kitto Motto,Music,Music,1,5.96,129
6189,8722,Ten no Kawa,Music,Music,1,5.95,471
6198,12101,Mahou Shoujo Lyrical Nanoha: Lyrical Toy Box,Music,Music,1,5.94,1773
6208,29707,Yume no Ukiyo ni Saitemina,Music,Music,1,5.94,397
6219,17891,Namida no Tsubomi,Music,Music,1,5.93,144
6234,24995,Moon Festa,Music,Music,1,5.92,103
6257,29772,Calm,Music,Movie,1,5.89,506
6262,32755,Gregorio,Music,Music,1,5.9,89
6263,28439,Hatsune Miku x Tetsuya Nomura,Music,Special,1,5.9,1232
6274,20705,Baka Misérables,Music,ONA,3,5.89,169
6285,32853,7-kakan.,Music,Music,1,5.88,143
6288,19185,HORIZON feat. Hatsune Miku,Music,Music,1,5.88,1297
6292,31830,lilac (bombs Jun Togawa),Music,Music,1,5.88,175
6293,29757,Mori no e,Music,Music,1,5.87,202
6294,19237,Nimrod,Music,Music,1,5.88,296
6298,9667,Super Speed,Music,Music,1,5.88,691
6299,5662,Suteneko Tora-chan,Music,Movie,1,5.88,615
6307,30199,Hakimono to Kasa no Monogatari,Music,Music,1,5.87,108
6317,9502,Egao no Hana,Music,Music,1,5.86,670
6328,29585,Chikotan,Music,Movie,1,5.87,145
6332,31300,Irodorimidori: Change Our Mirai!,Music,Music,1,5.85,721
6335,9826,Okubyou na Venus,Music,OVA,1,5.85,223
6338,23029,Popful Mail,Music,Music,1,5.85,166
6339,3821,Portable Kuukou,Music,Music,1,5.85,1515
6348,31157,ClassicaLoid,Music,TV,25,5.84,11717
6356,6513,Ravex in Tezuka World,Music,OVA,1,5.84,620
6391,11511,Evidence,Music,Music,1,5.81,705
6393,8659,I'm Here with You,Music,Music,1,5.81,327
6400,21715,Makkuramori no Uta,Music,Music,1,5.81,117
6407,33912,Gakuen Handsome: Haitoku no Lesson,Music,Music,2,5.79,316
6410,17293,Love Like Aliens,Music,Music,1,5.8,567
6411,22293,Mahou no Yousei Persia: Escape!,Music,Music,1,5.8,192
6423,8669,Ano Koro no Namida wa,Music,Music,1,5.79,401
6427,8628,Chains & Rings,Music,Music,1,5.79,687
6430,32618,Hietsuki Bushi,Music,Music,1,5.79,103
6431,31252,"Korekarasaki, Nando Anata to.",Music,Music,1,5.79,370
6433,21055,Mission School,Music,Music,1,5.79,243
6434,8697,Mizutori,Music,Music,1,5.79,275
6449,30234,1989,Music,Music,1,5.77,374
6456,6667,Love to Live By,Music,Music,1,5.77,911
6459,8660,Minarai Chameleon,Music,Music,1,5.77,140
6465,31908,"Ai think so,",Music,Music,1,5.77,203
6469,9361,Molly Star-Racer,Music,Music,1,5.76,914
6472,30425,Wake Up! Dodo,Music,Music,1,5.76,140
6475,19137,EDEN,Music,Music,1,5.75,1159
6476,32761,Gekkou Shokudou,Music,Music,1,5.75,92
6477,27793,It Girl,Music,Music,1,5.75,961
6478,6305,Life no Color,Music,Movie,1,5.75,1441
6483,25639,Toilet no Kamisama,Music,Music,1,5.75,165
6484,21591,Wasure-boshi,Music,ONA,1,5.75,451
6485,31880,B Who I Want 2 B,Music,Music,1,5.74,413
6493,8704,Uchuu Hikoushi no Uta,Music,Music,1,5.74,351
6497,21089,Lost Forest,Music,Music,1,5.72,302
6498,23375,Minarai Diva,Music,TV,10,5.73,982
6500,24199,Oosouji,Music,Music,1,5.73,346
6503,17245,Christmas,Music,Music,1,5.72,356
6508,33910,Marine Bloomin',Music,Music,1,5.72,123
6509,30576,Pareo wa Emerald,Music,Music,1,5.72,128
6512,32781,Refrain,Music,Music,1,5.72,104
6523,22469,Minihams no Kekkon Song,Music,Music,1,5.71,147
6531,6777,Densha Kamo Shirenai,Music,Music,1,5.7,528
6553,9650,Dream C Club Pure Songs Clips,Music,Music,2,5.68,358
6554,8626,Good Morning,Music,Music,1,5.68,1381
6555,24321,Hoka Hoka Oden no Uta,Music,Music,1,5.68,394
6563,23917,Sora wa Koko ni Aru,Music,Music,1,5.68,140
6574,22093,Mayonaka wa Junketsu,Music,Music,1,5.67,162
6577,24201,Rakugaki Picasso,Music,Music,1,5.67,310
6578,19287,Reunion (Music),Music,Music,1,5.67,1229
6580,15653,Stay the Same,Music,Music,1,5.67,160
6584,25293,Futago no Mahoutsukai Lico to Gli,Music,ONA,4,5.66,237
6589,20857,Nebula feat. Hatsune Miku,Music,Music,1,5.66,1006
6590,24197,E no Umakatta Tomodachi,Music,Music,1,5.65,360
6595,13857,Souhaku Shisuferia,Music,Music,1,5.65,261
6601,22411,Asa ga Kuru mae ni: Sasurai Version,Music,Music,1,5.64,187
6604,30534,Fen Qing,Music,Music,1,5.64,120
6609,11189,Pair,Music,Music,1,5.64,675
6612,5447,A-Girl,Music,OVA,1,5.63,585
6614,29353,Kimi wa Tomodachi,Music,Music,1,5.63,99
6617,33909,Marine Dreamin',Music,Music,1,5.63,126
6630,12993,Sono Mukou no Mukougawa,Music,Music,1,5.62,267
6642,22467,Minihams no Ai no Uta,Music,Music,1,5.61,161
6652,19239,Old City Ward,Music,Music,1,5.6,278
6654,18831,Rinkaku,Music,Music,1,5.6,606
6655,31568,Wake Up,Music,Music,1,5.6,254
6656,24181,3-Nen C-Gumi 14-Ban Kubozono Chiyoko no Nyuukaku,Music,Music,1,5.59,385
6657,23061,Heya/Keitai,Music,Movie,1,5.59,311
6676,7296,Michi (Music),Music,Music,1,5.58,431
6677,21471,Mirai Koushi Harima SACLA,Music,ONA,1,5.58,577
6679,24315,PoPo Loouise,Music,Music,1,5.58,106
6682,33578,Hungry Zombie Francesca!!,Music,Music,2,5.57,242
6684,23157,Kaze no Invitation,Music,Music,1,5.57,229
6686,32856,Sayonara Space Shuttle,Music,Music,1,5.57,93
6688,24139,Tokyo Babylon: Vision,Music,Music,1,5.57,499
6691,32854,Fr/day Night,Music,Music,1,5.57,167
6694,19481,Juujika You and I,Music,Music,1,5.56,244
6696,8773,Nekko-kun,Music,Music,1,5.56,185
6698,6491,Scandal,Music,ONA,12,5.56,1062
6700,9910,Shokichi Monogatari,Music,Music,1,5.56,180
6704,19217,And And,Music,Music,1,5.55,470
6706,32749,Hizumu Realism,Music,Music,1,5.55,130
6710,8752,Message Song,Music,Music,1,5.55,168
6711,10941,Mushi no Tameiki,Music,Music,1,5.55,465
6722,31641,Niedola,Music,Music,1,5.54,131
6723,22473,Pi~hyara Kouta,Music,Music,1,5.54,128
6732,8696,Shiroi Michi,Music,Music,1,5.53,207
6735,8731,Akai Boushi,Music,Music,1,5.52,389
6739,8782,Hiyoko Gumo,Music,Music,1,5.52,490
6740,32346,makemagic,Music,Music,1,5.52,178
6742,29955,Insomniac,Music,Music,1,5.51,108
6751,19279,Pony Metal U-GAIM Promotion Film,Music,Special,1,5.5,298
6757,30251,Venus Project: Climax,Music,TV,6,5.5,4974
6763,30428,Hikenai Guitar wo Hikundaze,Music,Music,1,5.49,217
6769,12789,Yasashii Lion,Music,Movie,1,5.49,186
6774,8718,Itsumademo Tabibito,Music,Music,1,5.48,226
6781,32764,Sun Set Sun,Music,Music,1,5.48,93
6785,15525,Bokura no Hero,Music,Music,1,5.47,202
6793,24633,LolitA☆Strawberry in Summer,Music,Music,1,5.46,196
6801,8772,Happy Weekend,Music,Music,1,5.45,166
6803,8717,Kumo ga Haretara,Music,Music,1,5.45,297
6813,32789,Answer,Music,Music,1,5.44,103
6817,29946,Orchestra,Music,Music,1,5.44,137
6818,29771,Recorder,Music,Movie,1,5.44,199
6830,21607,Picotopia,Music,ONA,1,5.42,547
6843,28355,Henna ABC,Music,Music,1,5.4,103
6845,32344,Nana-iro Megane,Music,Music,1,5.4,90
6847,8679,Saboten ga Nikui,Music,Music,1,5.4,161
6853,21875,Chou Akuukan Bouheki Cheese Napolitan,Music,ONA,1,5.39,554
6855,21717,Koisuru Niwatori,Music,Music,1,5.39,129
6858,14023,R²: Rise R to the Second Power,Music,Music,1,5.39,240
6859,30075,Yuki no Hi no Tayori,Music,Music,1,5.39,122
6862,32811,Black Ocean,Music,Music,1,5.38,83
6866,30160,Oppai ga Ippai,Music,Music,1,5.38,104
6870,25545,Tanu no Magical Holiday,Music,Music,1,5.38,100
6875,31108,Green Dakara x Bakemono no Ko,Music,ONA,2,5.38,1086
6876,30162,Hone Hone Rock,Music,Music,1,5.37,101
6879,22471,Mirakururun Grand Purin!,Music,Music,1,5.37,152
6887,32767,Hane,Music,Music,1,5.36,97
6894,15529,Wamono,Music,Music,1,5.36,224
6895,8719,Donna Donna,Music,Music,1,5.35,206
6899,25461,Tatamp,Music,Movie,1,5.35,273
6902,9509,Yami no Purple Eye,Music,Music,1,5.35,500
6904,32813,2010,Music,Music,1,5.34,217
6906,30433,Eat You Up/Bunny,Music,Music,1,5.34,116
6909,12521,Tentoumushi no Otomurai,Music,Music,1,5.34,309
6912,6856,Aoi Chou,Music,Music,1,5.33,810
6913,28245,Ari-chan,Music,Movie,1,5.33,163
6925,29455,Cabbage UFO,Music,Music,1,5.31,103
6927,33572,Idol Memories,Music,TV,12,5.31,5027
6934,30076,Roba Chotto Suneta,Music,Music,1,5.3,107
6943,11579,Jubilee,Music,Music,1,5.28,460
6944,30430,Kimi wa Sou Kimeta,Music,Music,1,5.3,107
6945,8681,Kitakaze Kozou no Kantarou,Music,Music,1,5.28,254
6950,30241,Umo,Music,Music,1,5.28,107
6954,8680,Fuyu no Yoru no Ohanashi,Music,Music,1,5.27,172
6961,24861,Akaoni to Aooni no Tango,Music,Music,1,5.26,164
6965,20725,"Lies, Lies.",Music,Music,1,5.26,185
6967,28687,Poker,Music,Music,1,5.26,311
6971,32384,The New A-Class.: Next Stage with YOU,Music,ONA,1,5.24,342
6978,30073,Onaka no Ookina Ouji-sama,Music,Music,1,5.25,115
6979,25549,Psychedelic Afternoon,Music,Music,1,5.25,462
6986,28765,The Baby Birds of Norman McLaren,Music,Movie,1,5.24,208
6987,31695,Goro-chan,Music,Music,1,5.23,142
6988,21833,Higenashi Gogejabaru,Music,Music,1,5.23,149
6990,30405,Ishindenshin Shiyou,Music,Music,1,5.23,129
6992,22059,Kakumeiteki Broadway Shugisha Doumei,Music,Music,1,5.23,283
7004,32790,Urmă (Zanzou),Music,Music,1,5.31,93
7011,30077,Koro wa Yane no Ue,Music,Music,1,5.21,108
7014,5017,Yume no Kakera,Music,Music,1,5.21,776
7015,32803,Dreaming Pupa: Yumemiru Bokura,Music,Music,1,5.2,96
7019,10584,Mononoke Dance,Music,Music,1,5.19,568
7020,28197,Ofuro no Kazoe Uta,Music,Music,1,5.19,130
7021,32296,Present Made no Michinori,Music,ONA,1,5.19,178
7032,8778,Avignon no Hashi de,Music,Music,1,5.17,234
7038,29107,Banana Mura ni Ame ga Furu,Music,Music,1,5.16,113
7039,11867,Cipher,Music,OVA,1,5.15,2535
7040,6769,Mura Matsuri,Music,Movie,1,5.16,997
7044,30081,Shiawase no Uta,Music,Music,1,5.16,96
7055,6846,Kuma ni Kuwarenu Otoko,Music,Movie,1,5.14,322
7058,8729,Omoide no Album,Music,Music,1,5.14,205
7060,30074,Symphonic Variations,Music,Music,1,5.14,121
7063,24843,Clarinet Kowashichatta,Music,Music,1,5.13,111
7064,22427,Computer Obaachan,Music,Music,1,5.13,161
7066,28897,Ganso Banana no Tamashii,Music,Music,1,5.13,108
7070,8732,Yuuki Hitotsu wo Tomo ni Shite,Music,Music,1,5.13,202
7071,30431,Anata mo Robot ni Nareru feat. Kamome Jidou Gasshoudan,Music,Music,1,5.12,137
7072,13513,Anima,Music,Movie,1,5.12,952
7076,21891,Natsumi Step!,Music,Music,1,5.12,136
7087,30424,Instant Music,Music,Music,1,5.1,164
7090,8733,Tousan no Tsukutta Uta,Music,Music,1,5.1,205
7094,8645,Kitte no Nai Okurimono,Music,Music,1,5.09,223
7100,32765,Cherry Blossom (Music),Music,Music,1,5.08,113
7103,23023,Peaceful Times (F02) Petit Film,Music,Music,1,5.07,1650
7108,8730,Metropolitan Museum,Music,Music,1,5.07,242
7113,20707,"""0""",Music,Music,1,5.06,1170
7129,25533,Many Mary,Music,Music,1,5.04,153
7130,5158,Noisy Birth,Music,Music,1,5.04,3279
7131,14125,Otogi no Kuni no Birthday,Music,Music,1,5.04,144
7133,32804,Ainone,Music,Music,1,5.03,136
7134,8716,Arigatou Thank You,Music,Music,1,5.03,291
7136,7512,Dambo,Music,Music,1,5.03,316
7138,29902,A Play,Music,Music,1,5.02,185
7139,32293,Kerorinpasu,Music,ONA,1,5.02,98
7140,29933,MTV Japan Station ID,Music,Special,2,5.02,147
7141,22417,Quantum Leap,Music,Music,1,5.02,184
7145,21831,Dracula no Uta,Music,Music,1,5.01,246
7146,30427,Mr. Empty,Music,Music,1,5.01,92
7154,10436,Animal Dance,Music,Movie,1,4.98,412
7158,8671,Raja Maharaja,Music,Music,1,4.97,183
7159,4393,Kokka Kimigayo,Music,Movie,1,4.96,755
7160,5602,Navia Dratp,Music,ONA,5,4.96,281
7162,33119,Tokyogurashi!,Music,ONA,1,4.97,1331
7163,15527,Hanabeam,Music,Music,1,4.95,290
7164,29941,Million Doll,Music,TV,11,4.95,8389
7172,32779,Anygedybudybombom,Music,Music,1,4.93,92
7175,8604,Oshiri Kajiri Mushi,Music,Music,1,4.93,495
7179,30104,Seichou Rap,Music,Music,1,4.93,105
7182,22385,a_caFe,Music,Music,1,4.91,343
7184,19231,Jam,Music,Music,1,4.91,343
7186,18463,Sign,Music,Music,1,4.91,192
7187,29105,Aruite Mikka!,Music,Music,1,4.9,101
7189,19213,Lost Utopia,Music,Movie,1,4.9,486
7193,8751,Kaijuu no Ballad,Music,Music,1,4.89,281
7196,2146,Canary,Music,OVA,1,4.88,1212
7203,8661,Chimuchimucheri ChimChimCheree,Music,Music,1,4.86,331
7210,29871,Shinsei Kamattechan,Music,Music,1,4.85,143
7212,30429,Utsukushii,Music,Music,1,4.85,109
7213,29311,Shousei Shikisai Gensou,Music,Movie,1,4.84,232
7220,8646,44-hiki no Neko,Music,Music,1,4.8,855
7229,17151,Mogu Mogu,Music,Music,1,4.79,217
7232,22415,Aoi Heya,Music,Music,1,4.77,253
7244,5868,Haru no Uta,Music,Movie,1,4.72,641
7246,29952,Kairaku no Sono,Music,Movie,1,4.72,188
7250,31501,Master Blaster,Music,Music,1,4.71,165
7262,10585,Chuunen Punk,Music,Music,1,4.68,308
7275,30092,Wakie Wakie,Music,Music,1,4.62,192
7282,23517,Calligraffiti,Music,Movie,1,4.57,200
7302,9056,Agitated Screams of Maggots,Music,Music,1,4.45,2921
7304,33220,Natsu no Gero wa Fuyu no Sakana,Music,Music,1,4.45,147
7305,29615,Oh Yoko!,Music,Music,1,4.44,337
7307,18561,Mahou no Hiroba,Music,Music,1,4.43,182
7308,4396,Osaru no Kantai,Music,Movie,1,4.42,530
7310,10586,Cafe de Oni,Music,Music,1,4.4,381
7314,33696,3D Onara Gorou ga Dance Dance Dance!!,Music,Music,1,4.39,624
7336,31687,◯,Music,ONA,1,4.22,448
7338,13311,Henshin Gattai! 5 tsu no Atsuki Tamashii,Music,Music,1,4.19,269
7346,29619,Good-by Marilyn,Music,Movie,1,4.08,279
7348,31688,Tama Gura Abayo: Moki Yumokyu Superdeluxe,Music,Music,1,4.03,202
7365,22255,Kanojo no Dokushinshatachi ni Yotte Hadaka ni Sareta Seifuku no Shojo Kenkyuu,Music,Movie,1,3.83,326
7368,30860,Koumon-teki Juuku Ketsujiru Juke,Music,Music,1,3.78,310
7387,29617,Good-by Elvis and USA,Music,Movie,1,3.41,367
7405,31874,2002-nen Harmoni Ondo,Music,Music,1,4.77,79
7409,24783,3-D Tengoku,Music,Music,1,4.06,117
7438,31485,Aikatsu Stars! Movie,Music,Movie,1,7.0,1042
7439,32806,Aikatsu!: Nerawareta Mahou no Aikatsu Card,Music,Movie,1,6.42,488
7440,32421,Aikodesho,Music,Music,1,4.18,55
7447,24999,Akai Jitensha,Music,Music,1,4.54,91
7466,32778,Ame no Bus Stop-hen,Music,Music,1,3.67,74
7497,33342,Ari to Kirigirisu,Music,Movie,1,3.0,42
7511,31730,Audition,Music,Movie,1,6.0,78
7514,24785,Awate Tokoya,Music,Music,1,3.7,92
7525,15787,Backstage Idol Story,Music,TV,8,5.55,292
7540,31662,Bary-san x Gospe Rats: Tonde Bary Bary Monogatari,Music,Music,1,4.67,58
7574,32859,Boku wa Kimi wo Warawanai,Music,Music,1,5.4,80
7575,33523,Boku wa Koko de Ikiteiku,Music,Music,1,6.56,51
7580,31882,Bokura Machi Bouzu!,Music,Music,1,4.89,45
7603,30202,Bucket no Ana,Music,Music,1,4.13,57
7608,32760,Bungaku Shounen no Yuuutsu,Music,Music,1,6.3,37
7621,32345,Celebration and Chorale,Music,Movie,1,5.28,93
7622,33344,Cello Hiki no Gauche,Music,Movie,1,4.21,72
7623,26303,Cello Hiki no Gauche (OVA),Music,OVA,1,5.88,163
7668,30164,Chiisana Kinomi,Music,Music,1,4.42,86
7671,19177,Chiisana Love Letter: Mariko to Nemunoki no Kodomo-tachi,Music,Special,1,5.57,90
7687,33526,Choco to Watashi,Music,Music,1,6.0,40
7700,30571,Chouon Senshi Borgman: Madnight☆Gigs!,Music,OVA,1,4.82,102
7707,32762,Circles,Music,Music,1,4.79,34
7726,24901,Cook no Polka,Music,Music,1,3.43,102
7728,32630,Coral no Tanken,Music,TV,50,6.14,54
7751,23799,Dango San Kyoudai Attoiuma Gekijou,Music,TV,50,7.3,74
7752,32858,Dareka no Santa Claus,Music,Music,1,5.51,75
7799,32422,Doukyuusei,Music,Music,1,5.83,116
7819,33062,Egao ni Dai Sekkin,Music,Music,1,5.8,40
7822,29357,Eien,Music,Music,1,5.11,69
7832,29423,En En Nikoli,Music,Special,3,5.4,40
7867,33864,Fujilog (ONA),Music,ONA,2,3.58,42
7870,30163,Fuki to Hiyoko,Music,Music,1,5.07,89
7885,29179,Futago no Ookami Daibouken,Music,Music,1,4.2,85
7888,32322,Futari wa 80-sai,Music,Music,1,4.67,43
7894,30530,Fuusen Shoujo Temple-chan Movie,Music,Movie,1,4.75,44
7897,31694,Gakken ka Nani ka no Mukashi no Video,Music,Special,1,4.6,39
7924,29503,Gararin to Gororin,Music,Special,1,3.38,52
7941,32775,Gene,Music,Music,1,3.95,68
7946,25609,Genki Genki Non-tan,Music,TV,15,6.17,56
7947,25611,Genki Genki Non-tan (2004),Music,TV,10,6.0,53
7948,25615,Genki Genki Non-tan (2006),Music,TV,10,6.0,53
7949,25617,Genki Genki Non-tan: Deka Deka Arigatou,Music,OVA,1,6.75,46
7950,25619,Genki Genki Non-tan: Spoon Tan Tan Tan,Music,OVA,1,6.0,48
7951,25613,Genki Genki Non-tan: Utaou! Christmas,Music,OVA,1,6.0,48
7977,33501,Go Go Smile Anime,Music,Special,6,4.71,43
7984,24905,Go-hiki no Kobuta to Charleston,Music,Music,1,4.0,85
8002,27521,Gra-P & Rodeo,Music,TV,61,5.6,163
8003,32834,Gra-P & Rodeo: Band wo P,Music,Special,1,3.11,68
8005,29355,Grasshopper Monogatari,Music,Music,1,4.18,65
8006,30602,Great Hunt,Music,TV,6,4.75,73
8039,29507,Hamster Sam,Music,TV,4,6.0,42
8054,33885,Hane (2016),Music,Music,1,5.24,66
8062,32783,Happy Hour,Music,Music,1,4.24,69
8067,20529,Harinezumi,Music,Music,1,5.34,125
8071,34412,Hashiri Hajimeta bakari no Kimi ni,Music,Music,1,6.76,239
8076,33059,Hawaiian Rock'n Roll,Music,Music,1,5.2,40
8117,29541,Hello Kitty no Santa-san ga Futari Ita,Music,OVA,1,6.6,57
8138,29181,Henna Ie!,Music,Music,1,3.33,80
8158,33217,Hikaru Genji: Paradise Ginga,Music,Music,1,4.4,74
8159,33215,Hikaru Genji: Taiyou ga Ippai,Music,Music,1,3.73,59
8160,33580,Hikaru no Gen-chan,Music,Music,1,4.58,38
8197,30161,Horoscope: Anata no Seiza,Music,Music,1,4.29,50
8203,29451,Hoshi Uranai Kirakira,Music,Music,1,4.25,91
8272,32845,Ishitsubutsu Toriatsukaijo,Music,Music,1,5.11,72
8279,34121,Itsumo Kokoro ni Ho,Music,ONA,1,4.86,63
8298,32800,Jijii: Owari no Hajimari,Music,Music,1,4.28,66
8300,33886,Jikkyou Chuukei,Music,Music,1,4.31,52
8308,32777,Jitensha-hen,Music,Music,1,3.53,67
8310,30157,Joki Joki Tailor,Music,Music,1,4.06,72
8315,32092,Juicy Jungle,Music,Music,1,3.56,63
8332,32473,Kabocha no Oji-san,Music,Music,1,4.75,38
8369,19053,Kaitou Jigoma Ongaku-hen,Music,Movie,1,4.75,88
8399,30167,Kanashiki Mongoose,Music,Music,1,3.36,90
8412,5140,Karaoke Senshi Mike-tarou,Music,TV,20,7.05,159
8423,31926,Kashikokimono,Music,Movie,1,4.93,121
8427,29966,Katsuobushi Dayo Jinsei wa,Music,Music,1,4.28,88
8436,32420,Ken-chan,Music,Music,1,4.75,37
8438,29453,Kenka no Ato wa,Music,Music,1,5.17,96
8480,17981,Kiki to Lala no Hoshi no Dance Shoes,Music,OVA,1,4.75,96
8486,21749,Kimama ni Idol,Music,OVA,1,6.19,115
8492,32989,King of Prism by Pretty Rhythm Short Anime,Music,Special,1,5.78,290
8522,23637,Kobito to Ao Mushi,Music,Movie,1,6.43,74
8537,32430,Kodanuki Ponpo,Music,Music,1,4.86,62
8549,32759,Kokuen,Music,Music,1,4.52,76
8551,29738,Konchuu Monogatari Tentoumu Chu! to Mitsubachi Hatsu Chu!,Music,TV,10,5.47,75
8572,31239,Kotori Samba,Music,TV,240,6.75,74
8583,33527,Kubbe no Ongakukai,Music,ONA,1,4.62,55
8602,31873,Kuro,Music,Music,1,5.28,74
8644,32784,Lina Poe Poe,Music,Music,1,3.93,69
8658,32844,Love Will Find the Way Back Home,Music,Music,1,4.89,72
8667,19971,Machi Ichiban no Kechinbou,Music,Special,1,5.61,117
8675,33907,Magical Music Train,Music,Music,1,3.53,61
8679,23129,Mahou no Princess Minky Momo: Hitomi no Seiza - Minky Momo Song Special,Music,Music,1,5.49,147
8705,33552,Mameshiba Bangai-hen,Music,Special,4,5.62,117
8741,29963,Marude Sekai,Music,Music,1,3.93,79
8760,24259,Mechano: Scientific Attack Force,Music,OVA,3,2.55,120
8767,33079,Meikyoku to Dai Sakkyokka Monogatari,Music,OVA,9,7.25,44
8791,19597,Milk House Dreaming: Ai no Shiki,Music,OVA,1,4.81,122
8800,32475,Minami no Kuni kara Kita Tegami,Music,Music,1,5.8,43
8844,33401,Momotarou (Music),Music,Music,1,3.65,84
8871,31639,Mr. Shape: High Touch Taisou,Music,ONA,1,4.11,65
8874,31878,Mukashi Toilet ga Kowakatta!,Music,Music,1,4.92,45
8875,33694,Mukidashi no Koushi,Music,ONA,1,4.0,83
8878,9948,Music Up,Music,TV,52,6.23,147
8887,32776,Nagisa,Music,Music,1,3.85,69
8891,19817,Namakemono ga Miteta,Music,OVA,2,6.42,65
8910,33272,Nanocore: 2016 New Year Special,Music,Music,1,4.93,102
8921,30209,Naze,Music,Music,1,4.27,42
8926,24903,Neko Funjatta,Music,Music,1,4.15,79
8964,33914,Nineko Gelée: Opening Movie,Music,Music,1,4.21,65
8967,32788,Ningyo no Hanashi,Music,Music,1,4.68,66
8973,33060,Ninja Negizou,Music,Music,1,5.0,40
8985,8777,Nobara no Julie,Music,TV,13,5.96,190
9006,32904,Norimono Atsumare: Hit Song-shuu,Music,OVA,6,4.17,51
9011,32633,Nowisee,Music,Music,24,7.64,560
9015,31166,Nyamen: Tenkai Daiichi Joshi Koukou Bunka Matsuri Tokubetsu Eizou,Music,Special,1,5.35,127
9021,32166,Obaachan no Takaramono,Music,Music,1,4.5,39
9051,32229,Ojiichan no Komoriuta,Music,Music,1,4.78,37
9065,32472,Okoru yo!,Music,Music,1,5.0,37
9076,32763,One and Three Four,Music,Music,1,4.51,89
9087,32225,Onpu,Music,Movie,1,5.1,43
9090,29888,Ooi! Hanimaru,Music,Music,1,3.84,77
9096,29053,Orangutan,Music,Music,1,4.16,98
9102,30065,Osamishi Tani no Wakare Uta,Music,Movie,1,3.95,102
9124,32073,Otoshidama,Music,Music,1,4.0,39
9130,33175,Oyone to Mattsan: Ai no Uta,Music,OVA,1,5.71,39
9147,29459,Pata Pata Mama,Music,Music,1,3.93,85
9182,29177,Persia no Komoriuta: Watashi no Hana,Music,Music,1,3.63,87
9185,29953,Phantasm,Music,Movie,1,3.59,74
9188,23177,Piano Specials,Music,Special,4,5.33,194
9194,17423,Pink Lady Monogatari: Eikou no Tenshi-tachi,Music,TV,33,6.33,111
9195,25601,Pink Lady Monogatari: Eikou no Tenshitachi Recaps,Music,Special,2,7.33,54
9202,30200,Piyo no Ongaeshi,Music,Music,1,5.0,47
9230,27461,Pororo's English Show,Music,TV,13,5.31,53
9231,27453,Pororo-wa Noraehaeyo,Music,TV,14,5.36,55
9246,29377,Pulsar,Music,Movie,1,5.08,73
9247,34406,Punpun Polka,Music,Music,1,4.36,24
9254,5240,"Pyuu to Fuku! Jaguar: Ima, Fuki ni Yukimasu",Music,Movie,1,7.03,405
9255,23889,Pyuu to Fuku! Jaguar: Return of Yaku Ichinenburi,Music,OVA,3,6.8,122
9274,32768,Revenge of Green Mutant,Music,Music,1,3.85,69
9279,32851,Riding the Storm,Music,Music,1,3.49,67
9368,29744,Seishun Midnight Runners: Shiosai,Music,Music,1,4.63,82
9382,32583,Sense Honma ni Honma,Music,Music,1,4.18,67
9391,33906,Shangri-La (Music),Music,Music,1,3.54,55
9405,30201,Shiawase no Tokei,Music,Music,1,4.35,73
9452,30208,Shiritori Mambo,Music,Music,1,5.33,45
9465,24789,Shoko Nakagawa Prism Tour Special,Music,Special,1,5.55,149
9466,31942,Shooting Hero,Music,Music,1,4.92,46
9502,32757,Skirt,Music,Music,1,4.93,74
9509,31450,Sol,Music,Music,1,3.77,88
9517,30082,Sonna Boku ga Suki,Music,Music,1,4.06,68
9520,22393,Sora e,Music,Music,1,5.56,116
9596,32074,Sowa Sowa Calendar,Music,Music,1,5.78,40
9600,32868,Spring Stranger,Music,Music,1,4.14,71
9608,32756,Storywriter,Music,Music,1,5.14,68
9614,9906,Sue Cat,Music,TV,40,6.27,116
9628,25103,Sumiko no Egao,Music,Music,1,4.33,91
9629,29505,Suna Asobi,Music,Special,1,4.37,69
9638,32852,Survivor,Music,Music,1,3.28,70
9641,32907,Susume! Shinji-kun,Music,Music,1,4.89,41
9678,29103,Tanoshii Sansuu,Music,Music,1,3.53,75
9679,15129,Tanpen Animation Junpei Fujita,Music,Special,3,6.75,88
9684,21869,Tarepanda,Music,OVA,1,5.81,118
9689,29425,Teach,Music,TV,4,7.0,43
9696,32812,TeNiOE,Music,Music,1,4.86,79
9700,32167,Tenkousei wa Uchuujin,Music,Music,1,4.09,57
9702,29457,Tenrankai de Atta Onnanoko,Music,Music,1,4.53,78
9709,29856,Tetopettenson,Music,Music,1,3.51,83
9716,30582,"That's Hanakappa Musical: Pan to Gohan, Docchi nano!?",Music,Movie,1,5.2,51
9745,28591,Timbre A to Z,Music,ONA,26,3.98,188
9746,33887,Time for Christmas,Music,Music,1,4.52,42
9755,31055,Tobidasu PriPara: Mi~nna de Mezase! Idol☆Grand Prix,Music,Movie,1,7.22,394
9758,30036,Tokai no Butchy,Music,Movie,1,6.36,64
9762,32799,Tokio Heidi: Mainichi no Kodomo Uta,Music,OVA,1,5.0,44
9766,29780,Tokyo Fantasia,Music,Movie,1,5.04,95
9778,32855,Tonight,Music,Music,1,4.85,91
9781,21711,Torero Kamomiro,Music,Music,1,3.46,103
9789,32758,Toute wa Sono Kotae,Music,Music,1,3.82,83
9792,25079,Trapp Ikka Monogatari Specials,Music,Special,2,6.73,132
9801,32861,Tsukiyomi,Music,Music,1,4.73,86
9867,32639,Usaband,Music,ONA,1,4.32,41
9869,29153,Usagi to Kame (Music),Music,Music,1,4.22,83
9874,32637,Usawaltz,Music,ONA,1,4.67,60
9896,33124,Wakuwaku♥Nukegake Daisakusen,Music,Music,1,4.2,59
9907,30083,Warenai Tamago,Music,Music,1,4.44,74
9916,30085,Watashi no Kamifuusen,Music,Music,1,4.11,76
9917,30207,Watashi wa Tofu Desu,Music,Music,1,4.46,55
9926,31925,White Tree,Music,Music,1,5.18,104
9928,15977,Winner,Music,Music,1,4.76,117
9933,33866,Wonder,Music,Music,1,3.85,60
9976,30165,Yamaguchi Sanchi no Tsutomu-kun,Music,Music,1,4.15,97
9984,32642,Yanesenondo,Music,ONA,1,4.07,59
9991,33908,Yasoukyoku,Music,Music,1,5.14,82
9998,29970,Yell,Music,Music,1,5.46,55
10019,30169,Yubikiri,Music,Music,1,4.54,75
10023,31872,Yukidaruma Kazoku,Music,Music,1,5.25,40
10036,32850,Yuu no Mahou,Music,Music,1,4.48,66
10060,11093,Ziggy: Soreyuke! R&R Band,Music,Movie,1,6.45,123
