,anime_id,name,genre,type,episodes,rating,members
0,32281,Kimi no Na wa.,School,Movie,1,9.37,200630
5,32935,Haikyuu!!: Karasuno Koukou VS Shiratorizawa Gakuen Koukou,School,TV,10,9.15,93351
11,28851,Koe no Katachi,School,Movie,1,9.05,102733
14,28891,Haikyuu!! Second Season,School,TV,25,8.93,179342
16,23273,Shigatsu wa Kimi no Uso,School,TV,22,8.92,416397
19,1575,Code Geass: Hangyaku no Lelouch,School,TV,25,8.83,715151
25,7311,Suzumiya Haruhi no Shoushitsu,School,Movie,1,8.81,240297
30,245,Great Teacher Onizuka,School,TV,43,8.77,268487
42,30654,Ansatsu Kyoushitsu (TV) 2nd Season,School,TV,25,8.68,176475
43,20583,Haikyuu!!,School,TV,25,8.68,284498
58,24415,Kuroko no Basket 3rd Season,School,TV,25,8.62,184525
71,16894,Kuroko no Basket 2nd Season,School,TV,25,8.58,243325
76,170,Slam Dunk,School,TV,101,8.56,82570
78,18617,Girls und Panzer der Film,School,Movie,1,8.55,25641
85,5941,Cross Game,School,TV,50,8.53,53108
86,30346,Doukyuusei (Movie),School,Movie,1,8.53,28864
94,10165,Nichijou,School,TV,26,8.52,254436
97,30230,Diamond no Ace: Second Season,School,TV,51,8.5,38531
110,12531,Sakamichi no Apollon,School,TV,12,8.48,146592
115,392,Yuu☆Yuu☆Hakusho,School,TV,112,8.47,195017
117,11771,Kuroko no Basket,School,TV,25,8.46,338315
126,4224,Toradora!,School,TV,25,8.45,633817
152,13759,Sakurasou no Pet na Kanojo,School,TV,24,8.4,380375
153,6547,Angel Beats!,School,TV,13,8.39,717796
158,853,Ouran Koukou Host Club,School,TV,26,8.39,422271
172,31964,Boku no Hero Academia,School,TV,13,8.36,282002
173,19363,Gin no Saji 2nd Season,School,TV,11,8.36,67032
174,18195,Little Busters!: Refrain,School,TV,13,8.36,71820
177,9863,SKET Dance,School,TV,77,8.36,101027
179,11843,Danshi Koukousei no Nichijou,School,TV,12,8.35,258914
187,31051,Kuroko no Basket: Saikou no Present Desu,School,Special,1,8.34,22900
202,28725,Kokoro ga Sakebitagatterunda.,School,Movie,1,8.32,59652
213,23847,Yahari Ore no Seishun Love Comedy wa Machigatteiru. Zoku,School,TV,13,8.31,222994
214,33161,Yahari Ore no Seishun Love Comedy wa Machigatteiru. Zoku OVA,School,OVA,1,8.31,35120
217,2167,Clannad,School,TV,23,8.3,566690
226,33255,Saiki Kusuo no Ψ-nan (TV),School,TV,120,8.29,47092
242,7054,Kaichou wa Maid-sama!,School,TV,26,8.26,391628
247,18689,Diamond no Ace,School,TV,75,8.25,81384
249,31988,Hibike! Euphonium 2,School,TV,13,8.25,47716
252,23623,Non Non Biyori Repeat,School,TV,12,8.26,64230
253,1559,Shijou Saikyou no Deshi Kenichi,School,TV,50,8.25,129112
255,23289,Gekkan Shoujo Nozaki-kun,School,TV,12,8.24,292622
263,30015,ReLIFE,School,TV,13,8.24,202249
269,26213,Free!: Eternal Summer Special,School,Special,1,8.23,36091
274,18679,Kill la Kill,School,TV,24,8.23,508118
288,72,Full Metal Panic? Fumoffu,School,TV,12,8.21,171086
294,24833,Ansatsu Kyoushitsu (TV),School,TV,22,8.2,312654
296,27663,Baby Steps 2nd Season,School,TV,25,8.2,36251
310,17739,Hidamari Sketch: Sae Hiro Sotsugyou-hen,School,OVA,2,8.19,5959
312,6045,Kimi ni Todoke,School,TV,25,8.19,309339
313,16001,Kokoro Connect: Michi Random,School,Special,4,8.19,106989
315,232,Cardcaptor Sakura,School,TV,70,8.18,181249
317,16918,Gin no Saji,School,TV,11,8.18,116261
320,24997,Love Live! The School Idol Movie,School,Movie,1,8.18,38118
328,12189,Hyouka,School,TV,22,8.17,372246
331,9656,Kimi ni Todoke 2nd Season,School,TV,12,8.17,171866
349,1065,Touch,School,TV,101,8.16,12833
355,30415,High☆Speed!: Free! Starting Days,School,Movie,1,8.15,24310
359,4053,Prince of Tennis: The National Tournament Finals,School,OVA,7,8.15,21020
360,846,School Rumble Ni Gakki,School,TV,26,8.15,93095
363,4059,"Clannad: Mou Hitotsu no Sekai, Tomoyo-hen",School,Special,1,8.14,160423
366,7791,K-On!!,School,TV,26,8.14,246276
394,14813,Yahari Ore no Seishun Love Comedy wa Machigatteiru.,School,TV,13,8.12,353876
397,11739,Kimi to Boku. 2,School,TV,13,8.11,44564
411,32093,Tanaka-kun wa Itsumo Kedaruge,School,TV,12,8.1,101335
431,16395,SKET Dance OVA,School,OVA,1,8.08,11342
435,16916,Kuroko no Basket: Tip Off,School,Special,1,8.07,41760
443,6586,Yume-iro Pâtissière,School,TV,50,8.07,36921
444,66,Azumanga Daioh,School,TV,26,8.06,170901
451,19111,Love Live! School Idol Project 2nd Season,School,TV,13,8.06,91864
456,24,School Rumble,School,TV,26,8.06,178553
457,849,Suzumiya Haruhi no Yuuutsu,School,TV,14,8.06,428569
463,17549,Non Non Biyori,School,TV,12,8.05,133475
464,26123,Seitokai Yakuindomo* OVA,School,OVA,6,8.05,26361
466,9513,Beelzebub,School,TV,60,8.04,217752
472,22,Prince of Tennis,School,TV,178,8.04,87643
475,30279,Yuru Yuri San☆Hai!,School,TV,12,8.04,44335
477,10029,Coquelicot-zaka kara,School,Movie,1,8.03,50689
482,27989,Hibike! Euphonium,School,TV,13,8.03,134694
489,2605,Sayonara Zetsubou Sensei,School,TV,12,8.03,174531
490,4163,Seto no Hanayome OVA,School,OVA,2,8.03,31973
491,3228,Zoku Sayonara Zetsubou Sensei,School,TV,13,8.03,74040
493,6351,"Clannad: After Story - Mou Hitotsu no Sekai, Kyou-hen",School,Special,1,8.02,138364
498,114,Sakigake!! Cromartie Koukou,School,TV,26,8.02,67254
499,11813,Shijou Saikyou no Deshi Kenichi OVA,School,OVA,11,8.02,24167
506,7062,Hidamari Sketch x ☆☆☆,School,TV,12,8.01,15748
507,11887,Kokoro Connect,School,TV,13,8.01,283847
511,6377,Zan Sayonara Zetsubou Sensei,School,TV,13,8.01,55402
514,27633,Gekkan Shoujo Nozaki-kun Specials,School,Special,6,8.0,52672
519,14349,Little Witch Academia,School,Movie,1,8.0,111703
520,1729,Maria-sama ga Miteru 3rd,School,OVA,5,8.0,12394
526,11239,Hidamari Sketch x Honeycomb,School,TV,12,7.99,12590
532,8516,Baka to Test to Shoukanjuu Ni!,School,TV,13,7.98,183722
547,253,Jungle wa Itsumo Hare nochi Guu,School,TV,26,7.97,22214
552,3750,Maria-sama ga Miteru 4th,School,TV,13,7.97,11779
561,21185,Baby Steps,School,TV,25,7.96,59818
564,4872,Goku Sayonara Zetsubou Sensei,School,OVA,3,7.96,40358
572,14741,Chuunibyou demo Koi ga Shitai!,School,TV,12,7.95,394399
586,2104,Seto no Hanayome,School,TV,26,7.95,165008
589,12445,Tasogare Otome x Amnesia,School,TV,12,7.95,172367
593,12893,Danshi Koukousei no Nichijou Specials,School,Special,6,7.94,49891
597,22265,Free!: Eternal Summer,School,TV,13,7.94,150596
599,9563,Hidamari Sketch x ☆☆☆ Specials,School,Special,2,7.94,8734
602,20517,Little Busters!: EX,School,Special,8,7.94,26709
605,12403,Yuru Yuri♪♪,School,TV,12,7.94,83097
606,7044,Zan Sayonara Zetsubou Sensei Bangaichi,School,OVA,2,7.94,22704
613,29755,Haikyuu!! Movie 1: Owari to Hajimari,School,Movie,1,7.94,13094
639,19489,Little Witch Academia: Mahoujikake no Parade,School,Movie,1,7.92,53024
640,4472,Lucky☆Star: Original na Visual to Animation,School,OVA,1,7.92,84833
646,28999,Charlotte,School,TV,13,7.91,310137
652,18897,Nisekoi,School,TV,20,7.91,347599
654,28677,Yamada-kun to 7-nin no Majo (TV),School,TV,12,7.91,193566
657,21405,Bokura wa Minna Kawaisou,School,TV,12,7.9,159793
661,106,Hana yori Dango,School,TV,51,7.9,28341
663,3604,Hidamari Sketch x 365,School,TV,13,7.9,19180
664,11237,Hidamari Sketch x SP,School,Special,2,7.9,7999
669,582,Sexy Commando Gaiden: Sugoiyo!! Masaru-san,School,TV,48,7.9,6473
671,21995,Ao Haru Ride,School,TV,12,7.89,227417
675,7645,Heartcatch Precure!,School,TV,49,7.89,12825
679,9734,K-On!!: Keikaku!,School,Special,1,7.89,50496
685,10119,Seitokai Yakuindomo OVA,School,OVA,8,7.89,63265
688,11111,Another,School,TV,12,7.88,534657
689,32863,Ansatsu Kyoushitsu (TV) 2nd Season: Kagaijugyou-hen,School,ONA,8,7.88,7999
697,6862,K-On!: Live House!,School,Special,1,7.88,70787
701,795,Oniisama e...,School,TV,39,7.88,11424
712,5680,K-On!,School,TV,13,7.87,386048
714,1887,Lucky☆Star,School,TV,24,7.87,305837
717,2594,Piano no Mori,School,Movie,1,7.87,24278
726,1375,Watashi no Ashinaga Ojisan,School,TV,40,7.87,5600
733,22125,Kuroko no Basket: Mou Ikkai Yarimasen ka,School,Special,1,7.86,20397
735,32547,Non Non Biyori Repeat OVA,School,OVA,1,7.86,9729
747,10460,Kimi to Boku.,School,TV,13,7.85,86196
748,444,Maria-sama ga Miteru: Haru,School,TV,13,7.85,14983
754,517,School Rumble Ichi Gakki Hoshuu,School,OVA,2,7.85,40868
764,15487,Kuroko no Basket NG-shuu,School,Special,9,7.84,32215
769,20847,Seitokai Yakuindomo*,School,TV,13,7.84,98544
775,6347,Baka to Test to Shoukanjuu,School,TV,13,7.83,301282
778,1888,Ichigo Mashimaro OVA,School,OVA,3,7.83,15085
794,6984,Hidamari Sketch x 365 Specials,School,Special,3,7.82,10720
796,21659,Kill la Kill Special,School,Special,1,7.82,83795
800,9510,Mitsudomoe Zouryouchuu!,School,TV,8,7.82,26468
801,5751,Prince of Tennis: Another Story - Messages From Past and Future,School,OVA,4,7.82,9487
817,2963,Minami-ke,School,TV,13,7.81,105471
823,9471,Baka to Test to Shoukanjuu: Matsuri,School,OVA,2,7.8,67684
828,74,Gakuen Alice,School,TV,26,7.8,52995
829,30364,Haikyuu!! Movie 2: Shousha to Haisha,School,Movie,1,7.81,10558
830,8426,Hourou Musuko,School,TV,11,7.8,53426
836,16011,Tokyo Ravens,School,TV,24,7.8,171384
837,22819,Aikatsu! Movie,School,Movie,1,7.79,2813
838,9062,Angel Beats! Specials,School,Special,2,7.79,139013
841,5177,Denpa-teki na Kanojo,School,OVA,2,7.79,85409
853,2787,Shakugan no Shana II (Second),School,TV,24,7.79,184525
860,4596,Code Geass: Hangyaku no Lelouch Special Edition Black Rebellion,School,OVA,1,7.78,23285
867,14511,Minami-ke Tadaima,School,TV,13,7.78,31394
871,32729,Orange,School,TV,13,7.78,165358
876,2499,Slam Dunk: Hoero Basketman-damashii! Hanamichi to Rukawa no Atsuki Natsu,School,Movie,1,7.78,7856
877,3470,Special A,School,TV,24,7.78,173603
894,14227,Tonari no Kaibutsu-kun,School,TV,13,7.77,349836
895,24151,Ao Haru Ride OVA,School,OVA,2,7.76,46864
897,24913,Bokura wa Minna Kawaisou: Hajimete no,School,Special,1,7.76,20622
903,18619,Girls und Panzer: Kore ga Hontou no Anzio-sen Desu!,School,OVA,1,7.76,16143
908,20785,Mahouka Koukou no Rettousei,School,TV,26,7.76,285317
918,20031,D-Frag!,School,TV,12,7.75,154548
921,28669,Go! Princess Precure,School,TV,50,7.74,5098
928,19669,Kuroko no Basket: Baka ja Katenai no yo!,School,OVA,1,7.75,26785
936,24405,World Trigger,School,TV,73,7.75,106872
957,355,Shakugan no Shana,School,TV,24,7.74,297058
962,25341,Diamond no Ace OVA,School,OVA,3,7.72,7376
971,7627,Mitsudomoe,School,TV,13,7.73,56483
974,2558,Wakakusa Monogatari: Nan to Jo-sensei,School,TV,40,7.73,2577
975,33513,Ansatsu Kyoushitsu: 365-nichi no Jikan,School,Movie,1,7.72,14896
987,32668,Noblesse: Awakening,School,ONA,1,7.72,28864
989,23701,Toradora! OVA,School,OVA,1,7.72,25154
999,24765,Gakkougurashi!,School,TV,12,7.71,140094
1010,8675,Seitokai Yakuindomo,School,TV,13,7.71,217617
1012,14289,Sukitte Ii na yo.,School,TV,13,7.71,233410
1014,30458,"Tokyo Ghoul: ""Jack""",School,OVA,1,7.71,70635
1018,14967,Boku wa Tomodachi ga Sukunai Next,School,TV,12,7.7,214319
1023,10935,Hourou Musuko Specials,School,Special,2,7.7,4714
1025,21327,Isshuukan Friends.,School,TV,12,7.7,139601
1027,1087,Kimagure Orange☆Road,School,TV,48,7.7,16012
1029,15051,Love Live! School Idol Project,School,TV,13,7.7,155281
1038,10495,Yuru Yuri,School,TV,12,7.7,148140
1040,15061,Aikatsu!,School,TV,178,7.69,16990
1047,1579,Kiniro no Corda: Primo Passo,School,TV,25,7.69,63134
1048,32869,Kuroko no Basket Movie 1: Winter Cup Soushuuhen - Kage to Hikari,School,Movie,1,7.69,7573
1053,3001,Moyashimon,School,TV,11,7.69,44465
1055,2498,Slam Dunk: Shouhoku Saidai no Kiki! Moero Sakuragi Hanamichi,School,Movie,1,7.69,7834
1058,18139,Tonari no Seki-kun,School,TV,21,7.69,82568
1069,10588,Persona 4 the Animation,School,TV,25,7.68,134942
1070,14669,Aura: Maryuuin Kouga Saigo no Tatakai,School,Movie,1,7.67,22599
1074,18507,Free!,School,TV,12,7.67,265791
1076,17729,Grisaia no Kajitsu,School,TV,13,7.67,178166
1079,8217,Jewelpet Twinkle☆,School,TV,52,7.67,4110
1082,9396,Mitsudomoe Special,School,Special,1,7.67,11354
1084,32542,Sakamoto desu ga?,School,TV,12,7.67,171452
1095,14131,Girls und Panzer,School,TV,12,7.66,104275
1097,145,Kareshi Kanojo no Jijou,School,TV,26,7.66,94165
1104,1873,Plawres Sanshirou,School,TV,37,7.66,1718
1107,1861,Slam Dunk: Zenkoku Seiha Da! Sakuragi Hanamichi,School,Movie,1,7.66,7992
1113,12291,Acchi Kocchi (TV),School,TV,12,7.65,127973
1121,2012,Jigoku Sensei Nube,School,TV,49,7.65,8908
1124,5162,Minami-ke Okaeri,School,TV,13,7.65,45233
1127,21667,Non Non Biyori: Okinawa e Ikukoto ni Natta,School,OVA,1,7.65,25169
1130,5419,Paniponi Dash!: Danjite Okonaeba Kishin mo Kore wo Saku,School,Special,1,7.65,6929
1144,13655,Little Busters!,School,TV,26,7.64,138655
1153,32899,Watashi ga Motete Dousunda,School,TV,12,7.64,57638
1155,6408,"""Bungaku Shoujo"" Movie",School,Movie,1,7.63,40984
1157,10067,Angel Beats!: Another Epilogue,School,Special,1,7.63,134180
1163,32526,Love Live! Sunshine!!,School,TV,13,7.63,45246
1169,15989,Saki Achiga-hen: Episode of Side-A Specials,School,Special,4,7.63,9163
1173,11759,Accel World,School,TV,24,7.62,324284
1174,16273,Acchi Kocchi (TV): Place=Princess,School,Special,1,7.62,26246
1184,23269,Hello!! Kiniro Mosaic,School,TV,12,7.63,33295
1185,3165,Hidamari Sketch Specials,School,Special,2,7.62,13334
1187,32870,Kuroko no Basket Movie 2: Winter Cup Soushuuhen - Namida no Saki e,School,Movie,1,7.61,5470
1199,11235,Amagami SS+ Plus,School,TV,13,7.61,73813
1206,2458,Kimagure Orange☆Road OVA,School,OVA,8,7.61,3542
1214,7041,Seto no Hanayome OVA Specials,School,Special,2,7.61,7011
1215,2923,Shugo Chara!,School,TV,51,7.61,121108
1219,18753,Yahari Ore no Seishun Love Comedy wa Machigatteiru. OVA,School,OVA,1,7.61,80676
1223,18671,Chuunibyou demo Koi ga Shitai! Ren,School,TV,12,7.6,208885
1224,16934,Chuunibyou demo Koi ga Shitai!: Kirameki no... Slapstick Noel,School,Special,1,7.6,72085
1239,13587,Persona 4 the Animation: No One is Alone,School,Special,1,7.6,26501
1241,10731,Prince of Tennis: Eikokushiki Teikyuu Shiro Kessen!,School,Movie,1,7.6,6162
1244,8317,Sayonara Zetsubou Sensei Jo: Zoku Zetsubou Shoujo Senshuu,School,Special,1,7.6,6752
1246,1913,Shonan Junai Gumi!,School,OVA,5,7.6,20261
1259,3392,Kiniro no Corda: Primo Passo - Hitonatsu no Encore,School,Special,1,7.59,17967
1261,98,Mai-HiME,School,TV,26,7.59,76492
1262,20541,Mikakunin de Shinkoukei,School,TV,12,7.59,133385
1273,5262,Shugo Chara!! Doki,School,TV,51,7.59,60384
1276,24627,Yamada-kun to 7-nin no Majo (OVA),School,OVA,2,7.59,33816
1282,27601,Chuunibyou demo Koi ga Shitai! Ren: The Rikka Wars,School,Special,1,7.58,31808
1283,22839,Cross Road,School,Special,1,7.58,23038
1294,8676,Amagami SS,School,TV,25,7.57,157223
1295,4186,Chrome Shelled Regios,School,TV,24,7.57,103615
1304,24227,Nisekoi OVA,School,OVA,3,7.57,65287
1306,490,Paniponi Dash!,School,TV,26,7.57,38532
1308,5671,Saki,School,TV,25,7.57,55970
1317,31553,Charlotte: Tsuyoi Monotachi,School,Special,1,7.56,39137
1330,7877,"Momoko, Kaeru no Uta ga Kikoeru yo.",School,Movie,1,7.56,1113
1331,34136,Orange: Mirai,School,Movie,1,7.56,29969
1336,14189,Tasogare Otome x Amnesia: Taima Otome,School,Special,1,7.56,38176
1350,17641,Date A Live: Date to Date,School,OVA,1,7.55,68328
1357,28825,Himouto! Umaru-chan,School,TV,12,7.55,158041
1360,9366,Kaichou wa Maid-sama!: Omake dayo!,School,Special,1,7.55,52752
1365,3468,Maria-sama ga Miteru Specials,School,Special,7,7.55,6085
1370,19221,"Ore no Nounai Sentakushi ga, Gakuen Love Comedy wo Zenryoku de Jama Shiteiru",School,TV,10,7.55,179569
1374,24365,Tonari no Seki-kun Specials,School,Special,2,7.55,14248
1375,2129,True Tears,School,TV,13,7.55,118644
1376,8481,"""Bungaku Shoujo"" Memoire",School,OVA,3,7.54,18013
1382,15583,Date A Live,School,TV,12,7.54,301358
1387,2037,Hime-chan no Ribbon,School,TV,61,7.54,3589
1400,11553,Toradora!: Bentou no Gokui,School,Special,1,7.54,71433
1402,1327,Aoki Densetsu Shoot!,School,TV,58,7.53,6937
1406,8768,Hiyokoi,School,Special,1,7.53,51072
1417,12711,Uta no☆Prince-sama♪ Maji Love 2000%,School,TV,13,7.53,61551
1419,183,Whistle!,School,TV,39,7.53,8040
1422,5251,Angel Densetsu,School,OVA,2,7.52,10795
1429,20903,Harmonie,School,Movie,1,7.52,29029
1435,31414,Nijiiro Days,School,TV,24,7.52,57920
1439,14267,Persona 4 the Animation: The Factor of Hope,School,Movie,1,7.52,10757
1442,3674,Sayonara Zetsubou Sensei Jo: Zetsubou Shoujo Senshuu,School,Special,1,7.52,12097
1444,5909,Seitokai no Ichizon,School,TV,12,7.52,110470
1449,1006,Tenchi Muyou! in Love,School,Movie,1,7.52,14318
1454,1536,Busou Renkin,School,TV,26,7.51,104607
1460,1852,Hidamari Sketch,School,TV,12,7.51,42998
1463,1808,Kamichama Karin,School,TV,26,7.51,30747
1467,3469,Maria-sama ga Miteru: Haru Specials,School,Special,6,7.51,5554
1475,2903,Sakigake!! Otokojuku,School,TV,34,7.51,4740
1487,19163,Date A Live II,School,TV,10,7.5,186187
1495,31665,Hibike! Euphonium: Kakedasu Monaka,School,Special,1,7.5,17770
1499,31952,Kono Bijutsubu ni wa Mondai ga Aru!,School,TV,12,7.5,69088
1505,27787,Nisekoi:,School,TV,12,7.5,180686
1514,7870,Baka to Test to Shoukanjuu Specials,School,Special,6,7.49,29923
1523,16353,Love Lab,School,TV,13,7.49,79493
1524,30829,Love Live! School Idol Project 2nd Season Recap,School,OVA,1,7.5,3213
1532,16123,Saki Zenkoku-hen,School,TV,13,7.49,19010
1535,6572,Shakugan no Shana S,School,OVA,4,7.49,53129
1553,14811,GJ-bu,School,TV,12,7.48,83838
1554,242,Gokusen,School,TV,13,7.48,22009
1561,2927,Kimikiss Pure Rouge,School,TV,24,7.48,58211
1562,17643,Little Busters!: Sekai no Saitou wa Ore ga Mamoru!,School,OVA,1,7.48,17204
1568,10464,Seitokai no Ichizon Lv.2,School,ONA,10,7.48,41169
1574,30641,Yankee-kun na Yamada-kun to Megane-chan to Majo,School,Special,1,7.48,7170
1589,344,Futatsu no Spica,School,TV,20,7.47,5894
1597,29583,Kuroko no Basket: Oshaberi Demo Shimasen ka,School,Special,1,7.47,8011
1608,23673,Ookami Shoujo to Kuro Ouji,School,TV,12,7.47,145439
1614,1764,Slam Dunk (Movie),School,Movie,1,7.47,8750
1619,20977,Tonari no Seki-kun OVA,School,OVA,1,7.47,20774
1621,1744,Wagamama☆Fairy Mirumo de Pon!,School,TV,172,7.47,8713
1625,31245,Zutto Mae kara Suki deshita.: Kokuhaku Jikkou Iinkai,School,Movie,1,7.47,35058
1636,15225,Hentai Ouji to Warawanai Neko.,School,TV,12,7.46,201735
1657,19251,Uta no☆Prince-sama♪ Maji Love 2000%: Shining Star Xmas,School,Special,1,7.46,13903
1661,31771,Amanchu!,School,TV,12,7.45,40481
1662,2986,Bamboo Blade,School,TV,26,7.45,61649
1670,15863,Ginga Kikoutai Majestic Prince,School,TV,24,7.45,35196
1674,5150,Hatsukoi Limited,School,TV,12,7.45,54796
1675,714,High School! Kimengumi,School,TV,86,7.45,1316
1682,28299,Ookami Shoujo to Kuro Ouji OVA,School,OVA,1,7.45,19592
1684,3292,Potemayo Specials,School,Special,6,7.45,2975
1695,855,Strawberry Panic,School,TV,26,7.45,72790
1699,15911,Yuyushiki,School,TV,12,7.45,50351
1701,10479,Beelzebub Specials,School,Special,16,7.44,9834
1724,13333,Tari Tari,School,TV,13,7.44,80960
1738,30991,Himouto! Umaru-chan: Umaru-chan Mou Ikkai!,School,OVA,1,7.43,21413
1739,14753,Hori-san to Miyamura-kun,School,OVA,3,7.43,26535
1742,3958,Kannagi,School,TV,13,7.43,94202
1756,13599,Robotics;Notes,School,TV,22,7.43,107304
1766,28405,Ansatsu Kyoushitsu (TV): Deai no Jikan,School,Special,1,7.42,29382
1776,21681,Hanayamata,School,TV,12,7.42,55536
1778,31989,Hibike! Euphonium Movie: Kitauji Koukou Suisougaku-bu e Youkoso,School,Movie,1,7.42,8349
1784,17259,Kuroko no Basket: Oshaberi Shiyokka,School,Special,1,7.42,23937
1788,20939,"Ore no Nounai Sentakushi ga, Gakuen Love Comedy wo Zenryoku de Jama Shiteiru OVA",School,OVA,1,7.42,35583
1797,5141,Taishou Yakyuu Musume.,School,TV,12,7.42,12248
1798,2683,Tokyo Majin Gakuen Kenpucho: Tou Dai Ni Maku,School,TV,12,7.42,21972
1805,3203,Chibi Maruko-chan Movie,School,Movie,1,7.41,980
1815,10298,Kaichou wa Maid-sama!: Goshujinsama to Asonjao♥,School,Special,1,7.41,41241
1817,16732,Kiniro Mosaic,School,TV,12,7.41,78131
1821,3225,Minami-ke Okawari,School,TV,13,7.41,50837
1823,2926,Myself; Yourself,School,TV,13,7.41,115075
1827,10711,Plastic Neesan,School,ONA,12,7.41,83977
1828,2744,Potemayo,School,TV,12,7.41,11411
1838,10834,Baka to Test to Shoukanjuu: Spinout! Sore ga Bokura no Nichijou,School,Special,6,7.4,19758
1860,15963,Seitokai no Ichizon Lv.2: Watasu Seitokai,School,OVA,1,7.4,11554
1900,11697,Area no Kishi,School,TV,37,7.38,38310
1907,1858,Gakuen Utopia Manabi Straight!,School,TV,12,7.38,19315
1919,4618,RideBack,School,TV,12,7.38,32835
1920,10884,Saki Achiga-hen: Episode of Side-A,School,TV,12,7.38,22358
1921,4015,School Rumble San Gakki,School,OVA,2,7.38,41898
1930,9117,Amagami SS OVA,School,OVA,6,7.37,31010
1944,32740,Girls und Panzer der Film: Arisu War!,School,Special,1,7.36,6548
1947,19619,Jewelpet Twinkle☆: Hohoemi no Niji ni Dokki☆Doki!,School,Special,1,7.37,555
1952,8857,Nichijou: Nichijou no 0-wa,School,OVA,1,7.37,37342
1958,19021,Takanashi Rikka Kai: Chuunibyou demo Koi ga Shitai! Movie,School,Movie,1,7.37,34272
1959,10321,Uta no☆Prince-sama♪ Maji Love 1000%,School,TV,13,7.37,105723
1961,20359,Yamada-kun to 7-nin no Majo,School,ONA,1,7.37,23937
1974,15379,Kotoura-san,School,TV,12,7.36,123691
1986,16868,Sukitte Ii na yo.: Dareka ga,School,OVA,1,7.36,27802
1994,9925,Amagami SS: Tachibana Miya-hen - Imouto,School,Special,1,7.35,31019
1997,1723,Clannad Movie,School,Movie,1,7.35,99506
1998,61,D.N.Angel,School,TV,26,7.35,126914
2001,2484,Gear Fighter Dendoh,School,TV,38,7.35,1548
2014,195,Onegai☆Teacher,School,TV,12,7.35,99558
2020,24029,Shijou Saikyou no Deshi Kenichi Specials,School,Special,4,7.35,4258
2029,9120,Beelzebub: Hirotta Akachan wa Daimaou!?,School,Special,1,7.34,21212
2035,1524,Fuujin Monogatari,School,TV,13,7.34,8717
2036,21635,GJ-bu@,School,Special,1,7.34,18894
2040,4550,Hyakko,School,TV,13,7.34,33112
2041,25159,Inou-Battle wa Nichijou-kei no Naka de,School,TV,12,7.34,144370
2063,32323,Aishen Qiaokeli-ing...,School,ONA,15,7.33,11936
2079,469,Karin,School,TV,24,7.33,106142
2081,11313,Kimi no Iru Machi: Tasogare Kousaten,School,OVA,2,7.33,25799
2093,22865,Rokujouma no Shinryakusha!? (TV),School,TV,12,7.33,76880
2099,5504,Shinkyoku Soukai Polyphonica Crimson S,School,TV,12,7.33,16720
2104,13939,Accel World EX,School,OVA,2,7.32,61198
2107,15711,Bakuman.: Deraman.,School,Special,2,7.32,7962
2108,15687,Chuunibyou demo Koi ga Shitai! Lite,School,ONA,6,7.32,60139
2128,14749,Ore no Kanojo to Osananajimi ga Shuraba Sugiru,School,TV,13,7.32,156116
2141,33929,Boku no Hero Academia: Jump Festa 2016 Special,School,Special,1,7.32,17401
2160,529,Saishuu Heiki Kanojo,School,TV,13,7.31,58051
2163,1860,Tokyo Majin Gakuen Kenpucho: Tou,School,TV,14,7.31,43632
2174,31500,High School Fleet,School,TV,12,7.3,38646
2176,2745,Jigoku Sensei Nube OVA,School,OVA,3,7.3,1426
2178,12175,Koi to Senkyo to Chocolate,School,TV,12,7.3,91552
2180,10397,Mashiro-iro Symphony: The Color of Lovers,School,TV,12,7.3,77284
2188,178,Ultra Maniac,School,TV,26,7.3,20062
2190,1932,Yes! Precure 5,School,TV,49,7.3,6390
2208,8120,Gotou ni Naritai.,School,Movie,1,7.29,1201
2224,16742,Watashi ga Motenai no wa Dou Kangaetemo Omaera ga Warui!,School,TV,12,7.29,257925
2225,3692,Yes! Precure 5 GoGo!,School,TV,48,7.29,3619
2227,8894,Yume-iro Pâtissière: Mune Kyun Tropical Island!,School,Special,1,7.29,5984
2238,20457,"Inari, Konkon, Koi Iroha.",School,TV,10,7.28,65402
2244,14293,Nerawareta Gakuen,School,Movie,1,7.28,44787
2252,4382,Suzumiya Haruhi no Yuuutsu (2009),School,TV,14,7.28,243448
2261,34349,Diamond no Ace: Second Season OVA,School,OVA,2,7.25,1885
2295,6567,Urusei Yatsura: The Shougaibutsu Suieitaikai,School,Special,1,7.27,1848
2301,31298,Baka to Test to Shoukanjuu: Matsuri - Sentakushi Ikou nomi,School,Special,6,7.27,3817
2302,9645,Be-Bop Highschool,School,OVA,7,7.26,1180
2303,31417,Binan Koukou Chikyuu Bouei-bu LOVE! LOVE!,School,TV,12,7.26,13346
2313,3299,H2O: Footprints in the Sand,School,TV,12,7.26,64975
2317,5717,Kiniro no Corda: Secondo Passo,School,Special,2,7.26,24379
2318,31610,Kyoukai no Rinne (TV) 2nd Season,School,TV,25,7.26,15519
2328,33004,Tanaka-kun wa Kyou mo Kedaruge,School,Special,35,7.26,10434
2333,14027,Boku wa Tomodachi ga Sukunai: Relay Shousetsu wa Ketsumatsu ga Hanpanai,School,OVA,1,7.25,59965
2351,13409,Moyashimon Returns,School,TV,11,7.25,16251
2355,1493,Project ARMS: The 2nd Chapter,School,TV,26,7.25,3368
2357,23043,Re Boot,School,Music,1,7.25,1544
2359,2109,Rockman.EXE Stream,School,TV,51,7.25,4161
2369,7059,Black★Rock Shooter (OVA),School,OVA,1,7.24,130665
2377,3219,Gakuen Utopia Manabi Straight! Special,School,Special,1,7.24,4800
2380,3421,Kodomo no Omocha,School,OVA,1,7.24,3118
2382,25143,"Kono Danshi, Sekika ni Nayandemasu.",School,OVA,1,7.24,8873
2405,5670,GA: Geijutsuka Art Design Class,School,TV,12,7.23,12825
2414,31564,Sansha Sanyou,School,TV,12,7.23,28423
2421,11339,A-Channel+smile,School,OVA,2,7.22,13671
2422,16201,Aku no Hana,School,TV,13,7.22,86669
2431,21797,Chuunibyou demo Koi ga Shitai! Ren Lite,School,ONA,6,7.22,31544
2443,5691,Rekka no Honoo: Final Burning,School,Special,1,7.22,4083
2444,5199,Seto no Hanayome Fan Disc,School,Special,2,7.22,4855
2448,1543,Yoake Mae yori Ruriiro na: Crescent Love,School,TV,12,7.22,22770
2449,29513,Aki no Kanade,School,Movie,1,7.21,9611
2463,21853,Love Live! School Idol Project Recap,School,Special,1,7.21,4249
2464,1588,Mamoru-kun ni Megami no Shukufuku wo!,School,TV,24,7.21,16922
2472,6203,Sasameki Koto,School,TV,13,7.21,34297
2480,3505,Yuusha Shirei Dagwon,School,TV,48,7.21,689
2491,15811,Girls und Panzer Specials,School,Special,6,7.2,15228
2492,729,Hiatari Ryoukou!,School,TV,48,7.2,1527
2496,16890,Makai Ouji: Devils and Realist,School,TV,12,7.2,59819
2504,31919,PriPara Movie: Mi~nna no Akogare♪ Let's Go☆Prix Paris,School,Movie,1,7.2,502
2506,20047,Sakura Trick,School,TV,12,7.2,108011
2512,1555,Tokimeki Memorial: Only Love,School,TV,25,7.2,24691
2520,6959,GA: Geijutsuka Art Design Class OVA,School,OVA,1,7.19,3284
2528,33299,Magic-Kyun! Renaissance,School,TV,13,7.19,12095
2537,26165,Yuri Kuma Arashi,School,TV,12,7.19,48549
2553,2077,Kindaichi Shounen no Jikenbo,School,Movie,1,7.18,1641
2556,2044,Mahou no Tenshi Creamy Mami,School,TV,52,7.18,5112
2557,5030,Maria†Holic,School,TV,12,7.18,104663
2562,1569,Otome wa Boku ni Koishiteru,School,TV,12,7.18,42190
2569,6098,Sora no Manimani,School,TV,12,7.18,28652
2574,21439,Uta no☆Prince-sama♪ Maji Love Revolutions,School,TV,13,7.18,27997
2576,31080,Anne Happy♪,School,TV,12,7.17,32040
2583,5978,Kannagi: Moshimo Kannagi ga Attara...,School,Special,1,7.17,22155
2603,31588,All Out!!,School,TV,25,7.16,35461
2609,30383,Classroom☆Crisis,School,TV,13,7.16,55977
2630,1688,Nanatsu-iro★Drops,School,TV,12,7.16,16604
2638,907,Princess Princess,School,TV,12,7.16,38778
2641,22663,Seiken Tsukai no World Break,School,TV,12,7.16,97401
2642,6974,Seikimatsu Occult Gakuin,School,TV,13,7.16,65021
2645,10775,SKET Dance: Demystifying Special,School,Special,1,7.16,3276
2652,20449,"Watashi ga Motenai no wa Dou Kangaetemo Omaera ga Warui!: Motenaishi, Nazomeite Miru",School,OVA,1,7.16,39779
2668,29785,Jitsu wa Watashi wa,School,TV,13,7.15,88500
2673,32013,Oshiete! Galko-chan,School,TV,12,7.15,45778
2727,8630,Hidan no Aria,School,TV,12,7.13,171888
2751,2124,Code Geass: Hangyaku no Lelouch Recaps,School,Special,2,7.12,23194
2758,24457,Houkago no Ouji-sama,School,Special,5,7.13,1199
2764,968,Kakutou Bijin Wulong: Rebirth,School,TV,25,7.12,1895
2765,20039,Kill Me Baby: Butsuzou Kegatte Nise Halloween,School,OVA,1,7.12,7171
2773,32553,Nisekoi: OVA,School,OVA,2,7.12,17022
2774,2570,Ochame na Futago: Claire Gakuin Monogatari,School,TV,26,7.12,1228
2785,659,Azumanga Daioh: Gekijou Tanpen,School,Special,1,7.11,28941
2786,27727,Binan Koukou Chikyuu Bouei-bu LOVE!,School,TV,12,7.11,45873
2823,1953,Code Geass: Hangyaku no Lelouch Picture Drama,School,Special,9,7.1,33004
2855,32494,Days (TV),School,TV,24,7.09,49219
2882,21781,Tsubasa to Hotaru,School,Special,1,7.09,6651
2885,311,Ace wo Nerae!,School,TV,26,7.08,3945
2888,4535,Candy Boy: Nonchalant Talk of the Certain Twin Sisters in Daily Life,School,ONA,7,7.08,43338
2902,162,Pita Ten,School,TV,26,7.08,16047
2906,30375,Starmyu,School,TV,12,7.08,21032
2907,33033,Starmyu OVA,School,OVA,2,7.08,2447
2915,11285,Black★Rock Shooter (TV),School,TV,8,7.07,198991
2928,4205,Kimikiss Pure Rouge Special,School,Special,1,7.07,9144
2929,6293,Koukou Butouden Crows,School,OVA,2,7.07,1509
2943,7669,"""Bungaku Shoujo"" Kyou no Oyatsu: Hatsukoi",School,OVA,1,7.06,14351
2945,9776,A-Channel,School,TV,12,7.06,58564
2955,456,Gokujou Seitokai,School,TV,26,7.06,12234
2957,10191,Katte ni Kaizou,School,OVA,6,7.06,19904
2962,9712,Maria†Holic Alive,School,TV,12,7.06,40502
2965,12119,Natsu-iro Kiseki,School,TV,12,7.06,26883
2971,31374,Shingeki! Kyojin Chuugakkou,School,TV,12,7.06,52928
2975,1897,Zettai Muteki Raijin-Oh,School,TV,51,7.06,592
2978,10737,A-Channel: +A-Channel,School,Special,11,7.05,12631
2984,8728,Code Geass: Hangyaku no Lelouch - Kiseki no Birthday Picture Drama,School,Special,1,7.05,18422
2988,1465,Hakaima Sadamitsu,School,TV,10,7.05,3300
2998,196,Onegai☆Twins,School,TV,12,7.05,59164
3009,1720,To Heart 2 OVA,School,OVA,3,7.05,4754
3011,26453,Tribe Cool Crew,School,TV,50,7.05,3334
3012,5992,Tsuyoshi Shikkari Shinasai,School,TV,112,7.05,550
3019,5116,Candy Boy Episode: EX01 - Mirai Yohouzu,School,OVA,1,7.04,16405
3021,17827,Daitoshokan no Hitsujikai,School,TV,12,7.04,46874
3026,18343,Girls und Panzer: Fushou - Akiyama Yukari no Sensha Kouza,School,Special,6,7.04,5867
3029,21511,Kantai Collection: KanColle,School,TV,12,7.04,100999
3036,31884,Mahoutsukai Precure!,School,TV,48,7.04,3865
3061,31763,Accel World: Infinite∞Burst,School,Movie,1,7.03,21916
3064,11703,Code:Breaker,School,TV,13,7.03,135255
3072,18045,Koi to Senkyo to Chocolate Special,School,Special,1,7.03,15430
3090,2832,Ani*Kuri15,School,Special,15,7.02,12926
3094,1186,Battle Athletess Daiundoukai (TV),School,TV,26,7.02,4806
3096,3456,Candy☆Boy: Side Story For Archive,School,ONA,1,7.02,20294
3158,2493,Touch 3: Kimi ga Toorisugita Ato ni - Don't Pass Me By,School,Movie,1,7.01,1032
3161,30355,Wakaba*Girl,School,TV,13,7.01,22773
3170,32483,Cheer Danshi!!,School,TV,12,7.0,29219
3181,13377,Recorder to Randoseru Re♪,School,TV,13,7.0,17283
3187,21851,Tesagure! Bukatsumono Encore,School,TV,12,7.0,2084
3229,28391,Ao no Kanata no Four Rhythm,School,TV,12,6.98,72174
3241,28423,Kyoukai no Rinne (TV),School,TV,25,6.98,47036
3267,6031,Osu!! Karate Bu,School,OVA,4,6.97,628
3269,1727,Shinkyoku Soukai Polyphonica,School,TV,12,6.97,22282
3281,262,Happy☆Lesson: The Final,School,OVA,3,6.96,6371
3283,20745,Love Live! School Idol Project OVA,School,OVA,1,6.96,21188
3285,9988,Otome wa Boku ni Koishiteru: Futari no Elder,School,OVA,3,6.96,10579
3291,20473,Teekyuu 3,School,TV,12,6.96,13227
3295,743,Umi ga Kikoeru,School,Special,1,6.96,25671
3298,313,Ace wo Nerae! (1979),School,Movie,1,6.95,1564
3301,2259,Dr. Rin ni Kiitemite!,School,TV,51,6.95,1904
3302,32741,Girls und Panzer der Film: Fushou - Akiyama Yukari no Sensha Kouza,School,Special,2,6.94,1667
3307,11079,Kill Me Baby,School,TV,13,6.95,54288
3329,29589,Denpa Kyoushi (TV),School,TV,24,6.94,67336
3335,4353,Gakuen Heaven: Hamu Hamu Heaven,School,Special,12,6.94,5105
3338,1654,Kashimashi: Girl Meets Girl OVA,School,OVA,1,6.94,10910
3347,14627,Recorder to Randoseru,School,OVA,2,6.94,7769
3360,9330,Dragon Crisis!,School,TV,12,6.93,94922
3367,509,I My Me! Strawberry Eggs,School,TV,13,6.93,25043
3368,5296,Jigoku Sensei Nube: Kyoufu no Natsu Yasumi! Asashi no Uni no Gensetsu,School,Movie,1,6.93,1070
3377,2231,Miyuki,School,TV,37,6.93,1423
3386,8908,Tales of Symphonia The Animation: Kaette Kita Kratos-sensei no Private Lesson,School,Special,1,6.93,4037
3407,1882,Sasami: Mahou Shoujo Club 2,School,TV,13,6.92,2277
3410,3159,The Kabocha Wine,School,TV,95,6.92,871
3423,8536,Fortune Arterial: Akai Yakusoku,School,TV,12,6.91,71285
3428,1721,Hitohira,School,TV,12,6.91,14299
3429,8228,Jigoku Sensei Nube: Gozen 0 toki Nube Shisu,School,Movie,1,6.91,913
3433,10945,Maria†Holic Alive Special,School,Special,1,6.91,4669
3436,29129,Ookami Shoujo to Kuro Ouji Recap,School,Special,1,6.91,5577
3441,623,Shichinin no Nana,School,TV,25,6.91,2915
3442,10297,Shin Koihime†Musou: Otome Tairan OVA,School,OVA,1,6.91,3709
3444,18121,Teekyuu 2,School,TV,12,6.91,15887
3476,21325,Pupipo!,School,TV,15,6.9,12781
3477,7396,Shuffle! Prologue,School,OVA,1,6.9,10764
3480,29087,Wangpai Yushi,School,ONA,39,6.9,1184
3492,30376,Isshuukan Friends.: Tomodachi to no Omoide,School,Special,1,6.89,2859
3510,14117,Blood-C: Special Edition,School,Special,2,6.88,6993
3515,296,Dragon Drive,School,TV,38,6.88,14232
3530,13727,Rinne no Lagrange: Kamogawa Days,School,OVA,1,6.88,5793
3534,28835,Tesagure! Bukatsumono Spin-off Purupurun Sharumu to Asobou,School,TV,12,6.88,2007
3560,3954,Tales of Symphonia The Animation: Kratos-sensei no Private Lesson,School,Special,1,6.87,6508
3567,33419,12-sai.: Chicchana Mune no Tokimeki 2nd Season,School,TV,12,6.85,4580
3580,15895,Hiyokoi (2012),School,Special,3,6.86,13168
3586,25259,Persona 4 the Animation: A Brief Lesson on Izanagi & Izanami,School,Special,1,6.86,2497
3600,28723,Aikatsu!: Dai Starmiya Ichigo Matsuri Zenyasai!!,School,Special,1,6.85,630
3604,10897,Boku wa Tomodachi ga Sukunai Episode 0,School,OVA,1,6.85,69233
3613,18053,Koi to Senkyo to Chocolate: Ikenai Hazuki-sensei,School,Special,1,6.85,3526
3618,17585,Myself ; Yourself Specials,School,Special,2,6.85,4128
3623,11635,Sacred Seven: Shirogane no Tsubasa,School,Movie,1,6.85,3940
3624,27709,Saki Biyori Animation,School,OVA,1,6.85,1682
3625,4031,Sakigake!! Otokojuku Movie,School,Movie,1,6.85,1060
3634,17082,Aiura,School,TV,12,6.84,43737
3635,4339,Ashita e Attack!,School,TV,23,6.84,616
3644,4211,Hareluya II Boy,School,TV,25,6.84,676
3652,30292,Saki Achiga-hen: Episode of Side-A - Kuro no Tanjoubi,School,Special,1,6.84,1041
3654,2180,Slow Step,School,OVA,5,6.84,1219
3668,33658,Girls und Panzer: Kore ga Hontou no Anzio-sen Desu! - Fushou - Akiyama Yukari no Sensha Kouza,School,Special,1,6.82,1114
3686,25859,Re-Kan!,School,TV,13,6.83,37544
3690,32555,Stella no Mahou,School,TV,12,6.83,15397
3694,21845,Ushinawareta Mirai wo Motomete,School,TV,12,6.83,47565
3699,19429,Akuma no Riddle,School,TV,12,6.82,127641
3713,8208,Jigoku Sensei Nube (Movie),School,Movie,1,6.82,1120
3720,28817,Mikagura Gakuen Kumikyoku,School,TV,12,6.82,47642
3724,1881,Sasami: Mahou Shoujo Club,School,TV,13,6.82,4056
3725,13619,Sayonara Zetsubou Sensei Special Omake,School,Special,1,6.82,3648
3726,27419,"Tari Tari: Kumottari, Kagayaitari, Mata Itsuka Utattari",School,Special,1,6.82,3466
3730,179,Ultra Maniac OVA,School,OVA,1,6.82,3979
3732,3021,Yume Senshi Wingman,School,TV,47,6.82,918
3735,1593,Azumanga Web Daioh,School,ONA,1,6.81,21904
3753,24821,Isshuukan Friends. Specials,School,Special,12,6.81,10995
3754,667,Kashimashi: Girl Meets Girl,School,TV,12,6.81,32198
3756,18495,Kitakubu Katsudou Kiroku,School,TV,12,6.81,29790
3769,11491,Recorder to Randoseru Do♪,School,TV,13,6.81,29599
3795,850,Gakuen Heaven,School,TV,13,6.8,34787
3796,1581,Gift: Eternal Rainbow,School,TV,12,6.8,21979
3802,24451,Kanojo ga Flag wo Oraretara OVA,School,OVA,1,6.8,10264
3809,11615,Morita-san wa Mukuchi. 2,School,TV,13,6.8,8788
3812,29697,Prince of Tennis: Message in a Bottle,School,Special,1,6.8,813
3813,18099,Recorder to Randoseru Mi☆,School,TV,12,6.8,12240
3815,33524,Sakamoto desu ga? Special,School,Special,1,6.8,23745
3846,10807,Nichijou: Tanken Nichijou no Machi,School,Special,14,6.79,10288
3854,3686,Tokimeki Memorial: Only Love Specials,School,Special,2,6.79,3502
3871,1316,Idaten Jump,School,TV,52,6.78,2724
3879,9335,Megane na Kanojo,School,OVA,4,6.78,10119
3889,30625,Princess Princess Specials,School,Special,12,6.75,687
3891,26019,Rokujouma no Shinryakusha!?,School,Special,1,6.78,3280
3910,2050,Honoo no Tenkousei,School,OVA,2,6.77,2688
3913,12991,Katte ni Kaizou Specials,School,Special,3,6.77,1736
3921,26351,Nagato Yuki-chan no Shoushitsu,School,TV,16,6.77,62601
3926,23209,Sora no Method,School,TV,13,6.77,47900
3928,15125,Teekyuu,School,TV,12,6.77,30291
3944,259,Happy☆Lesson,School,OVA,5,6.76,8067
3956,24705,"Ore, Twintail ni Narimasu.",School,TV,12,6.76,66868
3957,2615,Otome wa Boku ni Koishiteru Special,School,Special,1,6.76,9347
3959,16718,SKET Dance: SD Character Flash Anime,School,ONA,16,6.76,2017
3981,23499,Gakumon!: Ookami Shoujo wa Kujikenai,School,ONA,3,6.75,1477
3984,29853,Girls und Panzer Heartful Tank Disc: Fushou - Akiyama Yukari no Sensha Kouza,School,Special,2,6.75,1457
3990,5305,Koihime†Musou OVA,School,OVA,1,6.75,7747
3997,24075,Persona 4 the Golden Animation,School,TV,12,6.75,39165
4022,1019,Honoo no Mirage,School,TV,13,6.74,12835
4031,10156,Sacred Seven,School,TV,12,6.74,47136
4033,6068,Sensei no Ojikan: Doki Doki School Hours OVA,School,OVA,7,6.74,1441
4046,10490,Blood-C,School,TV,12,6.73,118553
4055,6117,Gokujou!! Mecha Mote Iinchou,School,TV,51,6.73,4162
4071,8542,Shin Ace wo Nerae!,School,TV,25,6.73,562
4078,1198,Tsuyokiss,School,TV,12,6.73,13680
4100,31096,Hibike! Euphonium: Suisougaku-bu no Nichijou,School,Special,7,6.72,12196
4102,22123,Inugami-san to Nekoyama-san,School,TV,12,6.72,35872
4110,3641,Naisho no Tsubomi,School,OVA,3,6.72,5135
4117,3668,Telepathy Shoujo Ran,School,TV,26,6.72,5611
4128,1177,Alien 9,School,OVA,4,6.71,15425
4145,33181,Nijiiro Days OVA,School,OVA,1,6.73,4088
4152,7082,Shugo Chara! Party!,School,TV,25,6.71,41469
4154,21201,Teekyuu 2 Specials,School,Special,2,6.71,5666
4178,33173,Sansha Sanyou Specials,School,Special,3,6.7,2177
4179,472,To Heart,School,TV,13,6.7,16757
4183,32601,12-sai.: Chicchana Mune no Tokimeki,School,TV,12,6.69,12768
4184,4744,Akaneiro ni Somaru Saka,School,TV,12,6.69,91453
4200,9774,Morita-san wa Mukuchi,School,OVA,1,6.69,6636
4207,31716,Rewrite,School,TV,13,6.69,71545
4211,22335,Teekyuu 3 Specials,School,Special,2,6.69,4932
4226,1661,Cutey Honey,School,TV,25,6.68,6596
4263,2041,Ai to Yuuki no Pig Girl Tonde Buurin,School,TV,51,6.67,6183
4285,3735,Ryuuseiki Gakusaver,School,OVA,6,6.67,547
4288,1012,Sexy Commando Gaiden: Sugoiyo!! Masaru-san Specials,School,Special,2,6.67,1029
4303,10338,Honto ni Atta! Reibai Sensei,School,TV,22,6.66,5082
4319,10384,Sono Hanabira ni Kuchizuke wo: Reo x Mai Diaries,School,ONA,10,6.66,5125
4362,19919,Tesagure! Bukatsumono,School,TV,12,6.65,5670
4363,471,To Heart 2,School,TV,13,6.65,13877
4376,125,Futakoi,School,TV,13,6.64,23968
4377,30531,Gakuen Handsome The Animation,School,OVA,1,6.63,2038
4378,8538,Gokujou!! Mecha Mote Iinchou Second Collection,School,TV,51,6.64,1223
4394,6885,Sora no Manimani Specials,School,Special,3,6.64,4444
4405,33222,Fudanshi Koukou Seikatsu,School,TV,12,6.63,26360
4410,23137,Girls und Panzer Heartful Tank Disc Picture Drama,School,Special,4,6.63,2296
4413,25861,Inugami-san to Nekoyama-san Special,School,Special,1,6.63,7062
4419,10671,Morita-san wa Mukuchi.,School,TV,13,6.63,15046
4420,612,PetoPeto-san,School,TV,13,6.63,3956
4448,8560,"Kyou, Koi wo Hajimemasu",School,OVA,2,6.62,20953
4451,12921,Morita-san wa Mukuchi. Specials,School,Special,2,6.62,2769
4455,9077,Rokudenashi Blues,School,Movie,1,6.62,465
4462,17409,Sukitte Ii na yo.: Mei and Marshmallow,School,Special,10,6.62,17684
4470,6579,Chikyuu Bouei Kazoku Special,School,Special,1,6.61,215
4471,17277,Code Geass: Soubou no Oz Picture Drama,School,OVA,5,6.61,6467
4483,9220,Seikimatsu Occult Gakuin Specials,School,Special,4,6.61,7550
4504,8518,Mai-Otome Special: Otome no Inori,School,Special,1,6.6,2068
4505,4209,Mission-E,School,TV,12,6.6,3931
4511,9078,Rokudenashi Blues 1993,School,Movie,1,6.6,298
4515,22785,Sono Hanabira ni Kuchizuke wo: Risa x Miya Gekijou,School,ONA,10,6.6,2291
4517,17821,Stella Jogakuin Koutou-ka C³-bu,School,TV,13,6.6,36235
4524,23579,12-sai.,School,OVA,8,6.59,6211
4533,2771,Chou Kuse ni Narisou,School,TV,39,6.59,752
4537,13139,Gakkatsu!,School,TV,25,6.59,5208
4539,16199,Girls und Panzer: Shoukai Shimasu!,School,Special,2,6.59,11042
4540,3776,Go! Go! Itsutsugo Land,School,TV,50,6.59,393
4543,23121,Jinsei,School,TV,13,6.59,40413
4583,19685,Kanojo ga Flag wo Oraretara,School,TV,13,6.58,74634
4602,2726,Sukeban Deka,School,OVA,2,6.58,1663
4603,31608,Teekyuu 4 Specials,School,Special,2,6.58,1977
4604,8603,Tegami: Haikei Juugo no Kimi e,School,Music,1,6.58,653
4622,25283,Kuusen Madoushi Kouhosei no Kyoukan,School,TV,12,6.57,81870
4636,685,To Heart: Remember My Memories,School,TV,13,6.57,5752
4651,1570,Happiness!,School,TV,12,6.56,24393
4670,10595,VitaminX Addiction,School,OVA,3,6.56,1428
4730,13159,Kuromajo-san ga Tooru!!,School,TV,60,6.54,5677
4733,7981,Obake no Q-tarou (1985),School,TV,510,6.54,161
4746,3778,Yuukan Club,School,OVA,2,6.54,287
4768,33102,Nijiiro Days: Houkago Special,School,Special,1,6.54,1985
4773,30196,Tsubasa to Hotaru (2015),School,Special,4,6.53,1886
4782,2564,Code-E,School,TV,12,6.52,12238
4783,1221,Demashita! Powerpuff Girls Z,School,TV,52,6.52,13624
4789,359,I'll/CKBC,School,OVA,2,6.52,3425
4797,30291,Mini Hama: Minimum Hamatora,School,TV,8,6.53,1947
4810,1624,To Heart 2 Special,School,Special,1,6.52,2599
4822,17147,Gakkatsu! 2nd Season,School,TV,25,6.51,1177
4824,28913,Hidamari Sketch x 365 Recap,School,Special,1,6.51,424
4825,5956,High School! Kimengumi (Movie),School,Movie,1,6.51,270
4827,22113,Kyoukaisenjou no Horizon Specials,School,ONA,4,6.51,1967
4837,32684,Suki na Mono wa Suki Dakara Shou ga Nai!!: Onsen ni Ikou!,School,Special,1,6.51,814
4854,31530,Classroom☆Crisis Special,School,Special,1,6.5,2738
4860,30895,HaruChika: Haruta to Chika wa Seishun suru,School,TV,12,6.5,49971
4861,28915,Hidamari Sketch x ☆☆☆ Recap,School,Special,1,6.5,421
4864,20971,Kiniro no Corda: Blue♪Sky,School,TV,12,6.5,15742
4867,31223,Phantasy Star Online 2 The Animation,School,TV,12,6.5,32470
4886,17020,D.C.III: Da Capo III Special,School,Special,1,6.49,3008
4898,3285,Himitsu no Akko-chan,School,TV,94,6.49,1085
4903,3356,Mahoutsukai Sally,School,TV,109,6.49,1478
4910,24935,Recorder to Randoseru Mi☆ Special,School,Special,1,6.49,2752
4917,1734,Ajimu: Kaigan Monogatari,School,ONA,4,6.48,9102
4948,3011,Yotsunoha,School,OVA,2,6.48,8565
4958,3482,Madonna,School,OVA,2,6.47,849
4970,3977,To Heart Omake,School,Special,6,6.47,2007
4971,30166,Wangpai Yushi Di 0 Ji,School,Special,1,6.47,465
4989,30842,Nekota no Koto ga Kininatte Shikatanai. (ONA),School,ONA,4,6.46,546
5013,21495,Denpa Kyoushi,School,Special,2,6.45,5010
5016,661,Elf-ban Kakyuusei: Anata dake wo Mitsumete...,School,OVA,4,6.45,1849
5031,31914,Shoujo-tachi wa Kouya wo Mezasu,School,TV,12,6.45,60452
5045,24873,Juuou Mujin no Fafnir,School,TV,12,6.44,59544
5049,28385,Seto no Hanayome Picture Drama,School,Special,1,6.44,1264
5060,31319,12-sai. 2nd Season,School,OVA,4,6.43,1383
5065,18881,Code Geass: Hangyaku no Lelouch - Kiseki no Birthday Picture Drama Flash Special,School,Special,1,6.43,5005
5095,33024,Ginga Kikoutai Majestic Prince: Mirai e no Tsubasa,School,Special,1,6.42,2189
5099,3838,Himitsu no Akko-chan 2,School,TV,61,6.42,375
5103,31156,Kuusen Madoushi Kouhosei no Kyoukan OVA,School,OVA,1,6.42,8632
5108,19257,Meganebu!,School,TV,12,6.42,22411
5116,31867,Shoujo-tachi wa Kouya wo Mezasu OVA,School,OVA,1,6.42,7194
5119,3507,Survival,School,Music,1,6.42,2153
5124,6234,True Tears Specials,School,Special,7,6.42,7296
5133,3022,Haai Step Jun,School,TV,45,6.41,400
5139,32202,Kimi ni Maji Kyun!,School,OVA,1,6.42,1801
5146,28963,Nekota no Koto ga Kininatte Shikatanai.,School,Special,1,6.41,612
5151,2027,Wind: A Breath of Heart Specials,School,Special,4,6.41,1335
5158,16740,Hanamaru Youchien Special Preview,School,Special,1,6.4,1093
5160,28911,Hidamari Sketch Recap,School,Special,1,6.4,455
5161,28883,Hidan no Aria AA,School,TV,12,6.4,39538
5163,3839,Himitsu no Akko-chan 3,School,TV,44,6.4,378
5167,19575,Kobayashi ga Kawai sugite Tsurai!!,School,OVA,2,6.4,4251
5177,33247,Tsubasa to Hotaru (2016),School,Special,3,6.4,1411
5181,4591,Yoiko,School,TV,20,6.4,2238
5188,14277,Chitose Get You!!,School,TV,26,6.39,12886
5195,1591,Kujibiki♥Unbalance,School,TV,12,6.39,9021
5214,13807,Corpse Party: Missing Footage,School,OVA,1,6.38,57507
5226,19351,Nijiiro☆Prism Girl,School,OVA,4,6.38,1390
5228,1547,Obake no Q-tarou,School,TV,96,6.38,250
5233,13175,Shiranpuri (Movie),School,Movie,1,6.38,3104
5262,9290,Moyashimon CGI Anime,School,OVA,1,6.37,1415
5265,2714,Sotsugyou: Graduation,School,OVA,2,6.37,548
5266,8042,Taishou Yakyuu Musume. Specials,School,Special,2,6.37,907
5284,2609,Kakyuusei (1999),School,TV,14,6.36,1578
5286,2155,Kono Aozora ni Yakusoku wo: Youkoso Tsugumi Ryou e,School,TV,13,6.36,12622
5294,9424,Seupideuwang Beongae,School,TV,26,6.36,226
5318,31923,Mini Hama: Minimum Hamatora Movies,School,Movie,2,6.35,833
5323,30585,Taifuu no Noruda,School,Movie,1,6.35,14281
5327,2566,Uchuujin Tanaka Tarou,School,TV,24,6.35,386
5331,547,Wind: A Breath of Heart OVA,School,OVA,3,6.35,2043
5336,2023,Bakuen Campus Guardress,School,OVA,4,6.34,1491
5358,11595,Perman (1983),School,TV,526,6.34,447
5368,31668,Teekyuu 5 Specials,School,Special,2,6.35,1308
5386,23367,Kitakubu Katsudou Kiroku: Miniature Theater,School,Special,6,6.33,1154
5429,231,Asagiri no Miko,School,TV,26,6.31,4721
5439,31091,Komori-san wa Kotowarenai!,School,TV,12,6.31,24377
5445,7705,Starry☆Sky,School,ONA,26,6.31,37155
5466,30390,Sengoku Musou: Sengoku Musou High School,School,Special,8,6.3,735
5474,346,W: Wish,School,TV,13,6.3,10523
5505,33808,Girlfriend (Note),School,ONA,3,6.28,1942
5506,3020,Gu-Gu Ganmo,School,TV,50,6.28,259
5512,2083,Natsuki Crisis,School,OVA,2,6.28,1186
5561,1056,Good Morning Call,School,OVA,1,6.26,3970
5575,33902,Suntory Minami Alps no Tennen Mizu,School,Special,3,6.26,3700
5577,31221,Tantei Team KZ Jiken Note,School,TV,16,6.26,9410
5607,5080,Quiz Magic Academy: The Original Animation,School,OVA,1,6.25,7367
5618,2015,Wind: A Breath of Heart,School,OVA,1,6.25,1557
5643,7549,Quiz Magic Academy: The Original Animation 2,School,OVA,1,6.24,3658
5644,756,School Days ONA,School,ONA,1,6.24,21104
5648,2179,Tokimeki Memorial: Forever With You,School,OVA,2,6.24,1734
5681,13927,Sacred Seven: Shirogane no Tsubasa Picture Drama,School,Special,2,6.22,1589
5693,669,Kujibiki Unbalance,School,OVA,3,6.21,8291
5694,2791,Makasete Iruka!,School,OVA,1,6.21,893
5754,1452,The Samurai,School,OVA,1,6.19,839
5782,29876,Chu Feng: B.E.E,School,ONA,6,6.17,11481
5794,2476,School Days,School,TV,12,6.17,279183
5804,32171,Ange Vierge,School,TV,12,6.16,21934
5823,1838,Mitsu x Mitsu Drops,School,OVA,2,6.15,16436
5831,3759,School Days: Valentine Days,School,OVA,1,6.15,32917
5835,4685,Takane no Jitensha,School,Special,1,6.15,1583
5851,18729,Marginal Prince: Gekkeiju no Ouji-tachi - Tokyo Merry-Go-Round,School,Special,1,6.13,728
5859,546,Wind: A Breath of Heart (TV),School,TV,13,6.14,7778
5862,29974,"Diabolik Lovers More,Blood",School,TV,12,6.13,37924
5876,17871,Yonhyakunijuu Renpai Girl,School,Special,1,6.13,2852
5903,33392,Gakuen Handsome,School,TV,12,6.11,10696
5930,31865,Kare Baka: Wagahai no Kare wa Baka de R,School,ONA,8,6.1,4391
5943,12569,Himitsu no Akko-chan (Movie),School,Movie,1,6.09,228
5945,25999,Minna Atsumare! Falcom Gakuen SC,School,TV,12,6.09,1366
5946,3630,Miracle Shoujo Limit-chan,School,TV,25,6.09,236
5971,6311,Sarutobi Ecchan,School,TV,26,6.08,357
5998,27417,Diabolik Lovers OVA,School,OVA,1,6.06,13638
6000,31109,Hatsukoi Monster,School,TV,12,6.06,37238
6008,1912,Marginal Prince: Gekkeiju no Ouji-tachi,School,TV,13,6.06,7962
6013,31846,Puzzle & Dragons CM,School,ONA,2,6.06,696
6020,33798,Cheer Danshi!! Recap,School,Special,1,6.06,2537
6062,31018,DD Hokuto no Ken 2 Ichigo Aji+,School,TV,12,6.03,1695
6064,24855,Girlfriend (Kari),School,TV,12,6.03,24338
6065,22835,Himegoto,School,TV,13,6.03,42129
6069,4130,Petit Eva: Evangelion@School,School,ONA,24,6.03,15734
6079,1623,G-On Riders,School,TV,13,6.02,2606
6081,16317,Ishida to Asakura,School,TV,12,6.02,9800
6099,16636,Kotoura-san: Haruka no Heya,School,ONA,6,6.01,9641
6110,31738,Nanairo Kakumei,School,Special,3,6.0,477
6127,510,Kakyuusei 2: Hitomi no Naka no Shoujo-tachi,School,TV,13,5.99,3334
6136,30813,Youkoso Jitsuryoku Shijou Shugi no Kyoushitsu e,School,Special,1,5.99,718
6173,32256,Mahou no Tenshi Creamy Mami: Zutto Kitto Motto,School,Music,1,5.96,129
6237,786,Pugyuru,School,TV,13,5.92,2513
6242,30358,Turnover,School,ONA,1,5.92,1150
6243,16319,Asako Get You!!,School,OVA,2,5.91,2619
6248,13299,Houkago no Tinker Bell,School,OVA,1,5.91,320
6253,2727,Sweet Valerian,School,TV,18,5.91,1680
6261,1927,Gakuen Tokusou Hikaruon,School,OVA,1,5.9,1068
6315,33771,Cheating Craft,School,TV,12,5.86,23469
6316,1992,Chou Kousoku Gran Doll,School,OVA,3,5.86,837
6326,21775,Yugami-kun ni wa Tomodachi ga Inai,School,ONA,2,5.86,858
6367,21427,Minna Atsumare! Falcom Gakuen,School,TV,13,5.83,3175
6390,17513,Diabolik Lovers,School,TV,12,5.81,107960
6396,6266,Joseito,School,OVA,1,5.81,774
6416,19469,Saiki Kusuo no Ψ-nan,School,ONA,1,5.81,3584
6433,21055,Mission School,School,Music,1,5.79,243
6438,5926,Antique Heart,School,OVA,1,5.78,616
6478,6305,Life no Color,School,Movie,1,5.75,1441
6506,2780,Kyoufu no Bio Ningen Saishuu Kyoushi,School,OVA,1,5.72,1628
6521,31618,Kanojo ga Kanji wo Suki na Riyuu.,School,ONA,2,5.71,449
6544,19925,KY Kei JC Kuukichan,School,ONA,6,5.69,394
6552,2058,Delpower X Bakuhatsu Miracle Genki!,School,OVA,1,5.68,644
6557,5799,Kaede New Town,School,Movie,1,5.68,344
6564,2779,Sotsugyou M: Ore-tachi no Carnival,School,OVA,2,5.68,1268
6612,5447,A-Girl,School,OVA,1,5.63,585
6613,33462,Bernard-jou Iwaku.,School,TV,12,5.63,9367
6620,31498,Pan de Peace!,School,TV,13,5.63,18420
6627,10838,Double-J,School,TV,11,5.62,8467
6638,10801,Copihan,School,ONA,7,5.61,6167
6644,2538,With You: Mitsumeteitai,School,OVA,2,5.61,669
6656,24181,3-Nen C-Gumi 14-Ban Kubozono Chiyoko no Nyuukaku,School,Music,1,5.59,385
6685,30489,Minna Atsumare! Falcom Gakuen SC Special,School,Special,1,5.57,308
6718,32084,"Watashitachi, Luck Logic-bu!",School,TV,12,5.55,1417
6719,7482,"Yume kara, Samenai",School,OVA,1,5.55,366
6725,9967,W: Wish Omake,School,Special,4,5.54,802
6730,1772,Seishoujo Kantai Virgin Fleet,School,OVA,3,5.53,892
6782,31439,Wagamama High Spec,School,TV,12,5.48,19984
6792,1725,Keitai Shoujo,School,ONA,6,5.46,3655
6811,27927,Urawa no Usagi-chan,School,TV,12,5.45,8554
6812,7475,Ano Ko ni 1000%,School,OVA,1,5.44,1084
6826,2983,Digital Devil Story: Megami Tensei,School,OVA,1,5.42,2660
6871,31426,Urawa no Usagi-chan Special,School,Special,1,5.38,764
6891,14479,Mahoutsukai Nara Miso wo Kue!,School,OVA,1,5.36,4179
6972,23401,Tobacco wa Dasai,School,ONA,1,5.26,222
7034,9337,Mayo Elle Otoko no Ko,School,OVA,1,5.17,820
7058,8729,Omoide no Album,School,Music,1,5.14,205
7074,9491,Katsugeki Shoujo Tanteidan,School,OVA,1,5.12,557
7083,1621,Haru no Ashioto The Movie: Ourin Dakkan,School,Movie,1,5.11,1243
7091,19811,Waanabi.jk,School,Special,2,5.1,579
7114,33975,3-Nen D-Gumi Glass no Kamen,School,TV,13,5.06,836
7128,18149,Ishida to Asakura Special,School,Special,1,5.04,2334
7196,2146,Canary,School,OVA,1,4.88,1212
7241,16692,Jigoku Youchien,School,ONA,12,4.73,1062
7358,22377,Wonder Momo,School,ONA,5,3.9,3218
7428,32956,Ahare! Meisaku-kun,School,TV,39,4.54,115
7438,31485,Aikatsu Stars! Movie,School,Movie,1,7.0,1042
7439,32806,Aikatsu!: Nerawareta Mahou no Aikatsu Card,School,Movie,1,6.42,488
7448,18635,Akane-chan,School,TV,26,6.09,195
7467,24865,Amigo Tomodachi,School,OVA,1,6.56,71
7468,19923,Anata ga Furikaeru Toki,School,OVA,1,5.36,174
7487,3844,Apache Yakyuugun,School,TV,26,5.68,268
7541,16514,Batsu & Terry,School,Movie,1,6.19,152
7544,24087,Be-Bop Kaizokuban,School,OVA,3,5.76,162
7582,6568,Bokura no Saibanin Monogatari,School,ONA,1,4.93,214
7641,17893,Cheonbangjichuk Hani,School,TV,13,6.78,149
7648,31202,Chibi Maruko-chan Movie: Italia kara Kita Shounen,School,Movie,1,6.8,206
7671,19177,Chiisana Love Letter: Mariko to Nemunoki no Kodomo-tachi,School,Special,1,5.57,90
7711,19695,Clover 4/3,School,ONA,24,7.43,163
7741,19905,"Dai-chan, Daisuki.",School,Movie,1,6.13,91
7765,18317,Dodani,School,Movie,1,5.14,59
7767,3825,Dokaben,School,TV,163,6.49,301
7898,9345,Gakkou no Kowai Uwasa Shin: Hanako-san ga Kita!!,School,TV,33,6.53,341
7899,20353,Gakkou no Yuurei,School,OVA,6,5.17,256
7911,11593,Ganbare! Bokura no Hit and Run,School,Special,1,5.6,95
7968,33025,Ginga Kikoutai Majestic Prince Movie: Kakusei no Idenshi,School,Movie,1,7.0,1849
7987,26267,Goi-sensei to Tarou,School,OVA,1,6.0,59
7992,10323,Golden Kids,School,ONA,2,4.61,138
7999,24093,Gorillaman,School,OVA,2,6.4,88
8024,26289,Hage,School,OVA,1,6.43,64
8036,19495,Hakusai Anime,School,ONA,3,6.56,260
8037,31255,Hakusai Anime Special,School,Special,1,4.75,67
8068,17667,Harisu no Kaze,School,TV,70,6.44,98
8193,30058,Hong Ling Jin Xia,School,ONA,1,5.85,106
8195,28263,Honto ni Atta Gakkou Kaidan,School,OVA,1,6.14,82
8232,27853,Ichinen Ikkumi,School,OVA,1,6.33,45
8236,28483,Ijime wa Zettai Warui!,School,OVA,1,7.67,46
8245,19947,Ikkyuu-san (1978),School,TV,26,7.23,167
8314,19063,Judo-bu Monogatari,School,OVA,2,5.88,82
8401,31418,KanColle Movie,School,Movie,1,7.69,9439
8473,23085,Kikansha Sensei,School,Movie,1,6.67,76
8493,33034,Kiniro Mosaic: Pretty Days,School,Movie,1,7.23,4505
8536,30235,Kochira Tamago Outou Negaimasu,School,OVA,1,4.5,51
8542,24489,Koha Ginjiro,School,OVA,3,5.6,74
8577,24159,Kougyou Aika Volley Boys,School,OVA,2,5.64,83
8599,17669,Kunimatsu-sama no Otoridai,School,TV,46,6.88,95
8608,22465,KutsuDaru.,School,TV,48,6.03,339
8638,6065,Lemon Angel YJ-ban,School,OVA,2,5.71,217
8686,33183,Mahoutsukai Precure! Movie,School,Movie,1,7.71,514
8772,27559,Mellow,School,OVA,1,6.23,122
8781,5994,Midoriyama Koukou Koushien-hen,School,OVA,10,7.26,138
8782,8522,Midoriyama Koukou Koushien-hen (Movie),School,Movie,1,6.08,93
8809,26337,Minna no Doutoku,School,OVA,6,8.67,41
8960,8953,Nine,School,Special,1,6.71,228
8961,9243,Nine 2: Koibito Sengen,School,Special,1,6.55,151
8962,9244,Nine 3: Kanketsu-hen,School,Special,1,6.35,138
8963,9242,Nine: Original Han,School,Movie,1,6.47,158
8975,21491,Ninjaman Ippei,School,TV,13,6.56,75
9024,22991,Obake no Q-Tarou: Susume! 1/100 Daisakusen,School,Movie,1,6.6,61
9025,22993,Obake no Q-Tarou: Tobidase! Bake Bake Daisakusen,School,Movie,1,5.6,59
9036,19921,Ogami Matsugorou,School,OVA,1,6.08,90
9132,33618,Ozmafia!! Special,School,Special,1,4.35,574
9201,31642,Pittanko! Taiyou-sensei to Pittanko,School,Special,1,6.25,34
9203,30803,"Planetarium Chibi Maruko-chan, Hoshi ni Negai wo",School,Movie,1,6.73,151
9268,16526,Ranpou,School,TV,21,6.67,103
9364,16245,Seikimatsu Leader Gaiden Takeshi!,School,Special,1,6.14,94
9369,17835,Seito Shokun! Kokoro ni Midori no Neckerchief wo,School,Special,1,6.41,116
9382,32583,Sense Honma ni Honma,School,Music,1,4.18,67
9389,15961,Shakotan★Boogie,School,OVA,4,7.6,169
9406,18683,Shibai Taroka,School,OVA,2,6.0,161
9430,7980,Shin Obake no Q-tarou,School,TV,70,5.78,124
9444,26159,Shinken Seminar Koukou Kouza,School,ONA,1,6.06,149
9450,30939,Shiranpuri,School,OVA,1,6.18,155
9470,7092,Shoujo Fight: Norainu-tachi no Odekake,School,OVA,1,5.14,358
9588,11497,Sore Ike! Zukkoke Sannin-gumi,School,TV,26,7.0,86
9724,8524,The Kabocha Wine: Nita no Aijou Monogatari,School,Movie,1,6.77,200
9749,19049,Tobe! Pegasus Kokoro no Goal ni Shoot,School,Movie,1,5.75,76
9755,31055,Tobidasu PriPara: Mi~nna de Mezase! Idol☆Grand Prix,School,Movie,1,7.22,394
9771,26287,Tomoko-chan to Watashi,School,OVA,1,6.8,52
9809,10943,Tsuyoshi Shikkari Shinasai: Tsuyoshi no Time Machine de Shikkari Shinasai,School,Movie,1,6.73,107
9819,12899,Ucchare Goshogawara,School,OVA,1,5.83,152
9831,17649,Udauda Yatteru Hima wa Nee!,School,OVA,2,6.36,122
9840,30049,Uli Chingu Kkachi,School,Movie,1,4.91,42
9841,30054,Uli Sai Jjang-Iya,School,Movie,1,5.0,36
9875,12833,Ushiro no Hyakutarou,School,OVA,2,5.85,89
9876,27851,Ushiro no Seki no Ochiai-kun,School,OVA,1,5.67,55
9894,23741,Wakakusa Monogatari: Nan to Jo-sensei Specials,School,Special,2,6.36,138
9910,22503,Washimo,School,TV,10,5.92,209
9911,29099,Washimo 2nd Season,School,TV,24,5.45,86
9912,30875,Washimo 3rd Season,School,TV,44,5.5,69
9915,29363,Watashi no Ashinaga Ojisan Specials,School,Special,2,6.48,112
9928,15977,Winner,School,Music,1,4.76,117
9942,22757,X Maiden,School,ONA,8,4.58,372
9968,12795,Yajikita Gakuen Douchuuki,School,OVA,2,5.91,255
10000,25589,Yeongsimi,School,TV,13,6.5,53
10005,10113,Yokohama Meibutsu: Otoko Katayama-gumi!,School,OVA,2,6.53,150
10050,33571,Zenryoku Yobikou 5.5 Seminar,School,ONA,9,5.0,46
10051,33570,Zenryoku Yobikou 5.5 Seminar Prologue,School,ONA,1,4.73,62
