,anime_id,name,genre,type,episodes,rating,members
3,9253,Steins;Gate,Thriller,TV,24,9.17,673572
36,11741,Fate/Zero 2nd Season,Thriller,TV,12,8.73,340973
38,19,Monster,Thriller,TV,74,8.72,247562
40,1535,Death Note,Thriller,TV,37,8.71,1013917
45,4282,Kara no Kyoukai 5: Mujun Rasen,Thriller,Movie,1,8.68,111074
53,6114,Rainbow: Nisha Rokubou no Shichinin,Thriller,TV,26,8.64,139474
54,31240,Re:Zero kara Hajimeru Isekai Seikatsu,Thriller,TV,25,8.64,355839
59,11577,Steins;Gate Movie: Fuka Ryouiki no Déjà vu,Thriller,Movie,1,8.61,192424
74,5205,Kara no Kyoukai 7: Satsujin Kousatsu (Kou),Thriller,Movie,1,8.57,95658
93,9756,Mahou Shoujo Madoka★Magica,Thriller,TV,12,8.51,462974
99,11981,Mahou Shoujo Madoka★Magica Movie 3: Hangyaku no Monogatari,Thriller,Movie,1,8.5,135735
103,11979,Mahou Shoujo Madoka★Magica Movie 2: Eien no Monogatari,Thriller,Movie,1,8.49,85361
121,10863,Steins;Gate: Oukoubakko no Poriomania,Thriller,Special,1,8.46,159548
138,1889,Higurashi no Naku Koro ni Kai,Thriller,TV,24,8.41,218101
190,32188,Steins;Gate: Kyoukaimenjou no Missing Link - Divide By Zero,Thriller,Special,1,8.34,38147
193,28223,Death Parade,Thriller,TV,12,8.33,383914
195,3002,Gyakkyou Burai Kaiji: Ultimate Survivor,Thriller,TV,26,8.33,98996
211,11977,Mahou Shoujo Madoka★Magica Movie 1: Hajimari no Monogatari,Thriller,Movie,1,8.31,88164
222,10271,Gyakkyou Burai Kaiji: Hakairoku-hen,Thriller,TV,26,8.29,55566
232,239,Gankutsuou,Thriller,TV,24,8.27,103828
244,23283,Zankyou no Terror,Thriller,TV,11,8.26,342893
290,3783,Kara no Kyoukai 3: Tsuukaku Zanryuu,Thriller,Movie,1,8.21,108720
327,934,Higurashi no Naku Koro ni,Thriller,TV,26,8.17,359494
346,5682,Phantom: Requiem for the Phantom,Thriller,TV,26,8.16,159105
358,1943,Paprika,Thriller,Movie,1,8.15,163308
437,10620,Mirai Nikki (TV),Thriller,TV,26,8.07,657190
461,4280,Kara no Kyoukai 4: Garan no Dou,Thriller,Movie,1,8.05,103600
467,14353,Death Billiards,Thriller,Movie,1,8.04,95690
483,5630,Higashi no Eden,Thriller,TV,11,8.03,276593
495,3782,Kara no Kyoukai 2: Satsujin Kousatsu (Zen),Thriller,Movie,1,8.02,114415
500,658,Touhai Densetsu Akagi: Yami ni Maiorita Tensai,Thriller,TV,26,8.02,48127
530,7724,Shiki,Thriller,TV,22,7.99,251093
655,7193,Aoi Bungaku Series,Thriller,TV,12,7.9,93074
688,11111,Another,Thriller,TV,12,7.88,534657
760,2994,Death Note Rewrite,Thriller,Special,2,7.84,88699
813,2593,Kara no Kyoukai 1: Fukan Fuukei,Thriller,Movie,1,7.81,178880
841,5177,Denpa-teki na Kanojo,Thriller,OVA,2,7.79,85409
862,4725,Ga-Rei: Zero,Thriller,TV,12,7.78,145102
863,6637,Higashi no Eden Movie II: Paradise Lost,Thriller,Movie,1,7.78,87062
925,6624,Kara no Kyoukai Remix: Gate of Seventh Heaven,Thriller,Movie,1,7.75,24735
946,6372,Higashi no Eden Movie I: The King of Eden,Thriller,Movie,1,7.74,101734
952,323,Mousou Dairinin,Thriller,TV,13,7.74,137687
982,5204,Kara no Kyoukai 6: Boukyaku Rokuon,Thriller,Movie,1,7.72,93803
1024,24781,Imawa no Kuni no Alice (OVA),Thriller,OVA,3,7.7,18351
1106,2562,Shion no Ou,Thriller,TV,22,7.66,20553
1191,3420,Shigofumi,Thriller,TV,12,7.62,54000
1205,4039,Golgo 13 (TV),Thriller,TV,50,7.61,18687
1326,3652,Higurashi no Naku Koro ni Rei,Thriller,OVA,5,7.56,99463
1482,11701,Another: The Other - Inga,Thriller,OVA,1,7.5,86261
1496,2204,Karakuri Zoushi Ayatsuri Sakon,Thriller,TV,26,7.5,6197
1570,4715,Shigofumi Special,Thriller,Special,1,7.48,11797
1705,10163,C: The Money of Soul and Possibility Control,Thriller,TV,11,7.44,156853
1970,16700,Higurashi no Naku Koro ni Kaku: Outbreak,Thriller,OVA,1,7.36,33381
2087,4879,Mouryou no Hako,Thriller,TV,13,7.33,36075
2378,6610,Ibara no Ou,Thriller,Movie,1,7.24,38670
2589,33003,Mahou Shoujo Ikusei Keikaku,Thriller,TV,12,7.17,46024
2903,21027,Saibi,Thriller,Movie,1,7.08,1747
3066,12035,Dwaejiui Wang,Thriller,Movie,1,7.03,2697
3209,32153,Mahou Shoujo Madoka★Magica: Concept Movie,Thriller,Movie,1,6.99,5452
3843,12503,Mirai Nikki (TV): Ura Mirai Nikki,Thriller,Special,10,6.79,32565
3952,6736,Mouryou no Hako Special,Thriller,Special,1,6.76,4733
4711,27387,Under the Dog,Thriller,OVA,1,6.55,29922
4727,30524,Kagewani,Thriller,TV,13,6.54,19225
4728,32682,Kagewani: Shou,Thriller,TV,13,6.54,11052
4826,17813,Kyoto Animation: Megane-hen,Thriller,Special,1,6.51,5705
4870,2698,Sanctuary,Thriller,OVA,1,6.5,1514
4949,1346,AD Police,Thriller,OVA,3,6.47,6112
5009,8278,Biohazard 4: Incubate,Thriller,OVA,1,6.45,3604
5015,28673,Duan Nao,Thriller,ONA,16,6.42,1812
5037,13863,Arve Rezzle: Kikaijikake no Yousei-tachi,Thriller,Movie,1,6.44,18770
5076,7598,Loups=Garous,Thriller,Movie,1,6.43,12350
5511,838,Narutaru: Mukuro Naru Hoshi Tama Taru Ko,Thriller,TV,13,6.28,18031
5772,34048,Seoul-yeok,Thriller,Movie,1,6.18,405
6012,31362,Osiris no Tenbin,Thriller,ONA,10,6.06,1447
6217,23837,Meisou! Underworld,Thriller,ONA,1,5.93,1456
6309,12723,Loups=Garous Pilot,Thriller,Special,1,5.87,622
6402,619,Ninja Ryuukenden,Thriller,OVA,1,5.81,2281
6543,20329,Koroshiya-san: The Hired Gun,Thriller,TV,10,5.69,4608
6953,11679,Chainsaw Maid,Thriller,ONA,1,5.27,2373
7018,3064,Kizuoibito,Thriller,OVA,5,5.19,524
7166,1451,Shuranosuke Zanmaken: Shikamamon no Otoko,Thriller,Movie,1,4.95,2229
7329,11869,Bloody Night,Thriller,ONA,1,4.26,1292
7371,16602,Dead Girl Trailer,Thriller,ONA,1,3.74,910
7630,21025,Chang,Thriller,Movie,1,6.33,248
9108,33154,Osiris no Tenbin: Season 2,Thriller,ONA,11,6.08,250
10059,33339,Zhongguo Jingqi Xiansheng,Thriller,ONA,63,6.96,386
