,anime_id,name,genre,type,episodes,rating,members
90,14397,Chihayafuru 2,Game,TV,25,8.52,86074
193,28223,Death Parade,Game,TV,12,8.33,383914
195,3002,Gyakkyou Burai Kaiji: Ultimate Survivor,Game,TV,26,8.33,98996
198,10800,Chihayafuru,Game,TV,25,8.32,158561
222,10271,Gyakkyou Burai Kaiji: Hakairoku-hen,Game,TV,26,8.29,55566
311,135,Hikaru no Go,Game,TV,75,8.19,69000
367,17265,Log Horizon,Game,TV,25,8.14,387100
416,645,Hikaru no Go: Journey to the North Star Cup,Game,Special,1,8.09,13901
467,14353,Death Billiards,Game,Movie,1,8.04,95690
471,29803,Overlord,Game,TV,13,8.04,244268
500,658,Touhai Densetsu Akagi: Yami ni Maiorita Tensai,Game,TV,26,8.02,48127
607,31646,3-gatsu no Lion,Game,TV,23,7.93,59492
785,11757,Sword Art Online,Game,TV,25,7.83,893100
918,20031,D-Frag!,Game,TV,12,7.75,154548
1100,23321,Log Horizon 2nd Season,Game,TV,25,7.66,215817
1106,2562,Shion no Ou,Game,TV,22,7.66,20553
1169,15989,Saki Achiga-hen: Episode of Side-A Specials,Game,Special,4,7.63,9163
1173,11759,Accel World,Game,TV,24,7.62,324284
1193,3369,Shoubushi Densetsu Tetsuya,Game,TV,20,7.62,3735
1256,10765,Hikaru no Go Special,Game,OVA,1,7.59,4253
1308,5671,Saki,Game,TV,25,7.57,55970
1314,481,Yu☆Gi☆Oh! Duel Monsters,Game,TV,224,7.57,132099
1421,28771,Yu☆Gi☆Oh!: The Dark Side of Dimensions,Game,Movie,1,7.53,10263
1445,24037,Selector Spread WIXOSS,Game,TV,12,7.52,42918
1451,3972,Yu☆Gi☆Oh! 5D's,Game,TV,154,7.52,47119
1532,16123,Saki Zenkoku-hen,Game,TV,13,7.49,19010
1584,23383,D-Frag! OVA,Game,OVA,1,7.47,28116
1676,2336,Hikaru no Go: New Year Special,Game,Special,1,7.45,7418
1789,12753,Phi Brain: Kami no Puzzle - Orpheus Order-hen,Game,TV,25,7.42,29878
1790,15651,Phi Brain: Kami no Puzzle - Shukuteki! Rätsel-hen,Game,TV,25,7.42,20424
1832,22273,Selector Infected WIXOSS,Game,TV,12,7.41,80964
1840,15611,Cardfight!! Vanguard: Link Joker-hen,Game,TV,59,7.4,9075
1859,2111,Rockman.EXE Movie: Hikari to Yami no Program,Game,Movie,1,7.4,2562
1920,10884,Saki Achiga-hen: Episode of Side-A,Game,TV,12,7.38,22358
1963,9332,.hack//Quantum,Game,OVA,3,7.36,26163
2024,21881,Sword Art Online II,Game,TV,24,7.35,537892
2047,18391,Mini Van,Game,TV,37,7.34,836
2102,3269,.hack//G.U. Trilogy,Game,Movie,1,7.32,22537
2103,11375,.hack//The Movie: Sekai no Mukou ni,Game,Movie,1,7.32,11617
2104,13939,Accel World EX,Game,OVA,2,7.32,61198
2129,9981,Phi Brain: Kami no Puzzle,Game,TV,25,7.32,64958
2152,32543,Lu Shidai 2nd Season,Game,ONA,13,7.31,740
2159,1835,Ryuusei no Rockman,Game,TV,55,7.31,6670
2167,6901,Battle Spirits: Shounen Gekiha Dan,Game,TV,50,7.3,1135
2184,31280,Selector Destructed WIXOSS Movie,Game,Movie,1,7.3,9447
2220,2108,Rockman.EXE Axess,Game,TV,51,7.29,9025
2226,550,Yu☆Gi☆Oh!,Game,TV,27,7.29,89243
2256,6951,Yu☆Gi☆Oh!: Chou Yuugou! Toki wo Koeta Kizuna,Game,Special,1,7.28,18651
2325,2110,Rockman.EXE Beast,Game,TV,25,7.26,4006
2334,9539,Cardfight!! Vanguard,Game,TV,65,7.25,24821
2359,2109,Rockman.EXE Stream,Game,TV,51,7.25,4161
2420,482,Yu☆Gi☆Oh!: Duel Monsters GX,Game,TV,180,7.23,74331
2479,5458,Yu☆Gi☆Oh! Duel Monsters: Battle City Special,Game,Special,1,7.21,9429
2564,34514,Pokemon Generations,Game,ONA,18,7.21,295
2581,19067,Future Card Buddyfight,Game,TV,64,7.17,3417
2685,48,.hack//Sign,Game,TV,26,7.14,110304
2689,32802,Cardfight!! Vanguard G: Stride Gate-hen,Game,TV,24,7.14,2121
2690,23991,Cardfight!! Vanguard Movie: Neon Messiah,Game,Movie,1,7.14,2336
2782,5298,Yu☆Gi☆Oh! 5D's: Shinkasuru Kettou! Stardust vs. Red Demon's,Game,Special,1,7.12,5176
2800,31233,Lu Shidai,Game,ONA,14,7.11,1762
2806,6946,Mudazumo Naki Kaikaku: The Legend of Koizumi,Game,OVA,3,7.11,8682
2809,2713,Rockman.EXE Beast+,Game,TV,26,7.11,3224
2889,21729,Cardfight!! Vanguard: Legion Mate-hen,Game,TV,33,7.08,5900
2918,31196,Cardfight!! Vanguard G: GIRS Crisis-hen,Game,TV,26,7.07,3060
2942,15489,Yu☆Gi☆Oh! Zexal Second,Game,TV,73,7.07,11293
2944,873,.hack//Roots,Game,TV,26,7.06,50480
2947,13145,Cardfight!! Vanguard: Asia Circuit-hen,Game,TV,39,7.06,11031
2969,1710,Rockman.EXE,Game,TV,56,7.06,19212
2994,5235,Live On Cardliver Kakeru,Game,TV,51,7.05,528
3013,2006,Yu☆Gi☆Oh! (1999),Game,Movie,1,7.05,26934
3061,31763,Accel World: Infinite∞Burst,Game,Movie,1,7.03,21916
3075,33197,Lostorage Incited WIXOSS,Game,TV,12,7.03,21893
3090,2832,Ani*Kuri15,Game,Special,15,7.02,12926
3156,20021,Sword Art Online: Extra Edition,Game,Special,1,7.0,121722
3179,33546,Monster Strike: Mermaid Rhapsody,Game,ONA,1,7.0,854
3237,30039,Future Card Buddyfight 100,Game,TV,50,6.98,1365
3414,2928,.hack//G.U. Returner,Game,OVA,1,6.91,15412
3453,27815,Cardfight!! Vanguard G,Game,TV,48,6.9,4960
3553,1074,Naruto Narutimate Hero 3: Tsuini Gekitotsu! Jounin vs. Genin!! Musabetsu Dairansen taikai Kaisai!!,Game,OVA,1,6.87,45188
3566,1487,.hack//Unison,Game,Special,1,6.86,16411
3636,2786,Bakegyamon,Game,TV,51,6.84,1466
3637,5082,Battle Spirits: Shounen Toppa Bashin,Game,TV,50,6.84,1336
3648,21835,Majin Bone,Game,TV,52,6.84,6836
3652,30292,Saki Achiga-hen: Episode of Side-A - Kuro no Tanjoubi,Game,Special,1,6.84,1041
3758,20999,Mini Van Special,Game,Special,1,6.81,387
3871,1316,Idaten Jump,Game,TV,52,6.78,2724
3972,298,.hack//Tasogare no Udewa Densetsu,Game,TV,12,6.75,47679
4011,299,.hack//Liminality,Game,OVA,4,6.74,24304
4041,10390,.hack//Quantum: Sore ike! Bokura no Chimuchimu-chan!!,Game,Special,3,6.73,5249
4126,1143,.hack//Intermezzo,Game,Special,1,6.71,16637
4232,31675,Haikyuu!! Quest Picture Drama,Game,OVA,3,6.68,3297
4259,1894,Yu☆Gi☆Oh!: Hikari no Pyramid,Game,Movie,1,6.68,37398
4260,20533,Z/X: Ignition,Game,TV,12,6.68,24788
4262,4469,.hack//G.U. Trilogy: Parody Mode,Game,Special,1,6.67,7952
4309,30757,Monster Strike,Game,ONA,51,6.66,7089
4425,4067,Shin Megami Tensei Devil Children,Game,TV,50,6.63,1110
4458,4068,Shin Megami Tensei Devil Children: Light & Dark,Game,TV,52,6.62,800
4482,1964,Sakura Taisen: Ecole de Paris,Game,OVA,3,6.61,2201
4497,23787,Hi☆sCoool! SeHa Girls,Game,TV,13,6.6,7440
4558,4524,Shenmue: The Movie,Game,Movie,1,6.59,682
4569,7395,Card Wang: Mix Master,Game,TV,39,6.58,617
4591,34475,Monster Strike: Rain of Memories,Game,ONA,1,6.58,313
4610,10015,Yu☆Gi☆Oh! Zexal,Game,TV,73,6.58,22480
4641,2702,Bakukyuu Renpatsu! Super Bedaman,Game,TV,18,6.56,592
4667,27891,Sword Art Online II: Debriefing,Game,Special,1,6.56,39092
4818,15219,.hack//Versus: The Thanatos Report,Game,Special,1,6.51,4474
4847,5337,Bakugan Battle Brawlers: New Vestroia,Game,TV,52,6.5,14694
4867,31223,Phantasy Star Online 2 The Animation,Game,TV,12,6.5,32470
5212,2156,Bakugan Battle Brawlers,Game,TV,52,6.38,25846
5218,24675,Future Card Buddyfight Recap,Game,Special,1,6.38,277
5235,3724,Taiko no Tatsujin,Game,TV,26,6.38,406
5241,21595,Yu☆Gi☆Oh! Zexal Second: Iza! Saishuu Kessen e!! Special,Game,Special,1,6.38,1172
5243,454,.hack//Gift,Game,OVA,1,6.37,15411
5294,9424,Seupideuwang Beongae,Game,TV,26,6.36,226
5375,16574,Yu☆Gi☆Oh! Zexal Special,Game,Special,1,6.34,1965
5376,1994,.hack//Tasogare no Udewa Densetsu: Offline de Aimashou,Game,Special,1,6.33,8891
5399,7334,Bakugan Battle Brawlers: Gundalian Invaders,Game,TV,39,6.32,11110
5400,17295,Cosmic Break,Game,ONA,4,6.32,280
5413,5725,Kodai Ouja Kyouryuu King: Yokuryuu Densetsu,Game,TV,30,6.32,1710
5425,16576,Yu☆Gi☆Oh! Zexal Second: Midokoro Tenkomori Special,Game,Special,1,6.32,1832
5476,10330,Bakugan Battle Brawlers: Mechtanium Surge,Game,TV,46,6.29,8662
5497,13143,Baku Tech! Bakugan,Game,TV,51,6.28,1752
5553,21523,Baku Tech! Bakugan Gachi,Game,TV,39,6.26,690
5560,2287,Fighting Foodons,Game,TV,26,6.26,2580
5623,4444,Zero Duel Masters,Game,TV,12,6.25,1217
5655,9282,Duel Masters Movie 3: Honoo no Kizuna XX,Game,Movie,1,6.23,436
5662,1885,Master of Epic: The Animation Age,Game,TV,12,6.23,1139
5846,22099,Hero Bank,Game,TV,51,6.15,1946
5898,23825,Ys IV: The Dawn of Ys,Game,Special,1,6.12,237
5988,22735,Oreca Battle,Game,TV,51,6.07,1632
6013,31846,Puzzle & Dragons CM,Game,ONA,2,6.06,696
6071,32521,Super Mario World: Mario to Yoshi no Bouken Land,Game,OVA,1,6.02,163
6134,33508,Si Ling Bianma: Zhi Shijie Caozong Zhe,Game,ONA,12,5.99,563
6239,8664,"Slime Boukenki: Umi da, Yeah!",Game,Special,1,5.92,403
6848,31102,Taiko no Tatsujin: 15 Shuunenkinen Short Animation,Game,ONA,1,5.4,461
7118,8968,Shogi Hour,Game,ONA,1,5.06,416
7204,33690,Nazotokine,Game,TV,12,4.86,7284
7211,23063,Usagi ga Kowai,Game,Movie,1,4.85,610
7289,32906,Bishoujo Yuugi Unit Crane Game Girls,Game,TV,13,4.54,4673
7358,22377,Wonder Momo,Game,ONA,5,3.9,3218
7533,33708,Baku Tech! Bakugan Gachi: Tokubetsu-hen,Game,ONA,1,5.93,111
7542,32089,Battle Spirits Shinnen Special,Game,Special,1,6.29,109
7636,33703,Chao Shen Youxi,Game,ONA,25,6.5,34
7675,22755,Chikasugi Idol Akae-chan,Game,TV,12,4.28,112
7697,23511,Choubakuretsu Ijigen Menko Battle: Gigant Shooter Tsukasa,Game,TV,32,5.72,162
7904,12243,Game Center Arashi,Game,TV,26,5.85,144
8143,11203,Hero Hero-kun,Game,TV,104,6.33,101
8234,32254,Ijigen Gattai Mojibakeru Z,Game,ONA,1,5.35,59
8304,17291,Jinzou Konchuu Kabutoborg VxV,Game,TV,52,6.94,188
8678,5151,Mahjong Hishouden: Naki no Ryuu,Game,OVA,3,6.39,344
8804,31410,Mini Van 2nd Season,Game,TV,26,6.1,373
8856,33724,Monster Strike The Movie: Hajimari no Basho e,Game,Movie,1,6.75,978
9137,7960,Pachislo Kizoku Gin,Game,TV,23,6.44,223
9637,6981,Super Zugan,Game,TV,21,7.19,187
9793,20087,Treasure Gaust,Game,TV,5,3.82,96
9877,13303,Usogui,Game,OVA,1,5.64,867
9920,9952,Wei Qi Shao Nian,Game,TV,26,6.4,196
9921,19839,Wei Qi Shao Nian 2,Game,TV,26,8.22,86
9951,9822,Xiang Qi Master,Game,TV,26,6.33,252
9967,33744,Yahabe,Game,OVA,1,5.0,34
