,anime_id,name,genre,type,episodes,rating,members
17,24701,Mushishi Zoku Shou 2nd Season,Mystery,TV,10,8.88,75894
25,7311,Suzumiya Haruhi no Shoushitsu,Mystery,Movie,1,8.81,240297
26,17074,Monogatari Series: Second Season,Mystery,TV,26,8.8,205959
27,21939,Mushishi Zoku Shou,Mystery,TV,10,8.8,101351
28,457,Mushishi,Mystery,TV,26,8.78,300030
33,28957,Mushishi Zoku Shou: Suzu no Shizuku,Mystery,Movie,1,8.75,32266
37,31757,Kizumonogatari II: Nekketsu-hen,Mystery,Movie,1,8.73,34347
38,19,Monster,Mystery,TV,74,8.72,247562
40,1535,Death Note,Mystery,TV,37,8.71,1013917
45,4282,Kara no Kyoukai 5: Mujun Rasen,Mystery,Movie,1,8.68,111074
48,21329,Mushishi Special: Hihamukage,Mystery,Special,1,8.66,49036
49,31043,Boku dake ga Inai Machi,Mystery,TV,12,8.65,402381
50,7785,Yojouhan Shinwa Taikei,Mystery,TV,11,8.65,122531
74,5205,Kara no Kyoukai 7: Satsujin Kousatsu (Kou),Mystery,Movie,1,8.57,95658
81,2251,Baccano!,Mystery,TV,13,8.54,363215
82,24687,Mushishi Zoku Shou: Odoro no Michi,Mystery,Special,1,8.54,34011
88,13125,Shinsekai yori,Mystery,TV,25,8.53,288376
105,2246,Mononoke,Mystery,TV,12,8.49,88850
124,9260,Kizumonogatari I: Tekketsu-hen,Mystery,Movie,1,8.45,99579
129,31181,Owarimonogatari,Mystery,TV,12,8.43,107855
132,1365,Detective Conan Movie 06: The Phantom of Baker Street,Mystery,Movie,1,8.42,28462
138,1889,Higurashi no Naku Koro ni Kai,Mystery,TV,24,8.41,218101
141,23317,Kuroshitsuji: Book of Murder,Mystery,OVA,2,8.41,67261
146,5,Cowboy Bebop: Tengoku no Tobira,Mystery,Movie,1,8.4,137636
154,5081,Bakemonogatari,Mystery,TV,15,8.39,482268
155,32867,Bungou Stray Dogs 2nd Season,Mystery,TV,12,8.39,83641
159,5460,Detective Conan Movie 13: The Raven Chaser,Mystery,Movie,1,8.38,21798
160,6746,Durarara!!,Mystery,TV,24,8.38,556431
183,21557,Omoide no Marnie,Mystery,Movie,1,8.35,53590
191,3091,xxxHOLiC Kei,Mystery,TV,13,8.34,74941
193,28223,Death Parade,Mystery,TV,12,8.33,383914
199,32005,Detective Conan Movie 20: The Darkest Nightmare,Mystery,Movie,1,8.32,6229
209,6864,xxxHOLiC Rou,Mystery,OVA,2,8.32,36353
220,3901,Baccano! Specials,Mystery,Special,3,8.29,100412
221,6467,Detective Conan Movie 14: The Lost Ship in the Sky,Mystery,Movie,1,8.29,20602
224,3701,Kaiba,Mystery,TV,12,8.29,56927
232,239,Gankutsuou,Mystery,TV,24,8.27,103828
245,2025,Darker than Black: Kuro no Keiyakusha,Mystery,TV,25,8.25,440334
246,1364,Detective Conan Movie 05: Countdown to Heaven,Mystery,Movie,1,8.25,25432
267,1367,Detective Conan Movie 08: Magician of the Silver Sky,Mystery,Movie,1,8.23,23130
268,27833,Durarara!!x2 Ketsu,Mystery,TV,12,8.23,115295
271,8425,Gosick,Mystery,TV,24,8.23,232113
279,4938,Tsubasa: Shunraiki,Mystery,OVA,2,8.23,40420
282,1566,Ghost in the Shell: Stand Alone Complex - Solid State Society,Mystery,Special,1,8.22,55247
286,1506,Detective Conan Movie 10: Requiem of the Detectives,Mystery,Movie,1,8.21,21789
290,3783,Kara no Kyoukai 3: Tsuukaku Zanryuu,Mystery,Movie,1,8.21,108720
292,11597,Nisemonogatari,Mystery,TV,11,8.21,260062
293,28025,Tsukimonogatari,Mystery,TV,4,8.21,111009
306,2164,Dennou Coil,Mystery,TV,26,8.19,76860
308,2449,Ghost in the Shell: Stand Alone Complex - The Laughing Man,Mystery,Special,1,8.19,21435
316,4789,ef: A Tale of Melodies.,Mystery,TV,12,8.18,103657
325,21419,Detective Conan Movie 18: The Sniper from Another Dimension,Mystery,Movie,1,8.17,12151
327,934,Higurashi no Naku Koro ni,Mystery,TV,26,8.17,359494
328,12189,Hyouka,Mystery,TV,22,8.17,372246
334,4918,xxxHOLiC Shunmuki,Mystery,OVA,2,8.17,40401
335,14075,Zetsuen no Tempest,Mystery,TV,24,8.17,259900
337,781,Detective Conan Movie 03: The Last Wizard of the Century,Mystery,Movie,1,8.16,26799
338,1363,Detective Conan Movie 04: Captured in Her Eyes,Mystery,Movie,1,8.16,25461
353,23199,Durarara!!x2 Shou,Mystery,TV,12,8.15,189407
358,1943,Paprika,Mystery,Movie,1,8.15,163308
371,9963,Detective Conan Movie 15: Quarter of Silence,Mystery,Movie,1,8.13,17165
376,14807,Kara no Kyoukai: Mirai Fukuin,Mystery,Movie,1,8.13,41168
381,33253,Ajin 2nd Season,Mystery,TV,13,8.12,51382
383,1471,City Hunter 2,Mystery,TV,63,8.12,8199
384,27831,Durarara!!x2 Ten,Mystery,TV,12,8.12,132506
385,2924,ef: A Tale of Memories.,Mystery,TV,12,8.12,151106
393,9941,Tiger & Bunny,Mystery,TV,25,8.12,104075
396,21855,Hanamonogatari,Mystery,TV,5,8.11,124886
403,861,xxxHOLiC,Mystery,TV,24,8.11,150872
405,34103,Danganronpa 3: The End of Kibougamine Gakuen - Kibou-hen,Mystery,Special,1,8.1,29969
413,7338,Darker than Black: Kuro no Keiyakusha Gaiden,Mystery,Special,4,8.09,136135
428,1594,Jigoku Shoujo Futakomori,Mystery,TV,26,8.08,79816
430,10721,Mawaru Penguindrum,Mystery,TV,24,8.08,156689
434,387,Haibane Renmei,Mystery,TV,13,8.07,120731
437,10620,Mirai Nikki (TV),Mystery,TV,26,8.07,657190
441,22319,Tokyo Ghoul,Mystery,TV,12,8.07,618056
446,6438,Detective Conan OVA 09: The Stranger in 10 Years...,Mystery,OVA,1,8.06,9649
457,849,Suzumiya Haruhi no Yuuutsu,Mystery,TV,14,8.06,428569
461,4280,Kara no Kyoukai 4: Garan no Dou,Mystery,Movie,1,8.05,103600
462,18429,Lupin III vs. Detective Conan: The Movie,Mystery,Movie,1,8.05,10021
467,14353,Death Billiards,Mystery,Movie,1,8.04,95690
473,2618,Takarajima,Mystery,TV,26,8.04,5306
474,793,xxxHOLiC Movie: Manatsu no Yoru no Yume,Mystery,Movie,1,8.04,41547
479,790,Ergo Proxy,Mystery,TV,23,8.03,265005
483,5630,Higashi no Eden,Mystery,TV,11,8.03,276593
495,3782,Kara no Kyoukai 2: Satsujin Kousatsu (Zen),Mystery,Movie,1,8.02,114415
510,12017,Tiger & Bunny Movie 2: The Rising,Mystery,Movie,1,8.01,13567
512,1470,City Hunter,Mystery,TV,51,8.0,19963
513,780,Detective Conan Movie 02: The Fourteenth Target,Mystery,Movie,1,8.0,26284
529,339,Serial Experiments Lain,Mystery,TV,13,7.99,215829
530,7724,Shiki,Mystery,TV,22,7.99,251093
533,779,Detective Conan Movie 01: The Timed Skyscraper,Mystery,Movie,1,7.98,28947
534,1366,Detective Conan Movie 07: Crossroad in the Ancient Capital,Mystery,Movie,1,7.98,21729
545,1571,Ghost Hunt,Mystery,TV,25,7.97,126426
566,2076,Kindaichi Shounen no Jikenbo (TV),Mystery,TV,148,7.96,8655
573,1472,City Hunter 3,Mystery,TV,13,7.95,6723
574,33028,Danganronpa 3: The End of Kibougamine Gakuen - Zetsubou-hen,Mystery,TV,11,7.95,65503
575,7304,Detective Conan Movie 08: Time Travel of the Silver Sky,Mystery,Special,1,7.95,6515
576,8609,Detective Conan OVA 10: Kid in Trap Island,Mystery,OVA,1,7.95,7757
589,12445,Tasogare Otome x Amnesia,Mystery,TV,12,7.95,172367
594,1505,Detective Conan Movie 09: Strategy Above the Depths,Mystery,Movie,1,7.94,20347
595,4447,Detective Conan Movie 12: Full Score of Fear,Mystery,Movie,1,7.94,19290
624,10083,Shiki Specials,Mystery,Special,2,7.93,37657
628,202,Wolf's Rain,Mystery,TV,26,7.93,171863
632,34036,Detective Conan: Episode One - Chiisaku Natta Meitantei,Mystery,Special,1,8.1,2493
633,10090,Ghost in the Shell: Stand Alone Complex - Solid State Society 3D,Mystery,Movie,1,7.91,7515
642,5530,Pandora Hearts,Mystery,TV,25,7.92,229567
647,1473,City Hunter '91,Mystery,TV,13,7.91,6337
650,1910,Master Keaton OVA,Mystery,OVA,15,7.91,3205
654,28677,Yamada-kun to 7-nin no Majo (TV),Mystery,TV,12,7.91,193566
681,6115,Lupin III vs. Detective Conan,Mystery,Special,1,7.89,15220
688,11111,Another,Mystery,TV,12,7.88,534657
695,30191,Durarara!!x2 Shou: Watashi no Kokoro wa Nabe Moyou,Mystery,Special,1,7.88,22774
708,32189,Danganronpa 3: The End of Kibougamine Gakuen - Mirai-hen,Mystery,TV,12,7.87,83343
723,407,Tantei Gakuen Q,Mystery,TV,45,7.87,16591
729,12117,Detective Conan Movie 16: The Eleventh Striker,Mystery,Movie,1,7.86,14938
742,7305,Detective Conan Movie 10: Promo Special,Mystery,Special,1,7.85,4069
756,30868,Ajin Part 1: Shoudou,Mystery,Movie,1,7.84,22279
760,2994,Death Note Rewrite,Mystery,Special,2,7.84,88699
761,14735,Detective Conan Movie 17: Private Eye in the Distant Sea,Mystery,Movie,1,7.84,12963
780,1096,Mobile Police Patlabor 2: The Movie,Mystery,Movie,1,7.83,11957
791,9785,Detective Conan: Conan vs. Kid - Shark & Jewel,Mystery,Movie,1,7.82,2688
812,3713,Jigoku Shoujo Mitsuganae,Mystery,TV,26,7.81,58993
813,2593,Kara no Kyoukai 1: Fukan Fuukei,Mystery,Movie,1,7.81,178880
816,33263,Kubikiri Cycle: Aoiro Savant to Zaregototsukai,Mystery,OVA,8,7.82,19317
824,150,Blood+,Mystery,TV,50,7.8,208321
835,21867,The Disappearance of Conan Edogawa: The Worst Two Days in History,Mystery,Special,1,7.8,3735
841,5177,Denpa-teki na Kanojo,Mystery,OVA,2,7.79,85409
843,6927,Higashi no Eden Soushuuhen: Air Communication,Mystery,Movie,1,7.79,20059
846,228,Jigoku Shoujo,Mystery,TV,26,7.79,172415
857,31580,Ajin,Mystery,TV,13,7.78,160972
863,6637,Higashi no Eden Movie II: Paradise Lost,Mystery,Movie,1,7.78,87062
866,1418,"Lupin III: Episode 0 ""First Contact""",Mystery,Special,1,7.78,4499
873,208,R.O.D OVA,Mystery,OVA,3,7.78,41701
887,32268,Koyomimonogatari,Mystery,ONA,12,7.77,45632
898,31478,Bungou Stray Dogs,Mystery,TV,12,7.76,187805
899,28479,Detective Conan Movie 19: The Hellfire Sunflowers,Mystery,Movie,1,7.77,8600
909,2985,Majin Tantei Nougami Neuro,Mystery,TV,25,7.76,42730
910,1483,Master Keaton,Mystery,TV,24,7.76,9610
919,7471,Detective Conan Movie 09: Promo Special,Mystery,Special,1,7.75,4172
925,6624,Kara no Kyoukai Remix: Gate of Seventh Heaven,Mystery,Movie,1,7.75,24735
941,7303,Detective Conan: Black History,Mystery,Special,1,7.74,3603
946,6372,Higashi no Eden Movie I: The King of Eden,Mystery,Movie,1,7.74,101734
952,323,Mousou Dairinin,Mystery,TV,13,7.74,137687
961,11531,UN-GO: Inga-ron,Mystery,Movie,1,7.74,23340
965,132,GetBackers,Mystery,TV,49,7.73,73536
978,32915,Durarara!!x2 Ketsu: Dufufufu!!,Mystery,Special,1,7.72,13126
982,5204,Kara no Kyoukai 6: Boukyaku Rokuon,Mystery,Movie,1,7.72,93803
998,1281,Gakkou no Kaidan,Mystery,TV,19,7.71,42033
999,24765,Gakkougurashi!,Mystery,TV,12,7.71,140094
1026,10568,Kamisama no Memochou,Mystery,TV,12,7.7,130502
1034,969,Tsubasa Chronicle 2nd Season,Mystery,TV,26,7.7,79166
1050,6172,Layton Kyouju to Eien no Utahime,Mystery,Movie,1,7.69,12867
1060,32015,Ajin OVA,Mystery,OVA,3,7.68,15613
1069,10588,Persona 4 the Animation,Mystery,TV,25,7.68,134942
1072,8331,Detective Conan Magic File 4: Osaka Okonomiyaki Odyssey,Mystery,OVA,1,7.67,6460
1073,455,Fantastic Children,Mystery,TV,26,7.67,17773
1091,5348,Detective Conan Magic File 2: Kudou Shinichi - The Case of the Mysterious Wall and the Black Lab,Mystery,OVA,1,7.66,7726
1092,9786,Detective Conan: Conan vs. Kid - Jet Black Sniper,Mystery,Movie,1,7.66,2119
1094,31552,Durarara!!x2 Ten: Onoroke Chakapoko,Mystery,Special,1,7.66,16171
1106,2562,Shion no Ou,Mystery,TV,22,7.66,20553
1116,9839,Detective Conan: Black History 2,Mystery,Special,1,7.65,2718
1126,3673,Nijuu Mensou no Musume,Mystery,TV,22,7.65,21009
1136,2514,Detective Conan OVA 04: Conan and Kid and Crystal Mother,Mystery,OVA,1,7.64,8974
1150,10469,Sayonara Zetsubou Sensei Special,Mystery,Special,1,7.63,9669
1155,6408,"""Bungaku Shoujo"" Movie",Mystery,Movie,1,7.63,40984
1168,28497,Rokka no Yuusha,Mystery,TV,12,7.63,218747
1177,6573,Darker than Black: Ryuusei no Gemini,Mystery,TV,12,7.62,222243
1182,364,Gallery Fake,Mystery,TV,37,7.62,6806
1190,10589,Naruto: Shippuuden Movie 5 - Blood Prison,Mystery,Movie,1,7.62,75660
1217,31297,"Tokyo Ghoul: ""Pinto""",Mystery,OVA,1,7.61,52312
1226,2171,Detective Conan Movie 11: Jolly Roger in the Deep Azure,Mystery,Movie,1,7.6,18847
1239,13587,Persona 4 the Animation: No One is Alone,Mystery,Special,1,7.6,26501
1254,1474,City Hunter: Ai to Shukumei no Magnum,Mystery,Movie,1,7.59,3368
1271,2596,Shinreigari: Ghost Hound,Mystery,TV,22,7.59,78469
1297,6231,Detective Conan Magic File 3: Shinichi and Ran - Memories of Mahjong Tiles and Tanabata,Mystery,OVA,1,7.57,7187
1312,567,The Big O,Mystery,TV,26,7.57,45843
1318,1477,City Hunter: The Secret Service,Mystery,Special,1,7.56,2956
1320,1368,Detective Conan OVA 06: Follow the Vanished Diamond! Conan & Heiji vs. Kid!,Mystery,OVA,1,7.56,8436
1326,3652,Higurashi no Naku Koro ni Rei,Mystery,OVA,5,7.56,99463
1327,22763,Kara no Kyoukai: Mirai Fukuin - Extra Chorus,Mystery,Special,1,7.56,14891
1336,14189,Tasogare Otome x Amnesia: Taima Otome,Mystery,Special,1,7.56,38176
1347,1476,City Hunter: Hyakuman Dollar no Inbou,Mystery,OVA,1,7.55,2881
1352,6783,ef: A Tale of Memories. - Recollections,Mystery,Special,1,7.55,9125
1371,165,RahXephon,Mystery,TV,26,7.55,66751
1399,12015,Tiger & Bunny Movie 1: The Beginning,Mystery,Movie,1,7.54,13716
1408,16009,Kamisama no Inai Nichiyoubi,Mystery,TV,12,7.53,122031
1415,10713,Towa no Quon 2: Konton no Ranbu,Mystery,Movie,1,7.53,20132
1416,10798,UN-GO,Mystery,TV,11,7.53,84499
1418,4752,Vampire Knight Guilty,Mystery,TV,13,7.53,198492
1430,142,Kamikaze Kaitou Jeanne,Mystery,TV,44,7.52,31081
1439,14267,Persona 4 the Animation: The Factor of Hope,Mystery,Movie,1,7.52,10757
1450,27899,Tokyo Ghoul √A,Mystery,TV,12,7.52,408357
1453,30869,Ajin Part 2: Shoutotsu,Mystery,Movie,1,7.51,11377
1455,1475,City Hunter: Bay City Wars,Mystery,Movie,1,7.51,2969
1456,13837,Detective Conan Bonus File: Fantasista Flower,Mystery,OVA,1,7.51,4596
1457,10703,Detective Conan OVA 11: A Secret Order from London,Mystery,OVA,1,7.51,5985
1482,11701,Another: The Other - Inga,Mystery,OVA,1,7.5,86261
1496,2204,Karakuri Zoushi Ayatsuri Sakon,Mystery,TV,26,7.5,6197
1498,31227,Kindaichi Shounen no Jikenbo Returns 2nd Season,Mystery,TV,22,7.5,3676
1516,16592,Danganronpa: Kibou no Gakuen to Zetsubou no Koukousei The Animation,Mystery,TV,13,7.49,298550
1533,30187,Sakurako-san no Ashimoto ni wa Shitai ga Umatteiru,Mystery,TV,12,7.49,99665
1566,23421,Re:␣Hamatora,Mystery,TV,12,7.48,73903
1585,10531,Detective Conan Magic File 5: Niigata - Tokyo Omiyage Capriccio,Mystery,OVA,1,7.47,5369
1593,27969,Hana to Alice: Satsujin Jiken,Mystery,Movie,1,7.47,9766
1600,1439,Lupin III: Walther P-38,Mystery,Special,1,7.47,3134
1612,7662,Shinrei Tantei Yakumo,Mystery,TV,13,7.47,78952
1639,1972,Meitantei Holmes,Mystery,TV,26,7.46,3985
1655,198,Speed Grapher,Mystery,TV,24,7.46,64627
1666,15109,Cuticle Tantei Inaba,Mystery,TV,12,7.45,50019
1690,1548,Shin Taketori Monogatari: 1000-nen Joou,Mystery,TV,42,7.45,1805
1692,33969,Shuangsheng Lingtan,Mystery,ONA,20,7.45,1227
1703,20787,Black Bullet,Mystery,TV,13,7.44,320267
1705,10163,C: The Money of Soul and Possibility Control,Mystery,TV,11,7.44,156853
1731,2512,Detective Conan OVA 02: 16 Suspects,Mystery,OVA,1,7.43,8548
1736,1441,Ginga Tetsudou no Yoru,Mystery,Movie,1,7.43,7755
1756,13599,Robotics;Notes,Mystery,TV,22,7.43,107304
1779,3859,Himitsu: The Revelation,Mystery,TV,26,7.42,11761
1783,22817,Kindaichi Shounen no Jikenbo Returns,Mystery,TV,25,7.42,8128
1785,335,Matantei Loki Ragnarok,Mystery,TV,26,7.42,25098
1789,12753,Phi Brain: Kami no Puzzle - Orpheus Order-hen,Mystery,TV,25,7.42,29878
1790,15651,Phi Brain: Kami no Puzzle - Shukuteki! Rätsel-hen,Mystery,TV,25,7.42,20424
1798,2683,Tokyo Majin Gakuen Kenpucho: Tou Dai Ni Maku,Mystery,TV,12,7.42,21972
1804,5578,Aoyama Goushou Tanpenshuu,Mystery,Special,7,7.41,2177
1811,20689,Hamatora The Animation,Mystery,TV,12,7.41,133571
1814,953,Jyu Oh Sei,Mystery,TV,11,7.41,44766
1824,272,Noir,Mystery,TV,26,7.41,66036
1826,326,Petshop of Horrors,Mystery,TV,4,7.41,32696
1865,3457,Vampire Knight,Mystery,TV,13,7.4,286826
1885,6980,Kaidan Restaurant,Mystery,TV,23,7.39,9994
1899,282,Angel Heart,Mystery,TV,50,7.38,9550
1903,6948,Bakemonogatari Recap,Mystery,Special,1,7.38,28557
1905,2597,Detective Conan OVA 07: A Challenge from Agasa! Agasa vs. Conan and the Detective Boys,Mystery,OVA,1,7.38,7627
1925,341,Spiral: Suiri no Kizuna,Mystery,TV,25,7.38,36187
1935,1369,Detective Conan OVA 01: Conan vs. Kid vs. Yaiba,Mystery,OVA,1,7.37,10294
1936,2515,Detective Conan OVA 05: The Target is Kogoro! The Detective Boys' Secret Investigation,Mystery,OVA,1,7.37,7666
1970,16700,Higurashi no Naku Koro ni Kaku: Outbreak,Mystery,OVA,1,7.36,33381
1972,16035,Karneval (TV),Mystery,TV,13,7.36,108174
1977,1013,Le Chevalier D'Eon,Mystery,TV,24,7.36,33035
1989,7,Witch Hunter Robin,Mystery,TV,26,7.36,64905
1992,30870,Ajin Part 3: Shougeki,Mystery,Movie,1,7.36,9638
2005,3245,Kindaichi Shounen no Jikenbo Specials,Mystery,Special,2,7.35,1194
2021,28621,Subete ga F ni Naru: The Perfect Insider,Mystery,TV,11,7.35,81230
2030,8915,Dantalian no Shoka,Mystery,TV,12,7.34,84779
2045,1437,Lupin III: Honoo no Kioku - Tokyo Crisis,Mystery,Special,1,7.34,3138
2058,173,Tactics,Mystery,TV,25,7.34,27358
2060,4896,Umineko no Naku Koro ni,Mystery,TV,26,7.34,126865
2062,1901,11-nin Iru!,Mystery,Movie,1,7.33,4311
2087,4879,Mouryou no Hako,Mystery,TV,13,7.33,36075
2103,11375,.hack//The Movie: Sekai no Mukou ni,Mystery,Movie,1,7.32,11617
2112,2030,El Cazador de la Bruja,Mystery,TV,26,7.32,31874
2116,2899,Higurashi no Naku Koro ni Special: Nekogoroshi-hen,Mystery,Special,1,7.32,46415
2129,9981,Phi Brain: Kami no Puzzle,Mystery,TV,25,7.32,64958
2142,2513,Detective Conan OVA 03: Conan and Heiji and the Vanished Boy,Mystery,OVA,1,7.31,8252
2169,6198,Detective Conan OVA 08: High School Girl Detective Sonoko Suzuki's Case Files,Mystery,OVA,1,7.3,6931
2186,11341,Tantei Opera Milky Holmes Dai 2 Maku,Mystery,TV,12,7.3,11941
2213,6954,Kara no Kyoukai: Shuushou,Mystery,Special,1,7.29,45718
2214,2901,Kochira Katsushikaku Kameari Kouenmae Hashutsujo The Movie,Mystery,Movie,1,7.29,786
2252,4382,Suzumiya Haruhi no Yuuutsu (2009),Mystery,TV,14,7.28,243448
2258,369,Boogiepop wa Warawanai: Boogiepop Phantom,Mystery,TV,12,7.27,47280
2273,1145,Kaze no Youjinbou,Mystery,TV,25,7.27,5646
2279,279,Kyougoku Natsuhiko: Kousetsu Hyaku Monogatari,Mystery,TV,13,7.27,20859
2344,28869,Kaitou Joker 2nd Season,Mystery,TV,13,7.25,2655
2373,12879,Dantalian no Shoka: Ibarahime,Mystery,OVA,1,7.24,14079
2378,6610,Ibara no Ou,Mystery,Movie,1,7.24,38670
2397,1246,Yuugo: Koushounin,Mystery,TV,13,7.24,6108
2400,32313,Concrete Revolutio: Choujin Gensou - The Last Song,Mystery,TV,11,7.23,16116
2442,1601,Red Garden,Mystery,TV,22,7.22,27169
2452,2043,Cat's Eye,Mystery,TV,73,7.21,7608
2490,30290,Fw:Hamatora,Mystery,Movie,1,7.2,3718
2496,16890,Makai Ouji: Devils and Realist,Mystery,TV,12,7.2,59819
2527,149,Loveless,Mystery,TV,12,7.19,85554
2529,2931,Mokke,Mystery,TV,24,7.19,8362
2535,3614,Yakushiji Ryouko no Kaiki Jikenbo,Mystery,TV,13,7.19,11002
2553,2077,Kindaichi Shounen no Jikenbo,Mystery,Movie,1,7.18,1641
2565,2369,Rental Magica,Mystery,TV,24,7.18,39806
2587,252,Madlax,Mystery,TV,26,7.17,25995
2607,751,Bomberman Jetters,Mystery,TV,52,7.16,1876
2627,620,Mermaid Forest,Mystery,TV,13,7.16,14073
2642,6974,Seikimatsu Occult Gakuin,Mystery,TV,13,7.16,65021
2647,876,Street Fighter II V,Mystery,TV,29,7.16,14002
2658,29437,Detective Conan: Happy New Year Special,Mystery,Special,1,7.15,1202
2685,48,.hack//Sign,Mystery,TV,26,7.14,110304
2692,13839,Detective Conan OVA 12: The Miracle of Excalibur,Mystery,OVA,1,7.14,4947
2752,15037,Corpse Party: Tortured Souls - Bougyakusareta Tamashii no Jukyou,Mystery,OVA,4,7.12,126699
2780,3574,Switch,Mystery,OVA,2,7.12,17871
2796,10504,Gosick Recap,Mystery,Special,1,7.11,8792
2801,1421,Lupin III: Hemingway Paper no Nazo,Mystery,Special,1,7.11,2819
2820,15933,Vassalord.,Mystery,OVA,1,7.11,15114
2843,169,Shingetsutan Tsukihime,Mystery,TV,12,7.1,90713
2861,21431,Gokukoku no Brynhildr,Mystery,TV,13,7.09,159899
2867,31670,Kaitou Joker 3rd Season,Mystery,TV,13,7.09,1880
2872,1435,Lupin III: Lupin vs. Fukusei-ningen,Mystery,Movie,1,7.09,4969
2873,4202,Mokke Specials,Mystery,Special,2,7.09,1331
2875,621,Night Walker: Mayonaka no Tantei,Mystery,TV,12,7.09,11143
2894,30825,Gakkou no Kaidan: Kubinashi Rider!! Shi no Noroi,Mystery,Special,1,7.08,2601
2900,2017,Mermaid's Scar,Mystery,OVA,1,7.08,3552
2976,308,Zettai Shounen,Mystery,TV,26,7.06,11165
2983,1844,CLAMP Gakuen Tanteidan,Mystery,TV,26,7.05,7830
3007,10923,Tantei Opera Milky Holmes: Summer Special,Mystery,Special,1,7.05,5050
3030,32376,Kindaichi Shounen no Jikenbo Returns 2nd Season: Akechi Keibu no Jikenbo,Mystery,Special,1,7.04,625
3031,15819,Kindaichi Shounen no Jikenbo: Kuromajutsu Satsujin Jiken-hen,Mystery,OVA,2,7.04,782
3051,7768,Tantei Opera Milky Holmes,Mystery,TV,12,7.04,28812
3101,24169,Detective Conan: The Fugitive Kogorou Mouri,Mystery,ONA,1,7.02,2403
3108,12481,Gregory Horror Show: The Second Guest,Mystery,TV,25,7.02,603
3133,2055,Coo: Tooi Umi kara Kita Coo,Mystery,Movie,1,7.01,850
3145,20423,Kamisama no Inai Nichiyoubi: Kioku,Mystery,Special,1,7.01,18722
3146,15783,Lupin III: Touhou Kenbunroku - Another Page,Mystery,Special,1,7.01,1773
3147,2016,Mermaid Forest OVA,Mystery,OVA,1,7.01,3708
3154,4332,Seigi wo Aisuru Mono Gekkou Kamen,Mystery,TV,39,7.01,282
3174,9154,Kindaichi Shounen no Jikenbo: Satsuriku no Deep Blue,Mystery,Movie,1,7.0,631
3212,1935,Megazone 23,Mystery,OVA,4,6.99,6483
3238,10604,Hidan no Aria Special,Mystery,Special,1,6.98,32988
3296,595,X OVA,Mystery,OVA,1,6.96,8405
3299,244,Agatha Christie no Meitantei Poirot to Marple,Mystery,TV,39,6.95,3933
3348,2965,Suteki Tantei Labyrinth,Mystery,TV,25,6.94,6412
3397,24909,Kaitou Joker,Mystery,TV,13,6.92,6352
3435,942,Nishi no Yoki Majo: Astraea Testament,Mystery,TV,13,6.91,11042
3462,6069,Gregory Horror Show,Mystery,TV,25,6.9,1385
3527,1243,Night Head Genesis,Mystery,TV,24,6.88,20856
3537,31147,Concrete Revolutio: Choujin Gensou,Mystery,TV,13,6.87,46938
3545,1082,Hikari to Mizu no Daphne,Mystery,TV,24,6.87,8876
3611,23115,Hamatora The Animation: Saishuukai Chokuzen! Mao ga Okuru Soushuuhen Special,Mystery,Special,1,6.85,4587
3709,32946,Gyakuten Saiban 6 Prologue,Mystery,ONA,1,6.81,1108
3715,2704,Kaiketsu Jouki Tanteidan,Mystery,TV,26,6.82,2128
3729,1043,Tokyo Babylon,Mystery,OVA,2,6.82,11730
3761,1109,Monster Extra,Mystery,Special,1,6.81,6004
3770,3024,Ribbon no Kishi,Mystery,TV,52,6.81,1654
3799,12483,Gregory Horror Show: The Last Train,Mystery,TV,26,6.8,505
3843,12503,Mirai Nikki (TV): Ura Mirai Nikki,Mystery,Special,10,6.79,32565
3850,2161,Skull Man,Mystery,TV,13,6.79,16361
3876,21701,Kindaichi Shounen no Jikenbo: Shinigami Byouin Satsujin Jiken,Mystery,Special,1,6.78,528
3880,222,Mezzo DSA,Mystery,TV,13,6.78,11750
3881,32962,Occultic;Nine,Mystery,TV,12,6.78,82532
3901,1136,Betterman,Mystery,TV,26,6.77,8037
3917,4320,Lupin III: Green vs. Red,Mystery,OVA,1,6.77,3769
3952,6736,Mouryou no Hako Special,Mystery,Special,1,6.76,4733
3960,1742,Souryuuden,Mystery,OVA,12,6.76,1408
3997,24075,Persona 4 the Golden Animation,Mystery,TV,12,6.75,39165
4001,28619,Ranpo Kitan: Game of Laplace,Mystery,TV,11,6.75,66777
4006,11685,Takarajima Memorial: Yuunagi to Yobareta Otoko,Mystery,OVA,1,6.74,536
4011,299,.hack//Liminality,Mystery,OVA,4,6.74,24304
4062,15347,Meitantei Holmes: Aoi Ruby no Maki / Kaitei no Zaihou no Maki,Mystery,Movie,1,6.73,507
4106,23133,M3: Sono Kuroki Hagane,Mystery,TV,24,6.72,38301
4126,1143,.hack//Intermezzo,Mystery,Special,1,6.71,16637
4155,916,Tokkou,Mystery,TV,13,6.71,30836
4229,365,Fake,Mystery,OVA,1,6.68,10926
4231,7112,Ginga Tetsudou no Yoru: Fantasy Railroad in the Stars,Mystery,Movie,1,6.68,1062
4276,1085,Interlude,Mystery,OVA,3,6.67,7573
4283,5288,RahXephon Specials,Mystery,Special,2,6.67,2566
4284,31593,Rokka no Yuusha Picture Drama,Mystery,Special,3,6.68,3912
4342,33309,Jie Mo Ren,Mystery,ONA,14,6.65,942
4343,3435,Joou Heika no Petite Angie,Mystery,TV,26,6.65,451
4398,33377,"Trickster: Edogawa Ranpo ""Shounen Tanteidan"" yori",Mystery,TV,24,6.64,52260
4434,4975,ChäoS;HEAd,Mystery,TV,12,6.62,174337
4436,33145,Detective Conan: Nazo no Suisei Kaijuu wo Oe!,Mystery,OVA,1,6.62,976
4475,20441,Meitantei Holmes: Mrs. Hudson Hitojichi Jiken no Maki / Dover Kaikyou no Daikuuchuusen no Maki,Mystery,Movie,1,6.61,260
4479,26359,Persona 4 the Golden Animation: Thank you Mr. Accomplice,Mystery,Special,1,6.61,5230
4544,1456,L/R: Licensed by Royal,Mystery,TV,12,6.59,2388
4560,14647,Tantei Opera Milky Holmes: Alternative,Mystery,Special,2,6.59,3755
4577,10491,Higurashi no Naku Koro ni Kira,Mystery,OVA,4,6.58,46712
4589,1879,Midnight Eye: Gokuu,Mystery,OVA,1,6.58,2670
4616,22053,Gakkou no Kaidan (OVA),Mystery,OVA,10,6.57,452
4637,1981,Twilight Q,Mystery,OVA,2,6.57,2962
4701,2237,Rozen Maiden: Meitantei Kunkun - Duell Walzer,Mystery,Special,1,6.55,13901
4727,30524,Kagewani,Mystery,TV,13,6.54,19225
4728,32682,Kagewani: Shou,Mystery,TV,13,6.54,11052
4746,3778,Yuukan Club,Mystery,OVA,2,6.54,287
4788,4756,Hello Harinezumi: Satsui no Ryoubun,Mystery,OVA,1,6.52,1213
4797,30291,Mini Hama: Minimum Hamatora,Mystery,TV,8,6.53,1947
4833,2267,Red Garden: Dead Girls,Mystery,OVA,1,6.51,5652
4860,30895,HaruChika: Haruta to Chika wa Seishun suru,Mystery,TV,12,6.5,49971
4890,5088,Fabre-sensei wa Meitantei,Mystery,TV,26,6.49,298
4894,31630,"Gyakuten Saiban: Sono ""Shinjitsu"", Igi Ari!",Mystery,TV,24,6.49,61410
4949,1346,AD Police,Mystery,OVA,3,6.47,6112
4961,7079,Ookamikakushi,Mystery,TV,12,6.47,51323
4969,27629,Tantei Kageki Milky Holmes TD,Mystery,TV,12,6.47,4967
4995,6674,Reporter Blues,Mystery,TV,52,6.46,315
5009,8278,Biohazard 4: Incubate,Mystery,OVA,1,6.45,3604
5012,13955,Dennou Coil Recaps,Mystery,Special,2,6.45,1342
5015,28673,Duan Nao,Mystery,ONA,16,6.42,1812
5032,4941,Tezuka Osamu ga Kieta?! 20 Seiki Saigo no Kaijiken,Mystery,Special,1,6.45,331
5037,13863,Arve Rezzle: Kikaijikake no Yousei-tachi,Mystery,Movie,1,6.44,18770
5047,1880,Midnight Eye: Gokuu II,Mystery,OVA,1,6.44,1688
5057,2018,Warau Hyouteki,Mystery,OVA,1,6.44,1975
5076,7598,Loups=Garous,Mystery,Movie,1,6.43,12350
5184,15085,Amnesia,Mystery,TV,12,6.39,134349
5193,2281,Jikuu Tantei Genshi-kun,Mystery,TV,39,6.39,5541
5196,10755,Lupin tai Holmes,Mystery,Special,1,6.39,331
5213,301,Cinderella Boy,Mystery,TV,13,6.38,3246
5296,13843,Wild Adapter,Mystery,OVA,2,6.36,5196
5301,10194,Badaui Jeonseol Jangbogo,Mystery,TV,26,6.35,371
5318,31923,Mini Hama: Minimum Hamatora Movies,Mystery,Movie,2,6.35,833
5369,30178,Tiger & Bunny Recaps,Mystery,OVA,2,6.34,516
5380,1494,Darkside Blues,Mystery,Movie,1,6.33,5224
5388,12433,Kyokugen Dasshutsu Adv: Zennin Shibou Desu Prologue,Mystery,ONA,1,6.33,2609
5435,12485,Gregory Horror Show: The Bloody Karte,Mystery,Special,12,6.31,399
5486,1984,Memory,Mystery,Movie,1,6.29,1709
5488,9782,Norageki!,Mystery,OVA,1,6.29,6727
5496,7939,Animation!,Mystery,OVA,13,6.28,407
5504,3294,Gasshin Sentai Mechander Robo,Mystery,TV,35,6.28,287
5541,10481,Otohime Connection,Mystery,OVA,1,6.27,259
5577,31221,Tantei Team KZ Jiken Note,Mystery,TV,16,6.26,9410
5616,2690,Urban Square: Kouhaku no Tsuigeki,Mystery,OVA,1,6.25,656
5625,9846,Attraction,Mystery,ONA,1,6.24,1430
5656,22055,Gakkou no Kaidan Recaps,Mystery,Special,2,6.23,547
5673,1156,I: Wish You Were Here,Mystery,TV,4,6.22,6017
5688,3813,Gekkou no Pierce: Yumemi to Gin no Bara no Kishidan,Mystery,OVA,1,6.21,348
5793,2781,Saint Luminous Jogakuin,Mystery,TV,13,6.17,1701
5818,10766,Detective Conan vs. Wooo,Mystery,ONA,2,6.15,2587
5878,5157,Alexander Senki Movie,Mystery,Movie,1,6.12,1258
5916,29758,Taboo Tattoo,Mystery,TV,12,6.11,99460
6042,5918,Deimos no Hanayome: Ran no Kumikyoku,Mystery,OVA,1,6.04,2030
6134,33508,Si Ling Bianma: Zhi Shijie Caozong Zhe,Mystery,ONA,12,5.99,563
6244,1664,Babel Nisei (2001),Mystery,TV,13,5.91,1502
6248,13299,Houkago no Tinker Bell,Mystery,OVA,1,5.91,320
6256,1973,X Densha de Ikou,Mystery,OVA,1,5.91,1129
6309,12723,Loups=Garous Pilot,Mystery,Special,1,5.87,622
6329,17267,Futari wa Milky Holmes,Mystery,TV,12,5.85,6303
6372,16247,Satsujin Kippu wa Heart-iro,Mystery,OVA,1,5.83,209
6412,32438,Mayoiga,Mystery,TV,12,5.8,117090
6438,5926,Antique Heart,Mystery,OVA,1,5.78,616
6470,8162,Mugen Shinshi: Bouken Katsugeki-hen,Mystery,OVA,1,5.76,418
6488,1611,Galerians: Rion,Mystery,OVA,3,5.74,2002
6524,3743,Murder,Mystery,Movie,1,5.71,963
6588,11799,Midori no Neko,Mystery,OVA,1,5.66,556
6644,2538,With You: Mitsumeteitai,Mystery,OVA,2,5.61,669
6659,20581,Nekketsu Tantei Jimusho,Mystery,ONA,5,5.59,229
6672,1252,Fushigi no Umi no Nadia: Original Movie,Mystery,Movie,1,5.58,3644
6701,2003,Tokyo Vice,Mystery,OVA,1,5.56,711
6709,10104,Loups=Garous Picture Drama,Mystery,Special,1,5.55,1041
6826,2983,Digital Devil Story: Megami Tensei,Mystery,OVA,1,5.42,2660
6857,33693,Meitantei Gordon,Mystery,ONA,1,5.43,107
6902,9509,Yami no Purple Eye,Mystery,Music,1,5.35,500
6995,28955,Columbos,Mystery,Movie,1,5.22,132
7002,994,Sin in the Rain,Mystery,OVA,1,5.22,1674
7057,2057,Ojousama Sousamou,Mystery,OVA,1,5.14,1427
7238,2972,Kindan no Mokushiroku: Crystal Triangle,Mystery,OVA,1,4.75,878
7322,1966,Ankoku Shinwa,Mystery,OVA,2,4.31,1255
7379,28929,Vampire Holmes,Mystery,TV,12,3.63,10403
7709,30818,City Hunter: Ryou no Propose,Mystery,OVA,1,6.8,1070
7764,23801,Doctor Mambo & Kaitou Jibako: Uchuu yori Ai wo Komete!!,Mystery,Special,1,5.67,62
8135,22439,Hello Kitty: Ringo no Mori no Mystery,Mystery,TV,13,5.94,110
8156,9882,High School Mystery: Gakuen Nanafushigi,Mystery,TV,41,7.14,344
8195,28263,Honto ni Atta Gakkou Kaidan,Mystery,OVA,1,6.14,82
8343,10965,Kagaku Bouken-tai Tansar 5,Mystery,TV,34,6.73,98
8370,17403,Kaitou Lupin: 813 no Nazo,Mystery,Special,1,6.73,301
8627,30066,L/R: Licensed by Royal Special,Mystery,Special,1,6.36,140
8761,25267,Megumi to Taiyou II: Kajuu Gummi Tweet Mystery - Kieta Sapphire Roman no Nazo,Mystery,Special,1,4.94,154
8770,19705,Meitantei Hangyodon: Kaitou Ruzu Arawaruno-kan,Mystery,OVA,1,4.05,67
8771,21447,Meitantei Rascal,Mystery,TV,12,5.52,162
8788,12259,Mikeneko Holmes no Yuurei Joushu,Mystery,OVA,1,6.53,105
8924,25253,Nekketsu Jinmen Inu: Life Is Movie,Mystery,OVA,3,5.74,256
9000,16393,Norakuro-kun,Mystery,TV,50,7.17,114
9088,29275,Ooedo Torimonochou: Nezumi Kozou,Mystery,OVA,1,8.0,41
9237,25983,Private Eye Dol,Mystery,Special,3,5.91,73
9263,33761,Qui Shui Yi Yun,Mystery,ONA,12,7.25,83
9454,6091,Shiritsu Tantai: Toki Shouzou Trouble Note - Hard & Loose,Mystery,OVA,1,5.96,152
9504,28019,Slippy Dandy,Mystery,TV,4,5.75,50
9662,21255,Takarajima (Movie),Mystery,Movie,1,6.62,208
9680,31486,Tantei Opera Milky Holmes Movie: Gyakushuu no Milky Holmes,Mystery,Movie,1,6.62,1167
9681,17487,Tantei Shounen Kageman,Mystery,TV,39,6.5,76
9721,7459,The Collected Animations of ICAF (2001-2006),Mystery,OVA,16,5.57,146
9744,30537,Tiger & Bunny: Too Many Cooks Spoil the Broth,Mystery,Special,1,6.06,1111
9750,19991,Tobidase! Bacchiri,Mystery,TV,132,7.63,72
9822,21037,Uchuu Icchokusen,Mystery,Movie,1,5.63,276
9902,12139,Wanpaku Tanteidan,Mystery,TV,35,6.56,158
9970,29837,"Yakushiji Ryouko no Kaiki Jikenbo: Hamachou, Voice & Fiction",Mystery,Special,1,5.97,190
9994,5468,Yattokame Tanteidan,Mystery,TV,14,6.5,141
10060,11093,Ziggy: Soreyuke! R&R Band,Mystery,Movie,1,6.45,123
