,anime_id,name,genre,type,episodes,rating,members
31,32983,Natsume Yuujinchou Go,Shoujo,TV,13,8.76,38865
34,11665,Natsume Yuujinchou Shi,Shoujo,TV,13,8.75,98431
46,10379,Natsume Yuujinchou San,Shoujo,TV,13,8.67,102322
52,30709,Kamisama Hajimemashita: Kako-hen,Shoujo,OVA,4,8.64,33422
56,5300,Zoku Natsume Yuujinchou,Shoujo,TV,13,8.64,114173
60,10408,Hotarubi no Mori e,Shoujo,Movie,1,8.61,197439
80,877,Nana,Shoujo,TV,47,8.55,197256
120,25781,Shingeki no Kyojin: Kuinaki Sentaku,Shoujo,OVA,2,8.45,92543
136,4081,Natsume Yuujinchou,Shoujo,TV,13,8.42,210736
149,20651,Natsume Yuujinchou: Itsuka Yuki no Hi ni,Shoujo,OVA,1,8.4,28302
151,338,Rose of Versailles,Shoujo,TV,40,8.4,32188
158,853,Ouran Koukou Host Club,Shoujo,TV,26,8.39,422271
227,372,Cardcaptor Sakura Movie 2: Fuuin Sareta Card,Shoujo,Movie,1,8.28,60637
229,25681,Kamisama Hajimemashita◎,Shoujo,TV,12,8.28,91796
230,4722,Skip Beat!,Shoujo,TV,25,8.28,134818
242,7054,Kaichou wa Maid-sama!,Shoujo,TV,26,8.26,391628
266,25013,Akatsuki no Yona,Shoujo,TV,24,8.23,216674
270,1974,Glass no Kamen (2005),Shoujo,TV,51,8.23,17038
275,2034,Lovely★Complex,Shoujo,TV,24,8.23,235003
284,440,Shoujo Kakumei Utena,Shoujo,TV,39,8.22,77464
312,6045,Kimi ni Todoke,Shoujo,TV,25,8.19,309339
315,232,Cardcaptor Sakura,Shoujo,TV,70,8.18,181249
319,1486,Kodomo no Omocha (TV),Shoujo,TV,102,8.18,27893
331,9656,Kimi ni Todoke 2nd Season,Shoujo,TV,12,8.17,171866
362,31173,Akagami no Shirayuki-hime 2nd Season,Shoujo,TV,12,8.14,80862
375,14713,Kamisama Hajimemashita,Shoujo,TV,13,8.13,189641
399,28297,Ore Monogatari!!,Shoujo,TV,24,8.11,200833
426,122,Full Moon wo Sagashite,Shoujo,TV,52,8.08,59374
438,2143,Saiyuuki Reload: Burial,Shoujo,OVA,3,8.07,6554
443,6586,Yume-iro Pâtissière,Shoujo,TV,50,8.07,36921
460,427,Kaleido Star,Shoujo,TV,51,8.05,42253
475,30279,Yuru Yuri San☆Hai!,Shoujo,TV,12,8.04,44335
477,10029,Coquelicot-zaka kara,Shoujo,Movie,1,8.03,50689
492,1485,Akachan to Boku,Shoujo,TV,35,8.02,8353
508,9088,Saiyuuki Gaiden,Shoujo,OVA,3,8.01,5843
517,429,Kaleido Star: Legend of Phoenix - Layla Hamilton Monogatari,Shoujo,OVA,1,8.0,9268
518,18661,Kamisama Hajimemashita OVA,Shoujo,OVA,2,8.0,38678
520,1729,Maria-sama ga Miteru 3rd,Shoujo,OVA,5,8.0,12394
523,996,Bishoujo Senshi Sailor Moon: Sailor Stars,Shoujo,TV,34,7.99,52586
528,1695,Les Misérables: Shoujo Cosette,Shoujo,TV,52,7.99,9605
545,1571,Ghost Hunt,Shoujo,TV,25,7.97,126426
549,4080,Kyou kara Maou! 3rd Series,Shoujo,TV,39,7.97,19510
552,3750,Maria-sama ga Miteru 4th,Shoujo,TV,13,7.97,11779
591,23225,Yuru Yuri Nachuyachumi!,Shoujo,OVA,1,7.95,28339
605,12403,Yuru Yuri♪♪,Shoujo,TV,12,7.94,83097
609,30123,Akagami no Shirayuki-hime,Shoujo,TV,12,7.93,157551
629,30370,Akatsuki no Yona OVA,Shoujo,OVA,3,7.92,29398
661,106,Hana yori Dango,Shoujo,TV,51,7.9,28341
662,5835,Hanasakeru Seishounen,Shoujo,TV,39,7.9,37051
671,21995,Ao Haru Ride,Shoujo,TV,12,7.89,227417
672,532,Bishoujo Senshi Sailor Moon S,Shoujo,TV,38,7.89,66911
675,7645,Heartcatch Precure!,Shoujo,TV,49,7.89,12825
687,1562,Yamato Nadeshiko Shichihenge♥,Shoujo,TV,25,7.89,92088
698,251,Kyou kara Maou!,Shoujo,TV,78,7.88,58150
701,795,Oniisama e...,Shoujo,TV,39,7.88,11424
726,1375,Watashi no Ashinaga Ojisan,Shoujo,TV,40,7.87,5600
728,951,Chibi Maruko-chan,Shoujo,TV,142,7.86,4739
748,444,Maria-sama ga Miteru: Haru,Shoujo,TV,13,7.85,14983
774,30902,Yuru Yuri Nachuyachumi!+,Shoujo,Special,2,7.84,19586
787,31733,Bishoujo Senshi Sailor Moon Crystal Season III,Shoujo,TV,13,7.83,16530
793,18055,Hakkenden: Touhou Hakken Ibun 2nd Season,Shoujo,TV,13,7.82,33466
804,9441,Yume-iro Pâtissière SP Professional,Shoujo,TV,13,7.82,20397
805,233,Daa! Daa! Daa!,Shoujo,TV,78,7.81,12673
827,120,Fruits Basket,Shoujo,TV,26,7.8,242553
828,74,Gakuen Alice,Shoujo,TV,26,7.8,52995
832,2547,Shoukoujo Sara,Shoujo,TV,46,7.8,7515
833,22101,Soredemo Sekai wa Utsukushii,Shoujo,TV,12,7.8,99462
834,182,Tenkuu no Escaflowne,Shoujo,TV,26,7.8,83437
837,22819,Aikatsu! Movie,Shoujo,Movie,1,7.79,2813
850,17249,Pretty Rhythm: Rainbow Live,Shoujo,TV,51,7.79,4838
858,31483,"Akagami no Shirayuki-hime: Nandemonai Takaramono, Kono Page",Shoujo,OVA,1,7.77,20749
859,531,Bishoujo Senshi Sailor Moon R: The Movie,Shoujo,Movie,1,7.78,33682
871,32729,Orange,Shoujo,TV,13,7.78,165358
877,3470,Special A,Shoujo,TV,24,7.78,173603
884,123,Fushigi Yuugi,Shoujo,TV,52,7.77,61622
889,1376,Ojamajo Doremi Na-i-sho,Shoujo,OVA,13,7.77,3620
894,14227,Tonari no Kaibutsu-kun,Shoujo,TV,13,7.77,349836
895,24151,Ao Haru Ride OVA,Shoujo,OVA,2,7.76,46864
896,997,Bishoujo Senshi Sailor Moon S: Kaguya Hime no Koibito,Shoujo,Movie,1,7.76,29394
906,3731,Itazura na Kiss,Shoujo,TV,25,7.76,136279
921,28669,Go! Princess Precure,Shoujo,TV,50,7.74,5098
938,740,Bishoujo Senshi Sailor Moon R,Shoujo,TV,43,7.74,73305
940,371,Cardcaptor Sakura Movie 1,Shoujo,Movie,1,7.74,56327
944,16528,Hal,Shoujo,Movie,1,7.74,50812
945,9288,Heartcatch Precure! Movie: Hana no Miyako de Fashion Show... Desu ka!?,Shoujo,Movie,1,7.74,3309
995,530,Bishoujo Senshi Sailor Moon,Shoujo,TV,46,7.71,146521
1006,18849,Natsume Yuujinchou: Nyanko-sensei to Hajimete no Otsukai,Shoujo,Special,1,7.71,14703
1011,1557,Shounen Onmyouji,Shoujo,TV,26,7.71,33321
1012,14289,Sukitte Ii na yo.,Shoujo,TV,13,7.71,233410
1038,10495,Yuru Yuri,Shoujo,TV,12,7.7,148140
1040,15061,Aikatsu!,Shoujo,TV,178,7.69,16990
1047,1579,Kiniro no Corda: Primo Passo,Shoujo,TV,25,7.69,63134
1062,1946,Ashita no Nadja,Shoujo,TV,50,7.68,13742
1067,428,Kaleido Star: Aratanaru Tsubasa - Extra Stage,Shoujo,OVA,1,7.68,9248
1079,8217,Jewelpet Twinkle☆,Shoujo,TV,52,7.67,4110
1097,145,Kareshi Kanojo no Jijou,Shoujo,TV,26,7.66,94165
1134,1239,Bishoujo Senshi Sailor Moon SuperS,Shoujo,TV,39,7.64,55056
1143,1567,Kaitou Saint Tail,Shoujo,TV,43,7.64,8794
1145,334,Marmalade Boy,Shoujo,TV,76,7.64,24745
1153,32899,Watashi ga Motete Dousunda,Shoujo,TV,12,7.64,57638
1165,2835,Patalliro!,Shoujo,TV,49,7.63,2409
1166,2549,Perrine Monogatari,Shoujo,TV,53,7.63,1744
1175,1240,Bishoujo Senshi Sailor Moon SuperS: Sailor 9 Senshi Shuuketsu! Black Dream Hole no Kiseki,Shoujo,Movie,1,7.62,24968
1178,21743,Donten ni Warau,Shoujo,TV,12,7.62,57649
1207,22693,Lady Jewelpet,Shoujo,TV,52,7.61,3085
1208,1563,Magic Knight Rayearth II,Shoujo,TV,29,7.61,19209
1211,9979,Precure All Stars Movie DX3: Mirai ni Todoke! Sekai wo Tsunagu☆Nijiiro no Hana,Shoujo,Movie,1,7.61,2842
1215,2923,Shugo Chara!,Shoujo,TV,51,7.61,121108
1240,10257,Pretty Rhythm: Aurora Dream,Shoujo,TV,51,7.6,9431
1259,3392,Kiniro no Corda: Primo Passo - Hitonatsu no Encore,Shoujo,Special,1,7.59,17967
1261,98,Mai-HiME,Shoujo,TV,26,7.59,76492
1272,441,Shoujo Kakumei Utena: Adolescence Mokushiroku,Shoujo,Movie,1,7.59,22219
1273,5262,Shugo Chara!! Doki,Shoujo,TV,51,7.59,60384
1277,102,Aishiteruze Baby★★,Shoujo,TV,26,7.58,63959
1281,2800,Candy Candy,Shoujo,TV,115,7.58,11893
1299,15613,Hakkenden: Touhou Hakken Ibun,Shoujo,TV,13,7.57,61017
1311,1728,Super GALS! Kotobuki Ran,Shoujo,TV,52,7.57,10369
1331,34136,Orange: Mirai,Shoujo,Movie,1,7.56,29969
1332,131,Saiyuuki Reload Gunlock,Shoujo,TV,26,7.56,11233
1333,879,Simoun,Shoujo,TV,26,7.56,24664
1334,1642,Sugar Sugar Rune,Shoujo,TV,51,7.56,16484
1341,156,X,Shoujo,TV,24,7.56,51004
1360,9366,Kaichou wa Maid-sama!: Omake dayo!,Shoujo,Special,1,7.55,52752
1361,1021,Kaikan Phrase,Shoujo,TV,44,7.55,8142
1365,3468,Maria-sama ga Miteru Specials,Shoujo,Special,7,7.55,6085
1378,1222,Bokura ga Ita,Shoujo,TV,26,7.54,125051
1387,2037,Hime-chan no Ribbon,Shoujo,TV,61,7.54,3589
1393,327,Puchi Puri Yuushi,Shoujo,TV,26,7.54,8030
1394,130,Saiyuuki Reload,Shoujo,TV,25,7.54,16298
1406,8768,Hiyokoi,Shoujo,Special,1,7.53,51072
1409,435,Magic Knight Rayearth,Shoujo,TV,20,7.53,34141
1417,12711,Uta no☆Prince-sama♪ Maji Love 2000%,Shoujo,TV,13,7.53,61551
1418,4752,Vampire Knight Guilty,Shoujo,TV,13,7.53,198492
1428,506,Glass no Kamen,Shoujo,TV,23,7.52,4218
1430,142,Kamikaze Kaitou Jeanne,Shoujo,TV,44,7.52,31081
1435,31414,Nijiiro Days,Shoujo,TV,24,7.52,57920
1436,353,Ojamajo Doremi Dokkaan!,Shoujo,TV,51,7.52,5971
1463,1808,Kamichama Karin,Shoujo,TV,26,7.51,30747
1467,3469,Maria-sama ga Miteru: Haru Specials,Shoujo,Special,6,7.51,5554
1502,520,Marmalade Boy Movie,Shoujo,Movie,1,7.5,5641
1503,3342,Mnemosyne: Mnemosyne no Musume-tachi,Shoujo,TV,6,7.5,96092
1521,1878,Kaze no Shoujo Emily,Shoujo,TV,26,7.49,2881
1547,103,Akazukin Chacha,Shoujo,TV,74,7.48,7581
1564,158,Maria-sama ga Miteru,Shoujo,TV,13,7.48,33989
1573,3125,Tokimeki Tonight,Shoujo,TV,34,7.48,3057
1598,633,Legend of Basara,Shoujo,TV,13,7.47,6033
1608,23673,Ookami Shoujo to Kuro Ouji,Shoujo,TV,12,7.47,145439
1609,21031,Precure All Stars Movie New Stage 3: Eien no Tomodachi,Shoujo,Movie,1,7.47,1570
1611,17137,Saiyuuki Gaiden: Tokubetsu-hen - Kouga no Shou,Shoujo,OVA,1,7.47,1313
1612,7662,Shinrei Tantei Yakumo,Shoujo,TV,13,7.47,78952
1621,1744,Wagamama☆Fairy Mirumo de Pon!,Shoujo,TV,172,7.47,8713
1649,20709,Sabagebu!,Shoujo,TV,12,7.46,67306
1653,15307,Smile Precure! Movie: Ehon no Naka wa Minna Chiguhagu!,Shoujo,Movie,1,7.46,2123
1657,19251,Uta no☆Prince-sama♪ Maji Love 2000%: Shining Star Xmas,Shoujo,Special,1,7.46,13903
1663,3076,Bishoujo Senshi Sailor Moon SuperS Special,Shoujo,Special,3,7.45,12317
1667,5684,Fresh Precure!,Shoujo,TV,50,7.45,7004
1669,505,Fushigiboshi no☆Futagohime,Shoujo,TV,51,7.45,5074
1682,28299,Ookami Shoujo to Kuro Ouji OVA,Shoujo,OVA,1,7.45,19592
1691,2555,Shoukoushi Cedie,Shoujo,TV,43,7.45,1501
1695,855,Strawberry Panic,Shoujo,TV,26,7.45,72790
1697,4703,Yes! Precure 5 GoGo! Movie: Okashi no Kuni no Happy Birthday,Shoujo,Movie,1,7.45,2210
1702,8756,Bishoujo Senshi Sailor Moon Memorial,Shoujo,OVA,5,7.44,7981
1758,32175,Shounen Maid,Shoujo,TV,12,7.43,30363
1765,7058,Uragiri wa Boku no Namae wo Shitteiru,Shoujo,TV,24,7.43,55040
1779,3859,Himitsu: The Revelation,Shoujo,TV,26,7.42,11761
1782,10536,Kimi ni Todoke 2nd Season Specials,Shoujo,Special,3,7.42,23498
1799,3051,Yes! Precure 5 Movie: Kagami no Kuni no Miracle Daibouken!,Shoujo,Movie,1,7.42,2319
1800,5525,07-Ghost,Shoujo,TV,25,7.41,126083
1805,3203,Chibi Maruko-chan Movie,Shoujo,Movie,1,7.41,980
1814,953,Jyu Oh Sei,Shoujo,TV,11,7.41,44766
1815,10298,Kaichou wa Maid-sama!: Goshujinsama to Asonjao♥,Shoujo,Special,1,7.41,41241
1829,5753,Precure All Stars Movie DX: Minna Tomodachi☆Kiseki no Zenin Daishuugou!,Shoujo,Movie,1,7.41,2957
1846,1906,Harukanaru Toki no Naka de: Maihitoyo,Shoujo,Movie,1,7.4,4019
1865,3457,Vampire Knight,Shoujo,TV,13,7.4,286826
1871,13931,Bishoujo Senshi Sailor Moon: Sailor Stars - Hero Club,Shoujo,OVA,3,7.39,4238
1883,3335,Haikara-san ga Tooru,Shoujo,TV,42,7.39,1155
1897,7861,The Rose and Women of Versailles,Shoujo,Special,1,7.39,1628
1901,104,Ayashi no Ceres,Shoujo,TV,24,7.38,38336
1909,14645,Hiiro no Kakera Dai Ni Shou,Shoujo,TV,13,7.38,26617
1913,3345,Mikan Enikki,Shoujo,TV,30,7.38,1096
1931,1278,Bishoujo Senshi Sailor Moon SuperS Gaiden: Ami-chan no Hatsukoi,Shoujo,Special,1,7.37,15135
1939,381,Fushigi Yuugi OVA 2,Shoujo,OVA,6,7.37,13508
1947,19619,Jewelpet Twinkle☆: Hohoemi no Niji ni Dokki☆Doki!,Shoujo,Special,1,7.37,555
1959,10321,Uta no☆Prince-sama♪ Maji Love 1000%,Shoujo,TV,13,7.37,105723
1960,31178,Uta no☆Prince-sama♪ Maji Love Legend Star,Shoujo,TV,13,7.37,12757
1972,16035,Karneval (TV),Shoujo,TV,13,7.36,108174
1985,9893,Suite Precure♪,Shoujo,TV,48,7.36,7314
1986,16868,Sukitte Ii na yo.: Dareka ga,Shoujo,OVA,1,7.36,27802
1998,61,D.N.Angel,Shoujo,TV,26,7.35,126914
2007,1516,Kirarin☆Revolution,Shoujo,TV,153,7.35,14932
2019,25647,Sabagebu! Specials,Shoujo,Special,6,7.35,9065
2062,1901,11-nin Iru!,Shoujo,Movie,1,7.33,4311
2086,2948,Motto! Ojamajo Doremi: Kaeru Ishi no Himitsu,Shoujo,Movie,1,7.33,2108
2098,100,Shin Shirayuki-hime Densetsu Prétear,Shoujo,TV,13,7.33,37394
2100,12191,Smile Precure!,Shoujo,TV,48,7.33,10568
2114,1886,Fushigiboshi no☆Futagohime Gyu!,Shoujo,TV,52,7.32,2387
2115,3734,Glass no Kamen: Sen no Kamen wo Motsu Shoujo,Shoujo,OVA,3,7.32,1248
2120,21563,Kamigami no Asobi,Shoujo,TV,12,7.32,61410
2126,351,Ojamajo Doremi Sharp,Shoujo,TV,49,7.32,7878
2165,3043,Andersen Douwa: Ningyohime,Shoujo,Movie,1,7.3,2535
2172,3298,Hatenkou Yuugi,Shoujo,TV,10,7.3,25885
2181,16442,Precure All Stars Movie New Stage 2: Kokoro no Tomodachi,Shoujo,Movie,1,7.3,1963
2188,178,Ultra Maniac,Shoujo,TV,26,7.3,20062
2190,1932,Yes! Precure 5,Shoujo,TV,49,7.3,6390
2193,6164,Aoi Hana,Shoujo,TV,11,7.29,43279
2198,526,Boku no Chikyuu wo Mamotte,Shoujo,OVA,6,7.29,7254
2204,1931,Futari wa Precure: Max Heart Movie 2 - Yukizora no Tomodachi,Shoujo,Movie,1,7.29,2861
2218,352,Motto! Ojamajo Doremi,Shoujo,TV,50,7.29,8760
2219,2947,Ojamajo Doremi Sharp Movie,Shoujo,Movie,1,7.29,2037
2225,3692,Yes! Precure 5 GoGo!,Shoujo,TV,48,7.29,3619
2227,8894,Yume-iro Pâtissière: Mune Kyun Tropical Island!,Shoujo,Special,1,7.29,5984
2239,2542,Lady Georgie,Shoujo,TV,45,7.28,4157
2241,2834,Miracle☆Girls,Shoujo,TV,51,7.28,2033
2247,8133,Precure All Stars Movie DX2: Kibou no Hikari☆Rainbow Jewel wo Mamore!,Shoujo,Movie,1,7.28,3046
2276,10152,Kimi ni Todoke 2nd Season: Kataomoi,Shoujo,Special,1,7.27,35243
2293,16866,Tonari no Kaibutsu-kun: Tonari no Gokudou-kun,Shoujo,OVA,1,7.27,46837
2297,30845,Aikatsu! Music Award: Minna de Shou wo MoracchaimaShow!,Shoujo,Movie,1,7.26,1028
2309,380,Fushigi Yuugi OVA,Shoujo,OVA,3,7.26,14863
2311,243,Gravitation,Shoujo,TV,13,7.26,67916
2317,5717,Kiniro no Corda: Secondo Passo,Shoujo,Special,2,7.26,24379
2340,1534,Futari wa Precure: Splash☆Star,Shoujo,TV,49,7.25,5384
2345,16033,Karneval,Shoujo,OVA,1,7.25,11320
2360,3868,Rose of Versailles Movie,Shoujo,Movie,1,7.25,1824
2380,3421,Kodomo no Omocha,Shoujo,OVA,1,7.24,3118
2419,553,Yami no Matsuei,Shoujo,TV,13,7.23,34177
2427,2937,Bishoujo Senshi Sailor Moon R: Make Up! Sailor Senshi,Shoujo,Special,1,7.22,10441
2470,12221,Precure All Stars Movie New Stage: Mirai no Tomodachi,Shoujo,Movie,1,7.21,2530
2472,6203,Sasameki Koto,Shoujo,TV,13,7.21,34297
2496,16890,Makai Ouji: Devils and Realist,Shoujo,TV,12,7.2,59819
2500,4662,Neo Angelique Abyss: Second Age,Shoujo,TV,13,7.2,12975
2504,31919,PriPara Movie: Mi~nna no Akogare♪ Let's Go☆Prix Paris,Shoujo,Movie,1,7.2,502
2506,20047,Sakura Trick,Shoujo,TV,12,7.2,108011
2519,393,Escaflowne,Shoujo,Movie,1,7.19,37379
2525,1864,Koisuru Tenshi Angelique: Kagayaki no Ashita,Shoujo,TV,12,7.19,5827
2527,149,Loveless,Shoujo,TV,12,7.19,85554
2537,26165,Yuri Kuma Arashi,Shoujo,TV,12,7.19,48549
2548,23083,Happiness Charge PreCure! Movie: Ningyou no Kuni no Ballerina,Shoujo,Movie,1,7.18,1332
2549,247,Harukanaru Toki no Naka de: Hachiyou Shou,Shoujo,TV,26,7.18,14550
2550,8206,Hime Chen! Otogi Chikku Idol Lilpri,Shoujo,TV,51,7.18,6118
2555,604,Mahou no Stage Fancy Lala,Shoujo,TV,26,7.18,5991
2556,2044,Mahou no Tenshi Creamy Mami,Shoujo,TV,52,7.18,5112
2557,5030,Maria†Holic,Shoujo,TV,12,7.18,104663
2558,1110,Mermaid Melody Pichi Pichi Pitch Pure,Shoujo,TV,39,7.18,19311
2574,21439,Uta no☆Prince-sama♪ Maji Love Revolutions,Shoujo,TV,13,7.18,27997
2592,11569,Precure All Stars DX the Dance Live♥: Miracle Dance Stage e Youkoso,Shoujo,OVA,1,7.17,1057
2604,7152,Anyamal Tantei Kiruminzoo,Shoujo,TV,50,7.16,3605
2634,24211,Orenchi no Furo Jijou,Shoujo,TV,13,7.15,47157
2635,325,Peach Girl,Shoujo,TV,25,7.16,49508
2638,907,Princess Princess,Shoujo,TV,12,7.16,38778
2643,4021,Seiyou Kottou Yougashiten: Antique,Shoujo,TV,12,7.16,21937
2665,2799,Hello! Sandybell,Shoujo,TV,47,7.15,2587
2666,1020,Honoo no Mirage: Minagiwa no Hangyakusha,Shoujo,OVA,3,7.15,6006
2684,1207,Wata no Kuni Hoshi,Shoujo,Movie,1,7.15,1835
2750,7366,"Boku no Chikyuu wo Mamotte: Alice kara, Rin-kun e",Shoujo,Movie,1,7.12,880
2757,507,Gravitation: Lyrics of Love,Shoujo,OVA,2,7.12,22015
2774,2570,Ochame na Futago: Claire Gakuin Monogatari,Shoujo,TV,26,7.12,1228
2783,4651,Yume no Crayon Oukoku,Shoujo,TV,70,7.12,686
2784,2810,Anime Himitsu no Hanazono,Shoujo,TV,39,7.11,2188
2805,521,Mermaid Melody Pichi Pichi Pitch,Shoujo,TV,52,7.11,32296
2817,3754,Tongari Boushi no Memole,Shoujo,TV,50,7.11,1009
2837,1869,Nana Recaps,Shoujo,Special,3,7.1,11447
2851,1014,Chicchana Yukitsukai Sugar Specials,Shoujo,Special,2,7.09,3902
2864,3807,Honoo no Alpenrose: Judy & Randy,Shoujo,TV,20,7.09,979
2880,10821,Suite Precure♪ Movie: Torimodose! Kokoro ga Tsunaku Kiseki no Melody♪,Shoujo,Movie,1,7.09,2874
2882,21781,Tsubasa to Hotaru,Shoujo,Special,1,7.09,6651
2885,311,Ace wo Nerae!,Shoujo,TV,26,7.08,3945
2888,4535,Candy Boy: Nonchalant Talk of the Certain Twin Sisters in Daily Life,Shoujo,ONA,7,7.08,43338
2958,1637,Kaze to Ki no Uta Sanctus: Sei Naru Kana,Shoujo,OVA,1,7.06,6105
2962,9712,Maria†Holic Alive,Shoujo,TV,12,7.06,40502
2992,143,Kannazuki no Miko,Shoujo,TV,12,7.05,42927
3016,3359,Amatsuki,Shoujo,TV,13,7.04,41920
3017,280,Animal Yokochou,Shoujo,TV,51,7.04,1511
3019,5116,Candy Boy Episode: EX01 - Mirai Yohouzu,Shoujo,OVA,1,7.04,16405
3036,31884,Mahoutsukai Precure!,Shoujo,TV,48,7.04,3865
3046,32160,Precure All Stars Movie: Minna de Utau♪ - Kiseki no Mahou,Shoujo,Movie,1,7.04,699
3054,687,Tokyo Mew Mew,Shoujo,TV,52,7.04,67936
3056,8422,Vampire Knight: Gekiai no Portrait,Shoujo,Special,1,7.04,23727
3068,1929,Futari wa Precure: Max Heart,Shoujo,TV,47,7.03,7189
3073,1578,Koisuru Tenshi Angelique: Kokoro no Mezameru Toki,Shoujo,TV,13,7.03,6786
3087,33491,Shounen Maid Special,Shoujo,OVA,1,7.03,2480
3096,3456,Candy☆Boy: Side Story For Archive,Shoujo,ONA,1,7.02,20294
3098,1890,Clover,Shoujo,Music,1,7.02,8524
3109,2230,Hana no Ko Lunlun,Shoujo,TV,50,7.02,2080
3141,3227,Harukanaru Toki no Naka de 3: Kurenai no Tsuki,Shoujo,Special,1,7.01,2355
3142,4190,Harukanaru Toki no Naka de 3: Kurenai no Tsuki Special,Shoujo,Special,1,7.01,1010
3148,1040,Mizuiro Jidai,Shoujo,TV,47,7.01,1519
3150,3615,Neo Angelique Abyss,Shoujo,TV,13,7.01,24149
3167,25437,Brothers Conflict OVA,Shoujo,OVA,2,7.0,10286
3173,124,Fushigi Yuugi: Eikouden,Shoujo,OVA,4,7.0,11740
3177,3462,Minky Momo in Yume ni Kakeru Hashi,Shoujo,OVA,1,7.0,600
3190,6479,Candy Boy Episode: EX02 - Shiawase Kyouyuu Riron,Shoujo,Special,1,6.99,15078
3197,603,Futari wa Precure,Shoujo,TV,49,6.99,17671
3211,1509,Mamotte! Lollipop,Shoujo,TV,13,6.99,11747
3227,3196,Wakakusa no Charlotte,Shoujo,TV,30,6.99,1019
3235,1930,Futari wa Precure: Max Heart Movie 1,Shoujo,Movie,1,6.98,3094
3239,31068,Hime Chen! Otogi Chikku Idol Lilpri (2011),Shoujo,TV,51,6.98,464
3246,10549,Precure All Stars GoGo Dream Live!,Shoujo,Special,1,6.98,1642
3247,12863,Pretty Rhythm: Dear My Future,Shoujo,TV,51,6.98,3347
3250,15411,Arcana Famiglia: Capriccio - stile Arcana Famiglia,Shoujo,OVA,1,6.97,12690
3261,1804,Koko wa Green Wood,Shoujo,OVA,6,6.97,4176
3277,14751,Bishoujo Senshi Sailor Moon Crystal,Shoujo,ONA,26,6.96,69702
3282,17497,Jewelpet Happiness,Shoujo,TV,52,6.96,1250
3298,313,Ace wo Nerae! (1979),Shoujo,Movie,1,6.95,1564
3301,2259,Dr. Rin ni Kiitemite!,Shoujo,TV,51,6.95,1904
3322,1532,Suki na Mono wa Suki Dakara Shou ga Nai!!,Shoujo,TV,12,6.95,30723
3338,1654,Kashimashi: Girl Meets Girl OVA,Shoujo,OVA,1,6.94,10910
3357,17357,Dokidoki! Precure Movie: Mana Kekkon!!? Mirai ni Tsunagu Kibou no Dress,Shoujo,Movie,1,6.93,1828
3362,4124,Futari wa Precure: Splash☆Star Movie - Tick Tack Kiki Ippatsu!,Shoujo,Movie,1,6.93,2375
3365,6726,Hanasakeru Seishounen Recaps,Shoujo,Special,3,6.93,2686
3426,21407,Happiness Charge Precure!,Shoujo,TV,49,6.91,4884
3430,727,Kingyo Chuuihou!,Shoujo,TV,54,6.91,992
3436,29129,Ookami Shoujo to Kuro Ouji Recap,Shoujo,Special,1,6.91,5577
3483,16419,Dokidoki! Precure,Shoujo,TV,49,6.89,7571
3488,29868,Go! Princess Precure Movie: Go! Go!! Gouka 3-bondate!!!,Shoujo,Movie,1,6.89,1103
3511,2964,Blue Drop: Tenshi-tachi no Gikyoku,Shoujo,TV,13,6.88,19968
3519,7254,Harukanaru Toki no Naka de 3: Owarinaki Unmei,Shoujo,Special,1,6.88,1756
3520,12461,Hiiro no Kakera,Shoujo,TV,13,6.88,55031
3522,12963,Jewelpet Kira☆Deco!,Shoujo,TV,52,6.88,1452
3528,1035,Patalliro Saiyuuki!,Shoujo,TV,26,6.88,1996
3567,33419,12-sai.: Chicchana Mune no Tokimeki 2nd Season,Shoujo,TV,12,6.85,4580
3572,11457,Chibi☆Devi!,Shoujo,TV,75,6.86,8186
3580,15895,Hiyokoi (2012),Shoujo,Special,3,6.86,13168
3581,10359,Jewelpet Sunshine,Shoujo,TV,52,6.86,2019
3589,11911,Pretty Rhythm: Aurora Dream - Prism Shougekijou,Shoujo,Special,51,6.86,1220
3600,28723,Aikatsu!: Dai Starmiya Ichigo Matsuri Zenyasai!!,Shoujo,Special,1,6.85,630
3602,1550,Attack No.1,Shoujo,TV,104,6.85,3676
3603,10036,Boku no Chikyuu wo Mamotte: Kiniro no Toki Nasarete,Shoujo,Special,1,6.85,610
3621,2783,Oyayubi Hime Monogatari,Shoujo,TV,26,6.85,671
3638,723,Candy Candy (Movie),Shoujo,Movie,1,6.84,2110
3643,771,Ginyuu Mokushiroku Meine Liebe Wieder,Shoujo,TV,13,6.84,4985
3660,1893,Azuki-chan,Shoujo,TV,117,6.83,1399
3667,6527,Fresh Precure! Movie: Omocha no Kuni wa Himitsu ga Ippai!?,Shoujo,Movie,1,6.83,2058
3673,9773,Lady Lady!! (1988),Shoujo,Movie,1,6.83,587
3679,616,Nurse Angel Ririka SOS,Shoujo,TV,35,6.83,1390
3681,1300,Omishi Mahou Gekijou: Risky/Safety,Shoujo,TV,24,6.83,2230
3699,19429,Akuma no Riddle,Shoujo,TV,12,6.82,127641
3710,16928,Hiiro no Kakera: Totsugeki! Tonari no Ikemenzu,Shoujo,OVA,1,6.82,4637
3720,28817,Mikagura Gakuen Kumikyoku,Shoujo,TV,12,6.82,47642
3733,314,Ace wo Nerae! 2,Shoujo,OVA,13,6.81,890
3738,22745,Brothers Conflict Special,Shoujo,Special,1,6.81,10451
3739,2802,Candy Candy: Candy no Natsu Yasumi,Shoujo,Movie,1,6.81,1046
3754,667,Kashimashi: Girl Meets Girl,Shoujo,TV,12,6.81,32198
3766,21707,Pretty Rhythm Movie: All Star Selection - Prism Show☆Best Ten,Shoujo,Movie,1,6.81,777
3767,25857,PriPara Movie: Mi~nna Atsumare! Prism☆Tours,Shoujo,Movie,1,6.81,803
3800,1904,Harukanaru Toki no Naka de 2: Shiroki Ryuu no Miko,Shoujo,OVA,3,6.8,2051
3806,5953,Mahou no Princess Minky Momo: Yume wo Dakishimete,Shoujo,TV,62,6.8,783
3811,12663,Patalliro! Stardust Keikaku,Shoujo,Movie,1,6.8,373
3824,1957,Ai Tenshi Densetsu Wedding Peach DX,Shoujo,OVA,4,6.79,3360
3840,518,Mahou no Princess Minky Momo,Shoujo,TV,63,6.79,2229
3842,29855,Meiji Tokyo Renka Movie: Yumihari no Serenade,Shoujo,Movie,1,6.79,5745
3845,13833,Nagareboshi Lens,Shoujo,OVA,1,6.79,12437
3875,32287,Kanamewo,Shoujo,ONA,1,6.79,3581
3889,30625,Princess Princess Specials,Shoujo,Special,12,6.75,687
3897,1533,Ai Tenshi Densetsu Wedding Peach,Shoujo,TV,51,6.77,12536
3899,33046,B-Project: Kodou＊Ambitious,Shoujo,TV,12,6.77,17506
3945,2224,Hikari no Densetsu,Shoujo,TV,19,6.76,2028
3946,6008,Jewelpet,Shoujo,TV,52,6.76,4197
3949,2038,Mahou no Star Magical Emi,Shoujo,TV,38,6.76,1783
3970,1718,Winter Garden,Shoujo,Special,2,6.76,5398
3973,2221,Aishite Knight,Shoujo,TV,42,6.75,3746
3974,8950,Akage no Anne: Green Gables e no Michi,Shoujo,Movie,1,6.75,1218
3993,2272,Mahou no Princess Minky Momo: Yume no Naka no Rondo,Shoujo,OVA,1,6.75,658
3994,3388,Majokko Megu-chan,Shoujo,TV,72,6.75,1139
4000,3265,Princess Tutu Recaps,Shoujo,Special,3,6.75,3999
4055,6117,Gokujou!! Mecha Mote Iinchou,Shoujo,TV,51,6.73,4162
4071,8542,Shin Ace wo Nerae!,Shoujo,TV,25,6.73,562
4080,2288,Akihabara Dennou-gumi,Shoujo,TV,26,6.72,3935
4088,1853,Cutey Honey F,Shoujo,TV,39,6.72,3495
4099,1907,Harukanaru Toki no Naka de: Hachiyou Shou OVA,Shoujo,OVA,2,6.72,1352
4102,22123,Inugami-san to Nekoyama-san,Shoujo,TV,12,6.72,35872
4110,3641,Naisho no Tsubomi,Shoujo,OVA,3,6.72,5135
4132,29976,Dance with Devils,Shoujo,TV,12,6.71,38618
4138,1839,Jagainu-kun,Shoujo,TV,26,6.71,1012
4145,33181,Nijiiro Days OVA,Shoujo,OVA,1,6.73,4088
4152,7082,Shugo Chara! Party!,Shoujo,TV,25,6.71,41469
4166,2804,Hana no Mahoutsukai Mary Bell,Shoujo,TV,50,6.7,1033
4174,30103,Precure All Stars Movie: Haru no Carnival♪ - Ima Koko kara,Shoujo,Music,1,6.7,501
4183,32601,12-sai.: Chicchana Mune no Tokimeki,Shoujo,TV,12,6.69,12768
4189,2801,Candy Candy: Haru no Yobigoe,Shoujo,Movie,1,6.69,967
4198,7103,Miracle☆Train: Oedo-sen e Youkoso,Shoujo,TV,13,6.69,13898
4257,2729,X²: Double X,Shoujo,Music,1,6.68,2976
4263,2041,Ai to Yuuki no Pig Girl Tonde Buurin,Shoujo,TV,51,6.67,6183
4273,5276,Happy Happy Clover,Shoujo,TV,13,6.67,623
4275,11101,Honoo no Alpenrose,Shoujo,OVA,2,6.67,229
4295,31387,Aru Hi Inu no Kuni kara Tegami ga Kite,Shoujo,OVA,1,6.66,1302
4296,3081,Attacker You!,Shoujo,TV,58,6.66,2733
4305,3054,La Seine no Hoshi,Shoujo,TV,39,6.66,964
4318,27741,Shounen Hollywood: Holly Stage for 50,Shoujo,TV,13,6.66,3800
4319,10384,Sono Hanabira ni Kuchizuke wo: Reo x Mai Diaries,Shoujo,ONA,10,6.66,5125
4337,29231,Fushigiboshi no☆Futagohime Gyu! Recap,Shoujo,OVA,1,6.65,220
4343,3435,Joou Heika no Petite Angie,Shoujo,TV,26,6.65,451
4347,3878,Mahou Shoujo Lalabel,Shoujo,TV,49,6.65,635
4378,8538,Gokujou!! Mecha Mote Iinchou Second Collection,Shoujo,TV,51,6.64,1223
4405,33222,Fudanshi Koukou Seikatsu,Shoujo,TV,12,6.63,26360
4406,26053,Futari wa Precure: Splash☆Star Maji★Doki♥ Theater,Shoujo,Movie,1,6.63,609
4413,25861,Inugami-san to Nekoyama-san Special,Shoujo,Special,1,6.63,7062
4440,5476,Fushigi na Melmo,Shoujo,TV,26,6.62,440
4442,30030,Jewelpet Magical Change,Shoujo,TV,39,6.62,1007
4448,8560,"Kyou, Koi wo Hajimemasu",Shoujo,OVA,2,6.62,20953
4462,17409,Sukitte Ii na yo.: Mei and Marshmallow,Shoujo,Special,10,6.62,17684
4478,9943,Ore-sama Kingdom,Shoujo,OVA,14,6.61,1846
4491,20655,Amnesia OVA,Shoujo,OVA,1,6.6,15956
4515,22785,Sono Hanabira ni Kuchizuke wo: Risa x Miya Gekijou,Shoujo,ONA,10,6.6,2291
4524,23579,12-sai.,Shoujo,OVA,8,6.59,6211
4533,2771,Chou Kuse ni Narisou,Shoujo,TV,39,6.59,752
4565,6093,Anmitsu Hime,Shoujo,TV,51,6.58,407
4568,15605,Brothers Conflict,Shoujo,TV,12,6.58,74069
4576,2073,Hengen Taima Yakou Karura Mau! Sendai Kokeshi Enka,Shoujo,OVA,6,6.58,328
4579,3873,Honey Honey no Suteki na Bouken,Shoujo,TV,29,6.58,386
4588,2045,Mahou no Tenshi Creamy Mami: Eien no Once More,Shoujo,OVA,1,6.58,498
4598,28511,Precure All Stars Movie: Haru no Carnival♪,Shoujo,Movie,1,6.58,988
4602,2726,Sukeban Deka,Shoujo,OVA,2,6.58,1663
4611,819,Boku wa Imouto ni Koi wo Suru,Shoujo,OVA,1,6.57,26923
4656,6492,Minky Momo in Tabidachi no Eki,Shoujo,OVA,1,6.56,400
4675,6629,Asari-chan,Shoujo,TV,54,6.55,263
4704,677,Sentimental Journey,Shoujo,TV,12,6.55,1412
4713,2535,Angelique: Seichi yori Ai wo Komete,Shoujo,OVA,3,6.54,1946
4722,336,Ginyuu Mokushiroku Meine Liebe,Shoujo,TV,13,6.54,9540
4723,2071,Hana yori Dango (Movie),Shoujo,Movie,1,6.54,4576
4731,2040,Mahou no Angel Sweet Mint,Shoujo,TV,47,6.54,879
4746,3778,Yuukan Club,Shoujo,OVA,2,6.54,287
4747,2534,Angelique,Shoujo,OVA,3,6.53,3523
4763,3875,Mahoutsukai Sally 2,Shoujo,TV,88,6.53,720
4768,33102,Nijiiro Days: Houkago Special,Shoujo,Special,1,6.54,1985
4773,30196,Tsubasa to Hotaru (2015),Shoujo,Special,4,6.53,1886
4775,3691,Watashi to Watashi: Futari no Lotte,Shoujo,TV,29,6.53,364
4783,1221,Demashita! Powerpuff Girls Z,Shoujo,TV,52,6.52,13624
4787,1905,Harukanaru Toki no Naka de: Hachiyou Shou Specials,Shoujo,Special,8,6.52,1773
4831,2621,Natsu e no Tobira,Shoujo,Movie,1,6.51,1975
4837,32684,Suki na Mono wa Suki Dakara Shou ga Nai!!: Onsen ni Ikou!,Shoujo,Special,1,6.51,814
4864,20971,Kiniro no Corda: Blue♪Sky,Shoujo,TV,12,6.5,15742
4881,23583,Akage no Anne Specials,Shoujo,Special,2,6.49,331
4883,9166,Attack No.1: Namida no Sekai Senshuken,Shoujo,Movie,1,6.49,248
4898,3285,Himitsu no Akko-chan,Shoujo,TV,94,6.49,1085
4902,2046,Mahou no Tenshi Creamy Mami: Long Goodbye,Shoujo,OVA,1,6.49,476
4903,3356,Mahoutsukai Sally,Shoujo,TV,109,6.49,1478
4930,4113,Mahou no Mako-chan,Shoujo,TV,48,6.48,678
4984,9014,Kuttsukiboshi,Shoujo,OVA,2,6.46,21805
4989,30842,Nekota no Koto ga Kininatte Shikatanai. (ONA),Shoujo,ONA,4,6.46,546
4999,51,Tenshi Kinryouku,Shoujo,OVA,3,6.46,36352
5007,9163,Attack No.1 (1970),Shoujo,Movie,1,6.45,329
5022,10028,Magic Knight Rayearth Omake,Shoujo,Special,5,6.45,1730
5023,3660,Mahou no Idol Pastel Yumi,Shoujo,TV,25,6.45,965
5043,647,Harukanaru Toki no Naka de: Ajisai Yumegatari,Shoujo,OVA,2,6.44,2253
5060,31319,12-sai. 2nd Season,Shoujo,OVA,4,6.43,1383
5061,12967,Arcana Famiglia,Shoujo,TV,12,6.43,106391
5078,3881,Majokko Tickle,Shoujo,TV,45,6.43,471
5089,33056,Buddy Go!,Shoujo,Special,3,6.42,1415
5099,3838,Himitsu no Akko-chan 2,Shoujo,TV,61,6.42,375
5135,30145,Harukanaru Toki no Naka de: Hachiyou Shou Recap,Shoujo,Special,1,6.41,284
5136,4928,Idol Tenshi Youkoso Yoko,Shoujo,TV,43,6.41,419
5142,555,Koutetsu Tenshi Kurumi 2,Shoujo,TV,12,6.41,8094
5146,28963,Nekota no Koto ga Kininatte Shikatanai.,Shoujo,Special,1,6.41,612
5161,28883,Hidan no Aria AA,Shoujo,TV,12,6.4,39538
5163,3839,Himitsu no Akko-chan 3,Shoujo,TV,44,6.4,378
5167,19575,Kobayashi ga Kawai sugite Tsurai!!,Shoujo,OVA,2,6.4,4251
5176,10594,Tokimeki Tonight Recaps,Shoujo,Special,2,6.4,220
5177,33247,Tsubasa to Hotaru (2016),Shoujo,Special,3,6.4,1411
5183,26189,Ai Tenshi Densetsu Wedding Peach Specials,Shoujo,Special,2,6.39,446
5187,34173,Buddy Go! 2,Shoujo,Special,4,6.39,304
5201,23433,Shin Strange+,Shoujo,TV,12,6.39,9385
5225,15717,Nagareboshi Lens Specials,Shoujo,Special,3,6.38,1557
5226,19351,Nijiiro☆Prism Girl,Shoujo,OVA,4,6.38,1390
5245,9165,Attack No.1: Namida no Kaiten Receive,Shoujo,Movie,1,6.37,248
5247,9935,Chocolat no Mahou,Shoujo,OVA,13,6.37,3800
5296,13843,Wild Adapter,Shoujo,OVA,2,6.36,5196
5302,25839,Bonjour♪Koiaji Pâtisserie,Shoujo,ONA,24,6.35,22127
5349,31762,King of Prism by Pretty Rhythm,Shoujo,Movie,1,6.34,2897
5359,22215,Pretty Rhythm: All Star Selection,Shoujo,TV,11,6.34,1145
5398,2537,Angelique: Twin Collection,Shoujo,OVA,8,6.32,906
5417,28381,Monster High: Kowa-ike Girls,Shoujo,ONA,8,6.32,244
5418,3877,Sasurai no Shoujo Nell,Shoujo,TV,26,6.32,356
5424,7818,Yousei Ou,Shoujo,OVA,1,6.32,374
5430,9164,Attack No.1: Namida no Fushichou,Shoujo,Movie,1,6.31,248
5445,7705,Starry☆Sky,Shoujo,ONA,26,6.31,37155
5449,6095,Azuki-chan the Movie,Shoujo,Movie,1,6.3,390
5455,13993,Goulart Knights: Evoked the Beginning White,Shoujo,OVA,1,6.3,1746
5456,3155,Kingyo Chuuihou! (Movie),Shoujo,Movie,1,6.3,301
5534,1324,Earthian,Shoujo,OVA,4,6.27,5394
5539,4129,Mahou no Tenshi Creamy Mami: Curtain Call,Shoujo,Music,1,6.27,298
5541,10481,Otohime Connection,Shoujo,OVA,1,6.27,259
5542,11547,Sengoku☆Paradise Kiwami,Shoujo,TV,26,6.27,3473
5558,1283,Choujuu Densetsu Gestalt,Shoujo,OVA,2,6.26,2601
5561,1056,Good Morning Call,Shoujo,OVA,1,6.26,3970
5563,4713,Heart no Kuni no Alice: Wonderful Wonder World,Shoujo,Movie,1,6.26,20532
5567,2092,Kiss wa Hitomi ni Shite,Shoujo,OVA,1,6.26,356
5600,8431,Mahou no Star Magical Emi: Kumo Hikaru,Shoujo,OVA,1,6.25,368
5619,1026,Yakumo Tatsu,Shoujo,OVA,2,6.25,2427
5639,6327,Miracle Train: Chuo-sen e Youkoso,Shoujo,Special,1,6.24,2961
5668,10199,Super Doll Licca-chan: Licca-chan Zettai Zetsumei! Doll Knights no Kiseki,Shoujo,Movie,1,6.23,295
5688,3813,Gekkou no Pierce: Yumemi to Gin no Bara no Kishidan,Shoujo,OVA,1,6.21,348
5689,9944,Hime Gal♥Paradise,Shoujo,OVA,9,6.21,563
5707,23037,Bakumatsu Rock,Shoujo,TV,12,6.2,18680
5717,12965,Jewelpet Movie: Sweets Dance Princess,Shoujo,Movie,1,6.2,581
5734,2051,Akai Kiba: Blue Sonnet,Shoujo,OVA,5,6.19,1024
5744,3178,Hengen Taima Yakou Karura Mau! Nara Onryou Emaki,Shoujo,Movie,1,6.19,506
5779,20587,Ashinaga Ojisan,Shoujo,Special,1,6.17,232
5823,1838,Mitsu x Mitsu Drops,Shoujo,OVA,2,6.15,16436
5833,23151,Shounen Hollywood: Holly Stage for 49,Shoujo,TV,13,6.15,10776
5839,2536,Angelique: Shiroi Tsubasa no Memoire,Shoujo,OVA,2,6.14,1871
5850,17719,Mahoutsukai Sally (Movie),Shoujo,Movie,1,6.14,202
5855,10736,Precure kara Minna e no Ouen Movie,Shoujo,ONA,1,6.14,893
5862,29974,"Diabolik Lovers More,Blood",Shoujo,TV,12,6.13,37924
5873,25441,Shin Strange+ Special,Shoujo,Special,1,6.13,1094
5907,1036,Kashou no Tsuki: Aki Kyougen,Shoujo,OVA,2,6.11,3621
5932,328,Piano,Shoujo,TV,10,6.1,5674
5935,21067,Strange+,Shoujo,TV,12,6.1,21006
5943,12569,Himitsu no Akko-chan (Movie),Shoujo,Movie,1,6.09,228
5946,3630,Miracle Shoujo Limit-chan,Shoujo,TV,25,6.09,236
5966,12971,Himitsu no Akko-chan: Umi da! Obake da!! Natsu Matsuri,Shoujo,Movie,1,6.08,200
5982,9264,Hana no Ko Lunlun: Konnichiwa Sakura no Kuni,Shoujo,Movie,1,6.07,423
5998,27417,Diabolik Lovers OVA,Shoujo,OVA,1,6.06,13638
6000,31109,Hatsukoi Monster,Shoujo,TV,12,6.06,37238
6006,8443,Mahou no Star Magical Emi: Semishigure,Shoujo,OVA,1,6.06,337
6042,5918,Deimos no Hanayome: Ran no Kumikyoku,Shoujo,OVA,1,6.04,2030
6050,3480,Nayuta,Shoujo,OVA,1,6.04,549
6051,13673,Otome Nadeshiko Koi Techou,Shoujo,OVA,1,6.04,3074
6055,23679,Strange+ Special,Shoujo,Special,1,6.04,1235
6070,1245,Shihaisha no Tasogare,Shoujo,OVA,1,6.03,4377
6076,18599,Chocotan!,Shoujo,Special,1,6.02,2923
6084,5415,La Rose de Versailles,Shoujo,Special,1,6.02,1812
6110,31738,Nanairo Kakumei,Shoujo,Special,3,6.0,477
6153,1223,Ame to Shoujo to Watashi no Tegami,Shoujo,ONA,1,5.97,6686
6156,22295,Juuza Engi: Engetsu Sangokuden - Gaiden Youzhou Genya,Shoujo,OVA,1,5.97,2147
6173,32256,Mahou no Tenshi Creamy Mami: Zutto Kitto Motto,Shoujo,Music,1,5.96,129
6175,2091,Oshare Kozou wa Hanamaru,Shoujo,OVA,1,5.96,327
6182,1115,Handsome Girl,Shoujo,OVA,1,5.95,1734
6197,16023,Kuro to Kin no Akanai Kagi.,Shoujo,OVA,2,5.94,5019
6240,3863,Sweet Valerian Specials,Shoujo,Special,8,5.92,601
6245,6787,Goulart Knights: Evoked the Beginning Black,Shoujo,OVA,1,5.91,8002
6250,8972,Mahou no Princess Minky Momo vs. Mahou no Tenshi Creamy Mami,Shoujo,Movie,1,5.91,594
6253,2727,Sweet Valerian,Shoujo,TV,18,5.91,1680
6277,7807,Mahou Shoujo Lalabel: Umi ga Yobu Natsuyasumi,Shoujo,Movie,1,5.89,360
6306,4908,Bihada Ichizoku,Shoujo,TV,12,5.87,2777
6312,21773,Sugar*Soldier,Shoujo,Special,3,5.87,6738
6331,10958,High Score,Shoujo,TV,8,5.85,4894
6357,15127,Sakura Taisen: Kanadegumi,Shoujo,OVA,1,5.84,1630
6371,21771,Romantica Clock,Shoujo,Special,3,5.83,8491
6372,16247,Satsujin Kippu wa Heart-iro,Shoujo,OVA,1,5.83,209
6390,17513,Diabolik Lovers,Shoujo,TV,12,5.81,107960
6444,29825,Onnanoko tte.,Shoujo,Special,4,5.78,171
6504,15893,Crash!,Shoujo,Special,3,5.7,1015
6525,2785,OZ,Shoujo,OVA,2,5.71,720
6606,10347,Happy Kappy,Shoujo,TV,25,5.64,792
6612,5447,A-Girl,Shoujo,OVA,1,5.63,585
6623,1640,Angel's Feather,Shoujo,OVA,2,5.62,14248
6668,15021,Yuki no Taiyou Pilot,Shoujo,Special,1,5.58,1051
6726,5246,Adesugata Mahou no Sannin Musume,Shoujo,OVA,1,5.53,542
6738,11389,Happy Kappy Recap,Shoujo,Special,1,5.52,191
6758,15891,Zekkyou Gakkyuu,Shoujo,Special,3,5.5,1651
6762,3320,Harbor Light Monogatari: Fashion Lala yori,Shoujo,OVA,1,5.49,800
6770,33103,Zekkyou Gakkyuu: Tensei,Shoujo,Special,2,5.49,844
6780,3605,Princess Army: Wedding★Combat,Shoujo,OVA,2,5.48,603
6787,20919,Diabolik Lovers Recap,Shoujo,Special,1,5.47,11802
6791,12599,Ijime: Ikenie no Kyoushitsu,Shoujo,OVA,1,5.46,805
6796,32697,Ozmafia!!,Shoujo,TV,12,5.46,10290
6812,7475,Ano Ko ni 1000%,Shoujo,OVA,1,5.44,1084
6852,2054,Carol,Shoujo,OVA,1,5.39,537
6902,9509,Yami no Purple Eye,Shoujo,Music,1,5.35,500
6933,31244,Makura no Danshi: Sono Ato no Makura no Danshi,Shoujo,Special,1,5.3,1432
6938,21179,Dragon Fist,Shoujo,OVA,1,5.29,296
7075,13835,Marimo no Hana: Saikyou Butouha Shougakusei Densetsu,Shoujo,OVA,1,5.12,3259
7143,6346,Cherry no Manma,Shoujo,OVA,1,5.01,1061
7174,30705,Makura no Danshi,Shoujo,TV,12,4.93,19386
7349,30438,MILPOM★ Pilot,Shoujo,Special,1,4.02,442
7438,31485,Aikatsu Stars! Movie,Shoujo,Movie,1,7.0,1042
7439,32806,Aikatsu!: Nerawareta Mahou no Aikatsu Card,Shoujo,Movie,1,6.42,488
7455,23779,Akuma to Himegimi,Shoujo,Movie,1,4.88,111
7468,19923,Anata ga Furikaeru Toki,Shoujo,OVA,1,5.36,174
7498,22271,Aries: Shinwa no Seizakyuu,Shoujo,OVA,1,5.2,112
7501,6630,Asari-chan: Ai no Marchen Shoujo,Shoujo,Movie,1,6.48,170
7519,30519,Ba La La Xiao Mo Xian Zhi: Caihong Xin Shi,Shoujo,TV,36,6.28,355
7520,30156,Ba La La Xiao Mo Xian Zhi: Meng Huan Xuan Lu,Shoujo,TV,52,5.91,497
7521,31965,Ba La La Xiao Mo Xian Zhi: Qiji Wubu,Shoujo,TV,52,4.77,141
7597,10435,Boyfriend,Shoujo,Special,1,5.68,243
7662,31236,Chieri to Cherry,Shoujo,Movie,1,6.0,180
7669,25033,Chiisana Koi no Monogatari: Chichi to Sally Hatsukoi no Shiki,Shoujo,Special,1,7.0,84
7820,5554,Eguchi Hisashi no Nantoka Narudesho!,Shoujo,OVA,1,5.32,246
7863,23983,Fuichin-san,Shoujo,OVA,1,6.6,50
7956,25363,Gensei Shugoshin P-hyoro Ikka OVA,Shoujo,OVA,3,5.25,81
8042,17223,Hana no Asukagumi! 2: Lonely Cats Battle Royale,Shoujo,OVA,1,5.3,112
8044,9862,Hana no Mahoutsukai Mary Bell: Phoenix no Kagi,Shoujo,Movie,1,5.51,213
8080,5930,Hayou no Ken: Shikkoku no Mashou,Shoujo,OVA,2,5.79,182
8421,28361,Kaseifu ga Ita.,Shoujo,OVA,1,4.55,93
8679,23129,Mahou no Princess Minky Momo: Hitomi no Seiza - Minky Momo Song Special,Shoujo,Music,1,5.49,147
8680,30298,Mahou no Princess Minky Momo: Yume wo Dakishimete Specials,Shoujo,Special,3,6.0,95
8681,33358,Mahou no Star Magical Emi: Finale! Finale!,Shoujo,OVA,1,6.0,107
8682,32257,Mahou no Tenshi Creamy Mami no Otogibanashi,Shoujo,Special,1,5.05,97
8683,32259,Mahou no Tenshi Creamy Mami: Perfect Memory,Shoujo,OVA,1,5.0,95
8686,33183,Mahoutsukai Precure! Movie,Shoujo,Movie,1,7.71,514
8765,33087,Meiji Tokyo Renka Movie: Hanakagami no Fantasia,Shoujo,Movie,1,6.22,766
8787,25661,Mikan Enikki Specials,Shoujo,Special,2,7.0,116
8791,19597,Milk House Dreaming: Ai no Shiki,Shoujo,OVA,1,4.81,122
8848,22893,Mon Cheri CoCo,Shoujo,TV,13,6.71,137
8868,17603,Mr. Pen Pen,Shoujo,Special,1,6.13,74
8869,17605,Mr. Pen Pen II,Shoujo,Special,1,5.78,63
8956,12165,Niji no Kanata e! Shoujo Diana Monogatari,Shoujo,Special,1,6.3,136
9034,14181,Oedo wa Nemurenai!,Shoujo,OVA,1,6.22,173
9037,7575,Oh! Family,Shoujo,TV,26,6.17,201
9132,33618,Ozmafia!! Special,Shoujo,Special,1,4.35,574
9148,22591,Patalliro Saiyuuki! Special,Shoujo,Special,1,5.75,183
9180,16458,Perrine Monogatari Movie,Shoujo,Movie,1,6.69,126
9181,16460,Perrine Monogatari Specials,Shoujo,Special,2,6.53,111
9188,23177,Piano Specials,Shoujo,Special,4,5.33,194
9221,2093,Pops,Shoujo,OVA,1,5.9,171
9273,19467,Revbahaf Wang-gug Jaegeon-soelgi,Shoujo,TV,26,6.13,241
9307,9212,Ruri-iro Princess,Shoujo,OVA,2,5.61,179
9369,17835,Seito Shokun! Kokoro ni Midori no Neckerchief wo,Shoujo,Special,1,6.41,116
9386,2096,Sequence,Shoujo,OVA,1,5.64,152
9425,17221,Shin Kabukichou Story Hana no Asukagumi!,Shoujo,OVA,1,6.0,122
9471,25075,Shoukoushi Cedie Specials,Shoujo,Special,2,7.2,82
9486,17211,Shouwa Ahozoushi Akanuke Ichiban!,Shoujo,TV,22,7.28,246
9501,2101,Singles,Shoujo,OVA,1,5.32,161
9590,3822,Sougen no Shoujo Laura,Shoujo,TV,26,6.49,214
9614,9906,Sue Cat,Shoujo,TV,40,6.27,116
9723,12401,The Gakuen Choujo-tai,Shoujo,OVA,1,4.85,162
9755,31055,Tobidasu PriPara: Mi~nna de Mezase! Idol☆Grand Prix,Shoujo,Movie,1,7.22,394
9777,12657,Tongari Boushi no Memole: Marielle no Housekibako,Shoujo,OVA,1,6.4,185
9807,9175,Tsuruhime Ja!,Shoujo,TV,49,5.54,89
9915,29363,Watashi no Ashinaga Ojisan Specials,Shoujo,Special,2,6.48,112
9968,12795,Yajikita Gakuen Douchuuki,Shoujo,OVA,2,5.91,255
10016,21129,Youtai Nuhai Zai Shanghai,Shoujo,Movie,1,7.0,94
