,anime_id,name,genre,type,episodes,rating,members
2,28977,Gintama°,Parody,TV,51,9.25,114262
4,9969,Gintama',Parody,TV,51,9.16,151266
8,15335,Gintama Movie: Kanketsu-hen - Yorozuya yo Eien Nare,Parody,Movie,1,9.1,72534
9,15417,Gintama': Enchousen,Parody,TV,13,9.11,81109
12,918,Gintama,Parody,TV,201,9.04,336376
23,30276,One Punch Man,Parody,TV,12,8.82,552458
41,32366,Gintama°: Aizome Kaori-hen,Parody,OVA,2,8.69,16947
62,21899,Gintama: Yorinuki Gintama-san on Theater 2D,Parody,Movie,2,8.6,11104
64,7472,Gintama Movie: Shinyaku Benizakura-hen,Parody,Movie,1,8.59,51185
165,6945,Gintama: Shiroyasha Koutan,Parody,Special,1,8.37,27213
210,9735,Gintama: Shinyaku Benizakura-hen,Parody,Special,1,8.31,14002
236,31174,Osomatsu-san,Parody,TV,25,8.27,60988
299,25313,Gintama: Jump Festa 2014 Special,Parody,Special,1,8.2,13764
309,10643,Gintama: Dai Hanseikai,Parody,Special,1,8.19,14728
354,32122,Gintama: Jump Festa 2015 Special,Parody,Special,1,8.15,7923
373,2951,Gintama: Nanigoto mo Saiyo ga Kanjin nano de Tasho Senobisuru Kurai ga Choudoyoi,Parody,Special,1,8.13,29331
439,6582,Tentai Senshi Sunred 2nd Season,Parody,TV,26,8.07,4584
448,227,FLCL,Parody,OVA,6,8.06,305165
457,849,Suzumiya Haruhi no Yuuutsu,Parody,TV,14,8.06,428569
489,2605,Sayonara Zetsubou Sensei,Parody,TV,12,8.03,174531
490,4163,Seto no Hanayome OVA,Parody,OVA,2,8.03,31973
491,3228,Zoku Sayonara Zetsubou Sensei,Parody,TV,13,8.03,74040
501,10012,Carnival Phantasm,Parody,OVA,12,8.01,71976
511,6377,Zan Sayonara Zetsubou Sensei,Parody,TV,13,8.01,55402
516,17273,Hetalia: The Beautiful World Specials,Parody,Special,4,8.0,8644
536,15195,Hetalia: The Beautiful World,Parody,ONA,20,7.98,34960
553,569,Musekinin Kanchou Tylor,Parody,TV,26,7.97,19841
564,4872,Goku Sayonara Zetsubou Sensei,Parody,OVA,3,7.96,40358
569,5005,Tentai Senshi Sunred,Parody,TV,26,7.96,12236
578,8479,Hetalia World Series,Parody,ONA,48,7.95,64416
586,2104,Seto no Hanayome,Parody,TV,26,7.95,165008
606,7044,Zan Sayonara Zetsubou Sensei Bangaichi,Parody,OVA,2,7.94,22704
636,4192,Hayate no Gotoku!!,Parody,TV,25,7.92,67323
640,4472,Lucky☆Star: Original na Visual to Animation,Parody,OVA,1,7.92,84833
692,13535,Binbougami ga!,Parody,TV,13,7.88,117091
696,10497,Hetalia World Series Specials,Parody,Special,4,7.88,14348
714,1887,Lucky☆Star,Parody,TV,24,7.87,305837
730,2508,Genshiken 2,Parody,TV,12,7.86,55825
738,31772,One Punch Man Specials,Parody,Special,6,7.86,75502
752,31704,One Punch Man: Road to Hero,Parody,OVA,1,7.85,94839
901,240,Genshiken,Parody,TV,12,7.76,104258
905,5060,Hetalia Axis Powers,Parody,ONA,52,7.76,144898
922,2026,Hayate no Gotoku!,Parody,TV,52,7.75,130085
943,1813,Genshiken OVA,Parody,OVA,3,7.74,35493
969,9136,Kuroshitsuji II Specials,Parody,Special,6,7.73,60899
997,7902,Fullmetal Alchemist: Brotherhood - 4-Koma Theater,Parody,Special,16,7.71,31262
1002,31997,Hetalia: The World Twinkle Extra Disc,Parody,OVA,1,7.71,2152
1049,6793,Kuroshitsuji Special,Parody,Special,1,7.69,53706
1077,26023,Haiyore! Nyaruko-san F,Parody,OVA,1,7.67,19620
1078,21075,Hetalia: The Beautiful World Extra Disc,Parody,OVA,1,7.67,4788
1101,2743,Mobile Suit Gundam Seed: Seed Supernova - Tanekyara Gekijou,Parody,Special,4,7.66,5508
1115,4182,Darker than Black: Kuro no Keiyakusha Special,Parody,Special,1,7.65,87609
1130,5419,Paniponi Dash!: Danjite Okonaeba Kishin mo Kore wo Saku,Parody,Special,1,7.65,6929
1150,10469,Sayonara Zetsubou Sensei Special,Parody,Special,1,7.63,9669
1170,5118,Suzumiya Haruhi-chan no Yuuutsu,Parody,ONA,25,7.63,70416
1213,18523,Senyuu. 2,Parody,TV,13,7.61,30726
1214,7041,Seto no Hanayome OVA Specials,Parody,Special,2,7.61,7011
1234,218,Kidou Senkan Nadesico,Parody,TV,26,7.6,27976
1244,8317,Sayonara Zetsubou Sensei Jo: Zoku Zetsubou Shoujo Senshuu,Parody,Special,1,7.6,6752
1267,32026,Osomatsu-san Special,Parody,Special,1,7.59,5005
1287,28607,Hetalia: The World Twinkle,Parody,ONA,15,7.58,15872
1301,379,Heppoko Jikken Animation Excel♥Saga,Parody,TV,26,7.57,68198
1306,490,Paniponi Dash!,Parody,TV,26,7.57,38532
1322,18465,Genshiken Nidaime,Parody,TV,13,7.56,29952
1324,9865,Hetalia Axis Powers Fan Disc,Parody,OVA,3,7.56,8070
1438,19369,Outbreak Company,Parody,TV,12,7.52,131520
1442,3674,Sayonara Zetsubou Sensei Jo: Zetsubou Shoujo Senshuu,Parody,Special,1,7.52,12097
1444,5909,Seitokai no Ichizon,Parody,TV,12,7.52,110470
1494,31158,Hetalia: The World Twinkle Specials,Parody,Special,3,7.5,2505
1534,15751,Senyuu.,Parody,TV,13,7.49,56815
1568,10464,Seitokai no Ichizon Lv.2,Parody,ONA,10,7.48,41169
1594,7337,"Hetalia Axis Powers Movie: Paint it, White",Parody,Movie,1,7.47,36986
1637,6064,Higurashi no Naku Koro ni Kai Specials,Parody,Special,24,7.46,28216
1675,714,High School! Kimengumi,Parody,TV,86,7.45,1316
1711,5521,Hayate no Gotoku!!: Atsu ga Natsuize - Mizugi-hen!,Parody,OVA,1,7.44,26587
1737,15699,Haiyore! Nyaruko-san W,Parody,TV,12,7.43,84442
1770,5065,Detroit Metal City: Birth of the Metal Devil,Parody,Special,1,7.42,16101
1851,1196,Masuda Kousuke Gekijou Gag Manga Biyori,Parody,TV,12,7.4,5423
1860,15963,Seitokai no Ichizon Lv.2: Watasu Seitokai,Parody,OVA,1,7.4,11554
1915,7769,Ookami-san to Shichinin no Nakama-tachi,Parody,TV,12,7.38,145982
1984,31918,Owari no Seraph: Nagoya Kessen-hen - Owaranai Seraph - Nagoya Kessen-hen,Parody,Special,4,7.36,11400
2003,3418,Jungle no Ouja Taa-chan,Parody,TV,50,7.35,801
2028,13677,Ao no Exorcist Movie Special,Parody,Special,1,7.34,20543
2047,18391,Mini Van,Parody,TV,37,7.34,836
2097,3956,Shakugan no Shana II (Second) Specials,Parody,Special,3,7.33,34305
2152,32543,Lu Shidai 2nd Season,Parody,ONA,13,7.31,740
2235,19159,Genshiken Nidaime OVA,Parody,OVA,1,7.28,8892
2252,4382,Suzumiya Haruhi no Yuuutsu (2009),Parody,TV,14,7.28,243448
2270,18713,Haiyore! Nyaruko-san: Yasashii Teki no Shitome-kata,Parody,OVA,1,7.27,14622
2314,9958,Hayate no Gotoku! Heaven Is a Place on Earth,Parody,Movie,1,7.26,22973
2315,23153,Hayate no Gotoku! OVA,Parody,OVA,3,7.26,6001
2321,12979,Naruto SD: Rock Lee no Seishun Full-Power Ninden,Parody,TV,51,7.26,29989
2342,11785,Haiyore! Nyaruko-san,Parody,TV,12,7.25,154595
2362,12823,Shakugan no Shana III (Final) Specials,Parody,Special,2,7.25,13494
2363,3221,Shakugan no Shana Movie Special,Parody,Special,1,7.25,19488
2438,1738,Muteki Kanban Musume,Parody,TV,12,7.22,12409
2444,5199,Seto no Hanayome Fan Disc,Parody,Special,2,7.22,4855
2445,1066,Shakugan no Shana Specials,Parody,Special,4,7.22,27261
2557,5030,Maria†Holic,Parody,TV,12,7.18,104663
2656,16157,Choujigen Game Neptune The Animation,Parody,TV,12,7.15,71901
2664,16982,Hayate no Gotoku! Cuties,Parody,TV,12,7.15,24044
2717,10249,Toaru Majutsu no Index-tan II,Parody,Special,2,7.14,20942
2735,3136,Ochamegami Monogatari: Korokoro Pollon,Parody,TV,46,7.13,1049
2797,14653,Hayate no Gotoku! Can't Take My Eyes Off You,Parody,TV,12,7.11,31435
2800,31233,Lu Shidai,Parody,ONA,14,7.11,1762
2806,6946,Mudazumo Naki Kaikaku: The Legend of Koizumi,Parody,OVA,3,7.11,8682
2816,5955,Toaru Majutsu no Index-tan,Parody,Special,2,7.11,32949
2850,3620,Blue Seed Omake,Parody,Special,14,7.09,1952
2919,12255,Carnival Phantasm: Illya-jou,Parody,Special,1,7.07,19277
2957,10191,Katte ni Kaizou,Parody,OVA,6,7.06,19904
2962,9712,Maria†Holic Alive,Parody,TV,12,7.06,40502
2971,31374,Shingeki! Kyojin Chuugakkou,Parody,TV,12,7.06,52928
2980,1798,Animation Seisaku Shinkou Kuromi-chan 2,Parody,OVA,1,7.05,3841
2982,2692,CB Chara Go Nagai World,Parody,OVA,3,7.05,989
2987,870,Dragon Half,Parody,OVA,2,7.05,11596
3018,1797,Animation Seisaku Shinkou Kuromi-chan,Parody,OVA,1,7.04,5794
3025,19261,Gintama x Mameshiba,Parody,Special,6,7.04,5566
3063,10431,"Baka to Test to Shoukanjuu: Matsuri - Sentaku ni Yotte Tenkai ga Kawaru ""LIPS Eizou""",Parody,ONA,1,7.03,18934
3070,11281,Keroro Gunsou: Mushakero Ohirome Sengoku Ranstar Dai Battle,Parody,Special,1,7.03,613
3082,229,Ninin ga Shinobuden,Parody,TV,12,7.03,23125
3119,7375,Shakugan no Shana S Specials,Parody,Special,4,7.02,18190
3182,19365,Samurai Flamenco,Parody,TV,22,7.0,74324
3187,21851,Tesagure! Bukatsumono Encore,Parody,TV,12,7.0,2084
3233,1837,Dokkoida,Parody,TV,12,6.98,3462
3292,2725,Tenchi Muyou!: Galaxy Police Mihoshi Space Adventure,Parody,OVA,1,6.96,6082
3372,1502,Mahou Shoujo Pretty Sammy (1996),Parody,TV,26,6.93,3501
3383,2510,Sengoku Majin Goushougun,Parody,TV,26,6.93,849
3433,10945,Maria†Holic Alive Special,Parody,Special,1,6.91,4669
3534,28835,Tesagure! Bukatsumono Spin-off Purupurun Sharumu to Asobou,Parody,TV,12,6.88,2007
3579,19889,Genshiken Nidaime Specials,Parody,Special,4,6.86,3981
3722,921,Nurse Witch Komugi-chan Magikarte Z,Parody,OVA,2,6.82,3986
3725,13619,Sayonara Zetsubou Sensei Special Omake,Parody,Special,1,6.82,3648
3758,20999,Mini Van Special,Parody,Special,1,6.81,387
3774,19391,Shingeki no Kyojin Picture Drama,Parody,Special,9,6.81,26363
3898,23627,Aoki Hagane no Arpeggio: Ars Nova - Kirikumas,Parody,Special,13,6.77,2913
3910,2050,Honoo no Tenkousei,Parody,OVA,2,6.77,2688
3913,12991,Katte ni Kaizou Specials,Parody,Special,3,6.77,1736
3923,615,Nurse Witch Komugi-chan Magikarte,Parody,OVA,5,6.77,9895
3966,7591,Tono to Issho,Parody,OVA,1,6.76,2888
4057,2390,Hoshi no Kirby,Parody,TV,100,6.73,10416
4066,32383,Osomatsu-san Short Film Series,Parody,Special,8,6.73,3051
4076,10324,Tono to Issho: Gantai no Yabou,Parody,TV,12,6.73,1993
4109,2733,Mobile Police Patlabor: MiniPato,Parody,OVA,3,6.72,1831
4118,8314,Tentai Senshi Sunred: Short Corner,Parody,Special,4,6.72,503
4134,2067,Gekiganger 3: The Movie,Parody,OVA,1,6.71,2562
4254,7568,Umineko no Naku Koro ni Specials,Parody,Special,26,6.68,10913
4258,3295,Yatterman,Parody,TV,60,6.68,2169
4262,4469,.hack//G.U. Trilogy: Parody Mode,Parody,Special,1,6.67,7952
4263,2041,Ai to Yuuki no Pig Girl Tonde Buurin,Parody,TV,51,6.67,6183
4282,6609,Pucca (2006),Parody,TV,26,6.67,4425
4285,3735,Ryuuseiki Gakusaver,Parody,OVA,6,6.67,547
4362,19919,Tesagure! Bukatsumono,Parody,TV,12,6.65,5670
4369,17705,DD Hokuto no Ken (2013),Parody,TV,13,6.64,1805
4377,30531,Gakuen Handsome The Animation,Parody,OVA,1,6.63,2038
4381,3100,Kamen Rider SD Kaiki?! Kumo Otoko,Parody,OVA,1,6.64,575
4387,2306,Mobile Suit SD Gundam's Counterattack,Parody,OVA,2,6.64,1982
4422,4962,Rokumon Tengai Mon Colle Knights,Parody,TV,51,6.63,2625
4510,10810,Pucca (2008),Parody,TV,13,6.6,2173
4552,920,Nurse Witch Komugi-chan Magikarte Special,Parody,Special,1,6.59,3397
4575,8215,Genji Tsuushin Agedama,Parody,TV,51,6.58,477
4577,10491,Higurashi no Naku Koro ni Kira,Parody,OVA,4,6.58,46712
4661,2234,Panda-Z: The Robonimation,Parody,TV,30,6.56,1358
4700,19799,Robot Girls Z,Parody,Special,3,6.55,12212
4716,30143,Bobobo-bo Bo-bobo Recap,Parody,Special,1,6.54,606
4718,12685,Code Geass: Nunnally in Wonderland,Parody,OVA,1,6.54,37087
4736,12611,Sengoku Collection,Parody,TV,26,6.54,16287
4791,32412,Kigyou Senshi Arslan,Parody,ONA,6,6.51,2323
4798,2302,Mobile Suit SD Gundam Mk I,Parody,Special,3,6.52,2371
4825,5956,High School! Kimengumi (Movie),Parody,Movie,1,6.51,270
4828,1918,Mahou Shoujo Pretty Sammy,Parody,OVA,3,6.51,4327
4830,34239,Mutsugo to Ouma no Monogatari,Parody,ONA,6,6.47,1489
4865,2303,Mobile Suit SD Gundam Mk II,Parody,OVA,3,6.5,2112
4895,1851,Haou Daikei Ryuu Knight: Adeu Legend Final,Parody,OVA,1,6.49,435
4907,2550,Onboro Film,Parody,Movie,1,6.49,1507
4933,3619,Nanako SOS,Parody,TV,39,6.48,587
4937,24763,Robot Girls Z Specials,Parody,Special,3,6.48,1592
4994,3474,Push,Parody,Special,1,6.46,1272
5030,2466,Scramble Wars: Tsuppashire! Genom Trophy Rally,Parody,OVA,1,6.45,558
5042,1865,Getsumen To Heiki Mina,Parody,TV,11,6.44,4744
5049,28385,Seto no Hanayome Picture Drama,Parody,Special,1,6.44,1264
5053,6331,Ten Little Gall Force,Parody,OVA,1,6.44,701
5055,4578,Time Bokan Oudou Fukko,Parody,OVA,2,6.44,609
5070,4737,Himitsukessha Taka no Tsume,Parody,TV,12,6.43,341
5090,9591,Code Geass: Hangyaku no Lelouch R2: Flash Specials,Parody,Special,9,6.42,9291
5124,6234,True Tears Specials,Parody,Special,7,6.42,7296
5130,14077,Blood-C: None-None Gekijou,Parody,ONA,7,6.41,5273
5168,1503,Mahou Shoujo Pretty Sammy Specials,Parody,Special,7,6.4,798
5298,2840,Youkoso Lodoss-tou e!,Parody,Movie,1,6.36,1156
5346,7596,Haiyoru! Nyaruani,Parody,OVA,9,6.34,18386
5360,30912,Robot Girls Z Episode 0,Parody,ONA,1,6.34,1271
5372,12411,UN-GO: Inga Nikki,Parody,ONA,10,6.34,4951
5447,309,Akahori Gedou Hour Rabuge,Parody,TV,13,6.3,3271
5464,29035,Robot Girls Z Plus,Parody,ONA,6,6.3,3863
5483,8196,Kawasaki Frontale x Tentai Senshi Sunred 2nd Season,Parody,Special,1,6.29,321
5501,10177,DD Hokuto no Ken,Parody,TV,12,6.28,2348
5545,686,To Heart: Remember My Memories Specials,Parody,Special,7,6.27,2198
5546,9794,Tono to Issho 1.5,Parody,OVA,1,6.27,462
5602,24835,Mobile Suit Gundam-san,Parody,TV,13,6.25,3598
5698,2304,Mobile Suit SD Gundam Mk IV,Parody,OVA,2,6.21,1756
5712,19165,Fate/Zero Cafe,Parody,Movie,1,6.2,8130
5748,9098,Mobile Suit SD Gundam Festival,Parody,Movie,1,6.19,913
5776,27677,Stratos 4 OVA: Stratos 4.1 - Dutch Roll,Parody,Special,1,6.18,239
5787,8316,Kawasaki Frontale x Tentai Senshi Sunred,Parody,Special,4,6.17,363
5790,28811,Last Exile: Doyou no Asa,Parody,Special,3,6.17,626
5828,30851,Q Transformers: Saranaru Ninki Mono e no Michi,Parody,TV,13,6.15,210
5881,29823,Channel 5.5 3rd Season,Parody,ONA,4,6.12,280
5883,8490,Digimon Adventure 3D: Digimon Grand Prix!,Parody,Movie,1,6.12,4882
5891,2305,Mobile Suit SD Gundam Mk III,Parody,OVA,6,6.12,1805
5900,3080,Anime Tenchou,Parody,OVA,1,6.11,6066
5903,33392,Gakuen Handsome,Parody,TV,12,6.11,10696
5920,28815,Bamboo Blade: CM Fanfu-Fufe-Fo,Parody,Special,24,6.1,455
5945,25999,Minna Atsumare! Falcom Gakuen SC,Parody,TV,12,6.09,1366
5950,31890,Nurse Witch Komugi-chan R,Parody,TV,12,6.09,7376
5987,1769,Oh! Super Milk-chan,Parody,TV,12,6.07,2757
6025,18109,Glass no Kamen Desu ga the Movie: Onna Spy no Koi! Murasaki no Bara wa Kiken na Kaori!?,Parody,Movie,1,6.05,433
6062,31018,DD Hokuto no Ken 2 Ichigo Aji+,Parody,TV,12,6.03,1695
6069,4130,Petit Eva: Evangelion@School,Parody,ONA,24,6.03,15734
6085,9087,"Mobile Suit SD Gundam Musha, Knight, Commando",Parody,Movie,2,6.02,860
6100,7915,Otaku no Seiza,Parody,OVA,2,6.01,378
6124,5501,Gun x Sword-san,Parody,Special,13,5.99,2168
6134,33508,Si Ling Bianma: Zhi Shijie Caozong Zhe,Parody,ONA,12,5.99,563
6148,10519,Mahou Shoujo Sonico★Magica,Parody,ONA,1,5.98,13266
6162,6792,Mobile Suit SD Gundam Mk V,Parody,OVA,3,5.97,1294
6218,3573,Moegaku★5,Parody,TV,40,5.93,572
6230,2080,Majokko Club Yoningumi: A Kuukan kara no Alien X,Parody,OVA,1,5.92,441
6246,11717,Hoshi no Kirby: Pilot,Parody,Special,1,5.91,915
6266,16183,Lupin Shanshei,Parody,OVA,10,5.9,582
6267,2731,Shishunki Bishoujo Gattai Robo Z-MIND,Parody,OVA,6,5.9,333
6274,20705,Baka Misérables,Parody,ONA,3,5.89,169
6297,1743,Super Milk-chan,Parody,TV,14,5.88,2476
6306,4908,Bihada Ichizoku,Parody,TV,12,5.87,2777
6310,8231,Princess Lover!: Magical Knight Maria-chan,Parody,Special,6,5.87,5960
6360,11087,Awake,Parody,Special,2,5.83,276
6367,21427,Minna Atsumare! Falcom Gakuen,Parody,TV,13,5.83,3175
6409,13693,Ippatsu Hicchuu!! Devander,Parody,OVA,1,5.8,316
6413,10520,Nurse Witch Komugi-chan Magikarte Z Special,Parody,Special,1,5.8,1227
6436,2529,Princess Minerva,Parody,OVA,1,5.79,805
6454,33011,Kaijuu Girls: Ultra Kaijuu Gijinka Keikaku,Parody,ONA,12,5.99,3251
6461,3473,Souseiki,Parody,Movie,1,5.77,959
6466,29822,Channel 5.5 2nd Season,Parody,ONA,4,5.76,277
6468,4939,Macross Fufonfia,Parody,ONA,20,5.76,2189
6489,17707,Glass no Kamen Desu ga,Parody,TV,3,5.74,773
6502,28813,Bamboo Blade: Fanfu-Fufe-Fo,Parody,Special,2,5.72,484
6510,28401,Q Transformers: Kaette Kita Convoy no Nazo,Parody,TV,13,5.72,404
6519,4150,Cosmos Pink Shock,Parody,OVA,1,5.71,981
6524,3743,Murder,Parody,Movie,1,5.71,963
6552,2058,Delpower X Bakuhatsu Miracle Genki!,Parody,OVA,1,5.68,644
6566,9861,Anime Tenchou Movie,Parody,Movie,1,5.67,1280
6650,9170,Kimi ga Nozomu Eien: Gundam Parody,Parody,Special,1,5.6,4159
6659,20581,Nekketsu Tantei Jimusho,Parody,ONA,5,5.59,229
6685,30489,Minna Atsumare! Falcom Gakuen SC Special,Parody,Special,1,5.57,308
6715,31115,Schick x Evangelion,Parody,Special,2,5.56,2021
6748,28809,Macross Fufonfia Specials,Parody,Special,3,5.5,335
6749,31494,Mini-Chara Macross,Parody,Special,1,5.5,278
6751,19279,Pony Metal U-GAIM Promotion Film,Parody,Special,1,5.5,298
6754,1515,Sentou Yousei Shoujo Tasukete! Mave-chan,Parody,OVA,1,5.5,2100
6795,30840,Many Things SD Gundam,Parody,Special,2,5.46,249
6832,10954,Toei Robot Girls,Parody,ONA,1,5.42,1208
7009,33545,Henna Omamesan,Parody,Special,1,5.21,185
7084,7259,Kenju Giga,Parody,Movie,1,5.11,480
7114,33975,3-Nen D-Gumi Glass no Kamen,Parody,TV,13,5.06,836
7118,8968,Shogi Hour,Parody,ONA,1,5.06,416
7162,33119,Tokyogurashi!,Parody,ONA,1,4.97,1331
7217,7882,Ramen Tenshi Pretty Menma,Parody,Special,1,4.82,2889
7274,32467,Under the Dog: Anthea-chan,Parody,ONA,1,4.62,2390
7371,16602,Dead Girl Trailer,Parody,ONA,1,3.74,910
7428,32956,Ahare! Meisaku-kun,Parody,TV,39,4.54,115
7523,26013,Backkom Mission Impossible,Parody,ONA,2,6.11,97
7631,29821,Channel 5.5,Parody,ONA,4,5.32,196
7633,29820,Channel 5.5 4th Season,Parody,ONA,4,5.13,191
7675,22755,Chikasugi Idol Akae-chan,Parody,TV,12,4.28,112
7695,21433,Chou Zenmairobo: Patrasche,Parody,TV,13,4.52,178
7713,13501,Cofun Gal no Coffy,Parody,ONA,10,4.45,75
7714,13503,Cofun Gal no Coffy (TV),Parody,TV,12,6.9,77
7718,13507,Cofun Gal no Coffy: Okehazama no Tatakai,Parody,Movie,1,5.13,66
7759,23855,Dennou Sentai Voogie's★Angel Gaiden: Susume! Super★Angels!,Parody,OVA,2,5.25,110
7762,9869,Din Dong,Parody,Special,1,5.18,80
7820,5554,Eguchi Hisashi no Nantoka Narudesho!,Parody,OVA,1,5.32,246
7909,20199,Ganbare Gonbe,Parody,TV,77,6.67,62
7961,19501,Giga Tribe,Parody,TV,39,5.5,106
7966,14067,Ginga Hyouryuu Vifam: Chicago Super Police 13,Parody,Special,1,6.0,126
7976,27621,Glass no Kamen Desu ga to Z,Parody,TV,14,6.02,273
7998,31699,Good Morning!!! Doronjo,Parody,TV,225,6.0,135
8001,5477,Gozonji! Gekkou Kamen-kun,Parody,TV,25,7.0,178
8045,20873,Hana no Zundamaru,Parody,ONA,8,5.1,145
8046,22953,Hana no Zundamaru: Junk,Parody,ONA,3,3.96,96
8055,29271,Hangyodon no 007/2: Doctor Sunday Arawaru no Maki,Parody,OVA,1,7.0,51
8164,7175,Himitsukessha Taka no Tsume Countdown,Parody,TV,12,6.17,179
8165,22821,Himitsukessha Taka no Tsume EX,Parody,TV,38,6.7,105
8166,13207,Himitsukessha Taka no Tsume Gaiden: Mukashi no Yoshida-kun,Parody,TV,9,5.37,126
8167,18241,Himitsukessha Taka no Tsume MAX,Parody,TV,38,7.0,112
8168,13431,Himitsukessha Taka no Tsume NEO,Parody,TV,38,6.62,151
8169,8355,Himitsukessha Taka no Tsume The Movie 1: Soutou wa Nido Shinu,Parody,Movie,1,5.47,118
8170,8356,Himitsukessha Taka no Tsume The Movie 2: Watashi wo Aishita Kuro Oolong-Cha,Parody,Movie,1,5.06,114
8171,8357,Himitsukessha Taka no Tsume The Movie 3: http://takanotsume.jp wa Eien ni,Parody,Movie,1,5.27,122
8172,30753,Himitsukessha Taka no Tsume The Movie 4: Kaspersky wo Motsu Otoko,Parody,OVA,1,6.4,54
8173,13499,Himitsukessha Taka no Tsume THE PLANETARIUM: Burabura! Black Hole no Nazo,Parody,Special,1,4.33,82
8174,13433,himitsukesshatakanotsume.jp,Parody,ONA,78,6.1,101
8175,30752,himitsukesshatakanotsume.jp Specials,Parody,Special,2,6.0,47
8269,19583,Ishii Hisaichi no Dai Seikai,Parody,OVA,1,5.13,56
8281,27561,J League wo 100-bai Tanoshiku Miru Houhou!!,Parody,Movie,1,4.17,60
8288,24041,Jarujio Animal,Parody,TV,10,8.33,57
8375,23613,Kakkun Cafe,Parody,Movie,1,5.86,54
8550,23829,Komatsu Sakyo Anime Gekijou,Parody,TV,24,5.17,76
8573,33226,Kotowaza Gundam-san,Parody,ONA,17,6.13,200
8619,20603,Kyoufu no Kyou-chan,Parody,TV,7,4.58,66
8662,31984,Lupin Shanshei Pilot,Parody,Special,1,5.5,171
8683,32259,Mahou no Tenshi Creamy Mami: Perfect Memory,Parody,OVA,1,5.0,95
8704,33551,Mameshi-Pamyu-Pamyu,Parody,Special,9,5.26,110
8707,33547,Mameshiba x Gaist Crusher Collab CM,Parody,Special,1,5.08,128
8760,24259,Mechano: Scientific Attack Force,Parody,OVA,3,2.55,120
8789,20453,Mikosuri Han-Gekijou,Parody,OVA,1,5.43,60
8804,31410,Mini Van 2nd Season,Parody,TV,26,6.1,373
8828,33225,Mobile Suit Gundam-san (ONA),Parody,ONA,15,6.19,217
8829,32158,Mobile Suit Gundam-san: Bouya Dakara sa,Parody,Special,1,5.57,197
8830,33228,Mobile Suit Gundam-san: Hiyoko day's Ichisuisei Hiyoko to Fushigi na Ofuda,Parody,Special,1,5.64,222
8842,31116,Momotaros no Natsuyasumi,Parody,Movie,1,4.08,62
8897,8959,Nanchatte!,Parody,ONA,2,4.06,126
8924,25253,Nekketsu Jinmen Inu: Life Is Movie,Parody,OVA,3,5.74,256
8951,12181,Nihon Omoshiro Mukashibanashi,Parody,TV,12,6.67,131
8974,31517,Ninja-tai Gatchaman ZIP!,Parody,TV,475,5.5,146
9028,20075,Obocchama-kun,Parody,TV,164,6.47,85
9112,34238,Osomatsu-san: Ouma de Kobanashi,Parody,Special,1,7.55,2525
9163,22631,Peeping Life: Tezuka Pro - Tatsunoko Pro Wonderland,Parody,OVA,10,4.88,135
9164,22635,Peeping Life: Tezuka Pro - Tatsunoko Pro Wonderland ONA,Parody,ONA,4,4.12,120
9165,22633,Peeping Life: Tezuka Pro - Tatsunoko Pro Wonderland Specials,Parody,Special,2,3.94,115
9214,31647,Ponkotsuland Saga,Parody,ONA,1,3.41,140
9268,16526,Ranpou,Parody,TV,21,6.67,103
9363,10850,Seibu Tetsudou Ekiin Tako-chan,Parody,ONA,12,4.12,99
9379,10820,Sengoku Majin Goushougun (Movie),Parody,Movie,1,6.48,198
9400,33193,Shi Wan Ge Leng Xiaohua,Parody,ONA,12,6.67,114
9401,33195,Shi Wan Ge Leng Xiaohua,Parody,Movie,1,7.07,110
9402,33194,Shi Wan Ge Leng Xiaohua 2nd Season,Parody,ONA,13,6.33,77
9615,3575,Sugai-kun to Kazoku Ishi The Movie,Parody,Movie,1,6.89,92
9634,30013,Super Short Comics,Parody,ONA,8,5.15,260
9652,9562,Tachumaru Gekijou,Parody,TV,26,5.63,124
9659,33662,Taka no Tsume 8: Yoshida-kun no X-Files,Parody,Movie,1,10.0,13
9660,13435,Taka no Tsume NEO Announcement Movie,Parody,Special,1,4.23,109
9661,19535,Takanotsume GO: Utsukushiki Elleair Shoushuu Plus,Parody,Movie,1,7.17,110
9672,30754,Tamagotchi! x Himitsukessha Taka no Tsume,Parody,OVA,1,7.13,56
9703,25987,Tensai Bakavon: Yomigaeru Flanders no Inu,Parody,Movie,1,5.75,135
9740,8189,The World of Golden Eggs,Parody,TV,26,6.38,313
9751,20125,Tobidase! Machine Hiryuu,Parody,TV,21,5.17,76
9767,33533,Tokyo Onlypic,Parody,Movie,1,6.33,29
9847,11695,Ultraman Graffiti,Parody,OVA,6,5.25,123
9850,30122,Ultraman M78 Gekijou: Love and Peace,Parody,Special,1,5.31,93
9909,33791,Warui no wo Taose!! Salaryman Man,Parody,ONA,1,5.04,74
9938,7419,Wrestler Gundan Seisenshi Robin Jr.,Parody,TV,50,6.32,145
9992,25749,Yatterman Specials,Parody,Special,2,6.48,208
9995,21277,Yawaraka Atom,Parody,ONA,7,4.5,69
10050,33571,Zenryoku Yobikou 5.5 Seminar,Parody,ONA,9,5.0,46
10051,33570,Zenryoku Yobikou 5.5 Seminar Prologue,Parody,ONA,1,4.73,62
