,country,cpi
0,New Zealand,9.43
1,Denmark,9.33
2,Sweden,9.08
3,Finland,9.05
4,Canada,8.96
5,Norway,8.87
6,Singapore,8.8
7,Switzerland,8.76
8,Netherlands,8.71
9,Australia,8.6
10,Ireland,8.45
11,Unit.Kingd.,8.44
12,Germany,8.27
13,Israel,7.71
14,USA,7.66
15,Austria,7.59
16,Japan,7.05
17,Hong Kong,7.01
18,France,6.96
19,Belgium,6.84
20,Chile,6.8
21,Portugal,6.53
22,South Africa,5.68
23,Poland,5.57
24,Czech Rep.,5.37
25,Malaysia,5.32
26,South Korea,5.02
