,anime_id,name,genre,type,episodes,rating,members
38,19,Monster,Horror,TV,74,8.72,247562
65,777,Hellsing Ultimate,Horror,OVA,10,8.59,297454
66,22535,Kiseijuu: Sei no Kakuritsu,Horror,TV,24,8.59,425457
88,13125,Shinsekai yori,Horror,TV,25,8.53,288376
105,2246,Mononoke,Horror,TV,12,8.49,88850
145,33,Berserk,Horror,TV,25,8.4,226430
192,12115,Berserk: Ougon Jidai-hen III - Kourin,Horror,Movie,1,8.33,65594
276,437,Perfect Blue,Horror,Movie,1,8.23,117565
327,934,Higurashi no Naku Koro ni,Horror,TV,26,8.17,359494
351,47,Akira,Horror,Movie,1,8.15,215897
358,1943,Paprika,Horror,Movie,1,8.15,163308
381,33253,Ajin 2nd Season,Horror,TV,13,8.12,51382
405,34103,Danganronpa 3: The End of Kibougamine Gakuen - Kibou-hen,Horror,Special,1,8.1,29969
412,12113,Berserk: Ougon Jidai-hen II - Doldrey Kouryaku,Horror,Movie,1,8.09,66721
428,1594,Jigoku Shoujo Futakomori,Horror,TV,26,8.08,79816
441,22319,Tokyo Ghoul,Horror,TV,12,8.07,618056
545,1571,Ghost Hunt,Horror,TV,25,7.97,126426
574,33028,Danganronpa 3: The End of Kibougamine Gakuen - Zetsubou-hen,Horror,TV,11,7.95,65503
589,12445,Tasogare Otome x Amnesia,Horror,TV,12,7.95,172367
590,543,Vampire Hunter D (2000),Horror,Movie,1,7.95,68229
624,10083,Shiki Specials,Horror,Special,2,7.93,37657
688,11111,Another,Horror,TV,12,7.88,534657
708,32189,Danganronpa 3: The End of Kibougamine Gakuen - Mirai-hen,Horror,TV,12,7.87,83343
732,6904,Hellsing I: Digest for Freaks,Horror,OVA,1,7.86,20263
743,226,Elfen Lied,Horror,TV,13,7.85,623511
756,30868,Ajin Part 1: Shoudou,Horror,Movie,1,7.84,22279
759,978,Change!! Getter Robo: Sekai Saigo no Hi,Horror,OVA,13,7.84,5606
765,1462,Memories,Horror,Movie,3,7.84,38643
824,150,Blood+,Horror,TV,50,7.8,208321
846,228,Jigoku Shoujo,Horror,TV,26,7.79,172415
857,31580,Ajin,Horror,TV,13,7.78,160972
886,3603,JoJo no Kimyou na Bouken: Phantom Blood,Horror,Movie,1,7.77,8534
998,1281,Gakkou no Kaidan,Horror,TV,19,7.71,42033
999,24765,Gakkougurashi!,Horror,TV,12,7.71,140094
1014,30458,"Tokyo Ghoul: ""Jack""",Horror,OVA,1,7.71,70635
1060,32015,Ajin OVA,Horror,OVA,3,7.68,15613
1080,617,Juubee Ninpuuchou,Horror,Movie,1,7.67,55697
1121,2012,Jigoku Sensei Nube,Horror,TV,49,7.65,8908
1140,270,Hellsing,Horror,TV,13,7.64,308995
1200,586,Ayakashi: Japanese Classic Horror,Horror,TV,11,7.61,34938
1217,31297,"Tokyo Ghoul: ""Pinto""",Horror,OVA,1,7.61,52312
1258,1454,Kemonozume,Horror,TV,13,7.59,33086
1336,14189,Tasogare Otome x Amnesia: Taima Otome,Horror,Special,1,7.56,38176
1450,27899,Tokyo Ghoul √A,Horror,TV,12,7.52,408357
1453,30869,Ajin Part 2: Shoutotsu,Horror,Movie,1,7.51,11377
1482,11701,Another: The Other - Inga,Horror,OVA,1,7.5,86261
1496,2204,Karakuri Zoushi Ayatsuri Sakon,Horror,TV,26,7.5,6197
1503,3342,Mnemosyne: Mnemosyne no Musume-tachi,Horror,TV,6,7.5,96092
1516,16592,Danganronpa: Kibou no Gakuen to Zetsubou no Koukousei The Animation,Horror,TV,13,7.49,298550
1550,6880,Deadman Wonderland,Horror,TV,12,7.48,453454
1571,2978,Shin Getter Robo,Horror,OVA,13,7.48,4603
1596,666,JoJo no Kimyou na Bouken,Horror,OVA,6,7.47,24523
1612,7662,Shinrei Tantei Yakumo,Horror,TV,13,7.47,78952
1689,5034,Shikabane Hime: Kuro,Horror,TV,12,7.45,46709
1767,9544,Biohazard: Damnation,Horror,Movie,1,7.42,10737
1798,2683,Tokyo Majin Gakuen Kenpucho: Tou Dai Ni Maku,Horror,TV,12,7.42,21972
1826,326,Petshop of Horrors,Horror,TV,4,7.41,32696
1885,6980,Kaidan Restaurant,Horror,TV,23,7.39,9994
1886,28623,Koutetsujou no Kabaneri,Horror,TV,12,7.39,253027
1901,104,Ayashi no Ceres,Horror,TV,24,7.38,38336
1922,4581,Shikabane Hime: Aka,Horror,TV,13,7.38,71502
1945,11077,Hellsing: The Dawn,Horror,Special,3,7.37,40548
1970,16700,Higurashi no Naku Koro ni Kaku: Outbreak,Horror,OVA,1,7.36,33381
1992,30870,Ajin Part 3: Shougeki,Horror,Movie,1,7.36,9638
2060,4896,Umineko no Naku Koro ni,Horror,TV,26,7.34,126865
2067,10681,Blood-C: The Last Dark,Horror,Movie,1,7.33,37925
2123,6016,Kyoushoku Soukou Guyver (1989),Horror,OVA,6,7.32,6090
2163,1860,Tokyo Majin Gakuen Kenpucho: Tou,Horror,TV,14,7.31,43632
2176,2745,Jigoku Sensei Nube OVA,Horror,OVA,3,7.3,1426
2206,395,Gantz 2nd Stage,Horror,TV,13,7.29,87240
2258,369,Boogiepop wa Warawanai: Boogiepop Phantom,Horror,TV,12,7.27,47280
2266,384,Gantz,Horror,TV,13,7.27,165335
2279,279,Kyougoku Natsuhiko: Kousetsu Hyaku Monogatari,Horror,TV,13,7.27,20859
2292,22689,Terra Formars: Bugs 2-hen,Horror,OVA,2,7.27,21616
2331,732,Vampire Hunter D,Horror,Movie,1,7.26,42377
2383,690,Kyuuketsuhime Miyu (TV),Horror,TV,26,7.24,21550
2417,842,Ushio to Tora,Horror,OVA,10,7.23,6086
2419,553,Yami no Matsuei,Horror,TV,13,7.23,34177
2435,665,JoJo no Kimyou na Bouken: Adventure,Horror,OVA,7,7.22,20337
2460,9159,Kaibutsu Oujo (OVA),Horror,OVA,3,7.21,8690
2477,19383,Yami Shibai,Horror,TV,13,7.21,33275
2494,1336,Kyoushoku Soukou Guyver II,Horror,OVA,6,7.2,4876
2509,8986,Supernatural The Animation,Horror,OVA,22,7.2,18528
2514,3446,Biohazard: Degeneration,Horror,Movie,1,7.19,20172
2517,2354,Devilman: Tanjou-hen,Horror,OVA,1,7.19,7171
2622,2130,Kaibutsu Oujo,Horror,TV,25,7.16,44825
2627,620,Mermaid Forest,Horror,TV,13,7.16,14073
2693,2355,Devilman: Yochou Sirene-hen,Horror,OVA,1,7.14,5858
2697,4983,Hells,Horror,Movie,1,7.14,9255
2715,22687,Terra Formars,Horror,TV,13,7.14,95964
2718,1225,3x3 Eyes Seima Densetsu,Horror,OVA,3,7.13,8892
2719,58,Blue Gender,Horror,TV,26,7.13,40581
2731,1384,Kyuuketsuhime Miyu,Horror,OVA,4,7.13,11019
2752,15037,Corpse Party: Tortured Souls - Bougyakusareta Tamashii no Jukyou,Horror,OVA,4,7.12,126699
2754,10418,Deadman Wonderland OVA,Horror,OVA,1,7.12,78878
2763,4082,Kaibutsu Oujo: Konsui Oujo,Horror,Special,1,7.12,7362
2778,6344,Shikabane Hime: Kuro Special,Horror,Special,1,7.12,9558
2843,169,Shingetsutan Tsukihime,Horror,TV,12,7.1,90713
2875,621,Night Walker: Mayonaka no Tantei,Horror,TV,12,7.09,11143
2894,30825,Gakkou no Kaidan: Kubinashi Rider!! Shi no Noroi,Horror,Special,1,7.08,2601
2898,5039,Kurozuka,Horror,TV,12,7.08,52145
2900,2017,Mermaid's Scar,Horror,OVA,1,7.08,3552
2922,2165,Gegege no Kitarou (2007),Horror,TV,100,7.07,1656
2953,5688,Gegege no Kitarou (1968),Horror,TV,65,7.06,1276
2977,2404,Zombie-Loan,Horror,TV,11,7.06,93637
3037,1951,Manie-Manie: Meikyuu Monogatari,Horror,Movie,3,7.04,9568
3108,12481,Gregory Horror Show: The Second Guest,Horror,TV,25,7.02,603
3110,1192,Kakurenbo,Horror,Movie,1,7.02,22853
3130,405,Blood: The Last Vampire,Horror,Movie,1,7.01,67778
3140,3710,Hakaba Kitarou,Horror,TV,11,7.01,6649
3147,2016,Mermaid Forest OVA,Horror,OVA,1,7.01,3708
3162,11837,Zetman,Horror,TV,13,7.01,65633
3171,514,Cossette no Shouzou,Horror,OVA,3,7.0,40318
3249,300,3x3 Eyes,Horror,OVA,4,6.97,15683
3319,1517,Silent Mobius,Horror,TV,26,6.95,7664
3368,5296,Jigoku Sensei Nube: Kyoufu no Natsu Yasumi! Asashi no Uni no Gensetsu,Horror,Movie,1,6.93,1070
3369,3129,Kaibutsu-kun,Horror,TV,49,6.93,460
3394,1629,Devilman Lady,Horror,TV,26,6.92,8665
3429,8228,Jigoku Sensei Nube: Gozen 0 toki Nube Shisu,Horror,Movie,1,6.91,913
3447,31430,Terra Formars Revenge,Horror,TV,13,6.91,34176
3462,6069,Gregory Horror Show,Horror,TV,25,6.9,1385
3463,2178,Highlander: The Search for Vengeance,Horror,Movie,1,6.9,9997
3510,14117,Blood-C: Special Edition,Horror,Special,2,6.88,6993
3527,1243,Night Head Genesis,Horror,TV,24,6.88,20856
3558,30412,Shi Xiong,Horror,ONA,41,6.87,566
3713,8208,Jigoku Sensei Nube (Movie),Horror,Movie,1,6.82,1120
3714,26063,Kaibutsu Oujo (OVA) Specials,Horror,Special,3,6.82,922
3737,32379,Berserk (2016),Horror,TV,12,6.81,90817
3761,1109,Monster Extra,Horror,Special,1,6.81,6004
3799,12483,Gregory Horror Show: The Last Train,Horror,TV,26,6.8,505
3831,3130,Kaibutsu-kun (1980),Horror,TV,94,6.79,293
3873,618,Juubee Ninpuuchou: Ryuuhougyoku-hen,Horror,TV,13,6.78,22860
3901,1136,Betterman,Horror,TV,26,6.77,8037
4046,10490,Blood-C,Horror,TV,12,6.73,118553
4128,1177,Alien 9,Horror,OVA,4,6.71,15425
4155,916,Tokkou,Horror,TV,13,6.71,30836
4196,1658,Karakuri no Kimi,Horror,OVA,1,6.69,2884
4218,2356,Amon: Devilman Mokushiroku,Horror,OVA,1,6.68,7706
4256,155,X/1999,Horror,Movie,1,6.68,23038
4276,1085,Interlude,Horror,OVA,3,6.67,7573
4407,6472,Gakkou no Kowai Uwasa: Hanako-san ga Kita!!,Horror,TV,35,6.63,637
4432,55,Arc the Lad,Horror,TV,26,6.62,10392
4507,6270,Neko Machi,Horror,OVA,1,6.6,716
4576,2073,Hengen Taima Yakou Karura Mau! Sendai Kokeshi Enka,Horror,OVA,6,6.58,328
4616,22053,Gakkou no Kaidan (OVA),Horror,OVA,10,6.57,452
4626,1163,Neo Ranga,Horror,TV,48,6.57,5332
4681,2252,Devilman,Horror,TV,39,6.55,5532
4727,30524,Kagewani,Horror,TV,13,6.54,19225
4728,32682,Kagewani: Shou,Horror,TV,13,6.54,11052
4745,22537,Yami Shibai 2nd Season,Horror,TV,13,6.54,17379
4777,4085,Yonimo Osoroshii Grimm Douwa,Horror,OVA,3,6.53,683
4816,1107,Youjuu Toshi,Horror,Movie,1,6.52,13480
4845,3166,Ayakashi,Horror,TV,12,6.5,20882
4874,1048,The SoulTaker: Tamashii-gari,Horror,TV,13,6.5,15796
4899,9824,Jigokudou Reikai Tsuushin,Horror,OVA,1,6.49,479
4900,2293,Kyoushoku Soukou Guyver,Horror,Movie,1,6.49,3185
4924,8145,Gegege no Kitarou: Nippon Bakuretsu,Horror,Movie,1,6.48,340
4961,7079,Ookamikakushi,Horror,TV,12,6.47,51323
4974,8194,Akuma-kun,Horror,TV,42,6.46,382
5003,4044,Youkai Ningen Bem,Horror,TV,26,6.46,440
5009,8278,Biohazard 4: Incubate,Horror,OVA,1,6.45,3604
5038,159,Boukyaku no Senritsu,Horror,TV,24,6.44,12169
5054,4853,Tezuka Osamu no Don Dracula,Horror,TV,8,6.44,934
5057,2018,Warau Hyouteki,Horror,OVA,1,6.44,1975
5068,8146,Gegege no Kitarou: Daikaijuu,Horror,Movie,1,6.43,305
5071,258,Hitsuji no Uta,Horror,OVA,4,6.43,10574
5143,1280,Mamono Hunter Youko,Horror,OVA,6,6.41,6385
5153,21861,Airy Me,Horror,Music,1,6.4,1561
5191,8157,Gegege no Kitarou: Youkai Tokkyuu! Maboroshi no Kisha,Horror,Movie,1,6.39,241
5192,3906,H. P. Lovecraft's The Dunwich Horror and Other Stories,Horror,OVA,1,6.39,1704
5197,3475,Muramasa,Horror,Movie,1,6.39,2535
5214,13807,Corpse Party: Missing Footage,Horror,OVA,1,6.38,57507
5216,1337,Dororon Enma-kun,Horror,TV,25,6.38,1898
5220,6271,Gendai Kibunroku Kaii Monogatari,Horror,OVA,1,6.38,704
5231,1508,Sci-fi Harry,Horror,TV,20,6.38,5194
5253,8149,Gegege no Kitarou (1968 Movie),Horror,Movie,1,6.37,346
5270,6276,Umezu Kazuo no Noroi,Horror,OVA,1,6.37,2361
5276,1380,Blue Gender: The Warrior,Horror,Movie,1,6.36,7197
5289,499,Makai Toshi Shinjuku,Horror,OVA,1,6.36,7293
5337,6920,Blade,Horror,TV,12,6.34,14100
5345,8150,Gegege no Kitarou: Chisougan,Horror,Movie,1,6.34,188
5380,1494,Darkside Blues,Horror,Movie,1,6.33,5224
5432,4095,Chuumon no Ooi Ryouriten (1991),Horror,Movie,1,6.31,2304
5435,12485,Gregory Horror Show: The Bloody Karte,Horror,Special,12,6.31,399
5441,1628,Maou Dante,Horror,TV,13,6.31,3907
5454,8152,Gegege no Kitarou (1985 Movie),Horror,Movie,1,6.3,232
5518,3599,Shin Kujakuou,Horror,OVA,2,6.28,743
5529,2981,Chika Gentou Gekiga: Shoujo Tsubaki,Horror,Movie,1,6.27,8214
5548,4484,"Umi no Yami, Tsuki no Kage",Horror,OVA,3,6.27,483
5592,24127,Hashi no Mukou,Horror,ONA,1,6.25,792
5619,1026,Yakumo Tatsu,Horror,OVA,2,6.25,2427
5620,31994,Yami Shibai 3rd Season,Horror,TV,13,6.25,10557
5621,1484,Youma,Horror,OVA,2,6.25,4244
5656,22055,Gakkou no Kaidan Recaps,Horror,Special,2,6.23,547
5676,3595,Kujakuou,Horror,OVA,3,6.22,949
5744,3178,Hengen Taima Yakou Karura Mau! Nara Onryou Emaki,Horror,Movie,1,6.19,506
5761,7621,Chuumon no Ooi Ryouriten,Horror,Movie,1,6.18,374
5772,34048,Seoul-yeok,Horror,Movie,1,6.18,405
5815,20855,Bacterial Contamination,Horror,Music,1,6.15,1643
5825,3176,Nessa no Haou Gandalla,Horror,TV,26,6.15,637
5844,3525,Extra,Horror,Music,1,6.14,2401
5887,2775,Genocyber,Horror,OVA,5,6.12,12158
5897,9829,Yonimo Osoroshii Nihon Mukashibanashi,Horror,OVA,3,6.12,655
5909,3258,Lily C.A.T.,Horror,Movie,1,6.11,2068
5921,1269,Bio Hunter,Horror,OVA,1,6.1,5719
5955,6809,Toshi Densetsu Monogatari Hikiko,Horror,OVA,1,6.09,2963
6017,1148,Teito Monogatari,Horror,OVA,4,6.06,3393
6033,1227,Shuten Douji,Horror,OVA,4,6.05,1036
6042,5918,Deimos no Hanayome: Ran no Kumikyoku,Horror,OVA,1,6.04,2030
6070,1245,Shihaisha no Tasogare,Horror,OVA,1,6.03,4377
6134,33508,Si Ling Bianma: Zhi Shijie Caozong Zhe,Horror,ONA,12,5.99,563
6187,1767,Psycho Diver: Mashou Bosatsu,Horror,OVA,1,5.95,2137
6194,2346,Koroshiya 1 The Animation: Episode 0,Horror,OVA,1,5.94,5704
6222,4823,Youkai Ningen Bem (2006),Horror,TV,26,5.93,1070
6231,2261,Malice@Doll,Horror,OVA,3,5.92,1739
6308,8920,Inuki Kanako Zekkyou Collection: Gakkou ga Kowai!,Horror,OVA,1,5.87,418
6347,30967,Chuumon no Ooi Ryouriten (1993),Horror,Movie,1,5.83,238
6362,3625,Battle Royal High School,Horror,OVA,1,5.83,2899
6412,32438,Mayoiga,Horror,TV,12,5.8,117090
6421,1342,Violence Jack: Jigoku Gai-hen,Horror,OVA,1,5.8,3456
6441,30463,Kyoufu Shinbun (2014),Horror,ONA,16,5.78,640
6470,8162,Mugen Shinshi: Bouken Katsugeki-hen,Horror,OVA,1,5.76,418
6473,5624,Biohazard 4D-Executer,Horror,Special,1,5.75,2423
6488,1611,Galerians: Rion,Horror,OVA,3,5.74,2002
6520,10417,Gyo,Horror,OVA,1,5.71,27005
6527,1338,Shin Megami Tensei: Tokyo Mokushiroku,Horror,OVA,2,5.71,2871
6545,6978,Kyoufu Densetsu Kaiki! Frankenstein,Horror,Special,1,5.69,578
6565,1343,Violence Jack: Hell's Wind-hen,Horror,OVA,1,5.68,3182
6593,6061,Maryuu Senki,Horror,OVA,3,5.65,812
6596,9662,Timing,Horror,ONA,1,5.65,558
6654,18831,Rinkaku,Horror,Music,1,5.6,606
6717,8682,Television,Horror,ONA,1,5.55,322
6759,32934,Zonmi-chan: Meat Pie of the Dead,Horror,Special,1,5.5,676
6770,33103,Zekkyou Gakkyuu: Tensei,Horror,Special,2,5.49,844
6771,2147,Call Me Tonight,Horror,OVA,1,5.48,3777
6797,1341,Violence Jack: Harlem Bomber-hen,Horror,OVA,1,5.46,4566
6798,1340,Yami no Shihosha Judge,Horror,OVA,1,5.46,1488
6799,1819,Daimajuu Gekitou: Hagane no Oni,Horror,OVA,1,5.45,1112
6826,2983,Digital Devil Story: Megami Tensei,Horror,OVA,1,5.42,2660
6837,1705,Genma Taisen: Shinwa Zenya no Shou,Horror,TV,13,5.41,798
6890,15045,Litchi DE Hikari Club,Horror,TV,8,5.36,7597
6902,9509,Yami no Purple Eye,Horror,Music,1,5.35,500
6917,30948,Kowabon,Horror,TV,13,5.33,21026
6936,28953,Sougiya to Inu,Horror,Movie,1,5.3,292
6953,11679,Chainsaw Maid,Horror,ONA,1,5.27,2373
6959,2262,Sin: The Movie,Horror,OVA,1,5.27,3117
6991,10003,Kago Shintarou Anime Sakuhin Shuu,Horror,OVA,15,5.23,1551
7028,11411,Hell Target,Horror,OVA,1,5.18,629
7093,28951,Beluga,Horror,Movie,1,5.09,330
7107,31014,Aru Zombie Shoujo no Sainan,Horror,Special,1,5.07,360
7116,7025,Kiseichuu no Ichiya,Horror,Movie,1,5.06,1046
7161,30659,Nouryou Anime: Denkyuu Ika Matsuri,Horror,Movie,1,4.96,234
7171,33042,Zonmi-chan: Halloween☆Special Movie!,Horror,ONA,1,4.94,276
7211,23063,Usagi ga Kowai,Horror,Movie,1,4.85,610
7264,11691,Bloody Date,Horror,ONA,1,4.66,1891
7290,23059,Shinsatsushitsu,Horror,Movie,1,4.54,527
7295,11687,Pussycat,Horror,ONA,1,4.49,2043
7302,9056,Agitated Screams of Maggots,Horror,Music,1,4.45,2921
7320,2250,Roots Search: Shokushin Buttai X,Horror,OVA,1,4.34,1328
7322,1966,Ankoku Shinwa,Horror,OVA,2,4.31,1255
7323,28843,Watashi no Kao,Horror,Movie,1,4.31,457
7329,11869,Bloody Night,Horror,ONA,1,4.26,1292
7330,20811,Maid of the Dead,Horror,ONA,1,4.26,1595
7332,23057,Yukidoke,Horror,Movie,1,4.25,945
7347,4531,Dark Cat,Horror,OVA,1,4.04,1492
7363,16606,C.L.A.Y.,Horror,ONA,1,3.84,1104
7366,19315,Pupa,Horror,TV,12,3.82,83652
7371,16602,Dead Girl Trailer,Horror,ONA,1,3.74,910
7373,16604,Pinky,Horror,ONA,1,3.71,1254
7377,11915,Within the Bloody Woods,Horror,ONA,2,3.65,1099
7380,16610,No Littering,Horror,ONA,1,3.62,2018
7389,32894,Love Bites,Horror,ONA,1,3.33,537
7395,31634,Kokuhaku,Horror,ONA,1,2.67,816
7397,413,Hametsu no Mars,Horror,OVA,1,2.37,27557
7457,8226,Akuma-kun (Movie),Horror,Movie,1,5.91,213
7458,8227,Akuma-kun: Youkoso Akuma Land e!!,Horror,Movie,1,5.35,185
7591,8182,Bouken Shounen Shadar,Horror,TV,156,6.65,184
7612,10245,Burning Village,Horror,OVA,10,5.83,108
7816,28117,Echigo no Mukashibanashi: Attaten Ganoo,Horror,OVA,1,4.33,73
7821,28087,Ehon Yose,Horror,TV,50,5.25,99
7828,6267,Eko Eko Azarak,Horror,OVA,1,5.78,246
7865,19533,Fujiko Fujio A no Mumako,Horror,OVA,1,5.35,96
7898,9345,Gakkou no Kowai Uwasa Shin: Hanako-san ga Kita!!,Horror,TV,33,6.53,341
7899,20353,Gakkou no Yuurei,Horror,OVA,6,5.17,256
7931,8155,Gegege no Kitarou: Gekitotsu!! Ijigen Youkai no Daihanran,Horror,Movie,1,6.66,214
7932,8158,Gegege no Kitarou: Jigoku-hen,Horror,TV,7,6.23,205
7935,8156,Gegege no Kitarou: Obake Nighter,Horror,Movie,1,6.56,202
7936,8154,Gegege no Kitarou: Saikyou Youkai Gundan! Nippon Jouriku!!,Horror,Movie,1,6.53,221
7937,8153,Gegege no Kitarou: Youkai Daisensou,Horror,Movie,1,6.38,200
8013,11995,Guilstein,Horror,Movie,1,5.33,286
8154,34222,Higanjima X,Horror,ONA,12,5.14,160
8156,9882,High School Mystery: Gakuen Nanafushigi,Horror,TV,41,7.14,344
8176,17405,Hino Hideshi Toukaidou Yotsuya Kaidan,Horror,OVA,1,6.17,213
8296,28489,Jigoku Koushien,Horror,OVA,1,5.14,69
8305,33144,Jiok,Horror,Movie,1,6.22,121
8357,22975,Kaibutsu-kun: Demon no Ken,Horror,Movie,1,5.88,93
8358,22977,Kaibutsu-kun: Kaibutsu Land e no Shoutai,Horror,Movie,1,6.22,83
8620,17615,Kyoufu Shinbun,Horror,OVA,2,5.38,163
8760,24259,Mechano: Scientific Attack Force,Horror,OVA,3,2.55,120
8907,29495,Nanja Monja Obake,Horror,Special,1,5.43,49
9184,32660,Petit Petit Muse,Horror,TV,26,8.14,78
9263,33761,Qui Shui Yi Yun,Horror,ONA,12,7.25,83
9467,30960,Shou-chan Sora wo Tobu,Horror,Movie,1,5.5,55
9738,8081,The Story of Mr. Sorry,Horror,Movie,1,5.63,188
9757,8539,Toilet no Hanako-san,Horror,Movie,1,5.87,224
9760,19513,Toki-iro Kaima,Horror,OVA,4,5.13,97
9776,33702,Tong Zhi Zhe,Horror,ONA,10,6.5,85
9875,12833,Ushiro no Hyakutarou,Horror,OVA,2,5.85,89
9931,33357,Wo Jiao Bai Xiaofei,Horror,ONA,39,7.2,163
9979,23765,Yamiyo no Jidaigeki,Horror,Special,2,4.27,89
9980,23767,Yamiyo no Jidaigeki (OVA),Horror,OVA,2,4.33,74
10014,23351,Youkaiden Nekome Kozou,Horror,TV,25,8.0,153
10033,12769,Yumemakura Baku Twilight Gekijou,Horror,OVA,4,5.14,307
10065,32557,Zombie Clay Animation: I'm Stuck!!,Horror,ONA,4,4.33,72
10066,30089,Zombie Clay Animation: Life of the Dead,Horror,OVA,4,4.95,125
