,anime_id,name,genre,type,episodes,rating,members
125,32,Neon Genesis Evangelion: The End of Evangelion,Dementia,Movie,1,8.45,215630
205,30,Neon Genesis Evangelion,Dementia,TV,26,8.32,461946
276,437,Perfect Blue,Dementia,Movie,1,8.23,117565
448,227,FLCL,Dementia,OVA,6,8.06,305165
529,339,Serial Experiments Lain,Dementia,TV,13,7.99,215829
700,875,Mind Game,Dementia,Movie,1,7.88,32756
1252,22419,Acchi Kocchi,Dementia,Movie,1,7.59,3433
1272,441,Shoujo Kakumei Utena: Adolescence Mokushiroku,Dementia,Movie,1,7.59,22219
1337,885,Tenshi no Tamago,Dementia,OVA,1,7.56,35634
1643,601,Nekojiru-sou,Dementia,OVA,1,7.46,34568
1878,3508,Genius Party,Dementia,Movie,7,7.39,18612
1879,6795,Genius Party Beyond,Dementia,Movie,5,7.39,10660
2258,369,Boogiepop wa Warawanai: Boogiepop Phantom,Dementia,TV,12,7.27,47280
2477,19383,Yami Shibai,Dementia,TV,13,7.21,33275
3521,3326,Inaka Isha,Dementia,Movie,1,6.88,10030
3556,6560,Popee the Performer,Dementia,TV,39,6.87,1565
3818,2580,Tsukuyomi: Moon Phase Special,Dementia,Special,1,6.8,8030
3892,2033,Tamala 2010: A Punk Cat in Space,Dementia,Movie,1,6.78,3343
4328,1370,Atama Yama,Dementia,Movie,1,6.65,4541
4445,1793,Kaze no Na wa Amnesia,Dementia,Movie,1,6.62,8230
4745,22537,Yami Shibai 2nd Season,Dementia,TV,13,6.54,17379
4777,4085,Yonimo Osoroshii Grimm Douwa,Dementia,OVA,3,6.53,683
4949,1346,AD Police,Dementia,OVA,3,6.47,6112
4986,9990,Midori-ko,Dementia,Movie,1,6.46,609
5034,28085,Wonder (Movie),Dementia,Movie,1,6.45,644
5052,8079,Tamala 2010: A Punk Cat in Space OVA,Dementia,OVA,2,6.44,505
5058,6861,Water Brain,Dementia,Special,1,6.44,862
5119,3507,Survival,Dementia,Music,1,6.42,2153
5153,21861,Airy Me,Dementia,Music,1,6.4,1561
5496,7939,Animation!,Dementia,OVA,13,6.28,407
5620,31994,Yami Shibai 3rd Season,Dementia,TV,13,6.25,10557
5627,3506,Connected,Dementia,Music,1,6.24,2697
5683,8928,Visions of Frank: Short Films by Japan's Most Audacious Animators,Dementia,Movie,9,6.22,267
5755,1979,Tobira wo Akete (1995),Dementia,OVA,1,6.19,2351
5815,20855,Bacterial Contamination,Dementia,Music,1,6.15,1643
5844,3525,Extra,Dementia,Music,1,6.14,2401
5878,5157,Alexander Senki Movie,Dementia,Movie,1,6.12,1258
5897,9829,Yonimo Osoroshii Nihon Mukashibanashi,Dementia,OVA,3,6.12,655
5931,4460,Kikumana,Dementia,ONA,1,6.1,4723
6097,9045,Jack to Mame no Ki (1989),Dementia,OVA,1,6.01,630
6124,5501,Gun x Sword-san,Dementia,Special,13,5.99,2168
6140,29943,Crazy for It,Dementia,Movie,1,5.98,539
6194,2346,Koroshiya 1 The Animation: Episode 0,Dementia,OVA,1,5.94,5704
6256,1973,X Densha de Ikou,Dementia,OVA,1,5.91,1129
6257,29772,Calm,Dementia,Movie,1,5.89,506
6575,33449,Moving Colors,Dementia,Movie,1,5.67,109
6651,22841,Okashina Hotel,Dementia,Special,1,5.6,309
6654,18831,Rinkaku,Dementia,Music,1,5.6,606
6706,32749,Hizumu Realism,Dementia,Music,1,5.55,130
6810,29956,Swimming,Dementia,Movie,1,5.45,125
6818,29771,Recorder,Dementia,Movie,1,5.44,199
6821,30341,Tarzan,Dementia,Movie,1,5.43,130
6824,31309,Balloon,Dementia,ONA,1,5.42,230
6854,19209,Devour Dinner,Dementia,Movie,1,5.39,215
6874,28639,Futon,Dementia,Movie,1,5.37,358
6883,7243,Suisei,Dementia,Movie,1,5.37,623
6884,30336,Tori,Dementia,Movie,1,5.37,117
6929,30327,New York Trip,Dementia,Movie,1,5.31,131
6935,2219,Ryokunohara Meikyuu,Dementia,OVA,1,5.3,2084
6936,28953,Sougiya to Inu,Dementia,Movie,1,5.3,292
6941,31262,Ghost,Dementia,Movie,1,5.28,136
6943,11579,Jubilee,Dementia,Music,1,5.28,460
6949,29173,Tensai Banpaku Opening,Dementia,ONA,1,5.28,242
6951,30330,Utsukushii Hoshi,Dementia,Movie,1,5.28,114
6957,29633,Kiseki,Dementia,Movie,1,5.27,130
6964,7843,Kiekaketa Monogataritachi no Tame ni,Dementia,Movie,1,5.26,448
6980,30334,Sleepy,Dementia,Movie,1,5.25,111
6981,29932,Yume,Dementia,Movie,1,5.25,127
6991,10003,Kago Shintarou Anime Sakuhin Shuu,Dementia,OVA,15,5.23,1551
7003,22175,The Harmonic Gleam Vibration,Dementia,Movie,1,5.22,150
7005,28761,00:08,Dementia,Movie,1,5.21,2386
7013,7273,Nido to Mezamenu Komori Uta,Dementia,Movie,1,5.21,591
7019,10584,Mononoke Dance,Dementia,Music,1,5.19,568
7023,31257,Spacy,Dementia,Movie,1,5.14,131
7025,4761,Tokyo Loop,Dementia,Movie,1,5.19,787
7053,30404,Taku Boda,Dementia,Movie,1,5.15,115
7069,29766,Playground,Dementia,Movie,1,5.11,195
7082,28993,Hand Soap,Dementia,Movie,1,5.11,246
7085,7809,3-tsu no Kumo,Dementia,Movie,3,5.1,918
7092,29905,"Yasashii Fue, Tori, Ishi",Dementia,Movie,1,5.1,139
7093,28951,Beluga,Dementia,Movie,1,5.09,330
7102,29944,Kuchao,Dementia,Movie,1,5.08,184
7104,5622,The Chocolate Panic Picture Show,Dementia,OVA,1,5.08,1024
7115,31267,Akuma no Kairozu,Dementia,Movie,1,5.06,131
7116,7025,Kiseichuu no Ichiya,Dementia,Movie,1,5.06,1046
7121,7810,Yami wo Mitsumeru Hane,Dementia,Movie,1,5.06,500
7127,31759,Hakubutsushi,Dementia,Movie,1,5.04,191
7130,5158,Noisy Birth,Dementia,Music,1,5.04,3279
7132,30400,Yakusoku,Dementia,Movie,1,5.04,107
7135,22165,Chirico,Dementia,Movie,1,5.03,164
7142,30401,Rule,Dementia,Movie,1,5.02,106
7144,30332,Comics,Dementia,Movie,1,5.02,160
7153,29768,Fantastic Cell,Dementia,Movie,1,4.99,220
7154,10436,Animal Dance,Dementia,Movie,1,4.98,412
7156,30335,Portrait,Dementia,Movie,1,4.98,112
7161,30659,Nouryou Anime: Denkyuu Ika Matsuri,Dementia,Movie,1,4.96,234
7167,20153,Hana no Hi,Dementia,Movie,1,4.94,217
7170,29681,Odoroki Ban,Dementia,Movie,1,4.94,148
7176,31761,Sayokyoku,Dementia,Movie,1,4.93,210
7178,29989,Kaze no Kokyuu: Animation ni Yoru Oufuku Shokan,Dementia,Movie,1,4.92,132
7185,30666,Memories: Younenki no Joukei,Dementia,Movie,1,4.91,133
7190,22163,Natsu no Shisen 1942,Dementia,Movie,1,4.9,167
7202,30326,Ushi Atama,Dementia,Movie,1,4.87,120
7207,22171,Tanaami Keiichi no Shouzou,Dementia,Movie,1,4.86,170
7211,23063,Usagi ga Kowai,Dementia,Movie,1,4.85,610
7214,7020,Fashion,Dementia,Movie,1,4.83,251
7215,29907,Fue,Dementia,Movie,1,4.83,141
7216,31584,Henkei Sakuhin Dai 1-ban,Dementia,Movie,1,4.83,117
7218,30480,Bara Bara Film,Dementia,Movie,1,4.81,110
7224,30418,Petit Manga,Dementia,Movie,1,4.8,103
7228,29293,Isu,Dementia,Movie,1,4.79,259
7237,28339,2005-nen Uchuu no Tabi,Dementia,Special,1,4.75,657
7243,9318,Samero,Dementia,Movie,1,4.73,403
7246,29952,Kairaku no Sono,Dementia,Movie,1,4.72,188
7248,30664,Jinkou no Rakuen,Dementia,Movie,1,4.71,133
7250,31501,Master Blaster,Dementia,Music,1,4.71,165
7251,30331,Motion Lumine,Dementia,Movie,1,4.71,124
7256,30337,Mac the Movie,Dementia,Movie,1,4.7,127
7257,30667,Mou Hitotsu no Nijiiro Toshi,Dementia,Movie,1,4.7,128
7260,30339,Play Jazz,Dementia,Movie,1,4.69,119
7263,23051,Ga no Iru Tokoro,Dementia,Movie,1,4.68,343
7269,29988,Commercial War,Dementia,Movie,1,4.63,145
7270,28645,Haru no Shikumi,Dementia,Movie,1,4.63,363
7271,30328,Head Spoon,Dementia,Movie,1,4.62,129
7279,29777,Baka Baka Baka na Sekai,Dementia,Movie,1,4.58,451
7280,30814,Landscape,Dementia,Movie,1,4.58,120
7283,30340,Direct Animation,Dementia,Movie,1,4.56,132
7284,9801,Hustle!! Tokitama-kun,Dementia,Special,1,4.56,369
7285,29971,Landmark,Dementia,ONA,1,4.56,109
7288,6535,Ai,Dementia,Movie,1,4.54,2009
7290,23059,Shinsatsushitsu,Dementia,Movie,1,4.54,527
7291,22159,"Yami no Kioku, Yume no Inei",Dementia,Movie,1,4.53,181
7292,30396,Akai Kutsu! Onnanoko!,Dementia,Movie,1,4.52,138
7298,22167,Goldfish Fetish,Dementia,Movie,1,4.46,200
7300,30669,Why Re-Mix 2002,Dementia,Movie,1,4.46,124
7301,7811,Yoru no Okite,Dementia,Movie,1,4.46,711
7302,9056,Agitated Screams of Maggots,Dementia,Music,1,4.45,2921
7304,33220,Natsu no Gero wa Fuyu no Sakana,Dementia,Music,1,4.45,147
7305,29615,Oh Yoko!,Dementia,Music,1,4.44,337
7312,9895,The Bathroom,Dementia,Movie,1,4.4,671
7313,30559,Why,Dementia,Movie,1,4.4,139
7316,29973,Aya Hito Shiki to Iu na no Ishi Hata,Dementia,ONA,1,4.38,177
7317,30329,Nice to See You,Dementia,Movie,1,4.38,122
7321,29980,Adventures in Beauty Wonderland,Dementia,Movie,1,4.32,698
7323,28843,Watashi no Kao,Dementia,Movie,1,4.31,457
7324,30668,Walking Man,Dementia,Movie,1,4.3,211
7332,23057,Yukidoke,Dementia,Movie,1,4.25,945
7336,31687,◯,Dementia,ONA,1,4.22,448
7337,23877,Gondora,Dementia,Movie,1,4.21,707
7339,29954,Embah,Dementia,ONA,1,4.17,222
7340,22157,Yasashii Kinyoubi,Dementia,Movie,1,4.17,358
7341,7024,Heya,Dementia,Movie,1,4.16,804
7342,30665,4.Eyes,Dementia,Movie,1,4.15,195
7343,30859,Memory of Red,Dementia,Movie,1,4.15,331
7345,31689,Requiem (ONA),Dementia,ONA,1,4.11,334
7346,29619,Good-by Marilyn,Dementia,Movie,1,4.08,279
7348,31688,Tama Gura Abayo: Moki Yumokyu Superdeluxe,Dementia,Music,1,4.03,202
7351,22177,Madonna (Movie),Dementia,Movie,1,4.0,248
7353,22181,Shunga,Dementia,Movie,1,3.99,242
7354,28637,Dreams,Dementia,Movie,1,3.98,381
7360,22173,Yume 10 Yoru,Dementia,Movie,1,3.88,317
7362,31686,Shigeru,Dementia,ONA,1,3.86,411
7364,6950,Aos,Dementia,Movie,1,3.83,1080
7365,22255,Kanojo no Dokushinshatachi ni Yotte Hadaka ni Sareta Seifuku no Shojo Kenkyuu,Dementia,Movie,1,3.83,326
7367,29984,Crayon Angel,Dementia,Movie,1,3.8,322
7368,30860,Koumon-teki Juuku Ketsujiru Juke,Dementia,Music,1,3.78,310
7369,29995,The Embryo Develops into a Fetus,Dementia,ONA,1,3.76,727
7375,7022,G-senjou no Higeki,Dementia,Movie,1,3.68,562
7382,31586,Mochibei,Dementia,Movie,1,3.58,549
7383,22161,Scrap Diary,Dementia,Movie,1,3.59,470
7387,29617,Good-by Elvis and USA,Dementia,Movie,1,3.41,367
7390,22169,Fetish Doll,Dementia,Movie,1,3.32,654
7392,22179,Aki no Puzzle,Dementia,Movie,1,3.27,463
7394,6953,Ningen Doubutsuen,Dementia,Movie,1,2.78,1893
7396,29949,Nami,Dementia,Movie,1,2.67,1817
7398,13405,Utsu Musume Sayuri,Dementia,OVA,1,2.14,4047
7415,30214,A Smart Experiment,Dementia,Special,1,4.03,109
7469,25971,Angel (Special),Dementia,Special,1,5.59,137
7518,29708,Üks Uks,Dementia,Movie,1,6.17,66
7547,29710,Believe in It,Dementia,Movie,1,4.8,57
7596,31258,Box,Dementia,Movie,1,3.61,98
7710,25969,Clock,Dementia,Special,1,4.04,84
7729,29711,Countdown,Dementia,Movie,1,4.25,62
7777,29713,Don't You Wish You Were Here?,Dementia,Movie,1,5.67,78
7810,31261,Drill,Dementia,Movie,1,3.4,106
7840,33114,Experiment,Dementia,Movie,1,4.0,60
7849,29987,Flicker Love No.1,Dementia,Movie,1,4.91,57
7943,29665,Genei Toshi,Dementia,Movie,1,4.13,98
8011,31263,Grim,Dementia,Movie,1,4.32,121
8035,29972,Hakuchuu Meikyuu,Dementia,ONA,1,3.02,99
8070,31583,Haruko no Bouken,Dementia,Movie,1,3.9,129
8137,31585,Henkei Sakuhin Dai 2-ban,Dementia,Movie,1,2.69,92
8233,31135,Idea ga Tsukamaranai.,Dementia,Movie,1,4.0,57
8262,29709,Introspection,Dementia,Movie,1,5.29,58
8299,29645,Jikan,Dementia,Movie,1,3.77,98
8300,33886,Jikkyou Chuukei,Dementia,Music,1,4.31,52
8347,7856,Kage no Kodomo,Dementia,Movie,1,6.76,174
8355,29381,Kai Douryoku,Dementia,Movie,1,6.83,52
8356,29383,Kai Douryoku Real,Dementia,Movie,1,5.5,54
8378,29985,Kamen no Marionette-tachi,Dementia,Movie,1,6.75,61
8417,29661,Karma,Dementia,Movie,1,4.49,106
8511,30407,Kitsutsuki: The Ten Hole Stories,Dementia,Movie,1,4.53,74
8543,31587,Kojin Toshi,Dementia,Movie,1,3.79,130
8556,30212,Kono Mayonnaise wa Yuru Sugiru,Dementia,Movie,1,4.25,79
8634,29712,Learn to Love,Dementia,Movie,1,5.5,89
8700,28989,Maku,Dementia,Movie,1,6.18,86
8750,29719,Maze Maze Wien,Dementia,Movie,1,5.9,59
8760,24259,Mechano: Scientific Attack Force,Dementia,OVA,3,2.55,120
8785,31268,Miira no Yume,Dementia,Movie,1,2.97,98
8793,31582,Mimizu Monogatari,Dementia,Movie,1,3.39,139
8942,30864,New Tokyo Ondo,Dementia,Movie,1,3.92,84
9185,29953,Phantasm,Dementia,Movie,1,3.59,74
9246,29377,Pulsar,Dementia,Movie,1,5.08,73
9280,22391,Ring Ring Boy,Dementia,Movie,1,4.4,69
9304,33710,Run & Roll,Dementia,Movie,1,3.67,84
9384,29647,Sensuikan Cassiopeia,Dementia,Movie,1,3.35,85
9393,31264,Shashinki,Dementia,Movie,1,3.26,86
9394,31265,Shashinki 87,Dementia,Movie,1,3.41,85
9490,32226,Shuugou no Kangae,Dementia,Movie,1,3.21,55
9509,31450,Sol,Dementia,Music,1,3.77,88
9591,30210,Souiu Megane,Dementia,Movie,1,3.5,65
9607,29657,Stone,Dementia,Movie,1,4.13,108
9692,29669,Ten,Dementia,Movie,1,4.44,82
9734,7844,The Place Where We Were,Dementia,Movie,1,6.15,195
9741,31259,Thunder,Dementia,Movie,1,3.93,115
9766,29780,Tokyo Fantasia,Dementia,Movie,1,5.04,95
9787,29667,Toumei Ningen,Dementia,Movie,1,4.11,97
9797,29649,Tsuiseki,Dementia,Movie,1,4.4,81
9872,30863,Usalullaby,Dementia,Movie,1,4.0,80
9874,32637,Usawaltz,Dementia,ONA,1,4.67,60
9885,31269,Venus,Dementia,Movie,1,3.49,97
9898,31266,Wall,Dementia,Movie,1,3.76,95
9932,29986,Women,Dementia,Movie,1,3.89,56
10030,30213,Yume Utsutsu,Dementia,Movie,1,4.4,65
10047,30211,Zenchuu Maite,Dementia,Movie,1,4.27,73
