,city,fare
0,Amandaburgh,346.08
1,Barajasview,460.07
2,Carriemouth,572.26
3,Christopherfurt,474.3
4,Deanville,373.02
5,East Kaylahaven,452.40000000000003
6,Erikaland,202.69
7,Grahamburgh,412.84000000000003
8,Huntermouth,576.89
9,Hurleymouth,606.8599999999999
10,Jerryton,444.15000000000003
11,Johnton,454.66999999999996
12,Joneschester,333.99000000000007
13,Justinberg,567.5099999999999
14,Karenberg,371.43
15,Karenside,611.27
16,Lake Danielberg,401.09000000000003
17,Lake Jonathanshire,288.16
18,Lake Scottton,297.76
19,Leahton,320.01
20,Liumouth,532.88
21,Loganberg,462.50000000000006
22,Martinezhaven,381.46999999999997
23,New Jacobville,327.18
24,New Kimberlyborough,495.15999999999997
25,New Paulton,386.52000000000004
26,New Paulville,288.65
27,North Barbara,428.53999999999996
28,North Jasmine,552.4499999999999
29,North Jason,451.24000000000007
30,North Madeline,439.76
31,North Markport,309.50000000000006
32,Pattyland,411.49999999999994
33,Port Angela,399.02
34,Port David,456.94
35,Port Frank,660.8300000000002
36,Port Johnbury,366.64000000000004
37,Port Samanthamouth,550.0300000000001
38,Raymondhaven,340.62
39,Reynoldsfurt,291.96000000000004
40,Richardfort,382.78000000000003
41,Roberthaven,447.02
42,Robertport,352.82
43,Rodneyfort,622.4
44,Rogerston,380.91
45,Royland,497.52
46,Simpsonburgh,398.18
47,South Evanton,591.81
48,South Jack,286.45
49,South Karenland,707.61
50,South Latoya,312.3500000000001
51,South Michelleport,501.5000000000001
52,South Phillip,714.5299999999999
53,Valentineton,297.92
54,West Angela,744.6400000000001
55,West Anthony,610.5699999999999
56,West Christopherberg,498.64
57,West Ericstad,258.88
58,West Gabriel,251.37
59,West Heidi,535.99
60,West Josephberg,447.17999999999995
61,West Patrickchester,319.95
62,West Robert,518.2
63,West Samuelburgh,422.11
64,Williamsstad,479.07000000000005
65,Williamsview,353.56
