,anime_id,name,genre,type,episodes,rating,members
6,11061,Hunter x Hunter (2011),Super Power,TV,148,9.13,425855
13,2904,Code Geass: Hangyaku no Lelouch R2,Super Power,TV,25,8.98,572888
19,1575,Code Geass: Hangyaku no Lelouch,Super Power,TV,25,8.83,715151
23,30276,One Punch Man,Super Power,TV,12,8.82,552458
55,4565,Tengen Toppa Gurren Lagann Movie: Lagann-hen,Super Power,Movie,1,8.64,82253
83,16498,Shingeki no Kyojin,Super Power,TV,25,8.54,896229
108,136,Hunter x Hunter,Super Power,TV,62,8.48,166255
139,137,Hunter x Hunter OVA,Super Power,OVA,8,8.41,53168
140,139,Hunter x Hunter: Greed Island Final,Super Power,OVA,14,8.41,55787
169,1604,Katekyo Hitman Reborn!,Super Power,TV,203,8.37,258103
172,31964,Boku no Hero Academia,Super Power,TV,13,8.36,282002
176,9130,Saint Seiya: The Lost Canvas - Meiou Shinwa 2,Super Power,OVA,13,8.36,27532
188,10153,Mahou Shoujo Lyrical Nanoha: The Movie 2nd A's,Super Power,Movie,1,8.34,13315
196,138,Hunter x Hunter: Greed Island,Super Power,OVA,8,8.33,57029
200,813,Dragon Ball Z,Super Power,TV,291,8.32,375662
225,19123,One Piece: Episode of Merry - Mou Hitori no Nakama no Monogatari,Super Power,Special,1,8.29,17247
235,15323,One Piece: Episode of Nami - Koukaishi no Namida to Nakama no Kizuna,Super Power,Special,1,8.27,24707
245,2025,Darker than Black: Kuro no Keiyakusha,Super Power,TV,25,8.25,440334
264,6171,Saint Seiya: The Lost Canvas - Meiou Shinwa,Super Power,OVA,13,8.24,40355
274,18679,Kill la Kill,Super Power,TV,24,8.23,508118
326,2952,Final Fantasy VII: Advent Children Complete,Super Power,OVA,1,8.17,77111
339,223,Dragon Ball,Super Power,TV,153,8.16,316102
345,8740,One Piece Film: Strong World Episode 0,Super Power,OVA,1,8.16,33862
348,16049,Toaru Kagaku no Railgun S,Super Power,TV,24,8.16,137105
393,9941,Tiger & Bunny,Super Power,TV,25,8.12,104075
409,77,Mahou Shoujo Lyrical Nanoha A's,Super Power,TV,13,8.1,41685
413,7338,Darker than Black: Kuro no Keiyakusha Gaiden,Super Power,Special,4,8.09,136135
439,6582,Tentai Senshi Sunred 2nd Season,Super Power,TV,26,8.07,4584
470,4985,Mahou Shoujo Lyrical Nanoha: The Movie 1st,Super Power,Movie,1,8.04,20433
476,28755,Boruto: Naruto the Movie,Super Power,Movie,1,8.03,74690
502,32370,D.Gray-man Hallow,Super Power,TV,13,8.01,72499
504,22777,Dragon Ball Kai (2014),Super Power,TV,61,8.01,42666
510,12017,Tiger & Bunny Movie 2: The Rising,Super Power,Movie,1,8.01,13567
515,2321,Giant Robo the Animation: Chikyuu ga Seishi Suru Hi,Super Power,OVA,7,8.0,12283
532,8516,Baka to Test to Shoukanjuu Ni!,Super Power,TV,13,7.98,183722
546,267,Gungrave,Super Power,TV,26,7.97,95825
555,1253,Saint Seiya: Meiou Hades Meikai-hen,Super Power,OVA,12,7.97,21240
563,6768,Code Geass: Hangyaku no Lelouch R2 Special Edition Zero Requiem,Super Power,OVA,1,7.96,23204
568,5485,Shin Mazinger Shougeki! Z-hen,Super Power,TV,26,7.96,7872
569,5005,Tentai Senshi Sunred,Super Power,TV,26,7.96,12236
571,269,Bleach,Super Power,TV,366,7.95,624055
577,6033,Dragon Ball Kai,Super Power,TV,97,7.95,116832
596,317,Final Fantasy VII: Advent Children,Super Power,Movie,1,7.94,138659
600,16904,K: Missing Kings,Super Power,Movie,1,7.94,98549
631,1818,Claymore,Super Power,TV,26,7.92,316853
646,28999,Charlotte,Super Power,TV,13,7.91,310137
703,18397,Shingeki no Kyojin OVA,Super Power,OVA,3,7.88,121063
705,16870,The Last: Naruto the Movie,Super Power,Movie,1,7.88,85013
724,6213,Toaru Kagaku no Railgun,Super Power,TV,24,7.87,231079
732,6904,Hellsing I: Digest for Freaks,Super Power,OVA,1,7.86,20263
737,16239,One Piece: Episode of Luffy - Hand Island no Bouken,Super Power,Special,1,7.86,21489
738,31772,One Punch Man Specials,Super Power,Special,6,7.86,75502
752,31704,One Punch Man: Road to Hero,Super Power,OVA,1,7.85,94839
766,13667,Naruto: Shippuuden Movie 6 - Road to Ninja,Super Power,Movie,1,7.84,87369
771,8937,Toaru Majutsu no Index II,Super Power,TV,24,7.84,184520
775,6347,Baka to Test to Shoukanjuu,Super Power,TV,13,7.83,301282
795,27991,K: Return of Kings,Super Power,TV,13,7.82,114904
796,21659,Kill la Kill Special,Super Power,Special,1,7.82,83795
802,3515,Saint Seiya: Meiou Hades Elysion-hen,Super Power,OVA,6,7.82,19044
809,10793,Guilty Crown,Super Power,TV,22,7.81,460959
819,20,Naruto,Super Power,TV,220,7.81,683297
823,9471,Baka to Test to Shoukanjuu: Matsuri,Super Power,OVA,2,7.8,67684
836,16011,Tokyo Ravens,Super Power,TV,24,7.8,171384
856,10717,Towa no Quon 6: Towa no Quon,Super Power,Movie,1,7.79,18624
860,4596,Code Geass: Hangyaku no Lelouch Special Edition Black Rebellion,Super Power,OVA,1,7.78,23285
862,4725,Ga-Rei: Zero,Super Power,TV,12,7.78,145102
870,31289,One Piece: Episode of Sabo - 3 Kyoudai no Kizuna Kiseki no Saikai to Uketsugareru Ishi,Super Power,Special,1,7.78,11922
891,9745,Sengoku Basara Movie: The Last Party,Super Power,Movie,1,7.77,18267
912,462,One Piece Movie 4: Dead End no Bouken,Super Power,Movie,1,7.76,39946
915,10715,Towa no Quon 4: Guren no Shoushin,Super Power,Movie,1,7.76,18545
917,8247,Bleach Movie 4: Jigoku-hen,Super Power,Movie,1,7.75,94074
925,6624,Kara no Kyoukai Remix: Gate of Seventh Heaven,Super Power,Movie,1,7.75,24735
932,23777,Shingeki no Kyojin Movie 2: Jiyuu no Tsubasa,Super Power,Movie,1,7.75,26958
937,4416,Yuusha-Ou GaoGaiGar Final Grand Glorious Gathering,Super Power,TV,12,7.75,1780
949,24439,Kekkai Sensen,Super Power,TV,12,7.74,220573
951,1915,Mahou Shoujo Lyrical Nanoha StrikerS,Super Power,TV,26,7.74,35442
956,6634,Sengoku Basara Two,Super Power,TV,12,7.74,42798
965,132,GetBackers,Super Power,TV,49,7.73,73536
966,14467,K,Super Power,TV,13,7.73,297051
981,5231,Inazuma Eleven,Super Power,TV,127,7.72,42677
990,10716,Towa no Quon 5: Souzetsu no Raifuku,Super Power,Movie,1,7.72,18060
1013,11743,Toaru Majutsu no Index: Endymion no Kiseki,Super Power,Movie,1,7.71,54873
1027,1087,Kimagure Orange☆Road,Super Power,TV,48,7.7,16012
1033,23775,Shingeki no Kyojin Movie 1: Guren no Yumiya,Super Power,Movie,1,7.7,31990
1046,452,InuYasha: Toki wo Koeru Omoi,Super Power,Movie,1,7.69,51354
1057,4654,Toaru Majutsu no Index,Super Power,TV,24,7.69,313114
1064,32365,Boruto: Naruto the Movie - Naruto ga Hokage ni Natta Hi,Super Power,Special,1,7.68,16868
1066,11359,Dragon Ball Kai: Mirai ni Heiwa wo! Goku no Tamashii yo Eien ni,Super Power,Special,1,7.68,17166
1069,10588,Persona 4 the Animation,Super Power,TV,25,7.68,134942
1089,4835,Bleach Movie 3: Fade to Black - Kimi no Na wo Yobu,Super Power,Movie,1,7.66,122373
1128,3848,"One Piece Movie 9: Episode of Chopper Plus - Fuyu ni Saku, Kiseki no Sakura",Super Power,Movie,1,7.65,29771
1141,1356,Hokuto no Ken 2,Super Power,TV,43,7.64,11090
1148,209,R.O.D the TV,Super Power,TV,26,7.64,47053
1152,10714,Towa no Quon 3: Mugen no Renza,Super Power,Movie,1,7.64,19053
1177,6573,Darker than Black: Ryuusei no Gemini,Super Power,TV,12,7.62,222243
1180,14837,Dragon Ball Z Movie 14: Kami to Kami,Super Power,Movie,1,7.62,66471
1190,10589,Naruto: Shippuuden Movie 5 - Blood Prison,Super Power,Movie,1,7.62,75660
1196,18499,Yozakura Quartet: Tsuki ni Naku,Super Power,OVA,3,7.62,13790
1220,18497,Yozakura Quartet: Hana no Uta,Super Power,TV,13,7.61,58245
1237,16287,One Piece: Romance Dawn,Super Power,OVA,1,7.6,8326
1239,13587,Persona 4 the Animation: No One is Alone,Super Power,Special,1,7.6,26501
1279,1686,Bleach Movie 1: Memories of Nobody,Super Power,Movie,1,7.58,151598
1289,10075,Naruto x UT,Super Power,OVA,1,7.58,23465
1309,5355,Sengoku Basara,Super Power,TV,12,7.57,93940
1317,31553,Charlotte: Tsuyoi Monotachi,Super Power,Special,1,7.56,39137
1339,9047,Toaru Kagaku no Railgun: Misaka-san wa Ima Chuumoku no Mato desukara,Super Power,OVA,1,7.56,37609
1341,156,X,Super Power,TV,24,7.56,51004
1351,25389,Dragon Ball Z Movie 15: Fukkatsu no F,Super Power,Movie,1,7.55,41051
1369,5252,One Piece: Romance Dawn Story,Super Power,OVA,1,7.55,21306
1399,12015,Tiger & Bunny Movie 1: The Beginning,Super Power,Movie,1,7.54,13716
1410,8246,Naruto: Shippuuden Movie 4 - The Lost Tower,Super Power,Movie,1,7.53,84527
1414,10294,Towa no Quon 1: Utakata no Kaben,Super Power,Movie,1,7.53,33550
1415,10713,Towa no Quon 2: Konton no Ranbu,Super Power,Movie,1,7.53,20132
1423,68,Black Cat,Super Power,TV,23,7.52,150512
1434,76,Mahou Shoujo Lyrical Nanoha,Super Power,TV,13,7.52,62582
1439,14267,Persona 4 the Animation: The Factor of Hope,Super Power,Movie,1,7.52,10757
1504,6325,Naruto: Shippuuden Movie 3 - Hi no Ishi wo Tsugu Mono,Super Power,Movie,1,7.5,83515
1507,32051,One Piece: Adventure of Nebulandia,Super Power,Special,1,7.5,9777
1520,9032,Inazuma Eleven: Saikyou Gundan Ogre Shuurai,Super Power,Movie,1,7.49,6392
1566,23421,Re:␣Hamatora,Super Power,TV,12,7.48,73903
1606,17505,Mushibugyou,Super Power,TV,26,7.47,40155
1622,8457,Yozakura Quartet: Hoshi no Umi,Super Power,OVA,3,7.47,22065
1638,483,Kurau Phantom Memory,Super Power,TV,24,7.46,17463
1655,198,Speed Grapher,Super Power,TV,24,7.46,64627
1678,13261,Inazuma Eleven Go: Chrono Stone,Super Power,TV,51,7.45,11939
1685,168,s.CRY.ed,Super Power,TV,26,7.45,52784
1697,4703,Yes! Precure 5 GoGo! Movie: Okashi no Kuni no Happy Birthday,Super Power,Movie,1,7.45,2210
1705,10163,C: The Money of Soul and Possibility Control,Super Power,TV,11,7.44,156853
1708,1250,Erementar Gerad,Super Power,TV,26,7.44,63193
1716,463,One Piece Movie 5: Norowareta Seiken,Super Power,Movie,1,7.44,35357
1718,1094,One Piece: Umi no Heso no Daibouken-hen,Super Power,Special,1,7.44,19649
1719,238,Rekka no Honoo,Super Power,TV,42,7.44,35258
1743,32574,Kekkai Sensen: Ousama no Restaurant no Ousama,Super Power,OVA,1,7.43,9335
1749,1237,One Piece: Oounabara ni Hirake! Dekkai Dekkai Chichi no Yume!,Super Power,Special,1,7.43,17175
1811,20689,Hamatora The Animation,Super Power,TV,12,7.41,133571
1838,10834,Baka to Test to Shoukanjuu: Spinout! Sore ga Bokura no Nichijou,Super Power,Special,6,7.4,19758
1845,12231,Dragon Ball: Episode of Bardock,Super Power,Special,1,7.4,29030
1866,935,Witchblade,Super Power,TV,24,7.4,64697
1884,13271,Hunter x Hunter Movie: Phantom Rouge,Super Power,Movie,1,7.39,44589
1923,152,Solty Rei,Super Power,TV,24,7.38,17943
1946,10189,Hunter x Hunter Pilot,Super Power,OVA,1,7.37,10375
1987,6758,Tatakau Shisho: The Book of Bantorra,Super Power,TV,27,7.36,35520
2002,19951,Hunter x Hunter Movie: The Last Mission,Super Power,Movie,1,7.35,37633
2012,16468,One Piece: Glorious Island,Super Power,Special,2,7.35,12922
2042,3223,Kiddy Grade: Truth Dawn,Super Power,Movie,1,7.34,3174
2052,8171,One Piece Recap,Super Power,OVA,1,7.34,10147
2058,173,Tactics,Super Power,TV,25,7.34,27358
2074,893,Dragon Ball Movie 4: Saikyou e no Michi,Super Power,Movie,1,7.33,26104
2080,3222,Kiddy Grade: Maelstrom,Super Power,Movie,1,7.33,3189
2090,460,One Piece Movie 2: Nejimaki-jima no Daibouken,Super Power,Movie,1,7.33,37792
2098,100,Shin Shirayuki-hime Densetsu Prétear,Super Power,TV,13,7.33,37394
2117,10507,Inazuma Eleven Go,Super Power,TV,47,7.32,18480
2119,28387,Joukamachi no Dandelion,Super Power,TV,12,7.32,64307
2123,6016,Kyoushoku Soukou Guyver (1989),Super Power,OVA,6,7.32,6090
2141,33929,Boku no Hero Academia: Jump Festa 2016 Special,Super Power,Special,1,7.32,17401
2186,11341,Tantei Opera Milky Holmes Dai 2 Maku,Super Power,TV,12,7.3,11941
2187,6169,Tenjou-jin to Akuto-jin Saigo no Tatakai,Super Power,Movie,1,7.3,5223
2215,5079,Kurokami The Animation,Super Power,TV,23,7.29,72750
2283,10686,Naruto: Honoo no Chuunin Shiken! Naruto vs. Konohamaru!!,Super Power,Movie,1,7.27,30378
2288,5702,Sora wo Miageru Shoujo no Hitomi ni Utsuru Sekai,Super Power,TV,9,7.27,24799
2322,19511,Naruto Shippuuden: Sunny Side Battle,Super Power,Special,1,7.26,13014
2341,12419,Guilty Crown Kiseki: Reassortment,Super Power,Special,1,7.25,21388
2353,459,One Piece Movie 1,Super Power,Movie,1,7.25,46455
2355,1493,Project ARMS: The 2nd Chapter,Super Power,TV,26,7.25,3368
2375,6151,Final Fantasy VII: On the Way to a Smile - Episode: Denzel,Super Power,OVA,1,7.24,18795
2391,678,Shadow Skill: Eigi,Super Power,TV,26,7.24,7977
2400,32313,Concrete Revolutio: Choujin Gensou - The Last Song,Super Power,TV,11,7.23,16116
2443,5691,Rekka no Honoo: Final Burning,Super Power,Special,1,7.22,4083
2461,2176,Kiddy Grade: Ignition,Super Power,Movie,1,7.21,3466
2466,21603,Mekakucity Actors,Super Power,TV,12,7.21,198876
2467,1135,Munto: Toki no Kabe wo Koete,Super Power,OVA,1,7.21,7843
2480,3505,Yuusha Shirei Dagwon,Super Power,TV,48,7.21,689
2490,30290,Fw:Hamatora,Super Power,Movie,1,7.2,3718
2498,24171,Mushibugyou OVA,Super Power,OVA,3,7.2,3636
2507,478,Sousei no Aquarion,Super Power,TV,26,7.2,46647
2511,20035,Toaru Majutsu no Index: Endymion no Kiseki Special,Super Power,Special,1,7.2,11241
2526,1261,Kyattou Ninden Teyandee,Super Power,TV,54,7.19,7112
2561,461,One Piece Movie 3: Chinjuu-jima no Chopper Oukoku,Super Power,Movie,1,7.18,36558
2646,2170,Sousei no Aquarion OVA,Super Power,OVA,2,7.16,7691
2675,1492,Project ARMS,Super Power,TV,26,7.15,6903
2746,6941,Toriko: Jump Super Anime Tour 2009 Special,Super Power,Special,1,7.13,4650
2751,2124,Code Geass: Hangyaku no Lelouch Recaps,Super Power,Special,2,7.12,23194
2759,18097,Inazuma Eleven Go: Galaxy,Super Power,TV,43,7.11,9258
2776,10592,Scryed Alteration I: Tao,Super Power,Movie,1,7.13,3108
2792,903,Dragon Ball Z Movie 10: Kiken na Futari! Super Senshi wa Nemurenai,Super Power,Movie,1,7.11,54947
2807,10659,Naruto Soyokazeden Movie: Naruto to Mashin to Mitsu no Onegai Dattebayo!!,Super Power,Movie,1,7.11,25174
2815,27509,Toaru Majutsu no Index 10th Anniversary PV,Super Power,Special,1,7.11,5052
2829,13411,Guilty Crown: Lost Christmas,Super Power,OVA,1,7.1,51604
2831,33740,Katekyo Hitman Reborn! x ēlDLIVE Special,Super Power,Special,1,7.1,4371
2832,11355,"Kono Danshi, Uchuujin to Tatakaemasu.",Super Power,OVA,1,7.1,12732
2843,169,Shingetsutan Tsukihime,Super Power,TV,12,7.1,90713
2856,892,Dragon Ball Movie 3: Makafushigi Daibouken,Super Power,Movie,1,7.09,25740
2920,10017,Dragon Ball: Super Saiya-jin Zetsumetsu Keikaku,Super Power,OVA,1,7.07,15280
2970,12223,Scryed Alteration II: Quan,Super Power,Movie,1,7.06,2438
2985,502,Dragon Ball Movie 1: Shen Long no Densetsu,Super Power,Movie,1,7.05,30279
2986,22695,Dragon Ball Z: Summer Vacation Special,Super Power,Special,1,7.05,4251
3007,10923,Tantei Opera Milky Holmes: Summer Special,Super Power,Special,1,7.05,5050
3042,33606,One Piece Film: Gold Episode 0 - 711 ver.,Super Power,Special,1,7.04,4166
3051,7768,Tantei Opera Milky Holmes,Super Power,TV,12,7.04,28812
3064,11703,Code:Breaker,Super Power,TV,13,7.03,135255
3065,891,Dragon Ball Movie 2: Majinjou no Nemuri Hime,Super Power,Movie,1,7.03,27194
3090,2832,Ani*Kuri15,Super Power,Special,15,7.02,12926
3091,971,Astro Boy: Tetsuwan Atom,Super Power,TV,50,7.02,9331
3114,212,Project A-Ko,Super Power,Movie,1,7.02,7846
3172,22699,Dragon Ball Z: Zenbu Misemasu Toshi Wasure Dragon Ball Z!,Super Power,Special,1,7.0,4153
3207,6794,Kurokami: Tora to Tsubasa,Super Power,Special,1,6.99,6302
3219,6973,Senkou no Night Raid,Super Power,TV,13,6.99,28284
3220,8800,Senkou no Night Raid Specials,Super Power,Special,3,6.99,3667
3240,3349,Kiddy GiRL-AND,Super Power,TV,24,6.98,13368
3253,11241,Brave 10,Super Power,TV,12,6.97,82205
3256,24347,Inazuma Eleven: Chou Jigen Dream Match,Super Power,Movie,1,6.97,2280
3279,2520,Dragon Ball Specials,Super Power,Special,2,6.96,14575
3288,19285,Shingeki no Kyojin: Ano Hi Kara,Super Power,Special,1,6.96,49593
3297,4548,Yozakura Quartet,Super Power,TV,12,6.96,68023
3317,23201,Sengoku Basara: Judge End,Super Power,TV,12,6.95,14568
3466,5859,Kiddy GiRL-AND Pilot,Super Power,OVA,1,6.9,3539
3485,1599,Eat-Man '98,Super Power,TV,12,6.89,2757
3506,3672,Tottemo! Luckyman,Super Power,TV,50,6.89,439
3523,6297,Kamen Rider Den-O: Imagin Anime 2,Super Power,OVA,12,6.88,472
3537,31147,Concrete Revolutio: Choujin Gensou,Super Power,TV,13,6.87,46938
3554,466,One Piece: Taose! Kaizoku Ganzack,Super Power,OVA,1,6.87,17240
3611,23115,Hamatora The Animation: Saishuukai Chokuzen! Mao ga Okuru Soushuuhen Special,Super Power,Special,1,6.85,4587
3623,11635,Sacred Seven: Shirogane no Tsubasa,Super Power,Movie,1,6.85,3940
3630,11787,Toriko: Barbarian Ivy wo Hokaku Seyo!,Super Power,Special,1,6.85,1628
3642,6971,Gegege no Kitarou (1971),Super Power,TV,45,6.84,556
3671,12585,Inazuma Eleven Go Recap,Super Power,Special,1,6.83,1697
3677,594,Naruto: Takigakure no Shitou - Ore ga Eiyuu Dattebayo!,Super Power,Special,1,6.83,52264
3704,3853,Crayon Shin-chan Manatsu no Yoru ni Ora Sanjou! Arashi wo Yobu Den-O vs. Shin-O 60-bu Special!!,Super Power,Special,1,6.82,1213
3728,23067,Tenkai Knights,Super Power,TV,52,6.82,1249
3732,3021,Yume Senshi Wingman,Super Power,TV,47,6.82,918
3742,31050,Cyborg 009 VS Devilman,Super Power,OVA,3,6.81,3081
3751,4808,Hurricane Polymar,Super Power,TV,26,6.81,738
3755,30915,Kekkai Sensen: Soresaemo Saitei de Saikou na Hibi,Super Power,Special,1,6.8,14934
3850,2161,Skull Man,Super Power,TV,13,6.79,16361
3858,20543,Bayonetta: Bloody Fate,Super Power,Movie,1,6.78,19994
3874,3923,Kamen Rider Den-O: Imagin Anime,Super Power,OVA,10,6.78,699
3941,6714,Dragon Ball Z: Atsumare! Gokuu World,Super Power,OVA,1,6.76,10044
3958,3366,Persona: Trinity Soul,Super Power,TV,26,6.76,48744
3960,1742,Souryuuden,Super Power,OVA,12,6.76,1408
3978,987,Dragon Ball GT: Goku Gaiden! Yuuki no Akashi wa Suushinchuu,Super Power,Special,1,6.75,32853
3997,24075,Persona 4 the Golden Animation,Super Power,TV,12,6.75,39165
4031,10156,Sacred Seven,Super Power,TV,12,6.74,47136
4038,175,Tokyo Underground,Super Power,TV,26,6.74,17920
4067,3900,Ougon Bat,Super Power,TV,52,6.73,446
4068,1296,Project A-Ko 2: Daitokuji Zaibatsu no Inbou,Super Power,OVA,1,6.73,2876
4075,5833,Tondemo Senshi Muteking,Super Power,TV,56,6.73,243
4092,225,Dragon Ball GT,Super Power,TV,64,6.72,226625
4118,8314,Tentai Senshi Sunred: Short Corner,Super Power,Special,4,6.72,503
4140,6587,Kurokami: Intermission,Super Power,Special,1,6.71,4186
4149,10308,Sengoku Otome: Momoiro Paradox,Super Power,TV,13,6.71,27080
4163,1704,Eat-Man,Super Power,TV,12,6.7,4041
4188,6511,Beast Wars Neo,Super Power,TV,35,6.69,1366
4204,6428,Psychoarmor Govarian,Super Power,TV,26,6.69,352
4210,979,Street Fighter Zero The Animation,Super Power,Movie,1,6.69,10118
4274,33421,Hitori no Shita: The Outcast,Super Power,TV,12,6.67,36343
4317,25867,Rolling☆Girls,Super Power,TV,12,6.66,48310
4333,3522,Choujin Locke,Super Power,Movie,1,6.65,1250
4357,1298,Project A-Ko 4: Final,Super Power,OVA,1,6.65,2467
4392,1297,Project A-Ko 3: Cinderella Rhapsody,Super Power,OVA,1,6.64,2601
4397,21353,Tokyo ESP,Super Power,TV,12,6.64,95168
4470,6579,Chikyuu Bouei Kazoku Special,Super Power,Special,1,6.61,215
4538,3154,Gatchaman,Super Power,OVA,3,6.59,1407
4560,14647,Tantei Opera Milky Holmes: Alternative,Super Power,Special,2,6.59,3755
4580,3099,Juusenshi Gulkeeva,Super Power,TV,26,6.58,855
4582,10202,Kamen Rider Den-O: Imagin Anime 3,Super Power,OVA,12,6.58,350
4640,599,Yuugen Kaisha,Super Power,OVA,4,6.57,2370
4749,3114,Chiisana Kyojin Microman,Super Power,TV,52,6.53,411
4770,3444,The Ultraman,Super Power,TV,50,6.53,737
4783,1221,Demashita! Powerpuff Girls Z,Super Power,TV,52,6.52,13624
4797,30291,Mini Hama: Minimum Hamatora,Super Power,TV,8,6.53,1947
4816,1107,Youjuu Toshi,Super Power,Movie,1,6.52,13480
4841,6919,X-Men,Super Power,TV,12,6.51,15653
4880,1295,A-Ko The Versus,Super Power,OVA,2,6.49,2457
4900,2293,Kyoushoku Soukou Guyver,Super Power,Movie,1,6.49,3185
4933,3619,Nanako SOS,Super Power,TV,39,6.48,587
4969,27629,Tantei Kageki Milky Holmes TD,Super Power,TV,12,6.47,4967
5047,1880,Midnight Eye: Gokuu II,Super Power,OVA,1,6.44,1688
5056,6731,Ultraman Kids no Kotowaza Monogatari,Super Power,TV,26,6.44,227
5070,4737,Himitsukessha Taka no Tsume,Super Power,TV,12,6.43,341
5106,4049,Mafukiden: Pandarian,Super Power,TV,26,6.42,367
5120,18637,Tetsuwan Atom: Ivan no Wakusei - Robot to Ningen no Yuujou,Super Power,Movie,1,6.42,402
5178,9566,Umi kara no Shisha,Super Power,Movie,1,6.4,826
5200,8840,Senkou no Night Raid: Yogen,Super Power,Special,1,6.39,2752
5248,4014,Choujin Locke: Lord Leon,Super Power,OVA,3,6.37,483
5281,2739,Highschool Aurabuster: Hikari no Mezame,Super Power,OVA,3,6.36,347
5315,3214,Kosuke-sama Rikimaru-sama: Konpeitou no Ryuu,Super Power,OVA,1,6.35,437
5318,31923,Mini Hama: Minimum Hamatora Movies,Super Power,Movie,2,6.35,833
5358,11595,Perman (1983),Super Power,TV,526,6.34,447
5369,30178,Tiger & Bunny Recaps,Super Power,OVA,2,6.34,516
5383,7405,Jankenman,Super Power,TV,51,6.33,255
5403,23333,DRAMAtical Murder,Super Power,TV,12,6.32,80121
5429,231,Asagiri no Miko,Super Power,TV,26,6.31,4721
5434,6215,Dr.,Super Power,Music,1,6.31,1616
5465,839,Samurai Spirits 2: Asura Zanmaden,Super Power,OVA,2,6.3,1317
5483,8196,Kawasaki Frontale x Tentai Senshi Sunred 2nd Season,Super Power,Special,1,6.29,321
5502,904,Dragon Ball Z Movie 11: Super Senshi Gekiha!! Katsu no wa Ore da,Super Power,Movie,1,6.28,49949
5517,10201,Senkou no Night Raid Picture Drama,Super Power,Special,1,6.28,1543
5545,686,To Heart: Remember My Memories Specials,Super Power,Special,7,6.27,2198
5583,1224,Aquarian Age: Sign for Evolution,Super Power,TV,13,6.25,9268
5608,3509,Riki-Oh: Toukatsu Jigoku,Super Power,OVA,1,6.25,1319
5613,11099,Tiger & Bunny Pilot,Super Power,Special,1,6.25,5936
5650,6918,Wolverine,Super Power,TV,12,6.24,14989
5668,10199,Super Doll Licca-chan: Licca-chan Zettai Zetsumei! Doll Knights no Kiseki,Super Power,Movie,1,6.23,295
5681,13927,Sacred Seven: Shirogane no Tsubasa Picture Drama,Super Power,Special,2,6.22,1589
5682,6889,Time Bokan Series: Zenderman,Super Power,TV,52,6.22,298
5708,1468,Baoh Raihousha,Super Power,OVA,1,6.2,5520
5734,2051,Akai Kiba: Blue Sonnet,Super Power,OVA,5,6.19,1024
5760,30137,Big Order,Super Power,OVA,1,6.18,17237
5767,21013,Marvel Disk Wars: The Avengers,Super Power,TV,51,6.18,3953
5787,8316,Kawasaki Frontale x Tentai Senshi Sunred,Super Power,Special,4,6.17,363
5801,3787,The Choujo,Super Power,OVA,1,6.17,1525
5807,5178,First Squad: The Moment of Truth,Super Power,Movie,1,6.16,25040
5816,4534,Choujin Locke: Shinsekai Sentai,Super Power,OVA,2,6.15,530
5857,3398,Shin Hurricane Polymar,Super Power,OVA,2,6.14,752
5901,8921,Believe,Super Power,Music,1,6.11,616
5916,29758,Taboo Tattoo,Super Power,TV,12,6.11,99460
5946,3630,Miracle Shoujo Limit-chan,Super Power,TV,25,6.09,236
5997,7953,Defend Love,Super Power,Music,1,6.06,1162
6022,9274,Chou Seimeitai Transformers Beast Wars Metals: Convoy Daihenshin!,Super Power,Movie,1,6.05,389
6037,1268,Aquarian Age: Saga II - Don't Forget Me...,Super Power,OVA,1,6.04,2332
6147,3235,Magma Taishi,Super Power,OVA,13,5.98,421
6191,4923,Akai Hayate,Super Power,OVA,4,5.94,778
6261,1927,Gakuen Tokusou Hikaruon,Super Power,OVA,1,5.9,1068
6329,17267,Futari wa Milky Holmes,Super Power,TV,12,5.85,6303
6346,4967,Choujin Locke: Mirror Ring,Super Power,OVA,1,5.84,391
6362,3625,Battle Royal High School,Super Power,OVA,1,5.83,2899
6406,2056,Cosmo Police Justy,Super Power,OVA,1,5.8,970
6409,13693,Ippatsu Hicchuu!! Devander,Super Power,OVA,1,5.8,316
6422,5053,Ai City,Super Power,Movie,1,5.79,1513
6486,1776,Bulg-eunmae,Super Power,Movie,1,5.74,582
6526,1027,Psychic Force,Super Power,OVA,2,5.71,1069
6529,31904,Big Order (TV),Super Power,TV,10,5.7,84079
6549,32737,009 Re:Cyborg x Zip,Super Power,ONA,10,5.68,198
6579,3511,Riki-Oh 2: Horobi no Ko,Super Power,OVA,1,5.67,725
6705,17048,Choujin Locke Special,Super Power,Special,1,5.55,171
6744,2737,Kouryuu no Mimi: Mina no Shou,Super Power,OVA,2,5.51,311
6754,1515,Sentou Yousei Shoujo Tasukete! Mave-chan,Super Power,OVA,1,5.5,2100
6776,23935,Kyutai Panic Adventure Returns!,Super Power,Special,1,5.46,691
6807,1059,Mutant Turtles: Choujin Densetsu-hen,Super Power,OVA,2,5.45,1660
6998,23933,Kyutai Panic Adventure!,Super Power,Special,1,5.21,700
7101,21335,Double Circle,Super Power,ONA,6,5.08,4249
7219,1641,Iron Virgin Jun,Super Power,OVA,1,4.81,890
7235,1765,Vampire Sensou,Super Power,OVA,1,4.76,2002
7338,13311,Henshin Gattai! 5 tsu no Atsuki Tamashii,Super Power,Music,1,4.19,269
7347,4531,Dark Cat,Super Power,OVA,1,4.04,1492
7391,1345,Soujuu Senshi Psychic Wars,Super Power,OVA,1,3.32,1556
7401,33363,"""Eiyuu"" Kaitai",Super Power,OVA,1,7.33,578
7516,28567,Azarashi Tama-chan no Hi no Youjin,Super Power,OVA,1,5.75,46
7524,26017,Backkom Specials,Super Power,ONA,8,6.23,93
7637,30959,Charamaru-kun to Dokumaru-kun,Super Power,OVA,1,7.4,36
7670,24269,Chiisana Kyojin Microman: Daigekisen! Microman vs. Saikyou Senshi Gorgon,Super Power,Movie,1,4.69,93
7835,10000,Esper Mami Special: My Angel Mami-chan,Super Power,Special,1,6.52,148
7933,8493,Gegege no Kitarou: Kitarou no Yuurei Densha,Super Power,Movie,1,5.91,206
7961,19501,Giga Tribe,Super Power,TV,39,5.5,106
8164,7175,Himitsukessha Taka no Tsume Countdown,Super Power,TV,12,6.17,179
8165,22821,Himitsukessha Taka no Tsume EX,Super Power,TV,38,6.7,105
8167,18241,Himitsukessha Taka no Tsume MAX,Super Power,TV,38,7.0,112
8168,13431,Himitsukessha Taka no Tsume NEO,Super Power,TV,38,6.62,151
8169,8355,Himitsukessha Taka no Tsume The Movie 1: Soutou wa Nido Shinu,Super Power,Movie,1,5.47,118
8170,8356,Himitsukessha Taka no Tsume The Movie 2: Watashi wo Aishita Kuro Oolong-Cha,Super Power,Movie,1,5.06,114
8171,8357,Himitsukessha Taka no Tsume The Movie 3: http://takanotsume.jp wa Eien ni,Super Power,Movie,1,5.27,122
8174,13433,himitsukesshatakanotsume.jp,Super Power,ONA,78,6.1,101
8212,9950,Hulu Xiongdi,Super Power,TV,13,7.4,170
8217,16808,Hwanggeum Cheolin,Super Power,Movie,1,4.81,89
8290,16399,Jeonja Ingan 337,Super Power,Movie,1,4.54,83
8643,16820,Lightning Atom,Super Power,Movie,1,5.11,62
8669,6577,"Machine Robo: Leina, The Legend of Wolf Blade",Super Power,OVA,3,6.25,248
8817,16159,Mirai Kara Kita Shounen Super Jetter,Super Power,TV,52,5.43,108
8842,31116,Momotaros no Natsuyasumi,Super Power,Movie,1,4.08,62
8908,27943,Nano Invaders,Super Power,TV,52,7.08,519
8918,16810,Narara Wondeogongju,Super Power,Movie,1,3.25,87
8969,29235,Ninja Hattori-kun Plus Perman: Chounouryoku Wars,Super Power,Movie,1,6.04,89
8970,29233,Ninja Hattori-kun Plus Perman: Ninja Kaijuu Jippou tai Miracle Tamago,Super Power,Movie,1,5.76,82
9068,29846,Omakase! Miracle Cat-dan,Super Power,TV,32,5.25,240
9114,30025,Otenki Boys,Super Power,TV,30,6.33,39
9134,29611,Pa-Pa-Pa the ★ Movie: Perman - Tako de Pon! Ashi wa Pon!,Super Power,Movie,1,6.75,77
9178,29613,Perman: Birdman ga Yatte Kita!!,Super Power,Movie,1,5.89,77
9331,5810,Sakuran Boy DT,Super Power,TV,11,5.93,254
9539,17004,Sore Ike! Anpanman: Franken-Robo-kun's Surprised Christmas,Super Power,Special,1,5.69,81
9550,16163,Sore Ike! Anpanman: Kirakira Boshi no Namida,Super Power,Movie,1,6.07,121
9570,17006,Sore Ike! Anpanman: Sing! Dance! Everybody's Christmas,Super Power,Special,1,5.06,81
9581,14381,Sore Ike! Anpanman: Yomigaere Bananajima,Super Power,Movie,1,5.59,104
9598,18447,Spheres,Super Power,TV,26,7.33,171
9630,26011,Super Backkom,Super Power,Special,1,5.22,91
9653,16754,Taegeugsonyeon Huin Dogsuli,Super Power,Movie,1,3.79,73
9660,13435,Taka no Tsume NEO Announcement Movie,Super Power,Special,1,4.23,109
9661,19535,Takanotsume GO: Utsukushiki Elleair Shoushuu Plus,Super Power,Movie,1,7.17,110
9680,31486,Tantei Opera Milky Holmes Movie: Gyakushuu no Milky Holmes,Super Power,Movie,1,6.62,1167
9723,12401,The Gakuen Choujo-tai,Super Power,OVA,1,4.85,162
9744,30537,Tiger & Bunny: Too Many Cooks Spoil the Broth,Super Power,Special,1,6.06,1111
9842,10250,Ultra B,Super Power,TV,119,5.52,102
9847,11695,Ultraman Graffiti,Super Power,OVA,6,5.25,123
9849,10909,Ultraman Kids: M7.8 Sei no Yukai na Nakama,Super Power,Movie,1,5.39,118
9850,30122,Ultraman M78 Gekijou: Love and Peace,Super Power,Special,1,5.31,93
9851,17621,Ultraman: Chou Toushi Gekiden - Suisei Senjin Tsuifon Toujou,Super Power,OVA,1,6.56,147
9938,7419,Wrestler Gundan Seisenshi Robin Jr.,Super Power,TV,50,6.32,145
10040,6448,Yuusei Shounen Papii,Super Power,TV,52,6.49,242
10061,31427,Zinba,Super Power,TV,52,7.17,172
