,user_id,email,geo
50,User_984,Kittysineos@rambler.ru,Санкт-Петербург
51,User_969,Knightstra@icloud.com,Красноярск
52,User_904,Kryptoburs@yahoo.com,Ярославль
53,User_953,Lassour@ukr.net,Краснодар
54,User_995,Latinarysa@rambler.ru,Ярославль
55,User_951,Lessomaire@rambler.ru,Ставрополь
56,User_900,Lipsxiptp@yahoo.com,Санкт-Петербург
57,User_930,Loqutio@yandex.ru,Арзангелтск
58,User_922,Lyfernozoi@inbox.ru,Хабаровск
59,User_926,Magazineli@ya.ru,
60,User_982,Magazinetc@yahoo.com,Ставрополь
61,User_942,Mailitry@ya.ru,Москва
62,User_958,Manionoe@ukr.net,Ярославль
63,User_975,MediaLead@rambler.ru,Пермь
64,User_933,MoPoet@yahoo.com,Краснодар
65,User_987,Muchiple@yahoo.com,Москва
66,User_920,NumClear@bk.ru,Санкт-Петербург
67,User_964,NumTrendy@mail.ru,Ярославль
68,User_937,Paleoso@ukr.net,Арзангелтск
69,User_927,Paviatery@ukr.net,Казань
70,User_936,Peytzke@mail.ru,Казань
71,User_905,Pinkelysi@ya.ru,Москва
72,User_986,PleasantKeeper@ukr.net,Красноярск
73,User_915,PongCute@mail.ru,Арзангелтск
74,User_997,Prestigenp@inbox.ru,Ярославль
75,User_971,PricelessJuz@rambler.ru,Казань
76,User_909,Prinesbr@bk.ru,Хабаровск
77,User_963,RosesTight@gmail.com,Екатеринбург
78,User_948,Roycess@rambler.ru,Хабаровск
79,User_914,Sandpoist@gmail.com,Воронеж
80,User_968,Schwire@bk.ru,Екатеринбург
81,User_944,Seenomvura@yahoo.com,Екатеринбург
82,User_924,ShardDivision@icloud.com,Воронеж
83,User_925,Sianscot@yandex.ru,Тюмень
84,User_940,Somberyant@mail.ru,Пермь
85,User_988,SpyderSpin@bk.ru,Арзангелтск
86,User_999,Stacile@yahoo.com,Казань
87,User_981,Stargalux@gmail.com,Арзангелтск
88,User_923,Styledget@rambler.ru,Пермь
89,User_945,Sumollerno@inbox.ru,Тюмень
90,User_979,SupremeSynchro@rambler.ru,Хабаровск
91,User_994,Therick@yahoo.com,Екатеринбург
92,User_929,Topictition@rambler.ru,Ижевск
93,User_907,Transky@yandex.ru,Красноярск
94,User_996,Trantawe@yandex.ru,Краснодар
95,User_959,UpdatesCurious@yahoo.com,Тюмень
96,User_901,V2artierso@mail.ru,Арзангелтск
97,User_970,Vashoterlo@bk.ru,Воронеж
98,User_965,Visuareda@yahoo.com,Воронеж
99,User_921,Aavast@ya.ru,Ижевск
