,COD_INTERV,estado_cli,des_ofici,cod_cbc,des_cbc,cod_zona,des_zona,COD_TERRIT,des_territ
0,ASE,A,152,152,152,152,152,152,152
1,BEN,A,8,8,8,8,8,8,8
2,GAR,A,164,164,164,164,164,164,164
3,GRE,A,2,2,2,2,2,2,2
4,PAU,A,147,146,146,147,147,147,147
5,REP,A,98,98,98,98,98,98,98
6,TIT,A,15417,15370,15370,15417,15417,15417,15417
7,TIT,I,5,5,5,5,5,5,5
8,USU,A,1,1,1,1,1,1,1
