,user_id,sad,stressed
0,2,0.40816326530612246,0.17346938775510204
1,4,0.0078125,0.015625
2,5,0.0,0.037037037037037035
3,6,0.5,0.85
4,7,0.0,0.021505376344086023
5,8,0.0,0.0
6,9,0.05555555555555555,0.0
7,11,0.75,0.9583333333333334
8,12,0.14285714285714285,0.14285714285714285
9,15,0.0,0.0
10,18,0.15,0.6625
11,20,0.02666666666666667,0.02666666666666667
12,21,0.10294117647058823,0.058823529411764705
13,22,0.06593406593406594,0.12087912087912088
14,23,0.0410958904109589,0.1095890410958904
15,24,0.06451612903225806,0.06451612903225806
16,26,0.23684210526315788,0.18421052631578946
17,27,0.012195121951219513,0.5609756097560976
18,28,0.4186046511627907,0.7558139534883721
19,29,0.0,0.0
20,30,0.02857142857142857,0.17142857142857143
21,31,0.5319148936170213,0.2978723404255319
22,32,0.038461538461538464,0.0641025641025641
23,33,0.06451612903225806,0.41935483870967744
24,34,0.0,0.6862745098039216
25,35,0.0,0.15384615384615385
26,36,0.0,0.06451612903225806
27,37,0.0,0.0
28,38,0.3076923076923077,0.15384615384615385
29,40,0.08695652173913043,0.32608695652173914
30,42,0.0,0.0
31,43,0.0,0.06666666666666667
32,44,0.0,0.02702702702702703
33,45,0.10714285714285714,0.5
34,46,0.0,0.0
