,IdTipo,TipoAhogamiento
11,11,Victima con traumatismo
1,1,Ahogado sin sintomas de aspiración de agua
0,0,Sin datos
9,9,Distres Acuatico
5,5,Ahogamiento secundario a enfermedad
7,7,Muerte previa a inmersion
3,3,Ahogado por hidrocucion
2,2,Ahogado con sintomas de aspiración de agua
4,4,Ahogamiento secundario a accidente
8,8,Perdida de Control
6,6,Posible Ahogamiento
10,10,Victima sin sintomas de ahogamiento
