,IdActividad,Actividad
12,13,Pesca recreativa desde embarcacion
3,3,Buceo recreativo con botella
21,22,Buceo a pulmon
10,10,Natación recreativa
13,14,Pesca desde playa o rocas
11,12,Paseo en tierra
16,17,Transporte no acuático
17,18,Zambullida
9,9,Natación competitiva
2,2,Buceo profesional
25,26,"Parapente, vuelo"
5,5,Embarcación de vela
14,15,Pesca o navegación comercial
26,27,Actividad acuatica organizada
8,8,Juegos en el agua
19,20,Circulación en vehiculo
20,21,Otro
6,6,Actividad cerca del agua
4,4,Embarcación a motor
24,25,Barranquismo
23,24,Intento de rescate acuatico
22,23,"Piraguismo, Kayac"
7,7,Surf-Windsurf-Esqui acuatico-Kyte
1,1,Baño en reposo
18,19,Actividad sobre hielo
0,0,Sin datos
15,16,Transporte acuático
