,int_rate
 19.47%,8
  8.88%,8
 20.16%,8
 20.53%,8
 12.36%,8
 16.95%,8
  9.62%,8
 18.43%,8
 17.58%,8
  6.91%,7
 17.80%,7
 11.41%,7
 10.46%,7
 19.41%,7
 20.11%,7
 12.04%,7
 14.12%,7
 17.03%,7
 17.74%,7
 15.07%,7
  7.12%,7
 13.80%,7
 20.90%,7
 17.39%,7
 17.66%,7
 14.75%,6
 16.71%,6
 13.04%,6
  9.63%,6
  8.59%,6
 17.04%,6
 19.13%,6
 10.36%,6
 17.26%,6
 16.01%,5
 14.09%,5
  8.94%,5
 11.91%,5
 11.09%,5
  9.88%,5
 17.97%,5
 12.67%,5
 13.17%,5
 14.38%,5
 12.98%,5
  7.37%,5
 16.35%,5
 13.75%,5
 18.17%,4
 12.54%,4
 18.91%,4
 18.21%,4
 11.26%,4
 15.38%,4
 16.65%,4
 13.93%,4
 14.43%,4
 12.99%,4
  9.99%,4
 17.90%,4
 18.54%,4
 13.36%,4
 10.95%,4
 20.86%,3
 18.84%,3
 13.12%,3
 21.14%,3
 12.86%,3
 13.67%,3
 14.30%,3
 20.17%,3
 20.52%,3
 21.27%,3
 21.21%,3
 18.53%,3
 18.78%,3
 12.22%,3
  9.32%,3
 18.86%,3
 16.96%,3
 13.62%,3
 10.64%,3
 15.25%,3
 11.59%,3
 19.82%,3
 12.09%,2
 14.88%,2
 17.59%,2
 17.91%,2
 17.06%,2
 18.09%,2
 12.41%,2
  6.54%,2
 19.36%,2
  6.00%,2
 15.01%,2
 19.16%,2
 20.77%,2
 15.88%,2
 14.70%,2
 14.07%,2
  9.25%,2
 11.78%,2
 11.46%,2
 14.62%,2
 14.25%,2
 12.72%,2
  9.38%,2
 19.66%,2
 17.15%,2
 13.43%,2
 15.83%,2
 17.28%,2
 15.96%,2
 10.83%,1
 18.36%,1
 14.67%,1
  7.14%,1
 17.43%,1
 20.40%,1
 16.83%,1
 10.01%,1
 13.49%,1
  9.70%,1
 11.28%,1
  7.74%,1
 19.29%,1
 17.78%,1
 16.15%,1
 10.96%,1
 14.93%,1
