,int_rate
 10.99%,265
  7.49%,239
 11.49%,187
 11.99%,180
  8.49%,169
 13.49%,151
 12.99%,149
  9.99%,141
 10.59%,135
  6.99%,129
  5.42%,116
  5.99%,115
 15.99%,102
 13.99%,96
 16.89%,88
 15.23%,83
 16.49%,79
 17.49%,74
 15.62%,69
 18.39%,64
 14.79%,59
 17.99%,56
 19.69%,49
 19.29%,44
 18.79%,35
 20.25%,27
 20.99%,24
 20.62%,21
 22.11%,14
 21.36%,14
 21.74%,11
 22.48%,5
 23.22%,4
 23.59%,2
 22.85%,2
 18.07%,1
 12.62%,1
