,IdDeteccion,Deteccion
4,4,Personal sanitario
1,1,"Acompañante, familiar, amigo"
2,2,Ciudadano
7,7,Personal instalacion
0,0,Sin datos
3,3,"Servicios de emergencia, policia, bomberos"
6,6,Socorrista no en servicio
5,5,Socorrista en servicio
8,8,Otro
