,admit,gre,gpa,prestige
206,0,740,3.54,1
207,1,640,3.63,1
216,0,340,2.9,1
217,1,460,3.64,1
218,0,460,2.98,1
222,1,480,3.02,1
234,1,800,3.53,1
241,1,520,3.81,1
244,0,540,3.04,1
273,0,660,3.32,1
277,1,580,3.58,1
286,1,800,3.22,1
293,0,800,3.97,1
294,0,480,2.55,1
296,0,560,3.16,1
306,1,540,3.17,1
319,0,540,3.28,1
325,0,680,3.9,1
332,0,420,2.96,1
335,1,620,3.71,1
338,0,540,3.2,1
355,1,760,2.81,1
357,0,720,3.31,1
360,1,520,4.0,1
361,1,540,3.49,1
364,1,560,3.36,1
368,0,580,4.0,1
372,1,680,2.42,1
373,1,620,3.37,1
383,0,660,4.0,1
385,0,420,3.02,1
