,city,driver_count,type,Average Fare,Ride Count
0,Richardfort,38,Urban,23.923750000000002,16
1,Williamsstad,59,Urban,25.214210526315792,19
2,Port Angela,67,Urban,24.93875,16
3,Rodneyfort,34,Urban,28.29090909090909,22
4,West Robert,39,Urban,22.530434782608697,23
5,West Anthony,70,Urban,24.4228,25
6,West Angela,48,Urban,25.67724137931035,29
7,Martinezhaven,25,Urban,21.192777777777778,18
8,Karenberg,22,Urban,28.571538461538463,13
9,Barajasview,26,Urban,28.754375,16
10,Robertport,12,Urban,23.521333333333335,15
11,Joneschester,39,Urban,20.874375000000004,16
12,Leahton,17,Urban,18.824117647058824,17
13,West Christopherberg,32,Urban,26.24421052631579,19
14,Johnton,27,Urban,28.416874999999997,16
15,Reynoldsfurt,67,Urban,22.458461538461542,13
16,Port David,7,Urban,25.385555555555555,18
17,New Kimberlyborough,33,Urban,20.631666666666664,24
18,Carriemouth,52,Urban,27.25047619047619,21
19,Rogerston,25,Urban,23.806875,16
20,Jerryton,64,Urban,26.126470588235296,17
21,Loganberg,23,Urban,23.125000000000004,20
22,Simpsonburgh,21,Urban,22.121111111111112,18
23,Port Frank,23,Urban,28.73173913043479,23
24,South Latoya,10,Urban,19.521875000000005,16
25,West Samuelburgh,73,Urban,23.450555555555557,18
26,Grahamburgh,61,Urban,22.935555555555556,18
27,West Patrickchester,25,Urban,29.086363636363636,11
28,North Madeline,19,Urban,23.145263157894735,19
29,South Jack,46,Urban,22.034615384615385,13
30,Liumouth,69,Urban,25.375238095238096,21
31,West Ericstad,25,Urban,21.573333333333334,12
32,Royland,64,Urban,20.73,24
33,Erikaland,37,Urban,22.52111111111111,9
34,Huntermouth,37,Urban,28.8445,20
35,Justinberg,39,Urban,24.67434782608695,23
36,South Evanton,11,Urban,28.18142857142857,21
37,Lake Danielberg,19,Urban,23.593529411764706,17
38,East Kaylahaven,65,Urban,22.62,20
39,West Heidi,28,Urban,24.36318181818182,22
40,Karenside,5,Urban,29.10809523809524,21
41,South Karenland,4,Urban,28.3044,25
42,West Gabriel,57,Urban,20.9475,12
43,North Markport,22,Urban,30.950000000000006,10
44,Raymondhaven,11,Urban,18.923333333333332,18
45,North Barbara,18,Urban,25.208235294117646,17
46,Lake Scottton,58,Urban,21.268571428571427,14
47,West Josephberg,45,Urban,21.294285714285714,21
48,Pattyland,59,Urban,24.205882352941174,17
49,South Michelleport,72,Urban,23.880952380952387,21
50,Christopherfurt,41,Urban,22.585714285714285,21
51,Valentineton,45,Urban,21.28,14
52,South Phillip,38,Urban,29.772083333333327,24
53,North Jason,6,Urban,20.510909090909095,22
54,Deanville,49,Urban,24.868,15
55,Lake Jonathanshire,5,Urban,22.166153846153847,13
56,New Paulton,44,Urban,25.768000000000004,15
57,Hurleymouth,36,Urban,26.385217391304344,23
58,Port Johnbury,3,Urban,24.44266666666667,15
59,North Jasmine,33,Urban,27.622499999999995,20
60,New Paulville,44,Urban,19.243333333333332,15
61,Amandaburgh,12,Urban,23.072,15
62,Williamsview,46,Urban,27.196923076923078,13
63,New Jacobville,50,Urban,27.265,12
64,Port Samanthamouth,57,Urban,27.501500000000004,20
65,Roberthaven,47,Urban,22.351,20
