,user_id,order_id_x,eval_set_x,order_number_x,order_dow_x,order_hour_of_day_x,days_since_prior_order_x,product_id_x,add_to_cart_order_x,reordered_x,reordered_y,order_id_y,eval_set_y,order_number_y,order_dow_y,order_hour_of_day_y,days_since_prior_order_y,product_id_y,add_to_cart_order_y,reordered
0,11050,1,1,1,1,1,1,1,1,1,0,1,1,1,1,1,1,1,1,1
1,16447,1,1,1,1,1,1,1,1,1,0,1,1,1,1,1,1,1,1,1
2,37911,1,1,1,1,1,1,1,1,1,0,1,1,1,1,1,1,1,1,1
3,41370,1,1,1,1,1,1,1,1,1,1,1,1,1,1,1,1,1,1,1
4,76762,1,1,1,1,1,1,1,1,1,1,1,1,1,1,1,1,1,1,1
5,90709,1,1,1,1,1,0,1,1,1,0,1,1,1,1,1,0,1,1,1
6,95503,1,1,1,1,1,1,1,1,1,0,1,1,1,1,1,1,1,1,1
7,132543,1,1,1,1,1,1,1,1,1,0,1,1,1,1,1,1,1,1,1
8,140605,1,1,1,1,1,1,1,1,1,1,1,1,1,1,1,1,1,1,1
9,151030,1,1,1,1,1,1,1,1,1,1,1,1,1,1,1,1,1,1,1
10,162305,1,1,1,1,1,1,1,1,1,1,1,1,1,1,1,1,1,1,1
11,164469,1,1,1,1,1,1,1,1,1,1,1,1,1,1,1,1,1,1,1
12,173995,1,1,1,1,1,1,1,1,1,1,1,1,1,1,1,1,1,1,1
