,emp_title
Bryn Mawr Rehabilitation Hospital,1
DeVry University,1
Perforex Forest Services,1
LCI,1
El dorado disposal,1
Plastic Surgery Associates of Lynchburg,1
Gate 1 Travel LTD,1
WELLS FARGO HOME MORTGAGE,1
Visa Usa,1
Gastroenterology Center of CT,1
Bastrop Athletic Designs,1
"Illumina, Inc",1
Kollmorgen Electro-Optical,1
Dean Medical Center,1
David J. Powers  and  Associates,1
Twin Rivers Unified School District,1
Wells Fargo Bank N.A,1
Rudell and Associates Inc,1
Allegheny County,1
Duncan Industrial Solutions,1
Verint Systems Inc,1
NYK Logistics,1
The Mitas Group,1
State of CT,1
CBS Films,1
Vinculums,1
Booz Allen,1
DXP Enterprises,1
Defense Language Institute,1
Arnoff Moving &Storage,1
Hempfield School District,1
NYC & Company,1
Consulting firm,1
Maricopa Community College District,1
Office of the District of Columbia Audit,1
Brorsen Appraisal Service  P.C.,1
Department of Commerce/ITA,1
Procter & Gamble,1
Solano County,1
Big Yellow Duck LLC,1
Lewis Property Management CO,1
Penava Mech. Corp.,1
Urban Science Applications,1
PowerNet Global,1
Estes Express Lines,1
wolf camera and image,1
SCSD,1
Bread for the City,1
United Process,1
Chili's Restaurant,1
"Old Structures Engineering, P.C.",1
pss,1
Jewel-Osco,1
peerless instrument,1
SOUTH MOTORS BMW,1
Dish Network,1
USA Drug,1
Teksystems,1
Mesa Public Schools,1
FMC Technology,1
"AppliancePartsPros.com, Inc",1
Integratas Corporate Services,1
Leominster Credit Union,1
Credit Suisse ,1
WOW,1
Brown & Brown Insurance,1
Mo State Highway Patrol,1
Depository Trust and Clearing Corp,1
arzee supply/ allied building products,1
Illinois Army National Guard,1
"CAI Benefits, Inc.",1
self,1
Chemetall,1
Earl's Plumbing,1
American Eagle,1
Armstrong Capital,1
DIGITAS,1
McLaren Regional Medical Center,1
IC System,1
Centinela Valley Union High School Distr,1
Institute for Humane Studies,1
John Wiley and sons Inc,1
Judicate West,1
Wayne J. Griffin Electric Inc.,1
Chumash Casino,1
FLORIDA DENTAL AND DENTURE CENTER,1
Casper Star Tribune,1
Bankers Warranty Group,1
Insurance Auto Auctions Inc.,1
heritage cadillac,1
BARBOUR CO.SCHOOLS,1
Dealogic,1
Walker & Moody Architects,1
STERIS Corporation,1
kaiser permanete nw,1
AMDETECH,1
John Deere,1
UPMC Passavant,1
The Shaw Group,1
Directv,1
SDI Media ,1
wdw,1
Swish Data Corporation,1
Nike,1
"Socket Mobile, Inc.",1
Apple Rehab of Old Saybrook,1
DOD Civ US Army,1
Ritz Carlton,1
AllScripts ,1
Veolia Environmental Services,1
Microsoft Corporation,1
Colorado State University,1
HMMY Property Management Corp.,1
Parkwest Womens Health,1
CapGemini,1
US Army Corps of Engineers,1
Digital Media,1
HITACHI CONSULTING,1
Consol Energy,1
Blaze Courier,1
East Clairemont Southern Baptist Church,1
The Home Depot ,1
Monterey-Salinas Transit,1
RMK Worldwide,1
Qualified Systems Contracting,1
Community Action of Greene Cty,1
Medics Ambulance Service,1
Melinda Randolph,1
travelers insurance co,1
cyr lumber,1
U S Postal Service,1
Aon Risk Solutions,1
Ptarmigan Country Club,1
Municipal Gas Authority of Georgia,1
bmw maufacturing,1
L3 Communications C.P.S.,1
FlexDigital,1
American Express,1
University of Oklahoma Health Sciences ,1
U.S. Army,1
Mercedes Benz USA,1
The Pet Doctor,1
"Comprehensive Nursing Services , Inc.",1
Stanley Black & Decker,1
The Mentor Network,1
Greenbelt Alliance,1
Digitas Health,1
USPostal Service,1
Mission Valley Cabinet,1
EnLink,1
The Nielsen Company,1
"Barr & Barr, Inc",1
john hopkins bayview medical center,1
Bank Street College,1
Bank Of America,1
APPLIED SYSTEMS TECHNOLOGIES,1
Blandin Foundation,1
"Click For, Inc",1
Marshfield Clinic,1
128 Air Refueling Wing (USAF),1
Auto Collision Center,1
New York Presbyterian Hospital,1
Lake Charles Memorial Hospital,1
Melwood HTC,1
Herhseys,1
donley concrete,1
Bishop and Associates,1
Azzolina  and  Feury Engineering,1
First National Bank of Pueblo,1
Allstae Insurance,1
Best Quality Insulation,1
South Jersey Healthcare,1
"SOMBRA HOMES, INC",1
ecsm uitilty contractors,1
The Accessory corp,1
long beach memorial med ctr,1
Allied Insurance,1
"Merced Systems, Inc. ",1
Siemens Industry Inc,1
CBS Interactive,1
St. John Properties  Inc.,1
Telecare Corporation,1
G4S Secure Solutions USA,1
University Center At Princeton,1
Hyatt Regency San Francisco Airport,1
AMTRAK,1
"Air Force Det 3,544th Intelligence Group",1
GE Oil & Gas,1
East Mesa Auto Repair Center,1
Alpha prop solutions,1
ViTrax,1
United Bankers' Bank,1
SNEC of SDA Churches,1
IBm,1
"ActioNet, Inc.",1
Line 6,1
"TAMKO Building Products, Inc.",1
AVX Corporation,1
MerchNow,1
Environmental Technology Inc.,1
Ecolab,1
Beam Global Spirits and Wines,1
Octagon Services  Inc,1
KidsTek,1
DCI Inc,1
Yogurt Stop,1
Department of Army,1
Safilo USA,1
BB and T,1
Bridge2Solutions,1
aspen square management,1
City of Park Hills,1
DePuy Orthopedics/ DJD Medical,1
Effective Graphics,1
Dow Chemical Company,1
The Center for the Partially Sighted,1
IEM,1
SLT Expressway,1
LandWorks Inc,1
UCSF Dept. of Radiology,1
Bass Pro Shops,1
cold headers inc,1
Fisher Communications,1
us doj federal bureau of prisons,1
The Oaks WTP,1
Page Unified School Dist. #8,1
BEST BUY,1
White Wilson Medical Center,1
att ,1
Zachry Construction Corporation,1
"Equinix, Inc.",1
holman toyota,1
Albuquerque Publishing Company,1
Fifth-Third Bank,1
Hewlett-Packard Company,1
SRA International,1
shopzilla.com,1
Jefferies  and  Co.,1
Relief International,1
Priority Capital Group,1
Convergys,1
U.S. Postal Servive,1
University of San Francisco,1
NYC DEPT OF EDUCATION,1
Majestic Industry Hills,1
SCDOT,1
DST Health Solutions,1
Peoples Bank,1
Children's Vision First/ SFUSD,1
US NAVY,1
Tucson Medical Center,1
Moore County Government,1
St Josephs Hospital & Medical Center,1
Flowerwood Nursery,1
Dorchester County EMS,1
CACI,1
Navigant Consulting  Inc,1
"AUTORE OIL COMPANY, INC",1
"K-Sea Hawaii, Inc.",1
Rost Tuscan,1
"Complete Food Service, Inc.",1
JCG,1
Sherwin Williams ,1
Knology Broadband,1
AIG,1
Centaman  Inc.,1
ERC company ,1
Greenville Hospital System,1
Hunter PR,1
District 300,1
Swift Transportation,1
BCBG MAX AZRIA GROUP INC.,1
Saint Albans Town Educational Center,1
Ohio University,1
Sargent  and  Lundy,1
Colgate-Palmolive,1
J Morita USA,1
Rich-Ro Dairy,1
Pier Sixty LLC,1
Smith Hanley,1
Lee's Summit School District,1
Global Crossing,1
Buca di Beppo,1
3M Company,1
Yale New Haven Hospital,1
CarMax,1
Murphy's Mountain Jewelers,1
Florida Virtual School,1
Doral Arrowwood,1
First Quality Tissue,1
"Forester Properties, Inc.",1
"World Wide Digital Services, Inc.",1
Fidelity Investments ,1
Sebastopol Police Department,1
El Monte RV,1
AmerisourceBergen,1
Potbelly sandwich shop,1
Congregation B.J.B.E.,1
Firstborn,1
"C & G Insurance Agency, Inc.",1
Fed Ex Home delivery,1
Insight Beverages ,1
smart and final,1
Te'Kila,1
Four Seasons Resorts,1
JPM CHASE,1
Ameriprise Financial,1
united parcel service,1
St. Petersburg Yacht Club,1
L.I.F.E.,1
accurate home care,1
State Street Bank,1
Primex,1
Foodmaster Supermarkets  Inc.,1
Amtrak,1
Summit Industrial Products,1
"Booz Allen Hamilton, Inc",1
Suffolk County District Attorney,1
Russo Development,1
The Food Bank of WMA,1
Keville Entgerprises,1
"Concord Nursing Home, Inc.",1
Price Chopper,1
POSabilities Inc.,1
ITT Corporation,1
Bossman Entertainment,1
The South Financial Group,1
Ballet Jewels,1
Concept Services,1
Advanced Alarm Systems,1
"Mindel Management, Inc.",1
Rackspace,1
lionel philips,1
Madison Square Garden,1
CitiMortgage,1
"EMSolutions, Inc",1
PPG Industries,1
GKN Aerospace ,1
Direct Bill Services AIG,1
Mt. Notre Dame H.S.,1
"Citrix Systems, Inc.",1
AutoDriveaway,1
Shake-N-Go ,1
Santa Monica Malibu Unified School District,1
White Mountain Country Club,1
stockton unified school dist.,1
Chenango Memorial Hospital,1
SOS,1
Data Mail,1
ford motor co.,1
FREEPORT McMORAN COPPER & GOLD,1
cullen and dykman,1
HOLLINGSWORTH LOGISTICS,1
Muroc School District,1
Las Vegas Valley Water District,1
Puget Sound Naval Shipyard,1
Tewksbury Twp Board Of Education,1
CHE,1
port authority,1
CCS,1
First Data,1
ITA Software,1
Quince,1
Louisa County Public Schools,1
cooper's seafood house,1
Morton Capital Management,1
American Society of Interior Designers,1
Meditech,1
Lippincott,1
mountain tarp,1
University of Colorado at Boulder,1
Associate Press,1
Roundys,1
Insight Enterprises Inc,1
"Empowerment Systems, Inc",1
Marie Welshinger,1
Samson Products,1
tilcon,1
Bass Pools,1
Malvern Service Corp.,1
International Paper,1
SimplexGrinnell,1
Eclipsys,1
National Board of Trial Advocacy,1
Data Safe,1
The New York Times,1
Gap Inc - Old Navy,1
State of NJ,1
The Biltmore Hotel,1
att,1
Credit Suisse,1
Chartis,1
Colorado Business Bank,1
Fedex,1
Rockwell Automation,1
"State of Florida, DFS/DWC/BOC",1
Federal Highway Administration,1
Thermal Air Inc ,1
Atlanta Classic Cars Inc,1
Suntron Corp,1
Miller Zell,1
Entergy,1
Jay's Fine Cuisine and Special Events,1
Beaufort Board of Education,1
distributor service inc,1
frischs,1
Barclays Capital,1
Peoria Unified School District,1
Bank of New England,1
DHL Exel Logisitics,1
The Hartford,1
Six degrees Innovations LLC,1
NYS DCJS,1
UCSD Medical Center,1
imtt bayonne,1
Eze Castle Integration,1
Fallbrook high school,1
Bjs Wholesale,1
Bracewell & Giuliani LLP,1
cohoes police dept,1
US Dept. of Homeland Security,1
One Technologies,1
Datagram Inc,1
"NYC Department of Education, P.S. 33x",1
JPMorgan Securities LLC,1
Direct Data Inc,1
Geauga Savings Bank,1
pier 1 imports,1
Humana Healthcare,1
Public school 307,1
Baker Engineering and Risk Consultants,1
Vector Wealth Management,1
jfk investment company,1
Skanska USA Civil,1
AlphaGraphics 469,1
"Linkhorst & Hockin, P.A.",1
Winntech Digital Systems,1
Air Products and Chemicals,1
NCO Credit Services ,1
Home Depot,1
"OptionEase, Inc",1
Advance Auto Parts,1
r.r. donnelley & Sons Inc,1
Continental Marmorstein & Malone,1
displaysonic inc,1
Clearwire ,1
KPMG,1
KMVT Community Television,1
"ZL Technologies, Inc.",1
ASM Research,1
MetLife,1
Granite Construction Inc.,1
Travelers ,1
University Of Utah,1
nypd,1
atlantic express,1
county of san bernardino,1
Zuccareli's,1
EZ Apparel,1
City of Manhattan Beach,1
NYC Municipal Water Finance Authority,1
Realogy,1
Trinel Maintenance,1
Bank of Belleville,1
Venetian,1
USFS,1
Liberty Property Trust,1
Gen-Probe Inc,1
Ace Info Solutions,1
SKTY Trading,1
PNC Mortgage,1
H.G. Fenton Company,1
J.P. Morgan Chase,1
SusQtech,1
UBM,1
Broward County,1
"Littler Mendelson, P.C.",1
California Department of Justice,1
Creative Identity,1
Power Engineers Inc.,1
State of Florida Senate,1
Roberts Comm Network,1
Bunzl,1
Phenom LLC,1
ila local 3000,1
glow,1
Mauck Zantzinger & Associates,1
Clear Edge Filtration,1
Cambium Learning Group,1
"File Link Business Systems, inc.",1
jw molding,1
The Vanguard Group,1
Farm Fresh To You,1
Southern Arizona AIDS Foundation,1
DANBERT INC,1
"RubinBrown, LLP",1
Carl Zeiss IMT,1
Superior Tank,1
Encore Merchandising,1
FHI,1
Meyer Corporation,1
Kings Borough Community College,1
Lincolnshire Fire Dept,1
California Dept. of Corrections,1
Dillards,1
Calpine Corporate,1
The Boston Consulting Group,1
General Revenue Corporation,1
Duda Farm Fresh Foods,1
Action Battery Wholesalers,1
C.R. England,1
montgomery assembly of god,1
LPA INC,1
Medcor,1
Schenectady's ARC,1
Cryomech,1
U.S. Postal Service,1
Franklin Templeton,1
Hurley Companies,1
Silicon Valley Bank,1
Sungard,1
Winchester Recreation,1
Pampa regional medical center,1
Local 103,1
west coast ambulance,1
TD Bank,1
Wal-Mart,1
Mels Drive In,1
Diakon Wilderness Center,1
Eagle Alliance,1
Graves Dougherty Hearon and Moody,1
Covenant Transport,1
Temple University Hospital,1
"Computer Integration Technologies, Inc.",1
Sharp Healthcare,1
"NEPC, LLC",1
university of Maryland,1
Northrop Grumman Corp,1
Accenture,1
OhCal Foods LLC ,1
valley health,1
COIL TUBING SERVICES,1
"Adhesive Products, inc",1
Flairsoft,1
Thompson Automotive,1
ADP Dealer Services,1
Golds Gym,1
Mozilla,1
City Of Lubbock,1
City of Sioux Falls,1
Warren Hospital,1
Kenney Steel corp,1
Red Bank Veterinary Hospital,1
AFTCT,1
Brooks Automation,1
The Cirignano Limited Partnership #2,1
"Otsuka America Pharmaceutical, Inc.",1
USPS,1
John E. Phelan  PA,1
"Ernst & Young, LLP",1
Fast Undercar,1
cardinal,1
T-Mobile,1
Bayad Home Care Specialists,1
"Sensiba San Filippo, LLP",1
Metro PCS,1
Horizon NJ Health,1
Capps Ag Center,1
University of Miami,1
JMP Securities,1
Enfield Packing Plant,1
Felician College,1
Summit Medical Group,1
"California State university, Chico",1
State of California (Secretary of State),1
sprint communications,1
Spartanburg Regional Medical Center,1
US Navy Norfolk Naval Shipyard /FMB 950,1
SmartDrive Systems,1
Livenation Ent.,1
Berry Plastics,1
Macys,1
Turner Broadcasting,1
State of Alabama,1
Southwest Am5bulance/RuralMetro,1
The Collegiate School,1
Toyota Sunnyvale,1
DJO,1
Pittsburgh Logistics,1
MCG Electronics,1
Tops Engineering,1
Verizon Comm ,1
Swagelok Company,1
reynolds transport,1
Torgo Management,1
"Lichten & Liss-Riordan, P.C.",1
Select Comfort,1
King Retail Solutions,1
"Ricardo, Inc.",1
Mt Hood Skibowl,1
Loomis,1
North Schuylkill School District,1
Tobias Technology,1
CH Designs,1
mark dunning industries,1
LAYTON MANUFACTRING,1
Endeca Technologies,1
US Dept Of Treasury,1
InfoQuesT Technologies,1
HLC hotels inc,1
mccarley construction,1
Farmers Insurance ,1
Comcast Cable,1
Continental inc.,1
Pearson Learning Solutions,1
AREVA,1
Schneider Logistics ,1
Clark County Nevada,1
pep boys,1
Whitman Financial Services,1
southernair,1
Aegis Medical Systems,1
new york sports club,1
Sharp HealthCare,1
Department of Veteran Affairs,1
J.Crew,1
TC Global,1
Kuakini Medical Center,1
Vis-Home,1
air force,1
ISO,1
Phillips Plastics,1
First Consumers Financial LLC,1
postal service,1
Harris County Constable Pct 4,1
Geico,1
"southwest securities,inc",1
alabama state docks,1
"Hamilton, Brook, Smith & Reynolds, P.C.",1
Fresenius Medical Care,1
Statye of Michigan Dept of Corrections,1
Us Army,1
Energy Developments Inc,1
NISCAYAH,1
sierra army depot,1
"Opnext, Inc",1
State Of Nevada,1
Trinity Mother Frances,1
Advertising Specialty Institute,1
Capital One Bank,1
Detroit Medical Center,1
Seattle Metropolitan,1
Liberty Packing Company,1
Creative Designs Intl,1
NTV International Corp.,1
IL Dept of Correction,1
Chartis Insurance,1
Prince William County Schools,1
Rome Medical Group,1
Medicity,1
Central Intelligence Agency,1
Kelly Paper,1
"Ruby Tuesday, Inc",1
Consumer Track,1
obara corporation,1
The Ritz-Carlton South Beach,1
UTHSC,1
Hadlock Law Office,1
Alston & Bird,1
FedEx Express,1
us postal,1
Devon Manor,1
Bill Batemans Bistro,1
DC Welding,1
Million Air Moses Lake,1
holler honda,1
Sir Spa,1
Clear Water Car Wash,1
Self-employed,1
Lab Corp of America,1
"Adams, Hoefer, Holwadel & Eldridge",1
Raytheon ,1
M&D Supply,1
DCP Midstream  Inc,1
Flextronics RTS,1
Diversified Media Enterprises,1
Bristol Bay Area Health Corporation,1
West Pharmaceutical Services,1
UBS,1
American Packaging Corporation,1
Pita Jungle,1
agi media,1
"Shefsky & Froelich, Ltd.",1
Columbus Data Services,1
Stratford School,1
sigma aldrich,1
The State of New Jersey,1
Gallagher Benefit Services,1
Red Blossom,1
"Long Term Care Partners, LLC",1
Gold coast hotel and casino,1
Promedical,1
Virginia Farm Bureau,1
Jacobs Engineering,1
School District Of Hillsborough County,1
Masco Contractor Services West,1
First Assembly of God,1
US Department of the Treasury,1
SB New York,1
BADGER METER INC,1
Exhibit Group ,1
Bumble Bee Seafood,1
Percy Hoek Inc,1
MECHANICS BANK,1
ESPN,1
Cook Childrens Medical Center,1
Southwest Airlines,1
Lowes,1
AAA Batery Service,1
4Wall,1
University of California,1
Illinois State Police Forensic Services,1
Baxter Healthcare,1
Halliburton,1
Hilton,1
city of tyler,1
Hennes and Mauritz,1
Rite Aid,1
Rabobank NA,1
lowes home improvement,1
steve madden,1
CEAVCO Audio Visal,1
"Raul J. Herrada, M.D., P.A.",1
McTeam Investments,1
Mercy Medical Center CHW,1
Deloitte Consulting,1
Church and Stagg,1
Proctor and Gamble,1
Wooster Country Club,1
City of New York,1
Nypro Inc,1
Apostolic Nursing Home,1
Ed Rinke Chevrolet,1
Humand Resources Command,1
leggett & platt,1
yorkville physical therapy,1
AHERN RENTALS,1
UPMC Presbyterian Shadyside,1
Carpenters Union 22,1
Donahue Law Group,1
Humana Health Insurance,1
state of michigan,1
EMR Co,1
Walgreen Co.,1
Village Toy Shop,1
PNW BOCES,1
Grandview Marketing,1
starks timber processing,1
"Washington, DC Law Firm",1
Broadview Security,1
Kyocera Industrial Ceramics Corp,1
Clovernook Health Care,1
Wilkinson Pharmacy,1
UBS Investment Bank,1
German Motors,1
Southern California Edison,1
PNC BANK,1
Edwards Lifesciences,1
"Maxwell-Kates, INC",1
Los Angeles County,1
florez bar and grill,1
American Bank,1
Allegheny Podiatry Assoc,1
Acs,1
Oakley,1
"D. E. Shaw & Co., L.P.",1
SpiritBank,1
Sanden,1
WIMM Labs,1
"Singer, Trayor & Scholefield",1
Computer Associates,1
AECOM Engineering,1
other,1
Michigan Air National Guard,1
Round House Theatre,1
Longwood MRI Specialists,1
CUSTOMS AND BORDER PROTECTION,1
Integratechs,1
Deloitte Services LLP,1
CONNORS AND SULLIVAN ATTORNEYS AT LAW PLLC,1
Audio Images Int.,1
Receivable Control Corp.,1
abrasive technology,1
Shaw Environmental,1
"Rockwell Collins, Inc",1
"Dayton Freight Lines, Inc.",1
hess ready mix inc.,1
Department of Public Social Services,1
VI DataPrint  LLC,1
Merrell Apparel,1
Target Corporation,1
The Valley Hospital,1
westcoast ambulance,1
Quality Custom Distribution,1
stonehambank,1
Comm of VA-LTD,1
"Coym, Rehmet & Gutierrez Engineering, LP",1
Avista Healthcare,1
TEKsystems,1
Scranton Fire Dept,1
ISAC,1
national reprographics,1
Childrens Memorial hospital,1
"Professional Risk Planners, Inc",1
SPX CORP,1
ABSG-Lash Group,1
"PAML Pathology Assoc. Medical Labs,LLC",1
City of Mesa,1
WORTHINGTON FORD,1
James Mikula D.D.S,1
AEP,1
NBCI DOC,1
DEPT. OF HUMAN SERVICES,1
Dept of Veterans Affairs,1
Hunter Financial Group,1
El Camino College,1
Pathology Associates Medical Laboratory,1
HSBC,1
"Intrepid Capital Management, Inc.",1
McCook Cold Storage,1
Famima,1
Village of Mt Prospect,1
Campus Apartments Inc,1
24 hour fitness,1
State Teachers Retirement System of Ohio,1
Guardian,1
Communications & Power Industries Inc.,1
Tom Tom,1
Forever Living Products,1
Direct Mail Source inc.,1
Johnstown Police Department,1
Mighty Fine ,1
Ombligo,1
kl distributor,1
CBIZ Special Risk Insurance Services,1
Quinsigamond Community College,1
Boys & Girls Club of Greater Baton Rouge,1
M-DCPS,1
The Bank of Harlan,1
home tailor,1
City/County of San Francisco/SFMTA,1
WorkforceLogic,1
brian press,1
NYC Department of Environmental Protection,1
State of Illinois,1
XEROX,1
doublehplastics,1
Liebovich Bros.,1
The Rockefeller University,1
Spa 23,1
Trace Pheasantry Inc.,1
Library of Congress,1
Greg Peitz Architect,1
Rasmussen College,1
Pizza Hut,1
SolarWave Energy Inc,1
Crothall,1
General Atomics,1
Schuff Steel Co,1
AXA Equitable,1
CREDO,1
"Knapp I.T., Inc.",1
CREATETHE GROUP,1
C & B Sales and Service,1
LSUHSC-S,1
Curtis Lumber,1
Cardiology PC,1
Antelope Valley College,1
Goldman Sachs,1
Seton Medical Center,1
Kona Grill,1
Dow Chemical,1
KENALL MANUFACTURING,1
Sun Coast Police Benevolent Association,1
camden city police,1
Rent A Center,1
sorrell dev,1
Movement Strategy,1
"Maranatha Stone, LLC",1
Willard City Schools,1
EOS CCA,1
Quality Foods LLC,1
Contemporary Jewish Museum,1
Gavekal Capital,1
scott roofing company,1
Jackson Health System,1
Fulton County Hospital,1
S E C U,1
Sepracor,1
Shelly BMW,1
Bay Bioanalytical Laboratory,1
acme truck line inc,1
"PROCEED, INC. ",1
The Hain-Celestial Group ,1
Publix Supermarkets Inc.,1
MANAHATTAN ORTHOPEDICS,1
Jim carpenter,1
Department of State,1
Starbucks,1
NEW YORK LIFE INVESTMENT MGT,1
System One (Westinghouse),1
Sundance Institute,1
CarMax Auto Superstore,1
Miami Dade PublicLibrary System,1
Christus Santa Rosa,1
Sapien LLC,1
Stateof Connecticut,1
"Nu-Way Transportation Services, Inc.",1
first Transit,1
hartford fire dept,1
The Gambrinus Company,1
jesses pizza,1
Northwestern Univ,1
"Jon J. McMullen, P.S.",1
Avid,1
Chartis Insurance ,1
"Walmart Stores, Inc.",1
KPMG LLP,1
FASTAFF,1
CFM,1
Pinal County Adult Probation,1
XAL Inc.,1
Sears Holdings Corporation,1
federal express,1
Comprehensive Health SErvices,1
Cox Radio,1
Appalachian Electronic Instruments Inc.,1
Production Resource Group,1
Biola University,1
D and S Ltd,1
Baltimore County Public Library,1
SecTek,1
US Citizenship and Immigration Services,1
Cooley LLP,1
Coachella Valley Unified ,1
oparc,1
fil-mor express,1
Travelers Insurance,1
RDK,1
AMSEC LLC,1
KEELING COMPANY,1
The W Hotel San Diego,1
Mol America Inc. ,1
Williams Benator  and  Libby LLP,1
DCG Precision MFG,1
Fairwinds International,1
susquehanna international group,1
Builders FirstSource,1
ConSol,1
"Drs. Scott, Watson, Miller, & Berdy",1
texas roadhouse,1
Drug and Alcohol Testing Compliance Serv,1
Department of Veteranss Affairs,1
jacobs constructors,1
Internetwork Expert  Inc.,1
Market Basket,1
Rails Dog LLC,1
Bank of New York Mellon,1
Glendora Digestive Disease Institute,1
KubickiDraper,1
Buchanan Ingersoll & Rooney,1
Lenox Hill Radiology  and  Medical Imaging  P.C.,1
city of white plains,1
Stirling Elementary ,1
CLAY'S RECOVERY,1
Metropolitan Community College,1
PRN,1
Permanente Medical Group,1
IMS Health,1
Xcentric,1
T3 Corp,1
city of hillsboro,1
Sungard Availability Services,1
Doublepark LLC,1
Kenny Construcion,1
Ernst & Young,1
Gerdau Ameristeel,1
Calloway Labs,1
Pasco Fire and Safety,1
New York Presbyterian at Columbia,1
VISALIA CYCLERY,1
Abbey Glen Pet Memorial Park,1
IRS,1
GSI,1
Glaucoma Center,1
ISD #11,1
"Sorenson Communications, Inc.",1
Madison Company,1
Vicon Motion Systems,1
Eagle Investment Systems,1
Hanson Distributing,1
Buttonwood Hospital of Burlington County,1
Cherokee County BOC,1
SYSCO VENTURA,1
mncppc,1
Milton J Wood Fire Protection,1
German Vehicles Service,1
ResMed,1
bank of hawaii,1
J & N Auto,1
Louisiana State University,1
Idealist.org,1
Memorial Sloan-Kettering Cancer Ctr,1
Ambulance,1
Sunham Home Fashions,1
Ellerbe Beckett an AECOM Company,1
First Baptist Church,1
Exempla Health Care,1
Things Remembered,1
Northwestern Univerity,1
RR Donnelley,1
Capital One bank,1
"Impact Technologies, LLC",1
Horst Insurance,1
Moe Quality Enterprise,1
WITTMAN ENTERPRISES,1
RRI,1
Baker Victory Services,1
Backstage Employment,1
fire department city of new york,1
Bellevue manufacturing ,1
Phizer,1
The Home Depot,1
Lens Crafters,1
NYPD,1
Radvision,1
Monarch Dental,1
Neurology Center of Carolinas,1
Issaquah School District,1
career colleges of america,1
Fayette County Board of Education,1
Worktopia,1
CitiGroup,1
Florida Community Bank,1
New York Civil LIberties Union,1
Astronics DME,1
P3S Corp,1
Fast Food Enterprises,1
E-Power Inc,1
DELL,1
meadwestvaco,1
101 restaurant,1
INSTAP Academic Press,1
Frys Electronics,1
Boone County Prosecutors Office,1
Colorado Education Association,1
GSI Commerce Inc,1
"FriendFinder, Inc.",1
Red Lobster,1
Dr. Shane McDowell,1
"University of Nevada, Las Vegas",1
CMT,1
US Postal Inspection Service,1
Federal Reserve Bank of Philadelphia,1
Stark Electric Inc,1
Joel Sanders Architect,1
Insignia Environmental,1
Division 9 Flooring,1
Veolia Transportation,1
Netbase,1
sport clips,1
X-Factor Communications,1
Albert Einstein College of Medicine,1
Alta bates summit hospital,1
Washington Center For Dentistry,1
Enterprise rent a car,1
19th Circuit State Attorney's Office,1
Netezza Corporation,1
ARPC,1
T. Marzetti Company,1
Ameresco,1
Maritz Inc.,1
RBC Wealth Management,1
State of Utah Trust Lands Administration,1
TekSystems,1
Polk County School Board,1
safavieh,1
LG Realty Advisors,1
UNITED STATES POSTAL SERVICE,1
international paper,1
Deer Park Schools,1
Government Liquidation,1
CMC,1
Saint Louis University,1
preferred office products,1
Keenland Incorporated ,1
pnc bank,1
LTC Inc.,1
Colliers International,1
DC Superior Court,1
sutherland global services,1
Reed Trucking,1
United Sates Air Force,1
Pep,1
Delta Group,1
Orange County Public Schools,1
The Kroger Co Fred Meyer Jewelers,1
Mindtech Consulting,1
Vector Marketing,1
SunBridge Healthcare,1
omgeo llc,1
Gaming Laboratories International,1
DCF,1
Simon & Schuster,1
Apollo Pools Inc,1
Federal Reserve Bank of Chicago,1
united states army,1
Generac,1
PartsSource Inc,1
General Pacific Building maintenance,1
Shaw Industries,1
Merced City School District,1
Rosenberg Kolb Architects,1
Grove Hill Memorial Hospital,1
SEIA,1
Patrick Buick GMC,1
State of arizona,1
Capital One Financial Corporation,1
Neiman Marcus,1
Barton Health,1
PJR Enterprises,1
County of Marion,1
Rutgers University,1
San Antonio Spurs LLC,1
PPMM,1
Nice Ventures,1
Clovis Capital,1
Orgill,1
GE / NBC / Universal,1
"Attorney James Golden, Jr.",1
Telesoft Corp,1
"Gardens Alive, Inc",1
High Point Treatment Center,1
Angeno's Pizza & Pasta,1
Oracle,1
Jordan Ford LTD,1
Black Box Network Services,1
Maricopa County ,1
Tristate-Brickface Stucco,1
Federal Bureau of Prisons,1
The Boeing Co,1
stimson lumbermill,1
FMC,1
Host Machine,1
GTECH,1
Waubonsee Community College,1
Louisiana State Univerisity,1
Kaiser Permanente Medical Center,1
Holland Hart LLP,1
Young Israel of Sunnyside,1
Stargate Studios,1
Direct Brands,1
Belt Railway,1
BJs WholeSale,1
golden state foods,1
City of Newburgh,1
Plymouth Canton Community Schools,1
CoStar Group,1
Schindler Elevator,1
Orrick LLP ,1
Saint Anthony's Medical Center,1
honeywell int.,1
Diageo-Guinness USA,1
US Army Intelligence Command,1
Nelson Tractor Co.,1
Lone Mountain Ranch,1
Springer Publishing Company,1
Chukchansi Gold Resort  and  Casino,1
URS Corp.,1
DSHS SPECIAL COMMITMENT CENTER,1
ValleyCrest,1
"T-Systems North America, Inc.",1
Village Podiatry Centers,1
ThinkEquity,1
Hamilton Co Sheriff Dept,1
The Catholic University of America,1
Scientific Drilling Int. ,1
St Luke's Roosevelt Hospital,1
Eli Lilly USA,1
Swirl Inc,1
"Kawerak, Inc",1
RANSTAD,1
ACE USA,1
HFN,1
Comcast Corp,1
Montgomery County,1
WARNER ROBINS AIRFORCE BASE,1
Kingston Schools,1
dept. of home land security,1
dawn,1
"Safeway, Inc",1
Geico ,1
State of New Jersey,1
Vericrest Financial Inc,1
heb company,1
PSCU Financial,1
"MOTOROLA, INC.",1
Investor Analytics,1
SIXTH AVENUE ELECTRONICS,1
The Roosevelt Hotel,1
HealthSpring of AL,1
EPL  Inc.,1
Wiley,1
metropolitan elevator service,1
Fonseca McElroy Grinding,1
CBNA,1
TommyJ's,1
Bare Escentuals,1
Listen Inc.,1
MHMRA of Harris County,1
Covidien,1
Yes,1
US Marines,1
Bureau Of Land Management,1
Yelp,1
Quik Trip,1
American Seafoods Co LLC,1
State Farm Insurance,1
washington radiology associates,1
Advanced Radiology,1
Dentium USA,1
Farmers Insurance,1
MAPLEWOOD BEVERAGE PACKER LLC,1
Valor Security Services,1
los angeles unified school district,1
carrige house inc. co.,1
Hannaford supermarket,1
beavex,1
Alameda County Sheriff's Office,1
Caramel sml inc,1
Richland County School District One,1
quiet winter farms,1
Everest College,1
Ally Financial Services,1
Thomas Publishing,1
Los Angeles Unified School District,1
MFS Investment Management,1
Dr. Bott LLC,1
thomas phifer and partners,1
Urban Health Plan,1
the Brearley School,1
"Packard, Inc",1
Logan Center,1
US Border Patrol,1
pnc investments,1
Google,1
BB&T,1
visionpro communications,1
Sagacious Contultants ,1
City of Tucson,1
NRI,1
Transportation Commodities Inc.,1
USR,1
F.M.Howell and Co.,1
Bloom Energy,1
Shades Crest Baptist Church,1
Archbishop Molloy High School,1
Bulletin News LLC,1
Staples,1
Hospital of Saint Raphaels,1
Davis Miles,1
Methodist Richardson Medical Center,1
Indigo Arc LLC,1
KPMG ,1
Lightning Trading,1
STG inc,1
vally view nursing home,1
Norwich Pharmaceuticals,1
Norgenix,1
City of Phoenix,1
The MITRE Corporation,1
County of Sacramento (SETA),1
G.S Curran  and  Company  Ltd.,1
ibew local union #3,1
High Tech High Chula Vista,1
Lubrizol,1
norfolk southern railway,1
"Shercon, inc.",1
U.S. Navy,1
Edens Corporation,1
Monmouth Medical Center,1
greg bailey enterprises,1
lgp gem ltd,1
Journey christian Church,1
Penn Presbyterian Hospital,1
Atlantic Brain  and  Spine,1
City of Minnetonka,1
HCSO,1
MillerCoors,1
Evergreen Gardens,1
dennys restaurant,1
self-contract labor,1
Imaging Center Network,1
SUWANNEE FARMS LLC,1
Covenant House,1
INFOCUS FINANCIAL ADVISORS INC,1
Banner Health-Sonora Quest Labs,1
Hewitt Associates,1
ICAP,1
RW3 Technologies,1
Davis Polk,1
Mentor Graphics Corporation,1
Baker Furniture/Kohler Interiors,1
wachovia,1
Los Angeles Police Department,1
Logiaticare,1
Hampton VAMC,1
Aurora Multimedia,1
Sunbelt Rentals,1
Evergreen Unified School District,1
The Wistar Institute,1
Saint Mary's Hospital,1
DEPECHE MODE,1
Red Robin,1
Ally Bank,1
Mace Polymers and Additives,1
Netjets Aviation Inc.,1
edmc,1
Town of montague,1
SOS Staffing,1
