,emp_title
US Army,13
US Navy,8
Bank of America,7
Walgreens,7
Kaiser Permanente,6
GEICO,5
UPS,5
USAF,5
United States Army,4
Wells Fargo,4
Southern California Edison,4
us army,4
JP Morgan Chase,4
Barclays Capital,4
Target,4
AT&T,4
Verizon Wireless,4
US Postal Service,4
Frito Lay,3
United States Marine Corps,3
McKesson Corp,3
Lockheed Martin,3
TIAA-CREF,3
at&t,3
home depot,3
US ARMY,3
JPMorgan Chase,3
Enterprise Rent-A-Car,3
IBM,3
Northrop Grumman,3
US Government,3
Swedish Medical Center,3
Xerox,2
Red Lobster,2
Texas A&M University,2
ADP,2
United Parcel Service,2
Booz Allen Hamilton,2
PNC,2
Quest Diagnostics,2
Cablevision,2
FAA,2
GE Healthcare,2
KPMG LLP,2
Raytheon,2
PNC Bank,2
General Electric,2
State of Michigan,2
Sikorsky Aircraft,2
State of California,2
School District of Philadelphia,2
Schlumberger,2
lausd,2
Morgan Stanley,2
Dept of Defense,2
Air Force,2
Jones Lang LaSalle,2
Union Bank,2
Boston University,2
United Airlines,2
U.S. Army,2
Fedex Express,2
Wal-Mart,2
Internal Revenue Service,2
Deutsche Bank,2
FEDEX,2
Abbott Laboratories,2
IRS,2
US Air Force,2
Sprint,2
Wells Fargo Bank,2
Meetup,2
American Heart Association,2
Whole Foods Market,2
wellsfargo,2
Bechtel,2
WELLS FARGO BANK,2
"Walmart Stores, Inc.",2
Department of Homeland Security,2
Travelers,2
USAA,2
albertsons,2
UPS Freight,2
Bouchon,2
FBI,2
Marathon Petroleum,2
US Coast Guard,2
T. Rowe Price,2
Siemens,2
New York Presbyterian Hospital,2
Fifth Third Bank,2
Federal Aviation Administration,2
Department of Justice,2
Fairfax County Public Schools,2
Walmart,2
City of Chicago,2
University of Rochester,2
Chase,2
Capital One,2
Bank Of America,2
Clearwire,2
wal mart,2
GE Capital,2
U.S. Postal Service,2
Home Depot,2
Duke Energy,1
Community Transit,1
CDI Corporation,1
USDA - Food and Nutrition Service,1
Mandarin Oriental Hotel Group,1
pelican products,1
weidner architectural signage,1
"Oklamotive, Inc",1
Associated Acc International,1
BNSF Railway,1
Earthlink,1
Nashville High School,1
"Performance Technologies, LLC",1
Elliott  Electric  Service ,1
Omabuild,1
OMNI BERKSHIRE PLACE HOTEL,1
Situation Interactive,1
Budget Rent A Car,1
Verint Systems,1
Insurance Group,1
Hawaii Electric Light Company  Inc.,1
Triton Digital,1
Advantus Capital Management,1
NCSBI,1
J & R Schugel,1
Design Interiors/Tampa Wholesale Furnitu,1
North point Volvo ,1
Allcare Medical,1
United Hospital Center,1
Burlington Coat Factory,1
Forever Living Products International,1
Software Theoretic Corp,1
delta dental of mi,1
Civil Service - USAF,1
i.l.a,1
Bloomingdales,1
"Branch Properties, Inc.",1
Eastchester UFSD,1
USAF ,1
Terumo Cardiovascular,1
Martz Group,1
South Salt Lake Police,1
The World Bank,1
TOM THUMB,1
Wells Real Estate Funds,1
Fifth THird Securities,1
zeno office solutions,1
Burleson ISD,1
Screenvision Direct,1
HC2 Inc.,1
Disney,1
"Poolboss Company, Inc.",1
Devonshire Real Estate,1
Ascension Parish School Board,1
Franciscan St. James Hospital,1
bloomberg Lp,1
stop and shop,1
"opdyke gas station,inc",1
Chiotle Mexican Grill,1
"M&T Insurance Agency, Inc. ",1
Transportation Security Administration,1
Brisge Step Llc,1
ePlan Services Inc,1
San Bernardino County Sheriffs Dept,1
American Lake Credit Union,1
Smithfield Foods,1
Capital Markets,1
Kmart,1
The UPS Store,1
National Jewish Health,1
Vogel Plumbing,1
Standards of Excellence,1
"Ria Guzman, D.D.S.",1
Donovan Hatem LLP,1
Cy Fair Independent School District,1
Curtiss Wright Controls,1
UPF Services LLC,1
Fresenius Medical Care,1
R&L Carriers,1
"McCarthy, Inc.",1
Science Applications International Corp,1
Inserra Supermarkets,1
Thomson Reuters,1
Quail Tools,1
Trinity Management Services,1
MOL AMERICA INC. ,1
Greater Lawrence Technical School,1
Westside Oral Surgery,1
Dallas Police,1
Central California Athletics,1
ZIMFA INC,1
champlain coummunity services ,1
Social Security Administration,1
Malloy Ford,1
market street inn,1
Tad Pgs,1
Linkshare Corporation,1
Cn Railroad,1
grassland power equipement,1
beth israel hospital,1
Publix Supermarkets,1
University of Utah,1
SLAC National Accelerator Labratory,1
Cairo-Durham High School,1
Town of Tarboro,1
Cypress woods,1
Platinum Group of Companies,1
"CITIBANK, N.A.",1
Jacob  Medinger  and  Finnegan LLP,1
General Dynamics,1
"Tomblin Farmer & Morris, PLLC",1
Us government,1
Hyundai Capital,1
Court Services and Offender Supervision ,1
Grady health system,1
"Western Wayne Physicians, PLC",1
Union Pacific ,1
HEB Grocery,1
The Willows Community School,1
ALLIANCE ENERGY,1
NC Department of Crime Control & Public ,1
Orly International,1
Bubba Gump Shrimp Co,1
Hospital For Special Surgery,1
colon and digestive health specialists,1
University of Washington Medical Center,1
Leandog Inc,1
Park Nicollet Health Services,1
Crestview Retirment Community,1
American General Life and Accident,1
"Lusk Services, Inc.",1
Clark County School District,1
monumental life ins,1
Cape Fear Community College,1
International Coffee Corp,1
Texas Inpatient Consultants,1
Clemens Bruns Schaub Architect,1
Bed Bath and Beyond,1
Alliance Data Systems,1
AIG American General,1
Grand Rapids Public Schools,1
Queens College,1
Midwest Sports medicine,1
Liberty Mutual,1
Ace Hardware Corporation,1
Disabled American Veterans,1
City Of midland,1
FleetCor,1
Galliano Marine Services,1
Pricewaterhouse Coopers,1
Paradise Hospitality Group,1
Christ hospital,1
HNW,1
effone software inc,1
interstate elec.,1
Apple,1
ING Direct,1
Cherokee Nation ,1
Wilmette Park District,1
sunchemical,1
Citizens Bank,1
Sanford Burnham Medical Research Inst.,1
ADESA Auto Auctions,1
Chrome Deposit Corperation,1
jetBlue Airways,1
"BMC Software, Inc",1
"Scheduling Consultants, Ltd.",1
Mimeo,1
Unisys Corporation,1
Sam's Club,1
Dave Felder & Associates,1
V4H,1
KINDRED HEALTHCARE,1
New York Life Insurance Co,1
Department of Defense,1
rmc,1
USA4SALE,1
Marel,1
Matteson School District 162,1
Universal Forest Products,1
St. John Properties,1
American Public Power Association,1
Multiband,1
Berean Group,1
Heywood Hospital,1
St. Jude Medical ,1
Girl Scouts of Greater Los Angeles,1
The Profission Partnership,1
Sprint Nextel,1
aris inc,1
Community Psychiatric Institute,1
Modis,1
Batavia Public Schools,1
Varian Medical Systems,1
covanta energy,1
MESA VISTA OF BOULDER,1
whiting-turner contracting co.,1
All Trade Inc,1
Heath Tecna,1
"Projections, Inc.",1
Infosys Limited,1
Tri-Ed Distribution,1
NiSource,1
Walgreens Help Center,1
Dosa Fillmore,1
CRICO RMF,1
American Express Company,1
Nevada Department of Corrections,1
Walmart Distribution Center,1
Quality Hearing Instruments LLC,1
VCUHS,1
"Orrick Herrington & Sutcliffe, LLP",1
Best Best & Krieger,1
Tetra Tech,1
Newbury Park Vision Care,1
westfield eye center,1
Park Nicollet Methodist Hospital,1
port jefferson unionfree school district,1
Cigna Healthcare,1
Halliburton Oilfield Services,1
Sylacauga City Board of Education,1
Stanford University,1
City of Cincinnati,1
holmes auto repair,1
american furniture warehouse,1
marvell technology group,1
BOBS DISCOUNT FURNITURE,1
marymount school,1
"Old Dominion Freight Lines, Inc.",1
United parcel service,1
Arthur J. Gallagher & Co.,1
Cannon Design,1
hunt military communities,1
Novis Pharmaceuticals.,1
Art Institute of Chicago,1
industrial economics inc,1
Spokane Falls Community College,1
renaissance hotel,1
Southview Cardiovascular Associates,1
Rialto unified School District,1
YRMC,1
Assurant Health,1
Big Girls Bras,1
Finiti Inc.,1
ZBI,1
GE MDS LLC,1
San Francisco Superior Court,1
oakwood rehab and skilled nursing,1
"Triple A Containers, Inc.",1
Bibb County Sheriff Office,1
The Segal Company,1
Burt Wealth Advisors,1
Liquid Realty ,1
CPC Logistics,1
WEOKIE CREDIT UNION,1
Bank of Santa Clarita,1
jp morgan chase,1
Formisano Bakery,1
Miami Dade Transit,1
ITC/Emerchant Club,1
Kennedy Health Systems,1
Amerigas,1
CareFusion LLC,1
Media News,1
Danya International,1
TX Dept of Insurance,1
UNION PACIFIC RAILROAD,1
pechanga hotel & casino,1
WC Operations,1
"Citibank, N.A.",1
Ryans Drive-Thru Cleaners,1
City of Roseville,1
Chase Bank,1
HealthSource Chiropractor,1
California Society of CPAs,1
Rayonier,1
Department of Veterans Affairs,1
Yazaki North America,1
THB Intermediaries Ins.,1
"Avenue Web Media, LLC",1
"Watt, Tieder, et al.",1
"Rewatchable, Inc.",1
Dore Academy,1
Armed Forces Academy Bank,1
"Intransa, Inc",1
Upson Women's Services,1
L'oreal,1
Pfizer,1
Truevance Engineering,1
UT Southwestern/Neuroscience,1
Maggianos,1
Verizon Corporation,1
Dyncorp International,1
Energy Service Co.,1
"TD Bank, N.A.",1
Xcel Energy,1
CareFusion ,1
Archway Marketing Services,1
"Wal-Mart Stores, Inc.",1
State of Hawaii,1
Cummins Power Generation,1
Right at School,1
UNISYS,1
VA Medical Center,1
The Jersey City Public Schools,1
Palmateer Insurance,1
Minnesota Premier Publications,1
allied barton,1
Touro College,1
Alliance Residential Company,1
ES Robbins,1
Consulate General of Italy,1
Texans for Todd Staples,1
Tesla Motors,1
Societe Generale Investment bank,1
American Auto Matrix,1
NYC Department of Education,1
TEK Systems,1
Staples,1
Physicians Reference Laboratory,1
United Steelworkers,1
First Baptist Church of OB,1
ASE,1
"Maxine, Ltd. ",1
Speedee Cash Managment,1
Lucky Branded Entertainment,1
Metrics Marketing,1
"Golden State Reel & Crate, Inc.",1
Cargill,1
Splice,1
Eldred CSD,1
St. Louis County Police,1
"Buckman-Mitchell, Inc.",1
Riverside County,1
Johnson County,1
Charlotte pipe& foundry,1
Ohio State University Medical Center,1
Corporate Investors Mortgage Group,1
"SPM, LLC",1
Cajun Iron Workers,1
HCA,1
st. louis county police department,1
"Vanderlans & Sons, Inc.",1
HME Construction Inc,1
KAISER PERMANENTE,1
Citigroup,1
Diamond Pump and Transport,1
Siemens Healthcare,1
C.H.I.,1
Artech Information System-IBM Contractor,1
ACTS RETIREMENT-LIFE COMMUNITIES,1
THE BERKSHIRE BANK,1
Reliant Energy,1
Cobham Composites,1
CCH a Wolters Kluwer business,1
St Ives Country Club,1
BNA,1
midas,1
U.S Customs and Border Protection,1
The SportsAuthority,1
Dept Of Homeland Security,1
Seacoast Motors,1
Alpha Omega Hospice,1
MVH,1
John Hancock,1
MORNING STAR FOODS,1
Finger Lakes DDSO,1
Miami Dade College,1
Hostess Brands,1
Consensus Inc.,1
Grant Thornton LLP,1
Harrahs Entertainment,1
cash acme,1
"Teletrac, inc",1
RAFFERTY SUBARU,1
New York City Human Resources Admin.,1
Weiss Special Operations,1
"Alms & Associates, Inc.",1
Medsynergies Inc,1
Life Technologies,1
Averro inc.,1
OCEAN COUNTY PROSECUTORS OFFICE,1
Information Controls,1
Hitachi,1
social security admin,1
BASF Corporation,1
FIRST RF Corp.,1
plan & print systems,1
Arkansas Heart hospital,1
City of Livermore,1
Quaker Sales and Distribution,1
cal-trans,1
APlus Net Solutions,1
Wren Solutions,1
"Russ Hadick & Associates, Inc",1
Friars of Atonement,1
Allied Refrigeration,1
CORDOBA MUSIC GROUP,1
US Postaql Service,1
Goodhue County,1
costco wholesales,1
"Webster Bank, N.A.",1
Toms River Regional Schools,1
Petz enterprises,1
Arkansas Department Of Correction,1
Mount Rogers CSB,1
Rensselaer,1
Medical Specialties Distributors,1
Krafts,1
Moncrief medical home,1
Village of Schaumburg,1
SPY-TECH,1
Financial Firm,1
Mallah Furman ,1
Amedisys,1
Phoenix Health System,1
LIFE TECHNOLOGIES,1
orange unifield school district,1
Onyx Specialty Papers,1
Cottles Asphault maint.,1
verizon wireless,1
Strategic Funding Source,1
Camelback Academy,1
X sport,1
"Kahala Management, LLC",1
UCLA,1
Fleming ton  Subaru,1
meraz roofing inc,1
us mortgage corp,1
Nassau Extended Care Center,1
Skyline BEC ,1
Travelong Inc,1
Sunrise Engineering,1
ShermansTravel Media,1
Multi Packaging Solutions,1
Larry Grayson Trucking,1
Cardinal Health,1
TKC Global,1
Naval Postgraduate School,1
Commonwealth Utilities Corporation,1
La Vida,1
Wyndham Vacation Ownership,1
Enterprise Strategy Group,1
Autocraft Paint & Body Works,1
Mobac Inc,1
Met Life,1
"LHK Partners, Inc",1
Drake Enterprise -Boiler Room Steakhouse,1
Gwinnett County Government,1
Atlassian,1
Melody Hereford Ranch,1
community first bank ,1
bay 101 casino,1
Simonton Windows,1
Festoon,1
T-Mobile USA,1
David Funeral Home,1
north central baptist hospital,1
"Exactech, Inc.",1
Housatonic Valley Association,1
byers superstore,1
DCFS,1
France Telecom,1
Children's Discovery Center,1
virginia auto center,1
american furniture gallaries ,1
Dominican University,1
YCOM,1
"Young Conaway Stargatt & Taylor, LLP",1
WI DOC,1
City of Battle Creek,1
Applied Materials,1
Morgan Stanley Smith Barney,1
Joe Marina,1
U.S. Government,1
Computer Troubleshooter USA,1
Friendfinder Inc,1
WeiserMazars LLP,1
San Bernardino Co. Sheriff's Department,1
heritage electric,1
Freeport McMoran,1
Agent,1
State of california,1
NOVA,1
SGW,1
"Powers Friedman Linn, PLL",1
Garden City Hospital,1
Old Rochester Regional School District,1
Dental Lifeline Network ,1
"Precision Work, Inc.",1
kik custom rpoducts,1
Ed Pickens Cafe on Main,1
Los Angeles Sheriff Dept.,1
irs,1
Juniper Networks,1
Clay County School District ,1
EAPT SOLUTIONS,1
The Walt Disney Company,1
Shinwa USA,1
Rex Healthcare,1
Parsippany-Troy Hills Board of Education,1
G4S Secure Solutions USA Inc.,1
CPS Energy,1
Abundant Life Outreach Center,1
Bozeman Deaconness Hospital,1
veterans affairs medical center,1
"MSolutions, Inc.",1
Homeland Security (TSA),1
Seagate Technology,1
Nigel Frank International,1
Activfinancial Systems,1
illinois army national guard,1
"Munger, Tolles & Olson",1
Epiphany Management Consulting,1
Axiom,1
KY3 Inc.,1
mcmaster-carr,1
united nations,1
Allied,1
edward sparrow hospital,1
Parsons Brinckerhoff,1
bcpd,1
Mendocino County,1
Chandler Unified School District,1
shelby county schools,1
Invensys Operations Management,1
Messco Building Supply,1
Knight Electrical,1
Expert Technical Consultants Inc,1
Guardian,1
Southwire,1
Mediapoint Capital LLC(Pitchblack Games),1
Appalachian State University,1
Bashful Giraffe,1
San Diego Unified School,1
Spacelabs heatlhcare,1
Vykin,1
Johnson Insurance ,1
pepsi beverages company,1
Tony Pai LLC,1
University of Kentucky,1
carmelo policaro construction,1
Tortorici Orthodontic Lab. Inc.,1
Biscuitville,1
Leviton Manufacturing,1
OG&E Enogex,1
Piedmont Healthcare of Atlanta,1
Fidelity - HRA,1
Hyatt Vi,1
World Travel Holdings,1
NC Farm Bureau Mut Ins Co,1
State of Illinois,1
American Medical Response,1
Chrysler LLC,1
Demand Media,1
Ford Motor Company,1
Surepoint Medical,1
Satco,1
"De-Cal, Inc.",1
Undisclosed,1
"KRK Holdings, Inc",1
Greenstreet Real Estate Partners,1
RJ Byrd,1
Hospital for Special Surgery,1
USDA/NRCS,1
USA/World Plastics,1
dunkirk public schools,1
Directions for Mental Health,1
Allina Health Systems,1
Allied Auto Stores ,1
Aqua Sun Lawn and Landscaping,1
NICE Systems,1
Zenger Folkman Company,1
Cavenaugh Auto Group,1
Paston Group LLC,1
LIK Managment,1
new york city police department,1
Northwestern Mem Hospital,1
1013 communications,1
ATK,1
Fannin Regional Hospital,1
Security National Life Insurance Company,1
Cleveland Clinic,1
Levin Group,1
Jefferson Parish Public Schools,1
MillerCoors,1
"Pharmavite, LLC",1
Kingsbury Animal Hospital,1
N. C. DEPARTMENT OF CORRECTIONS,1
Costco,1
Dept. Of Rehabilitation & Corrections,1
Strayer Univeristy,1
Sacramento County Office of Education,1
U. S. Army ,1
The Fellowship of St. James,1
DoD Civilian,1
State Street,1
Kpac,1
DPSS,1
TriNet,1
Brilliance Audio,1
East side showroom,1
Pingree Grove FPD,1
Foundation Capital,1
Solera National Bank,1
FDA,1
Crow Friedman Group,1
ASN Natural Stone Inc.,1
United States District Court,1
"Xignite, Inc.",1
Tax Return Center,1
Dawn Food Products,1
lifestar,1
Camp Venture,1
RCN Telecom,1
Health Net,1
Army Air Force Exchange Service,1
Berea College,1
Prestige Dodge,1
FFF Enterprises,1
JK Harris,1
Bluewolf,1
"Toray Carbon Fibers America, Inc.",1
Unicorp,1
Safeway,1
Plant Engineering and Maintenance,1
SIEDC,1
Fiserv,1
CON EDISON,1
"Best Truck Insurance, Inc.",1
key largo marine tours,1
BIVAC Bureau Veritas,1
Chubb,1
"Aetna, Inc.",1
Allied Rehab,1
Famous Daves ,1
Innersync Studio,1
NetApp,1
Apple Growth Partners,1
forsyth board of education,1
DJO GLOBAL,1
SIERRA MADRE CONGREGATIONAL CHURCH,1
"Adapt Software Application, Inc.",1
Windham School District,1
Seacret SPA LLC,1
City of Kinston,1
lifespan,1
Saint Patrick Hospital,1
Genesis Healthcare,1
Fry Hammond Barr,1
FRANKEL &CHESAPEAKE CADILLAC,1
Axa Equitable,1
Diamond Personnel,1
County of Orange ,1
"Stratton Publishing and Marketing, Inc",1
MSSB,1
Rayovac,1
new york Air Brake,1
University of North Carolina,1
Brookings School District,1
mohawk papers,1
Favour Moore & Wilhelmsen,1
GCA Services,1
Rusk State Hospital,1
Providence Home Care,1
With A Little Help,1
EBMS,1
Terrebonne Homecare Inc,1
Tyson Foods Inc.,1
BCBSM,1
Carolinas Health Care System,1
blue rhino,1
Asplundh Tree Expert Company,1
FlatRate Movers,1
Ernst & Young LLP,1
R & R Auto Group,1
"Enterprise Products, Ltd.",1
Five Guys,1
Wyoming Valley West School District,1
ATPCO,1
Chula Vista Elementary School District,1
State of Ohio,1
Proven Direct,1
Florida Union Free School District,1
"Professional Properties Management, Inc.",1
NRG Energy,1
Killgore Pearlman Stamp Ornstein Squires,1
San Bernardino County Superior Court,1
Bellhelicopter,1
Mo Trucking,1
"EquiFit, inc.",1
Atos Inc,1
Senator Investment Group,1
Wellmark BCBS,1
FL Smidth,1
Sailfish Marina and Resort,1
Earlwood Care Center,1
Westcode Inc,1
Sports Authority,1
G4S Secure Solutions,1
cornerstone physician services,1
Macy's,1
Desert Pediatrics,1
Burberry ltd,1
Capistrano Unified,1
AXA Equitable,1
aaa cooper transportation,1
Best Buy,1
rabobank,1
STANLEY BLACK AND DECKER,1
L3 Communications,1
Kaiser Permante,1
Bay Ridge Imaging,1
PCH&S,1
City of Rock Island,1
Baker Distributing,1
GoDaddy.com,1
bridgestone/firestone,1
Quality King,1
Illinois Central School Bus,1
shaw group,1
National Basketball Association,1
Thorek Memorial Hospital,1
Federal Energy Regulatory Commission,1
Banfield Pet Hospital,1
"Wire & Cable Specialties,Inc",1
Bay Harbor Sheet Metal,1
Camino Real,1
Green Mountain Coffee Roasters,1
LEK CONSULTING,1
Eveo Communications Group,1
Roxanne Labs,1
Austin Independent School District,1
Serco,1
Insight Global,1
Citysports,1
Daffy's,1
Bayview Asset Management,1
Group W Insurance,1
Phillips Plastics,1
"Clickable, Inc.",1
HID Global,1
MadÃ©casse,1
Anvil Corporation,1
Snyder County,1
Rayco Electric Inc,1
Harbor Freight Tools,1
American University,1
Park Hill School District,1
ctl aerospace inc.,1
"Addus Healthcare, Inc.",1
PS Business Management,1
Columbia University,1
Los Angeles Film School,1
Tectura Corp.,1
Arthur J Gallagher,1
Evolution Film & Tape,1
UAB Hospital,1
AmeriFlex,1
2800 Lake Shore Drive Comdominiun Associ,1
"WorldAPP, Inc.",1
South Bay Auto Auction,1
Mt. Zion Baptist Church,1
MLB Network,1
"READER'S WORLD WHOLESALE, LTD",1
Treasure Chest Casino,1
Research In Motion,1
Halliburton,1
University of Colorado Denver,1
"ACS, a Xerox Company",1
Welborn Floral,1
Broken Sound Country club,1
Service Alternatives,1
Layton City Corp,1
sprint communications,1
cn cleaners,1
Ram Technologies,1
American Sleep Centers,1
CVS Pharmacy,1
shields blice  and  company cpa inc,1
US Grant Hotel,1
Hentzen Coatings,1
USIC Locating Inc,1
manhattan physical medicine,1
Unitrin Specialty,1
Centinela State Prison,1
"University of California, Irvine",1
Nova Southeastern University,1
sony pictures,1
sysco foods,1
Florence  and  Hutcheson Consulting Engineers,1
South Pacific Financial Co,1
LendingClub,1
Atlas Copco CMT,1
Harlem Village Academies,1
Verizon wireless,1
terminix internatioal,1
Dimensional Fund Advisors,1
New Orange Hills,1
OSCO Industries  Inc.,1
Christie Pabarue Mortensen & Young,1
Bob Barker Company,1
Pratt Medical Center,1
HealthSouth Rehab Hospital,1
Southwest Gas Corp,1
Hill Wallack,1
apa logistics,1
Buckeye Cable ,1
Florida Power and Light ,1
FLS Connect,1
shop rite,1
PR Tech LLC,1
AGFA HealthCare,1
University of Maryland,1
Canyon Design Group,1
Compupay Inc,1
Rockwell,1
Holton Food Products,1
York Solutions,1
SkyWest Airlines,1
SEI,1
Applebees,1
Lowe's Home Improvement,1
BlueCross BlueShield of SC,1
Consumers Energy,1
Premier Sale Group,1
Apple Inc.,1
Oregon Health & Science University,1
"JA Pavers, Inc",1
workman oil,1
Curated,1
Effingham County Sheriff,1
553742017,1
Genentech,1
"Groupon, Inc",1
United States Air Force,1
"Shake n Go Fashion, Inc",1
BOK Financial,1
General Motors LLC,1
United States Marine Cops,1
The Matloff Company,1
Mayo Clinic ,1
self-employed,1
Wichita State University,1
"Woda Construction, Inc",1
Georiga-Pacific,1
Webtrends,1
Girling Health Care,1
t-mobile,1
Alexander Kalifano,1
Kimberly-Clark,1
Northern Trust,1
"TeleMed, Inc",1
"Thomas Genshaft, LLP",1
Kohl's,1
Kelly Services,1
Continental Airlines,1
Legonex Inc.,1
"Bankruptcy Advantage, LLC",1
Marriott International,1
university of florida,1
Philips Medical,1
"Ryland & Merchak, P.C.",1
Interactive Financial Sols dba Solana ,1
USA Truck,1
Morgan Borszcz Consulting,1
Superior Technical resources,1
DC National Guard,1
Banner Gateway Medical Center,1
hospice,1
HealthSouth,1
Manatee County,1
Bob's Stores,1
Timmons Group,1
Securitas Security Services,1
"NIEHS, NIH",1
freudenberg,1
JMT,1
olive garden,1
Flowplay,1
Clem Schaub Architect,1
DOE/Vocational Rehabilitation Services,1
Maysville Local School District,1
Cognizant Solutions,1
Walsh Bishop Associates,1
Sierra Conservation Center,1
CIGNA HealthCare,1
Broward sheriff fire rescue,1
Holy Cross Regional Catholic School,1
Internet Brands,1
Smith Micro Software,1
Saudi Aramco,1
american pure spring water,1
Pitt County Memorial Hospital,1
Ups,1
Men on the Move,1
Embassy of Italy,1
Homeless and travelers aid society,1
Forsyth Mechanical,1
Columbia Cemetery Association,1
Blue Shield of California,1
Wolverine Machine Products Co.,1
PITTSTON HOUSING AUTHORITY,1
AG Manufacturing,1
RTKL Associates Inc.,1
Warresnburg School District ,1
"North Carolina State University, VTH",1
nyc department of correction,1
Mary Washington Health Care,1
BDE,1
Citizens Bank of Edmond,1
Ruan Transportaion,1
Ports America,1
precision collision,1
Nissan,1
Belcan Technical Services,1
L&L Parts & Repairs,1
Kirby school district 140,1
Carolina Herrera LTD,1
fairfax county public school,1
JPMorgan Chase Bank,1
disney,1
FLRA,1
Security Benefit,1
Mckesson Corporation,1
Pegasystems,1
Vive Inc.,1
ron craft chevrolet,1
MasTec Advanced Technologies,1
WHAM,1
Thoratec,1
Lindenmeyr Munroe,1
Truland Electrical,1
BERDON LLP,1
Associated Banc-Corp,1
Eastside Cannery Casino,1
brubaker inc,1
Driver,1
Prouty Company LLC,1
Citrix Inc.,1
West Virginia Department of Environmental protection,1
Vista Capiyal Management,1
American Residential Services,1
sharp grossmont hospital,1
"SAC Plastics, Inc.",1
Mercury Insurance Group,1
NYC Housing Authority,1
conagra foods inc.,1
Commercial Real Estate Firm,1
Valassis,1
"SunTrust Bank, Inc.",1
Stevenson Color,1
Albertsons,1
Bear Beach Cafe,1
Grand Street Settlement,1
Tower Automotive,1
Swimways Corp.,1
First Nat'l Bank of Williamson,1
The Bank of New York Mellon,1
Hyatt Hotels  and  Resorts,1
Weyco Group,1
BCD Travel,1
OrthoMidwest Inc,1
LexisNexis,1
William C. Smith + Co.,1
Zion Industries,1
Lakeview Subacute Care Center,1
Siemens Industry Inc,1
CNHI ,1
Cyberbest Technologies,1
Rea & Associates Inc.,1
st josephs hospital,1
Plaza Cadillac,1
Gabriel's Restaurant,1
Travelers Insurance Company,1
"ACH Foam Technologies, LLC",1
BAE Systems Norfolk Ship Repair,1
Miami Dade Corrections and Rehabilitatio,1
uncle eddie's pizzeria,1
andersonoil,1
MHHCC,1
Firehouse Tavern,1
DTCC,1
"Projecis, Inc.",1
Kone Inc,1
Trader Joe's,1
Jay syed enterprice,1
Credit Agricole Corp. Investment Bank,1
Texas Dept of Public Safety,1
Lowndes Co Sheriff Office,1
SSA,1
L.D.,1
Costco Wholesale,1
The Meltzer Group,1
The Gabbert Company,1
Occidental Chemical Corporation,1
WABC-TV,1
Tradestation Group,1
IHSS Public Authority,1
Cochran Furniture,1
ACET,1
Deutsche Bank Securities Inc.,1
Military,1
K  and  L Microwave,1
Markit,1
New Customer Service Companies,1
Doty Bros.,1
Battelle,1
Pioneer Power INC.,1
Dicey Fabrics,1
Western Digital,1
al di la trattoria,1
iron mountain,1
Alliance Industries,1
Roseville Toyota,1
"MacArtney Offshore, Inc.",1
New York Life Ins Co,1
sibcy cline insurance,1
TWIN CITY TOWING,1
Human Development Association,1
Synergy Enterprises,1
VILLAGE OF RICHTON PARK,1
PSAV - Presentation Services,1
The Ayco Company,1
NOAA Federal Agency,1
Jacobs Technology,1
graduet club,1
Joseph Richey Hospice,1
Burson-Marsteller,1
alcoa fastening systems,1
Top Care Inc.,1
Codeminders,1
Stevens Point Police Department,1
Lompoc Valley Medical Center,1
BH Trucking Inc.,1
ATEN Technology,1
Millennium Laboratories,1
OCO Architects,1
Elburn Co Op,1
Dr David Hidalgo,1
Lansdafe Title,1
DAW INDUSTRIES,1
sysco south florida,1
NYC HHC,1
Living Word Family Church,1
McConnaughy CPA,1
GLC Northcrest,1
Central Ohio Geriatrics,1
SRC Inc,1
k t feldspar,1
US Army Aviation Engineering,1
Off-Grid Electric,1
Diabetes Specialty Center,1
Computer Sciences Corporation,1
U.S STEEL,1
Dianas Bakery,1
"PORTAGE ENVIRONMENTAL, INC.",1
atlantic tomorrows office,1
Wyandot Incorporated,1
Bobby's Concrete,1
Crawford tire,1
Morgan stanley,1
Advanced Bio-Mineral Technologies,1
CVS CAREMARK,1
Group Health Cooperative,1
ga public lab,1
Siemens Energy Inc,1
Wells Fargo Home Mortgage,1
onslow memorial hospital,1
Precison Collision,1
Autoclub of Southern California,1
CORNING INCORPORATED,1
L3 Communcations C.P.S.,1
Rice University,1
Czarnowski,1
C3,1
Clean Harbors,1
"University of California, San Diego",1
new york city marshal,1
CSI MARKETING,1
costco,1
World Netmedia,1
Brady USA Inc.,1
US Signal Company,1
"First Aid Only, Inc",1
Souther california edison,1
County of San Bernardino,1
cape may county,1
Miami Valley Hospital,1
George Mason University,1
Colorado Department of Transportation,1
QW Express,1
Roadmasters,1
North Attleboro Public Schools,1
The Boeing Company,1
Arc of the three rivers,1
LIBERTY MUTUAL INSURANCE,1
Eze Castle Software,1
Marriott International ,1
Planned Parenthood of the Great Northwes,1
Braintek,1
Polychem,1
A123 Systems,1
Seven Hills RI,1
Tuckahoe police department,1
Geographic Solutions,1
sterling autobody,1
Peoples Federal Savings Bank,1
GulfShore Bank,1
USPOSTALSERVICE,1
NJ Manufacturers Insurance Co,1
wyoming department of corrections,1
Wal-mart,1
SOMAR LOGISTICS,1
ING US Financial,1
SUHSD,1
Greater Cleveland Partnership,1
Evangel,1
Bimbo Bakeries USA,1
Southern Elevator,1
aon hewitt,1
City of Norfolk,1
kilby electric,1
"Perigeum Development, Inc.",1
Olgoonik Technical Services,1
Extended StayHotels,1
Rainbow porceiln refinishing,1
Gfi group,1
state of california,1
FNB of Trenton,1
"Whole Foods Market, Inc",1
Apache Corporation,1
Mcdonalds ,1
U.S. Department of Agriculture,1
BCB Community Bank,1
US Air Force Research Laboratory,1
"FFR-DSI, Inc",1
Life Industries,1
Crossmark,1
Mercury Marine,1
athletic fields of america,1
Seacore Holding Inc,1
Promises,1
Sierra Nevada Corp,1
united healthcare,1
coral springs transportation,1
Cliffs Natural Resources,1
Newark Public Schools,1
Vang Insurance and Financial Services,1
Autologue Computer Systems,1
COROVAN Moving & Storage,1
US Army National Guard,1
Pennsylvania College of Technology,1
"University of California, Davis",1
City of Los Angeles,1
Fronterra Integrated Geosciences,1
Oracle Corporation,1
Ancestry.com,1
RACSB,1
Express Technology Inc.,1
Federal Law Enforcement Training Center,1
Oxnard Elementary School District,1
JB HUNT TRANSPORT,1
Digitaria Interactive,1
Scientific Research Corp.,1
Transport America,1
"Emptoris, Inc.",1
USGS,1
WVU Foundation,1
taocon inc,1
MISI Company,1
Susquehanna Health ,1
Emulex Corporation,1
University of Florida,1
Mahoney Alarms,1
S&S Tire,1
Landmark Medica Center,1
sky powersports,1
Kentucky Fried Chicken,1
JPM Chase,1
Housing Authority of Birmingham,1
"Acumen, Inc.",1
Sears Holdings,1
Lexington Law Firm,1
Wisconsin Dept Of Revenue,1
aunt dings family restaurant,1
"amco,inc",1
St Tammany Fire Protection District No One,1
Academy of Medical Technology,1
Meadowbrook Baptist,1
MA Dept. Of Correction,1
Dillard's Inc.,1
chicago park district,1
Clayton County Police Department,1
Yumband .INC,1
The Back Abbey,1
J Morita USA,1
Millenium Partners,1
Interim LSU Hospital,1
Kohls,1
gwinnett board commissioners,1
GM Financial,1
TD Ameritrade,1
"First Quadrant, LP",1
"Wiggin & Nourie, PA",1
"Tomblin, Farmer & Morris, PLLC",1
Texas Tech HSC School of Nursing,1
united road services,1
stew leonard,1
Curtis Wright,1
M-K Distributing,1
Dow Chemical/Union Carbide Corp.,1
ION Associates,1
Shared Medical Services,1
United HealthCare,1
Lake County School,1
gamestop,1
Gary's Wine and Marketplace,1
Family Heritage Life,1
Harrahs Casino,1
John Deere,1
Edelman PR,1
Avacar Financial,1
Travelers Insurance Co.,1
FieldTurf,1
Morgan Run Golf Club,1
Lowe's,1
Nordstrom ,1
EvensonBest LLC ,1
ING,1
East Batton Rouge Parish Schools,1
At&t Mobility ,1
Parsons Corporation,1
Advanced America,1
"American Real Estate Associates, Inc.",1
Mono County,1
Evosus Sovtware,1
Plug & Pay Technologies Inc.,1
VSS,1
Southern Care Ambulance,1
California Department of Justice,1
Charleston  County Government,1
Systemax inc.,1
iws,1
Walmart Information Systems Division,1
Kim-Anh Corporation,1
Dept Veteran Affairs,1
Kum & Go,1
Williams-Sonoma Inc,1
Collier County Sheriffs office,1
Loyola University New Orleans,1
American Home Mortgage Servicing Inc.,1
Conocophillips,1
Forest Park Community College,1
Feldhaus and Peace,1
Valentine Inc. Nice N Easy Shoppes,1
U.S. Air Force Civilian,1
Santa Barbara Bank & Trust,1
Goel Services,1
US Department of Justice,1
Intersil Corporation,1
Gallaudet University,1
Aim directional services,1
self,1
Gregory L Gullikson,1
South Bay Hospital Sun City Center 33573,1
Harker Middle School,1
Philips Healthcare,1
KeyBank NA,1
Location Sound Corp,1
trichromatic west,1
colrado clean-up,1
Town Sports International,1
Stamps.com,1
Solstas Lab Partners,1
Lozier Corporation,1
"Inter-con Security Systems, Inc.",1
Chicago Transit Authority,1
SYSPRO Impact Software,1
NC Vocational Rehabilitation,1
McCormick Ambulance,1
"CRI Industries, Inc.",1
Stoney Creek,1
U.S. Postal service,1
US Treasury,1
Propac,1
Catholic Order of Foresters,1
NASA JSC,1
Estee Lauder,1
U.S. Federal Government,1
Los Angeles Junior College District,1
City of North Myrtle Beach,1
Wolf and Company,1
Nobel Biocare,1
Ollies Bargain Outlet,1
City of Petaluma,1
Heller Pacific,1
Mullett Company,1
"Oxner Thomas + Permar, pllc",1
Dixie Blueprint Services Inc,1
VIP Grooming,1
Trans-Tek Inc.,1
Clean Tahoe Program,1
"Ebert & Baumann Consulting Engineers, In",1
City Of Rochester,1
colorado natural meats,1
Arizona institute of Footcare physicians,1
Fairfax Food Service,1
hampton inn,1
STATE OF NEW YORK MORTGAGE AGENCY,1
Julie Nails,1
xpedite technologies inc,1
Financial West Group,1
Healthcare Resource Group,1
Az. Dept. of Corrections,1
Aspen Specialty Insurance Co,1
Indicon Corporation,1
United States Air Force Academy,1
University of Virginia,1
Deluxe Digital Studio,1
AFS Technology,1
"Audit-Tel, Inc.",1
TPG Capital,1
The Container Store,1
SymphonyIRI,1
Stand & Deliver Consulting Group,1
City & County of Denver,1
ING DIRECT,1
Maser Consulting,1
Clayton Police,1
Buss Paint & Wallpaper,1
Multnomah County,1
US Department of Labor,1
American Profit Recovery,1
Joie de Vivre Hospitality,1
Blue Cross Blue Shield of Texas,1
B/E Aerospace,1
BJC HealthCare,1
Department of Veterans affairs,1
Sullivan & Cromwell,1
Fisker Automotive,1
taco bell,1
Active Network,1
County of San Diego,1
"The Dwyer Group, Inc.",1
Deloitte Tax LLP,1
3m,1
Olive Garden,1
network building and consulting,1
paige Industrial Services,1
The NASAH Group,1
Mississippi State University,1
Canadian National Railroad,1
Dish Network,1
Skillpath Seminars,1
Shockley Honda,1
IBM ,1
Engineered Machined Products,1
Brooklyn Museum,1
BCS Systems Inc,1
Aramark,1
boeing,1
Volunteers of America,1
HSBC Bank,1
HBO,1
Massage Envy,1
La county sanitation district,1
NYS Dept. of Corrctional Services,1
Harbor freight tools,1
CITY OF NEW HAVEN,1
InnerSea Discoveries,1
Citibank-Private Banking,1
American Honda Finance,1
highlands christian school,1
Wachter Electric,1
61ST STREET SERVICE CORP,1
COUNTY OF ORANGE,1
Highland Park ISD,1
usmc,1
Woodtronics ,1
Vision Graphics Inc,1
CSAA,1
Parallels,1
7-Eleven,1
Baschnagel Bros.,1
Sustainable Soil Solutions,1
Charter One Bank,1
Printpack,1
Gowan Inc.,1
Southbay Respite,1
Tate & Kirlin Associates,1
USPS,1
State Of Connecticut,1
YDI  Headstart,1
berkley group,1
R. G. Vanderweil Engineers LLP,1
PHH Mortgage,1
Alameda County,1
GM,1
SUBURBAN LOCK SERVICE,1
Fort Dearborn Co,1
Tourico Holidays,1
Hayes Concrete Construction,1
Midstate Advertising,1
McCarthy Building Companies,1
Forex Express,1
Performance Review Institute,1
Premier Security Services,1
Time Inc,1
SDGE,1
"American Warehouse Co.,Inc.",1
Adams Farm Animal Hospital,1
National Park Service,1
JP Morgan Chase St.1,1
La Clinica De La Raza,1
CNC MACHINE MANUFACTURER,1
Sodexo,1
Foxwoods Resort Casino,1
Village of Stone Park,1
24 Hour Fitness,1
TD Bank NA,1
Clear Channel Communication,1
Experis,1
Brown Brothers Harriman & Co.,1
St. Luke's Hospital,1
Challenger School,1
Point Eight Power,1
The Childrens Place,1
Bank of Oklahoma,1
First churcfh of God in Harvey,1
Cleveland Electric Co.,1
Town of Greene,1
Camden County System,1
teleperformance,1
fedex ,1
NEW YORK CITY POLICE DEPARTMENT,1
Salient Federal Solutions,1
UW-Madison,1
BMO Harris Bank,1
Del Taco,1
"Carnahan, Evans, Cantwell & Brown, P.C.",1
Immanuel EV Lutheran Church,1
St. Thomas,1
Cavalier senior care,1
TotalTrax,1
Alexander Marketing,1
MassDOT highway division,1
"Climax Portable Machine Tools, Inc",1
Cresent Parts,1
City of Milwaukee,1
Oliver Welding & Fabricating,1
Memorial hospital,1
Charles Schwab & Co. Inc.,1
Harris Corporation,1
JAMAICA BEARINGS CO,1
Industry Systems,1
YMCA,1
Tampa Bay Imaging,1
Pepboys,1
progress rail services,1
ExpertPlan,1
Peppermill Casinos Inc,1
Bethlehem Church,1
Jim Duke Service Company,1
University of North Carolina Wilmington ,1
Manatawny Manor,1
Burkett Ind,1
HCSB,1
Shoedazzle.com,1
Eisenhower Medical Center,1
Swiss Chalet Fine Foods,1
Galpin Mazda ,1
Corporate Air,1
NetCom Learning,1
National research council,1
nicholas & co,1
arc usa valley central co,1
Poly-America,1
CarolinaEast Medical Center,1
"Rainbow, Inc.",1
Farmers Insurance,1
National Abortion Federation,1
Volunteer of America,1
RRd Partners,1
Kimberly Clark Corp.,1
SWIFT,1
U.S. department of Justice,1
Thycotic Software,1
Library Cataloging Solutions,1
City of Maricopa,1
Zurich North America,1
Restaurant Depot,1
"Redbone Trucking, Inc",1
Acadia Parish School Board,1
Anschutz Corporation,1
Credit Suisse,1
Ricoh Americas Corporation,1
Magdalena Ecke Family YMCA,1
the Mill LA,1
Crossroads Grill,1
Country View of Lakeville,1
Colgate Palmolive Company,1
Aerojet,1
Ahold Financial Services,1
"Kane Kessler, P.C.",1
Texas Health Presbyterian Hospital ,1
Star-Luck Enterprise Inc.,1
Health Care Service Corporation,1
Roto-Rooter Services Company,1
Oriental Therapy Center,1
Shadle Park Presbyterian Church,1
New York Life Insurance Company,1
RAMJI LAW FIRM,1
"Cetnral Ohio Home Health Systems, Inc",1
So. Kern Unified School District,1
Price Chopper,1
Helmet Hairworx,1
Laserfiche,1
Denton Auto Salvage,1
EH Nicols DDS,1
Christian Fellowship Church,1
Richmond Strikers Soccer Club,1
Bobs Discount Furniture,1
Charles County Sheriff Office,1
Loudoun Water,1
Allen & Overy LLP,1
City of Reno,1
Faxton-St. Lukes Healthcare,1
DeVry University,1
East Baton Rouge Parish Library,1
Amtrak,1
US Army Corps of Engineers,1
Jeanes Hospital,1
Gannett Fleming,1
Forest Labs,1
Pet Zoo Alaska LLC,1
NLACRC,1
JJL Greenhouse  Inc.,1
Loma Linda University School Of Dentistr,1
Synchronoss,1
JP Morgan Chase Bank,1
Maxi-lift,1
Greene & Associates Talent Agency ,1
General Cable,1
UCG,1
Domaine Select Wine Estates,1
Geosyntec Consultants,1
Portland Terminal Railroad,1
Paragon Honda,1
Morton Plant Hospital,1
The Climate Corporation,1
K-Factor Fire Protection LLC,1
Uhaul International,1
Michelin North America,1
Yukon Flats School District,1
CVS CAREMARK Romack Inc,1
ECRMC,1
Travers Tool Company,1
Heart of America Shakespeare Festival,1
Price Rite Supermarkets,1
AEROPOSTALE INC.,1
att,1
CA Technologies,1
King Southern Bank,1
Direct group,1
Kaiser Group,1
BAML,1
State of Alabama,1
Puget Sound Naval Shipyard,1
"PSS World Medical, Inc",1
AllSouth Federal Credit Union,1
MARTINREA INTERNATIONAL,1
AHRC of New York,1
tire kingdom,1
Maroone Toyota,1
Ozumo,1
LBUSD/Jefferson Middle School,1
City of Madisonville,1
Dept of Water & Power,1
circuit court of cook county,1
chelsea senior living ,1
Boenning & Scattergood,1
Gallop Corp.,1
union bank,1
CSE Insurance Co,1
Envoy Mortgage,1
City of Weatherford,1
Lord & Taylor,1
Department of Veteran Affairs,1
Animal Doctor of Weston,1
US BANK,1
Merrill Lynch,1
Jo Laurie Design,1
"ExtraDev, Inc.",1
NYC transit authority,1
Mechanical Inc,1
Ruby Tuesday,1
Sweetwater School District #1,1
Oak Mountain Academt,1
dod dasg,1
Garlock Sealing Technologies,1
Rick Baker Insurance,1
Colbond Inc,1
Hitachi Medical Systems,1
Tri-State Care Flight,1
Ladder 15,1
SHAKER FLATS LANDSCAPING,1
Zachry Industrial Incorporation,1
Westoil Marine,1
Aon,1
Sinclair Community College,1
Total Wine and More,1
Technisource ,1
Burroughs & Chapin Company,1
yrcw,1
united states postal service,1
nypd,1
bellagio hotel,1
usaf,1
State of Utah,1
Denbury Resources,1
ACA Financial Guaranty Corporation,1
Snagajob,1
"Pacer International, Inc. ",1
foam design,1
Winstar World Casino,1
Fauquier County,1
BCBG MAXAZRIA Group,1
greenlandmarket food court,1
American Public Media,1
Craftstaff LLC,1
orgill inc.,1
Schneider Electric,1
New York Life Investments,1
Cisco Systems Inc.,1
UniFocus,1
Spatial Data Research,1
Walden Behavioral Care,1
Interplex,1
METALUBE CORPORATION,1
Excel Telecommunications,1
Phelps memorial hospital,1
Missouri Baptist Medical Center,1
"BMO Harris Bank, NA",1
Freeman,1
Medline Industries Inc,1
"Nelnet, Inc.",1
Dept. of Education / Asher Levy School,1
"PPG Industries, Inc.",1
Good Samaritan Hospital,1
J.P. Morgan Chase,1
USBP,1
Reno iPhone iPod Repair,1
Riverside County Sheriff's Department,1
JAXSON POINT,1
"BECHT ENGINEERING CO., INC.",1
Electronic Arts,1
Boys and Girls Club of America,1
Charles Schwab,1
ternium usa,1
"Kaufman, Rossin & Co.",1
Cambium Learning Group,1
baker tanks,1
Trader Joes,1
the shopping center group,1
Broadridge ,1
MetroPCS,1
Dr Pepper Snapple Group,1
U.S. Coast Guard,1
Warner Gaming,1
" Down To Earth Distributors, Inc.",1
Center for Creative Leadership,1
State of Delaware,1
Conversion Systems,1
MARFORK COAL COMPANY,1
city of new york hra,1
Golden Door Charter,1
Jacksonville Fire and Rescue Dept,1
Outback Steakhouse,1
Robins AFB ,1
Mt Sinai Hospital,1
SGS North America Inc,1
Jerry's Sandwiches LLC,1
Epsilon,1
North Point Christian Academy,1
ideal products,1
"Teachers College, Columbia University",1
Kingsbrook Jewish Medical Center,1
SIRVA Relocation,1
santa clara county,1
Compass Minerals International,1
QUEST DIAGNOSTICS,1
Geico,1
foodtown,1
Seminole High School,1
POLYGON AEROSPACE,1
Macys,1
New Breed Inc.,1
ATLANTA TOYOTA,1
Education Management Corporation,1
Texas Workforce Commission,1
Gallery of Cakes,1
Jurupa Unified School District,1
ECOM Consulting Inc,1
banner gateway hospital,1
RPE Solutions,1
Campus Crusade for Christ,1
Bride Brook,1
UFCW Local 21,1
Granite Construction Inc,1
AgnetSolid,1
Feather River Hospital,1
Boston Water and Sewer Commission,1
"Equity One, Inc",1
AAFES,1
Hospira worldwide,1
FareCompare,1
AAR Airlift,1
Dell- Seton Health System,1
City of San Francisco,1
NexTier Bank,1
Military.com,1
Kroger,1
Hewlett-Packard,1
Sapa Extrusions,1
Tessera,1
Entergy,1
stonybrook hosptial,1
Armstrong World Industries,1
akrons children hospitial,1
United States Steel Corp.,1
Hafif & Associates,1
"Pedicons, Inc.",1
New York city department of sanitation,1
Fairfield Public Library,1
HP Enterprise Services,1
Buckeye Florida,1
Town of Hempstead,1
Verio,1
Texas Instruments,1
Taylor Corporation - ComplyRight Dist,1
Heass Auto Exchange,1
St. Vincents Health System,1
Allied Marine Services,1
Southern Company,1
Syracuse University,1
Roubini Global Economics,1
University of Chicago,1
CP Rochester,1
Triple Canopy,1
Lil' Explorers ,1
continental airlines,1
Smart&final,1
"Fujitsu America, Inc.",1
Panasonic Avionics Corporation,1
Aria Resort and Casino,1
RA Sushi,1
The Medical Center of Plano,1
Unisource Worldwide,1
Carters Inc,1
rachlin managemet,1
Oracle Inc.,1
TRANE,1
BOEING,1
Keiser University,1
"construction materials, inc.",1
Amerigas Propane,1
Canyon Fuel,1
Nana WorleyParsons,1
DP Management,1
San Bernardino County,1
Pactiv,1
b and b management,1
Electric Power Systems,1
Todd Communications,1
Interwest Capital Corporation,1
Coining Technologies Inc.,1
VERIZON WIRELESS,1
SunnySide Nursing Center,1
Level One Hvac Services,1
Holy Cross High School,1
village of solvay dpw,1
Microsoft,1
"Lanyon, Inc",1
Sacred Journey Hospice,1
Valquest,1
The Red Threads Inc.,1
U.S Pretrial Services,1
Central Intelligence Agency,1
Haddonfield Friends School,1
ABC-Clio,1
District Construction LLC,1
department of defense,1
Brett Sports,1
Federal Bureau of Prisons,1
New York University,1
Sarasota memorial hospital,1
garrett's resturant,1
Insight Communications,1
bayer healthcare ,1
First Financial Bank,1
UCSF Police Department,1
The Provident Bank,1
Signal Solutions,1
"MLP, Inc.",1
GLASS & SHIECHEL CPA LLP,1
MIAMISBURG CITY SCHOOLS,1
Wolters Kluwer,1
Network Outsource,1
brada mfg,1
Perry Equipment Corperation,1
"GW School Supply, Inc.",1
"CBIZ MHM, LLC",1
State of Kansas,1
Hilton Worldwide,1
Post 9/11 GI BILL,1
MVP sales,1
Briggs & Stratton Corp,1
Arizona State Credit Union,1
Spectrum Health Medical Group,1
U.S Postal Service,1
Adco Commercial Printing & Graphics,1
Hogan & Herr Builders,1
Winco Foods,1
L-3 Communications GS&ES,1
Quiktrip,1
CDNetworks Inc,1
Colorado Center for Neurological Rehabil,1
Mid Atlantic Corporate Federal Credit Un,1
City of Durango Police Department,1
WiFiFee LLC.,1
Madison County Engineers Office,1
Robinson helicopter company ,1
Kuczmarski and Associates,1
Blizzard Entertainment,1
Wesleyan Native Ministries,1
American Interceptors,1
Department of Navy,1
Phase V of Southwest Florida,1
AECC Pearlman Buying Group,1
stevens tech ,1
Darden - Red Lobster,1
"Clinical Research Management, Inc",1
Hillsborough County School District,1
CITY OF RYE PUBLIC WORKS,1
Barry University,1
Wisconsin Womens' Business Initiative Co,1
Memorial Sloan-Kettering Cancer Center,1
MontroseBank,1
HUB International Insurance Services,1
American Pacific ISP,1
Coach Inc,1
Articulate,1
CEFCU,1
Lawrence Livermore National Laboratory,1
"Law Office of Cathleen Gulledge, LLC",1
Houston Healthcare,1
UDM Law School,1
Pepsi Bottling Group,1
shoprite,1
Eagle Pass I S D,1
AM Falero Insurance,1
Plains Marketing,1
Pequot Lakes High School,1
Quiznos,1
New York City Fire Dept.  FDNY,1
Live Nation,1
Lececke Corporation,1
Kaiser - Southern California Permanente ,1
LA CSSD,1
toasties,1
laufen international inc,1
Luzier Construction Corp,1
Texas Transportation Institute,1
ATS,1
Bandwidth.com,1
kern medical center,1
Eastview vet clinic,1
URS Corporation,1
Recall,1
rjd machine products,1
"Bobs Books, Inc",1
stanislaus county,1
"cox,kliewer & company,pc",1
Pisgah Legal Services,1
Hogin Machine Inc.,1
YWCA Hartford Region,1
marvin & palmer assoc,1
SAC Capital,1
OfficeMax,1
Fairview Health Services,1
Essintial Enterprise Solutions,1
HUD,1
Weatherford ,1
Quik Trip,1
Norwood Crossing Home,1
Glory USA Inc.,1
Lighthouse IS,1
Accenture,1
Common Roots Cafe,1
medtech group,1
Arizona Industrial Hardware,1
Optimus Editorial,1
Donor Network of Arizona,1
kansas city missouri fire department,1
Nail Citi,1
AAA New Jersey Automobile Club,1
U.S Army,1
Deep Creek Foodland,1
3M ,1
TDC Companies,1
Children's Hospital Colorado,1
"teamDNA, Inc.",1
Birds Eye Foods,1
Sunrise Optometry,1
Louis Vuitton,1
Roselle Park Board of Education,1
Nuconsteel,1
Valencia College,1
Western Freightways,1
Wahluke School,1
Derse  Inc.,1
Windermere,1
Millenium Hotels and Resorts Anchorage,1
forest hills equipment,1
usps,1
WonderWorks,1
Pocono township police department,1
Lanier Village Estates,1
Rehab Alliance,1
5.11 Tactical,1
"CareCore National, Inc.",1
Sweet Insurance Agency,1
"State of Nevada, Dept of Corrections",1
Snohomish County PUD,1
Sheridan Health Care Corporation,1
PRG,1
LA CURACAO,1
Los Angeles County,1
Milwaukee Fire Dept,1
City of Tumwater,1
Douglas County School District,1
Rhino Steel Building Systems,1
Kohls Department Stores,1
St. Joseph's Regional Medical Center,1
Swiss Re Holding,1
Hamilton Park Health Care,1
Nutrition Now,1
Aultman Hospital,1
Trellist Inc.,1
Acadia,1
Pittsburgh Public Schools,1
RIM,1
State Farm Insurance,1
Medilodge of plymouth,1
Ericsson ,1
Akridge,1
Intel Corp,1
AVW Technologies,1
Minneapolis College of Art and Design,1
Medline,1
Goodrich Corporation,1
MHC Kenworth,1
The Vineyard,1
NC Forestry Association,1
New Covenant Academy,1
Avports Management Inc,1
lowes h.w.i,1
Rockefeller Financial,1
Clinical Pathology Labs,1
eastman kodak,1
Informatica,1
City of Virginia Beach,1
HOME DEPOT,1
Harris Teeter,1
SIG Combibloc,1
Honolulu Academy of Arts,1
Peaksware. LLC,1
ATC Healthcare,1
DeKalb Regional Medical Center,1
walgreens,1
Continenral Airlines,1
PECI,1
Food and Drug Administration,1
dept of veterans affairs,1
Eglin AFB Fire Dept.,1
Academy Sports,1
Lake Forest School District,1
WALMART STORES,1
Ark Dispatch,1
Memorial Sloan Kettering Cancer Center,1
directv,1
Aero Specialties Mfg. Corp,1
E*Trade,1
American Savings Bank,1
Texas AirSystems,1
City Of Somerville,1
Department Of Homeland Security,1
Dorn VA Medical Center,1
color me hair studio,1
Dept of Veterans Affairs,1
Gallo Glass Co.,1
US Health Works,1
Alpine Home Health Agency,1
Verizon,1
MPI Research,1
Gasco,1
First California Mortgage,1
Travelers Insurance,1
H WEISS ,1
Cast & Crew Entertainment Services,1
Marine Max,1
State of Missouri,1
US Dept of Housing & Urban Development ,1
Drugstore.com,1
Business Computer Solutions,1
Icon Identity Solutions,1
Cambridge street auto repair,1
"City of Sanford, Florida",1
pepsi bottling group,1
Enpirion,1
"Total Vascular, Vein, and Wound Clinic",1
Charter Communications,1
trinity temple preschool and day care,1
HP/EDS,1
Christus St.Francis Cabrini Hospital,1
Green For All,1
Zimmerman Advertising,1
Milbank,1
Broad and Lehigh Pharmacy,1
"O'Connor Chevrolet, inc.",1
hospice and palliative carecenter,1
Health Care Service Corp,1
WuXi Apptec,1
ColoSpace,1
K&K  TRANSPORT SERVICES,1
Level 3 Communications,1
Eastern Arizona College,1
agility health,1
Trinity Protection Services,1
Boeing Commercial Airplanes,1
Osage County,1
International Game Technology,1
"Arbol Financial Strategies, LLC",1
Harbor UCLA Medical Center,1
liveTv,1
Goldman Sachs,1
PetSmart,1
LPL FInancial,1
Decatur Public Schools,1
March of Dimes,1
r.e.merlo farming,1
jellco container inc,1
springhill country club,1
SUMMA CARE,1
golden nugget casino,1
cisco systems,1
The Whiting-Turner Contracting Co.,1
Pedigree Ski Shop,1
Pearson Education,1
Allin Interactive,1
lone star national bank,1
Granite construction,1
Hunt Ford Chrysler,1
MGM Resorts International,1
Rockwood Service Corp,1
Spokane Community College,1
ODOT,1
ATT,1
Universal Technical Institute,1
Ben E. Keith,1
SkyBuilt Power,1
Central Valley Medical Center,1
The savings bank,1
Southwind Properties,1
US Deparment of Labor,1
overland park regional medical center,1
Princeton Consultants,1
Geotechnical Testing Services,1
West Chester Area School District,1
"Southwest Technical Solutions, Inc.",1
procter and gamble,1
Fannie Mae,1
Mission Hospital ,1
Cumulus Media of Danbury,1
MetCap Management,1
National Cancer Institute,1
Good Samaritan hospital,1
Claiborne Farm,1
CATALINA ISLAND VACATION RENTALS,1
Ohio National Financial Services,1
waldbaums,1
Musculoskeletal Transplant Foundation,1
The Hartford Insurance,1
Dave and Busters,1
Champion Trailers,1
FunGoPlay,1
OMNI Home Care ,1
Riverchase Animal Hospital,1
SES,1
Highland Mechanical Contractors,1
C2 Financial Corporation,1
societe generale,1
Loyola Marymount University,1
Coconut Creek Seminole Casino,1
"Werntz & Associates, Inc.",1
CSX Transportion,1
MSA Architects,1
Black Horse Trucking,1
ACS,1
pinto brothers disposal,1
Chrysler,1
St Luke's Quakertown Hospital,1
Active Interest Media,1
Blue Nile,1
Central Valley Regional Center,1
Colorado Mountain College,1
AEM Corporation,1
jam distributing,1
Capital group,1
cappachinos,1
ATBS,1
Kimley-Horn and Associates,1
Intelligent Decisions,1
InfoGard Laboratories,1
"Wells Fargo Insurance Services USA, Inc.",1
Sarasota County School Board,1
"Viasat, Inc.",1
Wells Fargo Capital Finance,1
US Army Legal Services Agency,1
Campbell Soup,1
Unity Electric LLC,1
the woodner co,1
MassBay Community College,1
New American Mortgage,1
Alloy Media & Marketing,1
PriceWaterhouseCoopers,1
Commonwealth of PA,1
Ernst & Young,1
Fairmont Hotel Company,1
TowerBank,1
Long View systems,1
jay jay fashions pk wsm,1
6N Systems Inc,1
Benco Dental Co,1
City of Henderson,1
Ashford University,1
Cross Country Services Corp,1
Sts Mary and Elizabeth Hospital,1
Kingwood Medical Center,1
Purdue Pharma,1
Sierra Hills Apartments,1
Mckesson ,1
G4s,1
Roofers Local 149,1
"Mateer & Harbert, P.A.",1
SEK Interlocal,1
wynn las vegas,1
H.A. Bowen Electric,1
U.S. Drug Enforcement Administration,1
Dermatology Specialists,1
GlobalWare,1
US Computer Corp. - Chevron,1
Axio Research,1
Florida International University,1
Kana Inc,1
state bank of countryside,1
Rogers Realty Inc,1
Sunland-State of florida,1
ARM INC,1
International Laminating Corporation,1
The Mount Sinai School of Medicine,1
Sisters of Mercy Health System,1
Comcast,1
Edmunds.com,1
Longhorn Steak House,1
BristolPark Medical ,1
RBS Citizens,1
The GAP,1
DST Output,1
The Cosmopolitan of Las Vegas,1
Capitol carpet inc,1
hart appliance,1
Sparta,1
MAJR Financial,1
CAPITOL CARDIOLOGY ASSOCIATES,1
Cincinnati Children's Hospital,1
Action Dance Academy ,1
US Government ,1
Societe Generale,1
Grunley Construction,1
NYPD,1
Federal Home Loan Bank,1
Doyon Security Service,1
McDanel Advanced Ceramics Technologies,1
"Overseas Patent Agency, Icn.",1
Kremmling,1
RewardsNOW,1
plan b club,1
Northrop Grumman Corporation,1
OCEAN'S ELEVEN CASINO,1
County of Fresno,1
Livable Forest Fence,1
GULFSTREAM CAFE,1
KEARNY MESA INFINITI,1
The Medical Center at Ocean Reef,1
il. dept of corrections,1
Weiss Realty LLC,1
California Department of Corrections,1
Kearny Federal Savings Bank,1
Marquis Software Solutions Inc,1
Canyons School District,1
Komar,1
Pulmonary Associates of North Dallas,1
PEO STRI,1
AccountMate Software,1
Ohio Farmers Insurance Company,1
Sherwin Williams,1
"Stanley Ngo, DDS",1
Smith & Nephew ,1
Edgewood Partners Insurance Center,1
Cassidy Turley BRE Commercial,1
Hot Topic,1
Ear Nose Throat Associates,1
Craig Hallum,1
Utility Trailer Mfg. Co,1
Mt. Carmel Health System,1
"Childhelp, USA",1
kohls,1
Great Falls Public Schools,1
South Georgia Medical Center,1
Farmers Insurance Exchange,1
Empire Consulting Corporation,1
Terrazzo & Marble Supply Company,1
AHRC NYC Francis of Paola Early Learning,1
affinity gamming llc,1
AT&T Mobility,1
Ensign Group,1
mix1 (TRI-US),1
Insperity,1
Metro.Water Reclamation Dist. Chicago ,1
Unifoil,1
US Marine Corps,1
Perdue Farms Inc.,1
Meyers Development,1
wab,1
The Home Depot,1
Longmeadow animal hospital,1
Depository Trust Co.,1
National Marrow Donor Program,1
Phoenix contact,1
J. Ambrogi Food Distribution,1
Pro-Weld Inc.,1
State of Florida,1
kingsbrook medical center,1
Orange County Public Schools,1
Go Daddy Inc,1
Giant,1
IO Group,1
ARAMARK Sports & Entertainment,1
Bethesda memorial hospital,1
US Customs and Border Protection/ HomeL,1
Canadian Pacific Railway,1
dunklin county court house,1
dch auto group,1
Credarview Healthcare Center,1
American Eagle Paper Mill,1
metropolitan opera,1
Department of Education,1
Citizen Relations,1
Seaport Steel Inc.,1
Cushman  and  Wakefield,1
Independent Bank,1
Steelscape,1
Catalyst Rx,1
Hackensack Medical Center,1
Sacramento County,1
Bank of America Merchant Services,1
LA County Federation of Labor,1
GenOn,1
Dominion Youth Services,1
State Bar of Georgia,1
united  airlines,1
Lion Sleep Labs,1
webb1realty,1
East Jersey State Prison,1
City of Fresno,1
BUILDING SERVICES 32BJ LEGAL SERVICES FU,1
Owens& Minor,1
Sanroc Cay Marina,1
Five Guys Enterprises,1
delta airlines,1
ralphs grocery,1
U.S. House of Representatives,1
Hilmar Cheese,1
AKERMAN SENTERFITT,1
Winkle Bus Inc,1
"The Topps Company, Inc.",1
Oracle,1
University Retirement Community,1
ALLtra Corp.,1
safeway inc,1
Assured Document Management,1
CBS Inc,1
Farmers Insurance Company,1
Utah Attorney General's Office,1
"Complete HealthCare Resources, Inc.",1
Kern Health Systems,1
Electricon Services LLc,1
VASNHS,1
Liberty Investment Properties,1
Tile Interiors,1
Delco Comstruction ,1
Allen & Company LLC,1
Rawhide Electric,1
Orange County Public Schools (TCHS),1
CNC Machine and Fabrication,1
Security Benefit assoc,1
vta,1
New Innovations Inc,1
Mars Snackfood North America,1
Intuit,1
"Bio-Optronics, Inc.",1
Harvard Vanguard Medical Associates,1
City of West St Paul,1
NCC Media,1
NBC Sports Agency,1
United States Coast Guard,1
Doubletree by Hilton LAX,1
Beckman Coulter Inc.,1
CACi,1
Westlake financial ,1
Hanna  Campbell  and  Powell  LLP,1
Washington DC Transit,1
Jim's Northside Service,1
Bodycote,1
MediaCom,1
The Pennsylvania State University,1
UC Berkeley,1
The Catholic University of America,1
Department of Labor,1
Schillings construction,1
Chicago Public Schools,1
Banning Unified School District,1
OfficeXpress,1
City Of Los Angeles,1
Trowel Arts Corporation,1
Village of Mt pleasant,1
CVS/pharmacy,1
Borough of Somerdale,1
Tulane Medical Center,1
Accurate Controls,1
National Captioning Institute,1
nycb,1
"Salgado & Associates, PLLC",1
Workhorse Creative,1
u.p.s.,1
Alpena Public Schools,1
"Waters, McPherson, McNeill",1
Sterling McCall,1
Lagonita Lodge,1
UHAUL,1
Childrens Hospital of Wisconsin,1
Georgia Cooperative,1
Underwriters Laboratories,1
UMC of el paso,1
Rinchem Company Inc,1
sacramento city unified schoold district,1
"Aeria Games & Entertainment, Inc.",1
Consolidated Technologies  Inc,1
ORANGE COUNTY CORRECTION,1
Vortex Aviation,1
Devry University,1
Bell Ford,1
Better Health Care ,1
Berge Volkswagen,1
Winslow Animal Clinic,1
Multi-Line Insurance Agency,1
Wells Fargo Financial,1
Leprino Foods,1
MARTA,1
ZIGZAG Inc.,1
Heavy & General Laborers Local Union 172,1
jetblue airways,1
San Joaquin County,1
Sunbelt Golf Corporation,1
Unique Hair Styling,1
us forest horseshoe meadow hothots,1
Horizon Group USA ,1
American Tire Distributors,1
Tucson Airport Authority,1
Everest College,1
United States Department of Labor,1
TransFirst,1
Dow Chemical,1
cintas,1
Village of Carol Stream,1
Media Planning Group,1
"Terp et al, LLC",1
st jude medical,1
Georgia Pacific,1
springfield acura,1
North Providence School Department,1
Davis brothers plumbing,1
AlliedBarton,1
city of providence,1
Lafayette State Bank,1
City Picture Frame,1
JWT,1
JPMorgan,1
Citrix,1
bank of america,1
TierOne Marketing,1
Pomona Valley Hospital,1
Anglepoint,1
Los Fresnos C.I.S.D,1
James J Peters Medical Center,1
Capstone Turbine Corporation,1
San Mateo County,1
Park HIll School District,1
Beth Israel Deaconess Medical Center,1
"M.C. Dean, Inc.",1
Illinois Association of REALTORS,1
The Mergis Group,1
Alamo for Citizens,1
JERAM MARKETING,1
The Hillman Group,1
St. Michael and All Angels Episcopal Chu,1
Shaw Stone & Webster,1
Waxie Sanitary,1
"Fitango, Inc.",1
United States Department Of Homeland Sec,1
Aerospace maintenance services,1
Energy West Mining,1
U.S. Navy,1
Sierra Business Council,1
Little Elm I.S.D,1
stanford auto parts,1
E. & J. Gallo Winery,1
Johnson County Fire District # 2,1
Google,1
Tecniplast USA,1
NCDMV,1
Kalispell Regional Medical Center,1
Zecco Trading,1
STATE OF GEORGIA,1
williams service co,1
Sycuan Casino,1
Packaging Dynamics,1
Skechers,1
Time Warner Cable,1
CENTRAL OHIO PRIMARY CARE PHYSICIANS INC,1
lawton media,1
Simpson Property Group,1
"NEI Contracting & Engineering, Inc.",1
Sovereign Bank,1
"State of CA, Dept. Juvenile Justice",1
Pratt & Whitney,1
carson supply,1
Think Fixed,1
Public Service Electric And Gas,1
Nationwide Insurance,1
DemandTec Inc,1
"CCE, INC",1
State of Arizona,1
Berea Independent Schools,1
T-Mobile USA Inc,1
Alexander & Oconnor,1
Sikorsky Aircraft Corporation,1
Law Office of Melissa Betancourt,1
Corbett Personnel,1
prime columbia-greene medical associates,1
Ala. Council on Human Relations,1
NewOrleans.Com Media L.L.C.,1
Supervalu,1
the new york post,1
Carrier Enterprise,1
The University of Texas at Austin,1
United States Postal Service,1
Verbatim Advisory Group,1
Saks Fifth Avenue,1
Department of Health and Human Services ,1
Nordstrom,1
