,city,fare,ride_id
0,Amandaburgh,23.072,15
1,Barajasview,28.754375,16
2,Carriemouth,27.25047619047619,21
3,Christopherfurt,22.585714285714285,21
4,Deanville,24.868,15
5,East Kaylahaven,22.62,20
6,Erikaland,22.52111111111111,9
7,Grahamburgh,22.935555555555556,18
8,Huntermouth,28.8445,20
9,Hurleymouth,26.385217391304344,23
10,Jerryton,26.126470588235296,17
11,Johnton,28.416874999999997,16
12,Joneschester,20.874375000000004,16
13,Justinberg,24.67434782608695,23
14,Karenberg,28.571538461538463,13
15,Karenside,29.10809523809524,21
16,Lake Danielberg,23.593529411764706,17
17,Lake Jonathanshire,22.166153846153847,13
18,Lake Scottton,21.268571428571427,14
19,Leahton,18.824117647058824,17
20,Liumouth,25.375238095238096,21
21,Loganberg,23.125000000000004,20
22,Martinezhaven,21.192777777777778,18
23,New Jacobville,27.265,12
24,New Kimberlyborough,20.631666666666664,24
25,New Paulton,25.768000000000004,15
26,New Paulville,19.243333333333332,15
27,North Barbara,25.208235294117646,17
28,North Jasmine,27.622499999999995,20
29,North Jason,20.510909090909095,22
30,North Madeline,23.145263157894735,19
31,North Markport,30.950000000000006,10
32,Pattyland,24.205882352941174,17
33,Port Angela,24.93875,16
34,Port David,25.385555555555555,18
35,Port Frank,28.73173913043479,23
36,Port Johnbury,24.44266666666667,15
37,Port Samanthamouth,27.501500000000004,20
38,Raymondhaven,18.923333333333332,18
39,Reynoldsfurt,22.458461538461542,13
40,Richardfort,23.923750000000002,16
41,Roberthaven,22.351,20
42,Robertport,23.521333333333335,15
43,Rodneyfort,28.29090909090909,22
44,Rogerston,23.806875,16
45,Royland,20.73,24
46,Simpsonburgh,22.121111111111112,18
47,South Evanton,28.18142857142857,21
48,South Jack,22.034615384615385,13
49,South Karenland,28.3044,25
50,South Latoya,19.521875000000005,16
51,South Michelleport,23.880952380952387,21
52,South Phillip,29.772083333333327,24
53,Valentineton,21.28,14
54,West Angela,25.67724137931035,29
55,West Anthony,24.4228,25
56,West Christopherberg,26.24421052631579,19
57,West Ericstad,21.573333333333334,12
58,West Gabriel,20.9475,12
59,West Heidi,24.36318181818182,22
60,West Josephberg,21.294285714285714,21
61,West Patrickchester,29.086363636363636,11
62,West Robert,22.530434782608697,23
63,West Samuelburgh,23.450555555555557,18
64,Williamsstad,25.214210526315792,19
65,Williamsview,27.196923076923078,13
