,air_store_id,dow
410,air_84060403939d8216,0
411,air_848616680ef061bd,0
412,air_84f6876ff7e83ae7,0
413,air_8523d6a70de49e6c,0
414,air_859feab8e3c9f98d,0
415,air_85bd13a49370c392,0
416,air_86cfbf2624576fad,0
417,air_86f7b2109e4abd65,0
418,air_87059630ab6fe47f,0
419,air_87078cf7903a648c,0
420,air_87467487d21891dd,0
421,air_8764b3473ddcceaf,0
422,air_876d7a23c47811cb,0
423,air_877f79706adbfb06,0
424,air_87ca98aa7664de94,0
425,air_87f9e1024b951f01,0
426,air_883ca28ef0ed3d55,0
427,air_88c8e34baa79217b,0
428,air_88ca84051ba95339,0
429,air_88f31db64991768a,0
430,air_890d7e28e8eaaa11,0
431,air_89e7328af22efe74,0
432,air_8a1d21fad48374e8,0
433,air_8a59bb0c497b771e,0
434,air_8a906e5801eac81c,0
435,air_8b4a46dc521bfcfe,0
436,air_8c119d1f16049f20,0
437,air_8c3175aa5e4fc569,0
438,air_8cc350fd70ee0757,0
439,air_8ce035ee1d8a56a6,0
440,air_8d50c64692322dff,0
441,air_8d61f49aa0373492,0
442,air_8e429650fcf7a0ae,0
443,air_8e4360a64dbd4c50,0
444,air_8e492076a1179383,0
445,air_8e8f42f047537154,0
446,air_8ec47c0f1e2c879e,0
447,air_8f13ef0f5e8c64dd,0
448,air_8f273fb9ad2fed6f,0
449,air_8f3b563416efc6ad,0
450,air_900d755ebd2f7bbd,0
451,air_901925b628677c2e,0
452,air_90213bcae4afa274,0
453,air_90bd5de52c166767,0
454,air_90ed0a2f24755533,0
455,air_90f0efbb702d77b7,0
456,air_9105a29b0eb250d2,0
457,air_91236b89d29567af,0
458,air_9152d9926e5c4a3a,0
459,air_915558a55c2bc56c,0
460,air_91beafbba9382b0a,0
461,air_91d72e16c4bcba55,0
462,air_9241121af22ff1d6,0
463,air_929d8513e3cdb423,0
464,air_931a8a4321b6e7d1,0
465,air_9352c401d5adb01b,0
466,air_9387ff95e886ebc7,0
467,air_938ef91ecdde6878,0
468,air_939964477035ef0b,0
469,air_93b9bb641f8fc982,0
470,air_93dd7070c9bf5453,0
471,air_93ebe490d4abb8e9,0
472,air_9438d67241c81314,0
473,air_947eb2cae4f3e8f2,0
474,air_9483d65e9cc9a6b7,0
475,air_950381108f839348,0
476,air_95d28905941fd4cb,0
477,air_95e917913cd988f3,0
478,air_96005f79124e12bf,0
479,air_965b2e0cf4119003,0
480,air_96743eee94114261,0
481,air_96773a6236d279b1,0
482,air_968d72c12eed09f0,0
483,air_96929a799b12a43e,0
484,air_96ec3cfe78cb0652,0
485,air_97159fc4e90053fe,0
486,air_97958e7fce98b6a3,0
487,air_97b2a9f975fc702c,0
488,air_97cf68dc1a9beac0,0
489,air_97e0f2feec4d577a,0
490,air_9828505fefc77d75,0
491,air_98b54e32ccddd896,0
492,air_990a642a3deb2903,0
493,air_99157b6163835eec,0
494,air_99a5183695b849f9,0
495,air_99b01136f451fc0e,0
496,air_99c3eae84130c1cb,0
497,air_9a30407764f4ff84,0
498,air_9a6f6e7f623003d2,0
499,air_9aa32b3db0fab3a5,0
500,air_9aa92007e3628dbc,0
501,air_9ae7081cb77dc51e,0
502,air_9b13c7feb0a0c431,0
503,air_9b6af3db40da4ae2,0
504,air_9bbc673495e23532,0
505,air_9bf0ccac497c4af3,0
506,air_9bf595ef095572fb,0
507,air_9c6787aa03a45586,0
508,air_9ca2767761efff4d,0
509,air_9cd5e310f488bced,0
510,air_9cf2f1ba86229773,0
511,air_9d3482b4680aee88,0
512,air_9d452a881f7f2bb7,0
513,air_9d474ec2448c700d,0
514,air_9d5a980b211e1795,0
515,air_9d93d95720f2e831,0
516,air_9dc9483f717d73ee,0
517,air_9dd7d38b0f1760c4,0
518,air_9e920b758503ef54,0
519,air_9efaa7ded03c5a71,0
520,air_9f277fb7a2c1d842,0
521,air_9fc607777ad76b26,0
522,air_a083834e7ffe187e,0
523,air_a11473cc1eb9a27f,0
524,air_a17f0778617c76e2,0
525,air_a1fe8c588c8d2f30,0
526,air_a218912784bf767d,0
527,air_a21ffca0bea1661a,0
528,air_a239a44805932bab,0
529,air_a24bf50c3e90d583,0
530,air_a2567267116a3b75,0
531,air_a257c9749d8d0ff6,0
532,air_a271c9ba19e81d17,0
533,air_a2b29aa7feb4e36f,0
534,air_a304330715435390,0
535,air_a33461f4392ec62c,0
536,air_a373500730e2a9e0,0
537,air_a38f25e3399d1b25,0
538,air_a41b032371a63427,0
539,air_a49f1cf0634f13e5,0
540,air_a510dcfe979f09eb,0
541,air_a546cbf478a8b6e4,0
542,air_a55d17bd3f3033cb,0
543,air_a563896da3777078,0
544,air_a678e5b144ca24ce,0
545,air_a7404a854919e990,0
546,air_a8533b7a992bb0ca,0
547,air_a85f0c0c889f6b7e,0
548,air_a85f8c0bfd61889f,0
549,air_a88ac559064dec08,0
550,air_a9133955abccf071,0
551,air_a9178f19da58fe99,0
552,air_a9a380530c1e121f,0
553,air_aa0049fe3cc6f4d6,0
554,air_ab3ae0e410b20069,0
555,air_ab9746a0f83084b7,0
556,air_abcdc8115988a010,0
557,air_abf06fcca748dca5,0
558,air_ac7a7427c9ae12a5,0
559,air_ad13e71e21235131,0
560,air_ad60f6b76c9df7ed,0
561,air_ad7777590c884721,0
562,air_add9a575623726c8,0
563,air_ade6e836ffd1da64,0
564,air_aed3a8b49abe4a48,0
565,air_af03c277a167b2bd,0
566,air_af24e3e817dea1e5,0
567,air_af63df35857b16e6,0
568,air_b0a6a4c5e95c74cf,0
569,air_b162fb07fbbdea33,0
570,air_b192fb5310436005,0
571,air_b1a72bf1ebf4b8ef,0
572,air_b1bb1fae86617d7a,0
573,air_b1d822f75c9fc615,0
574,air_b2395df0e874078d,0
575,air_b23d0f519291247d,0
576,air_b259b4e4a51a690d,0
577,air_b28bed4b2e7167b7,0
578,air_b2a639cc7e02edf1,0
579,air_b2d97bd2337c5ba7,0
580,air_b2dcec37b83e2494,0
581,air_b30fffd7ab1e75a5,0
582,air_b3180b74332ba886,0
583,air_b3a824511477a4ed,0
584,air_b439391e72899756,0
585,air_b45b8e456f53942a,0
586,air_b4f32bcc399da2b9,0
587,air_b5598d12d1b84890,0
588,air_b5bdd318005d9aa4,0
589,air_b60cc7d6aee68194,0
590,air_b711b43ae472cb6b,0
591,air_b7fa3d2fca744dd2,0
592,air_b80fed1a07c817d2,0
593,air_b88192b35ac03c24,0
594,air_b8925441167c3152,0
595,air_b8a5ee69e5fdcc5b,0
596,air_b8d9e1624baaadc2,0
597,air_b9e27558fb8bd5c4,0
598,air_ba495cccc8f0f237,0
599,air_ba937bf13d40fb24,0
600,air_bac5f4441db21db9,0
601,air_baf28ac9f13a307d,0
602,air_bb09595bab7d5cfb,0
603,air_bb26d6d079594414,0
604,air_bb4ff06cd661ee9b,0
605,air_bbe1c1a47e09f161,0
606,air_bc991c51d6613745,0
607,air_bc9a129e11a2efe0,0
608,air_bcce1ea4350b7b72,0
609,air_bd74a9222edfdfe1,0
610,air_bdd32aa407c16335,0
611,air_bebd55ed63ab2422,0
612,air_bed603c423b7d9d4,0
613,air_bedd35489e666605,0
614,air_bf13014b6e3e60ca,0
615,air_bf21b8350771879b,0
616,air_bf617aa68d5f1cfa,0
617,air_bf7591560077332d,0
618,air_bfafaed35e213fd7,0
619,air_bfda7731a6c6fc61,0
620,air_c027e2b560442808,0
621,air_c0385db498b391e5,0
622,air_c1d5d165c055b866,0
623,air_c1ff20617c54fee7,0
624,air_c225148c0fcc5c72,0
625,air_c2626f5f86d57342,0
626,air_c26f027b5bc1f081,0
627,air_c28983412a7eefcf,0
628,air_c2c8435bdb3516d4,0
629,air_c31472d14e29cee8,0
630,air_c3585b0fba3998d0,0
631,air_c3bc011cca3bec65,0
632,air_c3dcaf3aeb18e20e,0
633,air_c47aa7493b15f297,0
634,air_c4fa5c562d5409ca,0
635,air_c52c63c781fe48f6,0
636,air_c5459218282bedd5,0
637,air_c66dbd2c37832d00,0
638,air_c6a164dd4060e960,0
639,air_c6aa2efba0ffc8eb,0
640,air_c6ffd6a93e6b68d6,0
641,air_c73d319ffabf287a,0
642,air_c759b6abeb552160,0
643,air_c77ee2b7d36da265,0
644,air_c7d30ab0e07f31d5,0
645,air_c7f78b4f3cba33ff,0
646,air_c8265ecc116f2284,0
647,air_c88467d88b2c8ecd,0
648,air_c8a657c8c5c93d69,0
649,air_c8c0ef02ed72053f,0
650,air_c8fe396d6c46275d,0
651,air_c92745dfdd2ec68a,0
652,air_c9ed65554b6edffb,0
653,air_c9f6de13be8b8f25,0
654,air_ca1315af9e073bd1,0
655,air_ca6ae8d49a2f1eaf,0
656,air_ca957d3a1529fbd3,0
657,air_cadf9cfb510a1d78,0
658,air_caf996ac27206301,0
659,air_cb25551c4cd8d9f3,0
660,air_cb7467aed805e7fe,0
661,air_cb935ff8610ba3d3,0
662,air_cbe139af83feb388,0
663,air_cbe867adcf44e14f,0
664,air_cc1a0e985ce63711,0
665,air_cc35590cd1da8554,0
666,air_ccd19a5bc5573ae5,0
667,air_cd4b301d5d3918d8,0
668,air_cd5f54969be9ed08,0
669,air_ced6297e5bdf5130,0
670,air_cf2229e64408d9fe,0
671,air_cf5ab75a0afb8af9,0
672,air_cfcc94797d2b5d3d,0
673,air_cfdeb326418194ff,0
674,air_d00161e19f08290b,0
675,air_d00a15343325e5f7,0
676,air_d07e57b21109304a,0
677,air_d0a1e69685259c92,0
678,air_d0e8a085d8dc83aa,0
679,air_d138b593ebda55cc,0
680,air_d1418d6fd6d634f2,0
681,air_d186b2cb0b9ce022,0
682,air_d1f20424f76cc78e,0
683,air_d34c0861a2be94cb,0
684,air_d3e7b5952cd09ccb,0
685,air_d44d210d2994f01b,0
686,air_d473620754bf9fc2,0
687,air_d477b6339b8ce69f,0
688,air_d4981cdde163b172,0
689,air_d4b5a4b04c5f2d04,0
690,air_d4d218b451f82c3d,0
691,air_d500b48a8735fbd3,0
692,air_d54d6fcb116fbed3,0
693,air_d5e0a20370c325c7,0
694,air_d69b08a175bc0387,0
695,air_d6b3e67261f07646,0
696,air_d8abb9e490abf94f,0
697,air_d97dabf7aae60da5,0
698,air_d98380a4aeb0290b,0
699,air_daa7947e1c47f5ed,0
700,air_dabfbd0ec951925a,0
701,air_dad0b6a36138f309,0
702,air_db1233ad855b34d5,0
703,air_db4b38ebe7a7ceff,0
704,air_db80363d35f10926,0
705,air_dbf64f1ce38c7442,0
706,air_dc0e080ba0a5e5af,0
707,air_dc71c6cc06cd1aa2,0
708,air_de692863bb2dd758,0
709,air_de803f7e324936b8,0
710,air_de88770300008624,0
711,air_dea0655f96947922,0
712,air_df507aec929ce5f6,0
713,air_df554c4527a1cfe6,0
714,air_df5cf5cd03eb68d0,0
715,air_df843e6b22e8d540,0
716,air_df9355c47c5df9d3,0
717,air_dfad598ff642dab7,0
718,air_dfe068a1bf85f395,0
719,air_e00fe7853c0100d6,0
720,air_e0118664da63a2d0,0
721,air_e01d99390355408d,0
722,air_e053c561f32acc28,0
723,air_e08b9cf82057a170,0
724,air_e0aee25b56a069f2,0
725,air_e0e69668214ff972,0
726,air_e0f241bd406810c0,0
727,air_e1b76fcb5208fb6b,0
728,air_e2208a79e2678432,0
729,air_e270aff84ac7e4c8,0
730,air_e3020992d5fe5dfd,0
731,air_e34c631c766f2766,0
732,air_e42bdc3377d1eee7,0
733,air_e483f5b3c4f310e0,0
734,air_e524c6a9e06cc3a1,0
735,air_e55abd740f93ecc4,0
736,air_e57dd6884595f60d,0
737,air_e58f669b6f1a08ce,0
738,air_e5cf003abcc5febb,0
739,air_e64de0a6bf0739af,0
740,air_e657ca554b0c008c,0
741,air_e700e390226d9985,0
742,air_e76a668009c5dabc,0
743,air_e7d2ac6d53d1b744,0
744,air_e7fbee4e3cfe65c5,0
745,air_e88bbe2ede3467aa,0
746,air_e89735e80d614a7e,0
747,air_e8ed9335d0c38333,0
748,air_e9ebf7fc520ac76a,0
749,air_ea6d0c3acf00b22a,0
750,air_ea7c16131980c837,0
751,air_eb120e6d384a17a8,0
752,air_eb20a89bba7dd3d0,0
753,air_eb2d2653586315dd,0
754,air_eb5788dba285e725,0
755,air_ebd31e812960f517,0
756,air_ebe02c3090271fa9,0
757,air_ec0fad2def4dcff0,0
758,air_eca4a5a191e8d993,0
759,air_eca5e0064dc9314a,0
760,air_ecab54b57a71b10d,0
761,air_eceb97ad6a7d4c07,0
762,air_ecf7f141339f1d57,0
763,air_eda179770dfa9f91,0
764,air_edd5e3d696a5811b,0
765,air_ee3a01f0c71a769f,0
766,air_ee3ba9af184c6c82,0
767,air_eec5e572b9eb9c23,0
768,air_eeeadee005c006a2,0
769,air_ef47430bcd6f6a89,0
770,air_ef789667e2e6fe96,0
771,air_ef920fa6f4b085f6,0
772,air_efc80d3f96b3aff7,0
773,air_efd70b04de878f25,0
774,air_efef1e3daecce07e,0
775,air_f068442ebb6c246c,0
776,air_f0c7272956e62f12,0
777,air_f0fb0975bdc2cdf9,0
778,air_f1094dbf2aef85d9,0
779,air_f180301886c21375,0
780,air_f183a514cb8ff4fa,0
781,air_f1f9027d4fa8f653,0
782,air_f267dd70a6a6b5d3,0
783,air_f26f36ec4dc5adb0,0
784,air_f2985de32bb792e0,0
785,air_f2c5a1f24279c531,0
786,air_f3602e4fa2f12993,0
787,air_f3f9824b7d70c3cf,0
788,air_f4936b91c9addbf0,0
789,air_f593fa60ac3541e2,0
790,air_f690c42545146e0a,0
791,air_f6b2489ccf873c3b,0
792,air_f6bfd27e2e174d16,0
793,air_f6cdaf7b7fdc6d78,0
794,air_f8233ad00755c35c,0
795,air_f85e21e543cf44f2,0
796,air_f88898cd09f40496,0
797,air_f911308e19d64236,0
798,air_f9168b23fdfc1e52,0
799,air_f927b2da69a82341,0
800,air_f957c6d6467d4d90,0
801,air_f96765e800907c77,0
802,air_fa12b40b02fecfd8,0
803,air_fa4ffc9057812fa2,0
804,air_fab092c35776a9b1,0
805,air_fb44f566d4f64a4e,0
806,air_fbadf737162a5ce3,0
807,air_fc477473134e9ae5,0
808,air_fcd4492c83f1c6b9,0
809,air_fcfbdcf7b1f82c6e,0
810,air_fd154088b1de6fa7,0
811,air_fd6aac1043520e83,0
812,air_fdc02ec4a3d21ea4,0
813,air_fdcfef8bd859f650,0
814,air_fe22ef5a9cbef123,0
815,air_fe58c074ec1445ea,0
816,air_fea5dc9594450608,0
817,air_fee8dcf4d619598e,0
818,air_fef9ccb3ba0da2f7,0
819,air_ffcc2d5087e1b476,0
820,air_fff68b929994bfbd,0
