,0,1,2,3,4,5,6,7,8
19,19,"Kawhi Leonard, SF",SA,74,33.4,3.41,-0.07,3.34,8.79
4,4,"Rudy Gobert, C",UTAH,81,33.9,-0.31,5.74,5.43,13.39
11,11,"Kevin Durant, SF",GS,62,33.4,5.22,-0.50,4.73,9.85
26,26,"John Wall, PG",WSH,78,36.4,3.79,-1.63,2.16,8.15
2,2,"LeBron James, SF",CLE,74,37.8,6.96,0.63,7.59,18.31
21,21,"Jrue Holiday, G",NO,67,32.7,1.66,1.84,3.51,8.39
13,13,"Giannis Antetokounmpo, F",MIL,80,35.6,1.25,1.88,3.13,9.68
20,20,"Myles Turner, C",IND,81,31.4,-0.14,3.01,2.86,8.47
40,40,"Nikola Mirotic, F",CHI,70,24.0,1.70,1.88,3.58,6.35
7,7,"Kyle Lowry, PG",TOR,60,37.4,4.84,1.23,6.07,12.19
8,8,"Bradley Beal, SG",WSH,77,34.9,4.37,0.18,4.55,12.15
39,39,"Blake Griffin, PF",LAC,61,34.0,2.29,0.22,2.51,6.38
9,9,"Russell Westbrook, PG",OKC,81,34.6,7.89,-4.08,3.81,11.49
38,38,"Danilo Gallinari, F",DEN,63,33.9,1.20,1.19,2.39,6.48
25,25,"Robert Covington, PF",PHI,67,31.6,-0.72,4.32,3.60,8.32
18,18,"Jae Crowder, F",BOS,72,32.4,1.56,1.94,3.49,8.86
0,RK,NAME,TEAM,GP,MPG,ORPM,DRPM,RPM,WINS
15,15,"Draymond Green, PF",GS,76,32.5,0.78,2.68,3.46,9.46
27,27,"Paul Millsap, F",ATL,69,34.0,0.49,2.49,2.98,8.08
28,28,"Victor Oladipo, SG",OKC,67,33.2,1.02,2.12,3.14,7.94
3,3,"James Harden, SG",HOU,81,36.4,7.89,-3.26,4.62,13.85
