,0,1,2,3,4,5,6,7,8
27,267,"James Jones, SG",CLE,48,7.9,-0.79,-0.26,-1.05,0.21
14,254,"Damjan Rudez, SF",ORL,45,7.0,-0.47,0.16,-0.32,0.33
37,277,"Nik Stauskas, G",PHI,80,27.4,-0.30,-1.45,-1.75,0.16
8,248,"Taj Gibson, C",CHI/OKC,78,25.5,-1.73,0.14,-1.59,0.36
21,261,"Lance Stephenson, G",NO/IND/MIN,18,20.1,-1.61,0.82,-0.79,0.27
12,252,"Isaiah Whitehead, G",BKN,73,22.5,-0.99,-0.57,-1.56,0.35
30,270,"Jodie Meeks, G",ORL,36,20.5,1.12,-2.60,-1.48,0.19
9,249,"Hollis Thompson, F",NO/PHI,40,18.8,-2.08,0.91,-1.17,0.36
11,251,"Dante Exum, PG",UTAH,66,18.6,-2.08,0.66,-1.42,0.35
0,RK,NAME,TEAM,GP,MPG,ORPM,DRPM,RPM,WINS
6,246,"Jaylen Brown, SG",BOS,78,17.2,-1.93,0.48,-1.45,0.38
7,247,"Shabazz Napier, PG",POR,53,9.7,-0.60,-0.19,-0.79,0.37
13,253,"Tyler Ennis, G",HOU/LAL,53,11.1,-0.63,-0.43,-1.06,0.33
20,260,"Skal Labissiere, PF",SAC,33,18.5,-1.61,0.40,-1.21,0.27
4,244,"Justise Winslow, SF",MIA,18,34.7,-2.49,1.56,-0.93,0.40
34,274,"Al Jefferson, C",IND,66,14.1,-1.15,-0.43,-1.58,0.18
39,279,"Fred VanVleet, SG",TOR,37,7.9,-1.80,0.66,-1.15,0.15
18,258,"Jake Layman, SF",POR,35,7.1,-0.49,0.22,-0.27,0.28
1,241,"Kenneth Faried, F",DEN,61,21.2,0.80,-2.16,-1.37,0.45
19,259,"Buddy Hield, SG",NO/SAC,82,23.0,0.48,-2.12,-1.65,0.27
29,269,"Malachi Richardson, G",SAC,22,9.0,-0.59,0.20,-0.39,0.20
3,243,"Stanley Johnson, SF",DET,77,17.8,-1.88,0.47,-1.41,0.42
22,262,"Anthony Bennett, F",BKN,23,11.5,1.50,-2.06,-0.56,0.25
33,273,"Metta World Peace, SF",LAL,25,6.4,-0.14,0.02,-0.12,0.19
2,242,"Pat Connaughton, G",POR,39,8.1,-0.05,0.13,0.09,0.42
17,257,"Meyers Leonard, C",POR,74,16.5,-0.84,-0.65,-1.49,0.31
35,275,"Cheick Diallo, PF",NO,17,11.7,-0.45,-0.19,-0.65,0.17
25,265,"Alex Poythress, F",PHI,6,26.2,-0.02,0.17,0.15,0.22
36,276,"Kyle Singler, F",OKC,32,12.0,-2.00,0.77,-1.23,0.17
26,266,"Chris McCullough, F",BKN/WSH,16,5.0,0.77,1.13,1.90,0.21
24,264,"Justin Anderson, SG",DAL/PHI,75,16.4,-0.70,-0.87,-1.57,0.24
10,250,"Dragan Bender, F",PHX,43,13.3,-0.44,-0.54,-0.97,0.35
16,256,"Chasson Randle, G",NY/PHI,26,11.5,1.25,-1.61,-0.36,0.31
28,268,"Marco Belinelli, SG",CHA,74,24.0,0.02,-1.71,-1.69,0.20
32,272,"Anthony Brown, F",NO/ORL,11,14.5,-0.68,0.63,-0.05,0.19
31,271,"Jeff Withey, C",UTAH,51,8.5,-1.24,0.04,-1.20,0.19
5,245,"Larry Nance Jr., PF",LAL,63,22.9,-1.39,-0.08,-1.47,0.39
23,263,"Ian Clark, G",GS,77,14.8,-0.64,-0.92,-1.55,0.24
15,255,"Sheldon Mac, G",WSH,30,9.6,-1.25,0.94,-0.31,0.31
38,278,"Ryan Kelly, PF",ATL,16,6.9,-1.44,1.59,0.15,0.15
40,280,"Derrick Favors, C",UTAH,50,23.7,-3.04,1.36,-1.68,0.14
