,addr_state
CA,541
NY,305
TX,211
FL,193
NJ,146
IL,110
MA,108
PA,105
GA,100
NC,99
OH,86
VA,85
AZ,73
WA,70
MD,66
MI,62
NV,57
MO,57
MN,57
CO,53
CT,49
OR,35
WI,32
SC,30
KS,28
LA,28
AL,27
KY,27
UT,21
OK,20
WV,18
DC,15
HI,12
NH,11
RI,11
AR,10
NM,10
DE,8
MT,7
AK,6
VT,5
WY,3
SD,3
