,Name,Rank,Team,Position,Played,SnapsPlayed,SnapsPerGame,SnapsPlayedPercentage,RushSnapPercentage,TargetSnapPercentage,TouchSnapPercentage,IntendedTouchSnapPercentage,FantasyPoints,FantasyPointSnapPercentage
0,Andre Brown,1,NYG,RB,10,226,22.6,31.1,32.29,7.5,37.6,39.79,97.1,43.0
1,Adrian Peterson,2,MIN,RB,16,771,48.2,74.5,45.1,6.6,50.3,51.8,307.39,39.9
2,CJ Spiller,3,BUF,RB,16,569,35.6,56.3,36.4,10.0,43.9,46.4,212.3,37.29
3,Marshawn Lynch,4,SEA,RB,16,674,42.1,66.3,46.7,4.5,50.1,51.2,246.6,36.6
4,Stevan Ridley,5,NE,RB,16,550,34.4,44.4,52.7,2.5,53.8,55.3,199.4,36.29
5,Jamaal Charles,6,KC,RB,16,577,36.1,54.8,49.4,8.3,55.5,57.7,204.5,35.4
6,Alfred Morris,7,WAS,RB,16,727,45.4,70.4,46.1,2.2,47.6,48.3,241.0,33.1
7,Michael Turner,8,ATL,RB,16,476,29.8,44.9,46.6,6.3,50.6,52.9,156.8,32.9
8,Doug Martin,9,TB,RB,16,821,51.3,78.3,38.9,8.5,44.8,47.4,262.6,32.0
9,Darren Sproles,10,NO,RB,13,444,34.2,40.1,10.8,23.4,27.7,34.2,141.1,31.8
10,Arian Foster,11,HOU,RB,16,830,51.9,73.59,42.3,7.0,47.1,49.3,262.1,31.6
11,DeAngelo Williams,12,CAR,RB,16,418,26.1,40.6,41.4,4.8,44.5,46.2,130.4,31.2
12,Reggie Bush,13,MIA,RB,16,573,35.79,55.3,39.6,8.9,45.7,48.5,171.8,30.0
13,Shonn Greene,14,NYJ,RB,16,568,35.5,52.9,48.6,5.5,51.9,54.0,167.4,29.5
14,Trent Richardson,15,CLE,RB,15,702,46.8,68.09,38.0,10.0,45.3,48.0,203.7,29.0
15,Willis McGahee,15,DEN,RB,10,391,39.1,57.2,42.7,8.4,49.4,51.2,113.2,29.0
16,Mikel Leshoure,17,DET,RB,14,529,37.79,49.5,40.6,9.1,47.1,49.7,149.19,28.2
17,Frank Gore,18,SF,RB,16,729,45.6,72.5,35.4,4.9,39.2,40.29,202.8,27.8
18,Danny Woodhead,18,NE,RB,16,420,26.2,33.9,18.1,13.1,27.6,31.2,116.7,27.8
19,James Starks,20,GB,RB,6,125,20.8,11.3,56.8,4.8,60.0,61.6,34.6,27.7
20,Ray Rice,21,BAL,RB,16,811,50.7,74.3,31.7,10.19,39.2,41.9,222.1,27.4
21,Joique Bell,22,DET,RB,16,382,23.9,31.9,21.5,18.1,35.1,39.5,103.9,27.2
22,Knowshon Moreno,23,DEN,RB,8,338,42.2,29.6,40.79,7.7,47.0,48.5,91.2,27.0
23,Ahmad Bradshaw,24,NYG,RB,14,600,42.9,58.8,36.79,5.2,40.7,42.0,156.0,26.0
24,Maurice Jones-Drew,25,JAX,RB,6,240,40.0,24.3,35.79,7.5,41.7,43.3,62.0,25.8
25,Matt Forte,26,CHI,RB,15,693,46.2,66.3,35.79,8.69,42.1,44.4,177.4,25.6
26,Pierre Thomas,27,NO,RB,15,384,25.6,36.79,27.3,13.8,37.5,41.1,94.7,24.7
27,Fred Jackson,28,BUF,RB,10,331,33.1,40.5,34.7,12.7,45.0,47.4,81.4,24.6
28,Felix Jones,29,DAL,RB,16,379,23.7,34.5,29.3,9.5,35.9,38.79,92.4,24.4
29,Ryan Mathews,30,LAC,RB,12,403,33.6,44.1,45.7,14.1,55.3,59.8,97.9,24.3
30,Bryce Brown,31,PHI,RB,16,334,20.9,29.6,34.4,5.7,38.29,40.1,80.0,24.0
31,DeMarco Murray,32,DAL,RB,10,469,46.9,42.6,34.29,9.0,41.8,43.3,111.4,23.8
32,BenJarvus Green-Ellis,33,CIN,RB,15,652,43.5,61.7,42.6,4.4,46.0,47.1,151.8,23.3
33,Isaac Redman,34,PIT,RB,14,309,22.1,29.0,35.6,7.4,41.7,43.0,71.4,23.1
34,Steven Jackson,35,LAR,RB,16,707,44.2,67.7,36.4,7.5,41.7,43.8,162.3,23.0
35,Chris Johnson,36,TEN,RB,16,813,50.8,81.59,33.9,6.0,38.4,40.0,175.5,21.6
36,Jonathan Dwyer,37,PIT,RB,13,380,29.2,35.6,41.1,6.6,45.8,47.6,80.9,21.3
37,Daniel Thomas,38,MIA,RB,12,323,26.9,35.4,28.2,6.8,32.79,35.0,68.09,21.1
38,LeSean McCoy,39,PHI,RB,12,695,57.9,61.7,28.8,9.6,36.5,38.4,145.3,20.9
39,LaRod Stephens-Howling,40,ARI,RB,14,338,24.1,32.1,32.5,8.9,37.6,41.4,70.2,20.8
40,Bilal Powell,41,NYJ,RB,14,397,28.4,37.0,27.7,9.1,32.0,36.79,81.7,20.6
41,Cedric Benson,42,GB,RB,5,199,39.79,57.2,35.7,7.5,42.7,43.2,40.5,20.39
42,Vick Ballard,43,IND,RB,16,579,36.2,49.5,36.4,4.7,39.4,41.1,114.6,19.8
43,Donald Brown,44,IND,RB,10,299,29.9,30.7,36.1,4.3,39.1,40.5,59.0,19.7
44,Jonathan Stewart,45,CAR,RB,9,312,34.7,30.3,29.8,7.4,35.29,37.2,61.3,19.6
45,Mike Tolbert,46,CAR,FB,16,446,27.9,43.3,12.1,8.69,18.2,20.9,87.1,19.5
46,Jacquizz Rodgers,47,ATL,RB,16,465,29.1,43.9,20.2,12.7,31.6,32.9,88.4,19.0
47,Darren McFadden,48,OAK,RB,12,592,49.3,54.8,36.5,10.6,43.6,47.1,110.5,18.7
48,Alex Green,49,GB,RB,12,347,28.9,31.5,38.9,8.4,44.1,47.3,58.9,17.0
49,Ronnie Brown,50,LAC,RB,14,355,25.4,34.6,13.0,16.89,26.8,29.9,59.1,16.6
50,Rashad Jennings,51,JAX,RB,10,331,33.1,33.5,30.5,7.9,36.29,38.4,53.3,16.1
51,Marcel Reece,52,OAK,FB,16,657,41.1,60.8,9.0,11.1,16.89,20.1,82.7,12.6
52,William Powell,53,ARI,RB,13,284,21.8,27.0,21.1,8.8,27.8,29.9,34.9,12.3
53,Ryan Williams,54,ARI,RB,5,140,28.0,41.2,41.4,7.1,46.4,48.6,16.8,12.0
54,Dexter McCluster,55,KC,RB,16,574,35.9,54.6,2.1,13.2,11.1,15.3,54.2,9.4
55,Michael Robinson,56,SEA,RB,16,328,20.5,32.29,3.7,4.59,7.6,8.19,29.5,9.0
56,Darrel Young,57,WAS,FB,16,323,20.2,31.3,4.3,2.8,6.8,7.1,28.9,8.9
57,John Kuhn,58,GB,FB,14,374,26.7,33.9,6.1,4.8,10.19,11.0,27.1,7.2
58,Will Johnson,59,PIT,FB,16,365,22.8,34.2,0.5,7.1,4.7,7.7,20.39,5.6
59,Vonta Leach,60,BAL,RB,16,456,28.5,41.8,2.0,5.3,6.6,7.2,23.5,5.2
60,Jed Collins,60,NO,FB,15,324,21.6,29.3,0.0,4.9,4.3,4.9,17.0,5.2
61,Erik Lorig,62,TB,FB,16,422,26.4,40.2,0.0,4.5,2.8,4.5,14.3,3.4
62,Henry Hynoski,63,NYG,FB,16,423,26.4,41.5,1.2,3.5,3.8,4.7,13.0,3.1
63,Bruce Miller,64,SF,FB,16,449,28.1,44.7,1.1,2.9,3.8,4.0,10.19,2.29
64,LeRon McClain,65,LAC,RB,16,333,20.8,32.5,4.2,3.0,6.6,7.2,7.1,2.1
65,Lex Hilliard,66,NYJ,RB,14,281,20.1,29.1,3.2,3.2,4.59,6.4,5.6,2.0
66,Jerome Felton,67,MIN,FB,16,395,24.7,38.2,0.0,1.0,0.8,1.0,3.5,0.9
67,Patrick DiMarco,68,KC,FB,5,120,24.0,40.79,0.0,0.8,0.0,0.8,0.0,0.0
68,Ryan Mathews,1,LAC,RB,16,471,29.4,42.4,60.5,7.0,66.0,67.5,184.4,39.2
69,Jamaal Charles,2,KC,RB,15,845,56.3,78.3,30.7,12.3,38.9,43.0,308.0,36.4
70,Edwin Baker,3,CLE,RB,3,97,32.29,51.3,44.3,9.3,52.6,53.6,34.79,35.9
71,Stevan Ridley,4,NE,RB,14,333,23.8,27.8,53.5,3.6,56.5,57.1,117.5,35.29
72,Ahmad Bradshaw,5,IND,RB,3,102,34.0,29.9,40.2,7.8,47.1,48.0,34.79,34.1
73,Marshawn Lynch,6,SEA,RB,16,711,44.4,70.3,42.3,6.2,47.4,48.5,239.3,33.7
74,Knowshon Moreno,6,DEN,RB,16,703,43.9,58.2,34.29,10.5,42.8,44.8,236.6,33.7
75,Donald Brown,8,IND,RB,16,373,23.3,34.9,27.3,9.4,34.6,36.7,123.1,33.0
76,Brandon Jacobs,9,NYG,RB,7,143,20.39,18.39,40.6,4.9,42.0,45.5,47.1,32.9
77,Jonathan Grimes,10,HOU,RB,2,58,29.0,46.0,36.2,10.3,46.6,46.6,18.89,32.6
78,LeSean McCoy,11,PHI,RB,16,872,54.5,79.09,36.0,7.3,42.0,43.3,278.6,31.9
79,CJ Spiller,12,BUF,RB,15,389,25.9,33.5,51.7,10.5,60.4,62.2,122.4,31.5
80,Andre Ellington,13,ARI,RB,15,405,27.0,37.4,29.1,14.1,38.79,43.2,126.3,31.2
81,Chris Ivory,14,NYJ,RB,15,331,22.1,31.5,55.0,2.1,55.6,57.1,102.3,30.9
82,Eddie Lacy,15,GB,RB,15,679,45.3,60.5,41.8,6.5,47.0,48.3,207.5,30.6
83,DeMarco Murray,15,DAL,RB,14,671,47.9,67.3,32.29,9.8,40.2,42.2,205.1,30.6
84,Reggie Bush,17,DET,RB,14,611,43.6,53.8,36.5,13.1,45.3,49.6,185.2,30.3
85,Adrian Peterson,18,MIN,RB,14,674,48.1,64.7,41.4,5.9,45.7,47.3,203.7,30.2
86,Danny Woodhead,19,LAC,RB,16,491,30.7,44.2,21.6,17.7,37.1,39.29,147.4,30.0
87,Shane Vereen,20,NE,RB,8,294,36.79,47.0,15.0,23.5,31.0,38.4,87.5,29.8
88,Joique Bell,21,DET,RB,16,554,34.6,48.8,30.0,12.5,39.5,42.4,163.69,29.5
89,DeAngelo Williams,22,CAR,RB,15,470,31.3,45.7,42.8,7.7,48.3,50.4,137.6,29.3
90,Bobby Rainey,23,TB,RB,16,327,20.39,31.6,45.9,5.8,50.8,52.0,95.2,29.1
91,Darren Sproles,24,NO,RB,15,357,23.8,31.7,14.8,24.9,34.7,39.79,102.4,28.7
92,Matt Forte,25,CHI,RB,16,928,58.0,87.8,31.0,10.19,39.1,41.3,263.3,28.4
93,Fred Jackson,26,BUF,RB,16,663,41.4,57.1,31.2,9.8,38.2,41.0,187.1,28.2
94,Alfred Morris,27,WAS,RB,16,604,37.79,52.8,45.7,2.0,47.2,47.7,169.3,28.0
95,Zac Stacy,28,LAR,RB,14,566,40.4,56.4,44.2,6.2,48.8,50.4,157.4,27.8
96,Steven Jackson,29,ATL,RB,12,417,34.79,38.7,37.4,11.8,45.3,49.2,115.3,27.6
97,Rashard Mendenhall,30,ARI,RB,15,459,30.6,42.3,47.3,4.59,51.2,51.9,126.1,27.5
98,Giovani Bernard,31,CIN,RB,16,613,38.29,54.2,27.7,11.6,36.9,39.29,166.9,27.2
99,Arian Foster,32,HOU,RB,8,327,40.9,49.8,37.0,10.7,43.7,47.7,86.5,26.5
100,Le'Veon Bell,33,PIT,RB,13,677,52.1,64.4,36.0,9.69,42.7,45.8,171.9,25.4
101,Rashad Jennings,34,OAK,RB,15,548,36.5,52.9,29.7,8.6,36.29,38.29,138.5,25.3
102,BenJarvus Green-Ellis,35,CIN,RB,16,464,29.0,41.0,47.4,1.7,48.3,49.1,115.8,25.0
103,Chris Johnson,36,TEN,RB,16,798,49.9,74.2,35.0,6.5,40.2,41.5,198.2,24.8
104,Arian Foster,1,HOU,RB,13,621,47.8,56.0,41.9,9.5,48.1,51.5,235.5,37.9
105,Marshawn Lynch,2,SEA,RB,16,704,44.0,66.59,39.79,6.8,45.0,46.6,265.3,37.7
106,DeMarco Murray,3,DAL,RB,16,783,48.9,73.9,50.2,8.19,57.5,58.4,294.1,37.6
107,Jeremy Hill,4,CIN,RB,16,501,31.3,47.2,44.3,6.4,49.7,50.7,183.9,36.7
108,CJ Anderson,5,DEN,RB,15,495,33.0,43.9,36.2,8.9,43.0,45.1,177.3,35.79
109,Ryan Mathews,6,LAC,RB,6,165,27.5,15.4,44.8,6.1,50.3,50.9,57.9,35.1
110,Mark Ingram,7,NO,RB,13,470,36.2,41.2,48.1,7.7,54.3,55.7,162.9,34.7
111,Eddie Lacy,8,GB,RB,16,687,42.9,65.4,35.79,8.0,41.9,43.8,230.6,33.6
112,Jamaal Charles,9,KC,RB,15,650,43.3,64.5,31.7,9.1,37.79,40.79,210.4,32.4
113,Tre Mason,9,LAR,RB,12,368,30.7,36.7,48.6,7.1,53.0,55.7,119.3,32.4
114,Knowshon Moreno,11,MIA,RB,3,68,22.7,19.39,45.6,1.5,47.1,47.1,21.6,31.8
115,Darren Sproles,12,PHI,RB,15,337,22.5,28.7,16.89,18.39,28.8,35.29,105.6,31.3
116,Le'Veon Bell,13,PIT,RB,16,929,58.1,83.5,31.2,11.3,40.2,42.5,287.5,30.9
117,Ahmad Bradshaw,14,IND,RB,10,382,38.2,50.7,23.6,12.3,33.5,35.9,116.5,30.5
118,Chris Ivory,15,NYJ,RB,16,444,27.8,40.79,44.6,6.1,48.6,50.7,134.3,30.2
119,Isaiah Crowell,16,CLE,RB,16,385,24.1,36.6,38.4,3.6,40.79,42.1,113.4,29.5
120,Branden Oliver,17,LAC,RB,14,373,26.6,34.9,42.9,12.1,52.5,55.0,109.3,29.3
121,Lamar Miller,18,MIA,RB,16,642,40.1,58.6,33.6,8.1,39.6,41.7,185.4,28.9
122,Steven Jackson,18,ATL,RB,15,420,28.0,38.9,45.2,6.4,50.0,51.7,121.5,28.9
123,Kerwynn Williams,18,ARI,RB,4,89,22.2,17.0,59.6,6.7,61.8,66.3,25.7,28.9
124,Justin Forsett,21,BAL,RB,16,707,44.2,65.7,33.2,8.3,39.5,41.6,202.9,28.7
125,Alfred Morris,21,WAS,RB,16,595,37.2,56.5,44.5,4.4,47.4,48.9,170.9,28.7
126,Matt Asiata,23,MIN,RB,15,525,35.0,51.3,31.2,12.0,39.6,43.2,150.19,28.6
127,Giovani Bernard,24,CIN,RB,13,509,39.2,47.9,33.0,11.6,41.5,44.6,144.9,28.5
128,Joique Bell,25,DET,RB,15,615,41.0,56.3,36.29,8.6,41.8,44.9,164.2,26.7
129,Ronnie Hillman,26,DEN,RB,8,311,38.9,27.6,34.1,10.9,40.79,45.0,81.3,26.1
130,Rashad Jennings,27,NYG,RB,11,418,38.0,37.1,40.0,9.8,47.1,49.8,108.5,26.0
131,Pierre Thomas,27,NO,RB,11,300,27.3,27.9,15.0,18.3,30.0,33.29,78.0,26.0
132,Stevan Ridley,29,NE,RB,6,187,31.2,43.2,50.3,2.7,52.4,52.9,48.0,25.7
133,Terrance West,30,CLE,RB,14,402,28.7,38.2,42.5,3.2,45.3,45.8,101.7,25.3
134,Jonathan Dwyer,30,ARI,RB,2,47,23.5,34.1,34.0,6.4,38.29,40.4,11.9,25.3
135,Matt Forte,32,CHI,RB,16,976,61.0,92.2,27.3,13.3,37.7,40.6,244.6,25.1
136,Andre Ellington,33,ARI,RB,12,528,44.0,62.0,38.1,12.1,46.8,50.2,131.5,24.9
137,CJ Spiller,34,BUF,RB,9,188,20.9,31.7,41.0,11.7,51.1,52.7,46.4,24.7
138,Andre Williams,35,NYG,RB,16,520,32.5,46.1,41.7,7.1,45.2,48.8,127.1,24.4
139,Alfred Blue,35,HOU,RB,16,336,21.0,30.3,50.3,5.4,54.8,55.7,82.1,24.4
140,Reggie Bush,37,DET,RB,11,277,25.2,25.3,27.4,20.2,41.9,47.7,67.0,24.2
141,Ben Tate,38,MIN,RB,11,282,25.6,28.4,42.2,4.3,45.4,46.5,67.0,23.8
142,Roy Helu,39,WAS,RB,14,364,26.0,34.5,11.0,12.9,22.5,23.9,85.3,23.4
143,Denard Robinson,40,JAX,RB,13,391,30.1,42.5,34.5,7.9,40.7,42.7,90.6,23.2
144,Chris Johnson,41,NYJ,RB,16,398,24.9,36.6,38.9,8.5,45.0,47.5,91.4,23.0
145,Frank Gore,42,SF,RB,16,647,40.4,61.2,39.4,2.9,41.1,42.3,147.4,22.8
146,Fred Jackson,43,BUF,RB,14,548,39.1,51.6,25.9,16.39,38.1,42.5,122.7,22.4
147,Jonathan Stewart,44,CAR,RB,13,546,42.0,49.5,32.1,5.7,36.6,37.7,121.0,22.2
148,LeSean McCoy,45,PHI,RB,16,775,48.4,65.9,40.6,4.9,44.4,45.5,171.4,22.1
149,Bishop Sankey,45,TEN,RB,16,354,22.1,36.6,42.9,6.5,48.0,49.4,78.2,22.1
150,Adrian Peterson,47,MIN,RB,1,43,43.0,34.7,48.8,7.0,53.5,55.8,9.3,21.6
151,Carlos Hyde,48,SF,RB,14,292,20.9,27.6,28.4,5.5,32.5,33.9,62.1,21.3
152,Bobby Rainey,49,TB,RB,15,382,25.5,38.4,24.6,11.8,33.5,36.6,78.09,20.39
153,Jerick McKinnon,50,MIN,RB,11,331,30.1,42.8,34.1,12.4,42.3,46.5,67.3,20.3
154,Toby Gerhart,50,JAX,RB,14,302,21.6,29.1,33.79,7.9,40.4,41.7,61.2,20.3
155,Benjamin Cunningham,52,LAR,RB,16,399,24.9,39.7,16.5,13.3,27.8,29.8,79.8,20.0
156,Doug Martin,53,TB,RB,11,345,31.4,34.7,39.1,5.8,42.9,44.9,67.8,19.7
157,Shane Vereen,54,NE,RB,16,595,37.2,52.6,16.1,13.1,25.0,29.2,113.8,19.1
158,Trent Richardson,55,IND,RB,15,483,32.2,41.8,32.9,7.0,38.5,40.0,90.8,18.8
159,Charles Sims,56,TB,RB,8,231,28.9,41.0,28.6,11.7,36.79,40.29,41.5,18.0
160,DeAngelo Williams,56,CAR,RB,6,135,22.5,12.2,46.7,4.4,50.4,51.1,24.3,18.0
161,Darren McFadden,58,OAK,RB,16,513,32.1,49.9,30.2,10.9,37.4,41.3,84.6,16.5
162,Jacquizz Rodgers,59,ATL,RB,16,350,21.9,32.4,16.6,11.4,24.9,28.0,51.0,14.6
163,Montee Ball,60,DEN,RB,5,191,38.2,20.9,28.8,6.8,33.5,35.6,27.4,14.3
164,Donald Brown,61,LAC,RB,13,352,27.1,33.0,24.1,11.6,32.4,35.79,43.4,12.3
165,Danny Woodhead,62,LAC,RB,3,68,22.7,32.5,22.1,8.8,29.4,30.9,7.2,10.6
166,Marcel Reece,63,OAK,FB,15,385,25.7,37.4,5.5,15.3,15.1,20.8,39.0,10.1
167,Mike Tolbert,64,CAR,FB,8,220,27.5,39.7,16.8,7.7,22.3,24.5,17.1,7.8
168,Darrin Reaves,65,CAR,RB,6,153,25.5,37.6,20.9,5.2,24.2,26.1,10.8,7.1
169,Bruce Miller,66,SF,FB,16,461,28.8,43.6,1.3,5.4,5.2,6.7,29.8,6.5
170,Kyle Juszczyk,67,BAL,FB,16,454,28.4,42.2,0.0,5.9,4.2,5.9,20.2,4.4
171,Kiero Small,68,CLE,FB,3,87,29.0,43.7,0.0,0.0,0.0,0.0,0.0,0.0
172,Karlos Williams,1,BUF,RB,11,243,22.1,22.6,38.29,5.8,42.8,44.0,113.3,46.6
173,Joseph Randle,2,DAL,RB,6,145,24.2,30.5,52.4,6.9,59.3,59.3,64.09,44.2
174,David Johnson,3,ARI,RB,16,413,25.8,37.4,30.3,13.8,39.0,44.1,173.8,42.1
175,Todd Gurley,4,LAR,RB,13,456,35.1,47.4,50.2,5.7,54.8,55.9,187.4,41.1
176,Thomas Rawls,5,SEA,RB,13,289,22.2,33.29,50.9,3.8,54.0,54.7,118.6,41.0
177,Mike Gillislee,6,BUF,RB,5,112,22.4,32.9,42.0,6.2,47.3,48.2,45.6,40.7
178,Tim Hightower,7,NO,RB,8,192,24.0,34.5,50.0,6.8,56.2,56.8,74.4,38.79
179,LeGarrette Blount,8,NE,RB,12,309,25.8,35.29,53.4,2.29,55.3,55.7,116.6,37.7
180,Adrian Peterson,9,MIN,RB,16,666,41.6,65.09,49.1,5.4,53.6,54.5,230.7,34.6
181,Jeremy Hill,10,CIN,RB,16,459,28.7,43.3,48.6,4.09,51.9,52.7,155.3,33.79
182,Chris Ivory,11,NYJ,RB,15,537,35.79,48.2,46.0,6.9,51.6,52.9,172.7,32.2
183,Jeremy Langford,12,CHI,RB,16,391,24.4,36.0,37.9,10.7,43.5,48.6,125.6,32.1
184,Rashad Jennings,13,NYG,RB,16,425,26.6,38.2,45.9,9.4,52.7,55.3,135.9,32.0
185,Doug Martin,14,TB,RB,16,624,39.0,57.0,46.2,7.1,51.4,53.2,199.3,31.9
186,Devonta Freeman,15,ATL,RB,15,767,51.1,67.3,34.6,12.6,44.1,47.2,243.4,31.7
187,Lance Dunbar,16,DAL,RB,4,92,23.0,33.9,5.4,25.0,28.3,30.4,28.2,30.7
188,Jamaal Charles,17,KC,RB,5,264,52.8,78.09,26.9,11.4,34.79,38.29,80.09,30.3
189,Lamar Miller,18,MIA,RB,16,632,39.5,61.1,30.7,9.0,38.1,39.7,184.9,29.3
190,DeMarco Murray,19,PHI,RB,15,481,32.1,41.5,40.1,11.4,49.3,51.6,140.4,29.2
191,Le'Veon Bell,20,PIT,RB,6,301,50.2,80.9,37.5,8.6,45.5,46.2,87.2,29.0
192,Arian Foster,21,HOU,RB,4,190,47.5,33.7,33.2,14.7,44.7,47.9,55.0,28.9
193,Mark Ingram,22,NO,RB,12,535,44.6,62.5,31.0,11.2,40.4,42.2,153.4,28.7
194,James White,23,NE,RB,14,290,20.7,25.9,7.6,18.6,21.4,26.2,82.6,28.5
195,Matt Forte,24,CHI,RB,13,603,46.4,55.5,36.2,9.6,43.4,45.8,170.7,28.3
196,Dion Lewis,24,NE,RB,7,298,42.6,51.8,16.39,16.8,28.5,33.2,84.2,28.3
197,Charles Sims,26,TB,RB,16,457,28.6,41.7,23.4,15.3,34.6,38.7,129.0,28.2
198,Matt Jones,27,WAS,RB,13,340,26.2,31.7,42.4,7.4,47.9,49.7,95.4,28.1
199,Andre Ellington,28,ARI,RB,10,213,21.3,19.3,21.1,11.3,28.2,32.4,59.7,28.0
200,Chris Johnson,29,ARI,RB,11,366,33.29,48.1,53.6,3.6,55.2,57.1,101.2,27.7
201,DeAngelo Williams,30,PIT,RB,16,701,43.8,65.2,28.5,6.7,34.2,35.2,191.4,27.3
202,Danny Woodhead,30,LAC,RB,16,598,37.4,51.0,16.39,17.7,29.8,34.1,163.1,27.3
203,DuJuan Harris,32,SF,RB,4,98,24.5,34.9,49.0,14.3,58.2,63.3,26.6,27.1
204,Ronnie Hillman,33,DEN,RB,16,525,32.79,47.3,39.4,6.7,44.0,46.1,137.4,26.2
205,Alfred Blue,34,HOU,RB,16,376,23.5,31.6,48.7,4.3,52.7,52.9,96.7,25.7
206,Ameer Abdullah,34,DET,RB,16,358,22.4,33.1,39.9,10.6,46.9,50.6,92.0,25.7
207,Eddie Lacy,36,GB,RB,15,471,31.4,41.0,39.7,5.9,43.9,45.6,120.6,25.6
208,Javorius Allen,36,BAL,RB,16,393,24.6,34.6,34.9,15.8,46.3,50.6,100.7,25.6
209,Darren McFadden,38,DAL,RB,16,614,38.4,59.7,38.9,8.6,45.6,47.7,155.69,25.4
210,Isaiah Crowell,39,CLE,RB,16,476,29.8,42.9,38.9,4.59,42.9,43.5,118.8,25.0
211,LeSean McCoy,40,BUF,RB,12,598,49.8,55.6,33.9,8.4,39.29,42.3,146.69,24.5
212,Jonathan Stewart,41,CAR,RB,13,607,46.7,55.1,39.9,3.5,42.5,43.3,146.8,24.2
213,Latavius Murray,42,OAK,RB,16,683,42.7,64.4,38.9,7.8,44.9,46.7,163.8,24.0
214,Darren Sproles,42,PHI,RB,16,394,24.6,34.0,21.1,21.1,35.0,42.1,94.5,24.0
215,Bilal Powell,44,NYJ,RB,11,369,33.5,33.1,19.0,17.1,31.7,36.0,88.1,23.9
216,Carlos Hyde,45,SF,RB,7,295,42.1,39.9,39.0,5.09,42.7,44.1,70.3,23.8
217,James Starks,46,GB,RB,16,528,33.0,46.0,28.0,10.0,36.2,38.1,123.3,23.4
218,CJ Anderson,47,DEN,RB,15,500,33.29,45.0,30.4,7.2,35.4,37.6,116.3,23.3
219,Frank Gore,48,IND,RB,16,691,43.2,62.5,37.6,8.4,42.5,46.0,159.4,23.1
220,Shane Vereen,49,NYG,RB,16,432,27.0,38.79,14.1,18.8,27.8,32.9,99.4,23.0
221,Giovani Bernard,50,CIN,RB,16,583,36.4,55.0,26.4,11.3,34.79,37.7,132.19,22.7
222,Charcandrick West,50,KC,RB,15,497,33.1,49.6,32.2,6.8,36.2,39.0,112.8,22.7
223,Alfred Morris,52,WAS,RB,16,385,24.1,35.9,52.5,3.4,55.1,55.8,86.6,22.5
224,Marshawn Lynch,52,SEA,RB,7,310,44.3,28.6,35.79,6.8,40.0,42.6,69.7,22.5
225,Antonio Andrews,54,TEN,RB,14,422,30.1,40.7,33.9,6.9,39.1,41.0,91.04,21.6
226,Jonathan Grimes,55,HOU,RB,14,282,20.1,23.7,19.89,11.0,29.4,31.2,59.5,21.1
227,Theo Riddick,56,DET,RB,16,471,29.4,43.5,9.1,21.0,26.1,30.1,99.0,21.0
228,Chris Thompson,57,WAS,RB,13,275,21.2,25.7,12.7,17.5,25.5,30.2,57.6,20.9
229,Ahmad Bradshaw,58,IND,RB,6,159,26.5,35.7,19.5,8.8,25.8,28.3,32.9,20.7
230,Dexter McCluster,59,TEN,RB,12,311,25.9,34.0,17.7,13.2,27.7,30.9,60.7,19.5
231,Shaun Draughn,60,SF,RB,11,263,23.9,30.5,29.7,13.3,39.9,43.0,50.9,19.39
232,TJ Yeldon,61,JAX,RB,12,620,51.7,58.6,29.4,7.4,35.2,36.79,119.9,19.3
233,Justin Forsett,62,BAL,RB,10,478,47.8,66.59,31.6,8.6,38.1,40.2,91.4,19.1
234,Melvin Gordon,63,LAC,RB,14,396,28.3,38.7,46.5,9.3,54.8,55.8,75.3,19.0
235,Duke Johnson,64,CLE,RB,16,564,35.2,50.9,18.39,13.1,29.3,31.6,103.3,18.3
236,Mike Tolbert,65,CAR,FB,16,422,26.4,38.29,14.7,5.5,19.0,20.1,65.0,15.4
237,Kyle Juszczyk,66,BAL,FB,16,383,23.9,33.7,0.5,14.6,11.2,15.1,56.4,14.7
238,Ty Montgomery,67,GB,RB,6,242,40.29,24.3,1.2,7.9,7.4,9.1,27.0,11.2
239,Mike Davis,68,SF,RB,6,126,21.0,21.5,27.8,10.3,33.29,38.1,9.6,7.6
240,Patrick DiMarco,69,ATL,FB,16,365,22.8,32.0,0.3,4.7,3.8,4.9,23.0,6.3
241,Ryan Mathews,1,PHI,RB,13,287,22.1,25.3,54.0,4.9,58.5,58.9,131.6,45.9
242,Tevin Coleman,2,ATL,RB,13,353,27.2,33.9,33.4,11.3,42.2,44.8,160.1,45.4
243,LeGarrette Blount,3,NE,RB,16,529,33.1,47.2,56.5,1.5,57.8,58.0,225.9,42.7
244,Ezekiel Elliott,4,DAL,RB,15,716,47.7,67.5,45.0,5.6,49.4,50.6,293.39,41.0
245,LeSean McCoy,5,BUF,RB,15,645,43.0,60.6,36.29,9.0,44.2,45.3,248.3,38.5
246,Danny Woodhead,6,LAC,RB,2,55,27.5,5.09,34.5,14.5,45.5,49.1,21.1,38.4
247,Ameer Abdullah,7,DET,RB,2,57,28.5,5.5,31.6,8.8,40.4,40.4,21.8,38.2
248,Devonta Freeman,8,ATL,RB,16,605,37.79,58.2,37.5,10.7,46.4,48.3,230.1,38.0
249,Mark Ingram,9,NO,RB,16,530,33.1,46.0,38.7,10.9,47.4,49.6,196.2,37.0
250,Jeremy Hill,10,CIN,RB,15,443,29.5,40.79,50.1,6.1,54.9,56.2,155.3,35.1
251,Rob Kelley,11,WAS,RB,15,345,23.0,32.5,48.7,5.2,52.2,53.9,120.6,35.0
252,David Johnson,12,ARI,RB,16,964,60.2,83.8,30.4,12.4,38.7,42.8,327.8,34.0
253,Latavius Murray,13,OAK,RB,14,525,37.5,46.9,37.1,8.19,43.4,45.3,175.2,33.4
254,Cameron Artis-Payne,14,CAR,RB,3,84,28.0,7.6,42.9,1.2,44.0,44.0,27.5,32.7
255,Jay Ajayi,15,MIA,RB,15,582,38.79,61.4,44.7,6.0,49.3,50.7,188.3,32.4
256,Andre Williams,16,LAC,RB,1,27,27.0,13.0,66.7,7.4,66.7,74.09,8.69,32.2
257,Melvin Gordon,17,LAC,RB,13,661,50.8,61.8,38.4,8.6,44.6,47.0,209.6,31.7
258,Matt Forte,18,NYJ,RB,14,488,34.9,46.8,44.7,8.8,50.8,53.5,153.6,31.5
259,Le'Veon Bell,19,PIT,RB,12,781,65.09,72.09,33.4,12.0,43.1,45.6,242.4,31.0
260,Carlos Hyde,20,SF,RB,13,535,41.2,51.7,40.6,6.2,45.6,46.7,165.1,30.9
261,Terrance West,20,BAL,RB,16,443,27.7,39.1,43.6,10.19,51.2,53.7,137.0,30.9
262,Jordan Howard,22,CHI,RB,15,654,43.6,64.7,38.5,7.6,43.0,46.2,201.1,30.7
263,Matt Jones,23,WAS,RB,7,221,31.6,20.8,44.8,3.6,48.4,48.4,67.3,30.5
264,DeAngelo Williams,24,PIT,RB,9,271,30.1,25.0,36.2,10.0,42.8,46.1,82.1,30.3
265,CJ Prosise,25,SEA,RB,6,147,24.5,13.8,20.39,12.9,32.0,33.29,44.0,29.9
266,Spencer Ware,26,KC,RB,14,546,39.0,53.3,39.2,7.7,45.2,46.9,160.9,29.5
267,Isaiah Crowell,27,CLE,RB,16,568,35.5,55.1,34.9,9.3,41.9,44.2,165.1,29.1
268,Christine Michael,28,GB,RB,15,398,26.5,38.6,37.2,7.3,42.7,44.5,115.0,28.9
269,Kenneth Dixon,29,BAL,RB,12,258,21.5,22.8,34.1,15.9,45.7,50.0,72.4,28.1
270,DeMarco Murray,30,TEN,RB,16,861,53.8,81.0,34.0,7.8,40.4,42.0,240.8,28.0
271,CJ Anderson,31,DEN,RB,7,313,44.7,29.0,35.1,7.7,40.29,42.8,86.5,27.6
272,Robert Turbin,32,IND,RB,15,300,20.0,27.4,15.7,11.7,24.3,27.3,82.3,27.4
273,Frank Gore,33,IND,RB,16,650,40.6,59.3,40.5,7.2,46.3,47.7,176.3,27.1
274,Bilal Powell,34,NYJ,RB,16,531,33.2,50.9,24.7,13.9,35.6,38.6,139.0,26.2
275,Lamar Miller,35,HOU,RB,14,624,44.6,55.5,42.9,6.2,47.9,49.2,160.1,25.7
276,Theo Riddick,35,DET,RB,10,423,42.3,40.79,21.7,15.8,34.29,37.6,108.8,25.7
277,Zach Zenner,37,DET,RB,14,293,20.9,28.3,30.0,7.8,36.2,37.9,75.0,25.6
278,Matt Asiata,38,MIN,RB,16,407,25.4,38.7,29.7,9.3,37.6,39.1,100.5,24.7
279,Ty Montgomery,39,GB,RB,15,392,26.1,36.0,19.6,14.3,30.9,33.9,96.5,24.6
280,Jonathan Stewart,40,CAR,RB,13,566,43.5,51.1,38.5,3.7,39.9,42.2,138.4,24.5
281,Chris Ivory,41,JAX,RB,11,311,28.3,28.0,37.6,9.0,44.1,46.6,74.5,24.0
282,James White,42,NE,RB,16,427,26.7,38.1,9.1,20.1,23.2,29.3,101.7,23.8
283,Eddie Lacy,43,GB,RB,5,166,33.2,15.3,42.8,4.2,45.2,47.0,38.79,23.4
284,Rashad Jennings,44,NYG,RB,13,443,34.1,41.8,40.9,9.5,48.8,50.3,103.4,23.3
285,Shane Vereen,45,NYG,RB,5,117,23.4,11.0,28.2,16.2,37.6,44.4,27.2,23.2
286,Dion Lewis,46,NE,RB,7,163,23.3,14.5,39.29,14.7,49.7,54.0,37.7,23.1
287,Jacquizz Rodgers,47,TB,RB,10,341,34.1,31.8,37.79,4.7,41.6,42.5,77.8,22.8
288,Devontae Booker,48,DEN,RB,16,497,31.1,46.1,35.0,9.3,41.2,44.3,111.7,22.5
289,Doug Martin,49,TB,RB,8,321,40.1,28.2,44.9,5.0,49.2,49.8,71.5,22.3
290,Jeremy Langford,50,CHI,RB,12,248,20.7,24.5,25.0,10.9,32.7,35.9,54.2,21.9
291,Darren Sproles,51,PHI,RB,15,511,34.1,45.1,18.39,13.9,28.6,32.29,110.5,21.6
292,Paul Perkins,52,NYG,RB,14,289,20.6,27.2,38.79,8.3,43.9,47.1,61.8,21.4
293,Giovani Bernard,53,CIN,RB,10,394,39.4,36.2,23.1,12.9,33.0,36.0,83.3,21.1
294,Todd Gurley,54,LAR,RB,16,741,46.3,73.8,37.5,7.8,43.3,45.3,155.19,20.9
295,Jerick McKinnon,55,MIN,RB,15,511,34.1,48.5,31.1,10.4,39.7,41.7,105.4,20.6
296,Thomas Rawls,55,SEA,RB,9,303,33.7,28.5,36.0,5.6,40.29,41.6,62.5,20.6
297,Chris Thompson,57,WAS,RB,16,489,30.6,46.0,13.9,12.7,23.9,26.6,98.5,20.1
298,Duke Johnson,58,CLE,RB,16,457,28.6,44.4,16.0,16.2,27.8,32.4,91.2,20.0
299,Charcandrick West,59,KC,RB,15,358,23.9,35.0,24.6,9.5,32.4,34.1,66.09,18.5
300,Charles Sims,60,TB,RB,7,238,34.0,20.9,21.4,13.4,31.5,34.9,43.9,18.39
301,Justin Forsett,61,DEN,RB,9,265,29.4,28.8,32.79,10.19,40.4,43.0,41.6,15.7
302,Arian Foster,62,MIA,RB,4,85,21.2,9.0,25.9,11.8,32.9,37.6,13.3,15.6
303,TJ Yeldon,63,JAX,RB,15,576,38.4,51.8,22.6,11.8,31.2,34.4,87.7,15.2
304,James Starks,64,GB,RB,9,265,29.4,24.4,23.8,9.4,30.9,33.2,39.9,15.1
305,Byron Marshall,65,PHI,RB,3,75,25.0,34.2,25.3,6.7,29.3,32.0,7.4,9.9
306,Kyle Juszczyk,66,BAL,FB,16,463,28.9,40.79,1.1,10.6,9.1,11.7,36.79,7.9
307,Mike Tolbert,67,CAR,FB,16,323,20.2,29.2,10.8,4.59,13.9,15.5,24.6,7.6
308,Adrian Peterson,68,MIN,RB,3,84,28.0,8.0,44.0,7.1,47.6,51.2,6.0,7.1
309,Andy Janovich,69,DEN,FB,11,235,21.4,21.8,1.7,3.0,3.8,4.7,13.7,5.8
310,Patrick DiMarco,70,ATL,FB,16,324,20.2,31.2,0.0,3.1,2.2,3.1,11.2,3.5
311,Jerome Felton,71,BUF,FB,15,324,21.6,31.9,2.5,2.8,4.3,5.2,7.0,2.2
312,James Develin,72,NE,RB,16,351,21.9,31.3,0.0,1.7,0.9,1.7,1.8,0.5
313,Alvin Kamara,1,NO,RB,16,464,29.0,44.7,25.9,21.6,43.3,47.4,233.4,50.3
314,Dion Lewis,2,NE,RB,16,404,25.2,35.4,44.6,8.9,52.5,53.5,165.0,40.79
315,Todd Gurley,3,LAR,RB,15,796,53.1,76.5,35.1,10.9,43.1,46.0,319.3,40.1
316,Alex Collins,4,BAL,RB,15,378,25.2,37.1,56.1,9.5,62.2,65.59,148.0,39.2
317,Mark Ingram,5,NO,RB,16,570,35.6,54.9,40.4,12.5,50.5,52.8,220.0,38.6
318,Orleans Darkwa,6,NYG,RB,15,315,21.0,29.1,54.3,8.9,60.3,63.2,118.7,37.7
319,Kareem Hunt,7,KC,RB,16,670,41.9,64.9,40.6,9.4,48.5,50.0,242.2,36.1
320,Leonard Fournette,8,JAX,RB,13,564,43.4,49.8,47.5,8.5,53.9,56.0,194.2,34.4
321,Latavius Murray,9,MIN,RB,16,421,26.3,37.7,51.3,4.0,54.9,55.3,142.5,33.79
322,Chris Thompson,10,WAS,RB,10,338,33.79,46.5,18.89,16.0,30.5,34.9,112.4,33.29
323,Tevin Coleman,11,ATL,RB,15,425,28.3,41.4,36.7,9.19,43.1,45.9,140.69,33.1
324,Dalvin Cook,12,MIN,RB,4,169,42.2,21.9,43.8,9.5,50.3,53.3,54.4,32.2
325,Marshawn Lynch,13,OAK,RB,15,462,30.8,45.6,44.8,6.7,49.1,51.5,144.19,31.2
326,Melvin Gordon,14,LAC,RB,16,750,46.9,70.5,37.9,11.1,45.6,48.9,230.1,30.7
327,Jordan Howard,15,CHI,RB,16,578,36.1,58.4,47.8,5.5,51.7,53.3,176.7,30.6
328,Bilal Powell,16,NYJ,RB,15,401,26.7,38.6,44.4,8.19,50.1,52.6,122.2,30.5
329,Derrick Henry,17,TEN,RB,16,411,25.7,40.1,42.8,4.09,45.5,47.0,124.0,30.2
330,Ezekiel Elliott,18,DAL,RB,10,591,59.1,67.8,40.9,6.4,45.3,47.4,177.2,30.0
331,Devonta Freeman,19,ATL,RB,14,552,39.4,53.8,35.5,8.5,42.0,44.0,164.2,29.7
332,Joe Mixon,20,CIN,RB,14,385,27.5,39.79,46.2,8.8,54.0,55.1,111.3,28.9
333,LeSean McCoy,21,BUF,RB,16,722,45.1,68.4,39.79,10.7,47.9,50.4,204.6,28.3
334,LeGarrette Blount,22,PHI,RB,16,353,22.1,31.2,49.0,2.29,51.3,51.3,99.6,28.2
335,Le'Veon Bell,23,PIT,RB,15,945,63.0,85.3,34.0,11.2,43.0,45.2,256.6,27.2
336,Jonathan Stewart,24,CAR,RB,15,407,27.1,37.7,48.6,3.7,50.6,52.3,109.2,26.8
337,Jamaal Williams,25,GB,RB,16,443,27.7,42.3,34.5,7.7,40.2,42.2,117.8,26.6
338,Marlon Mack,26,IND,RB,14,310,22.1,30.1,30.0,10.6,36.79,40.6,82.3,26.5
339,Ameer Abdullah,27,DET,RB,14,378,27.0,36.2,43.7,9.3,50.3,52.9,99.4,26.3
340,Frank Gore,28,IND,RB,16,555,34.7,53.9,47.0,6.8,52.3,53.9,144.6,26.1
341,Javorius Allen,29,BAL,RB,16,465,29.1,42.8,32.9,12.9,42.8,45.8,120.1,25.8
342,Kapri Bibbs,30,WAS,RB,3,105,35.0,58.7,20.0,16.2,33.29,36.2,26.7,25.4
343,Tarik Cohen,31,CHI,RB,16,360,22.5,36.4,24.2,19.7,39.4,44.4,91.14,25.3
344,Duke Johnson,32,CLE,RB,16,565,35.29,52.9,14.5,16.5,27.6,31.0,142.1,25.2
345,TJ Yeldon,33,JAX,RB,10,230,23.0,20.3,21.3,17.8,34.29,39.1,57.7,25.1
346,Ty Montgomery,34,GB,RB,8,274,34.2,38.5,25.9,11.3,34.29,37.2,68.59,25.0
347,Jerick McKinnon,35,MIN,RB,16,528,33.0,47.2,28.4,12.9,38.1,41.3,127.1,24.1
348,Samaje Perine,36,WAS,RB,16,360,22.5,35.4,48.6,6.7,54.7,55.3,86.5,24.0
349,CJ Anderson,37,DEN,RB,16,617,38.6,54.8,39.7,6.5,44.2,46.2,147.1,23.8
350,Doug Martin,38,TB,RB,11,289,26.3,26.4,47.8,6.2,50.9,54.0,67.0,23.2
351,Kenyan Drake,39,MIA,RB,16,477,29.8,45.9,27.9,10.1,34.6,37.9,110.3,23.1
352,Matt Forte,40,NYJ,RB,12,363,30.2,37.1,28.4,12.4,38.6,40.79,83.4,23.0
353,Adrian Peterson,41,ARI,RB,10,301,30.1,38.1,51.8,6.3,55.5,58.1,67.9,22.6
354,Giovani Bernard,42,CIN,RB,16,486,30.4,50.3,21.6,12.3,30.5,34.0,108.7,22.4
355,Carlos Hyde,43,SF,RB,16,786,49.1,71.2,30.5,11.2,38.0,41.7,175.0,22.3
356,Jay Ajayi,44,PHI,RB,14,509,36.4,49.9,40.9,6.7,45.6,47.5,111.1,21.8
357,Wayne Gallman,44,NYG,RB,13,325,25.0,30.0,34.2,14.8,44.6,48.9,70.9,21.8
358,Isaiah Crowell,46,CLE,RB,16,536,33.5,50.1,38.4,7.8,43.7,46.3,115.5,21.5
359,Chris Carson,46,SEA,RB,4,152,38.0,19.7,32.2,5.3,36.79,37.5,32.7,21.5
360,Theo Riddick,48,DET,RB,16,472,29.5,45.2,17.8,15.0,29.0,32.79,101.0,21.4
361,JD McKissic,48,SEA,RB,13,296,22.8,27.7,15.5,15.5,27.0,31.1,63.3,21.4
362,Chris Ivory,50,JAX,RB,14,299,21.4,26.4,37.5,9.4,44.5,46.8,63.7,21.3
363,Devontae Booker,51,DEN,RB,13,291,22.4,25.9,27.1,13.1,37.5,40.2,61.4,21.1
364,Mike Davis,51,SEA,RB,6,176,29.3,40.29,38.6,10.19,47.2,48.9,37.1,21.1
365,Lamar Miller,53,HOU,RB,16,757,47.3,68.7,31.4,5.9,36.2,37.4,157.5,20.8
366,DeMarco Murray,54,TEN,RB,15,647,43.1,63.2,28.4,7.3,34.5,35.7,132.5,20.5
367,James White,55,NE,RB,14,384,27.4,33.7,11.2,18.8,25.8,29.9,78.0,20.3
368,Christian McCaffrey,56,CAR,RB,16,757,47.3,70.2,15.5,14.9,26.0,30.4,148.6,19.6
369,Wendell Smallwood,56,PHI,RB,8,172,21.5,15.2,27.3,10.5,34.9,37.79,33.7,19.6
370,Andre Ellington,58,HOU,RB,12,315,26.2,29.0,6.3,18.7,18.7,25.1,48.4,15.4
371,David Johnson,59,ARI,RB,1,46,46.0,6.0,23.9,19.6,37.0,43.5,7.0,15.2
372,Chris Johnson,60,ARI,RB,4,107,26.8,36.5,42.1,5.6,46.7,47.7,15.7,14.7
373,Robert Turbin,61,IND,RB,6,124,20.7,17.5,18.5,8.9,25.8,27.4,16.89,13.6
374,Darren Sproles,62,PHI,RB,3,88,29.3,11.4,17.0,13.6,25.0,30.7,11.4,13.0
375,Shane Vereen,63,NYG,RB,16,325,20.3,30.0,13.8,16.3,27.7,30.5,39.7,12.2
376,DJ Foster,64,ARI,RB,7,141,20.1,13.4,4.3,19.89,16.3,24.1,15.2,10.8
377,Charles Sims,65,TB,RB,16,383,23.9,35.0,5.5,12.3,14.6,17.8,38.4,10.0
378,Kyle Juszczyk,66,SF,FB,14,398,28.4,36.1,1.8,10.6,10.1,12.3,36.6,9.19
379,Tyler Ervin,67,HOU,RB,4,86,21.5,11.0,4.7,12.8,14.0,17.39,5.0,5.8
380,James Develin,68,NE,RB,16,346,21.6,30.3,0.0,2.9,1.7,2.9,3.8,1.1
381,Mark Ingram,1,NO,RB,1,36,36.0,54.5,44.4,8.3,50.0,52.8,19.3,53.6
382,Isaiah Crowell,2,NYJ,RB,6,158,26.3,42.0,44.3,6.3,49.4,50.6,77.8,49.2
383,Melvin Gordon,3,LAC,RB,6,270,45.0,70.5,33.7,15.6,44.8,49.3,132.5,49.1
384,Sony Michel,3,NE,RB,5,134,26.8,39.79,67.9,5.2,70.09,73.09,65.8,49.1
385,Austin Ekeler,5,LAC,RB,6,131,21.8,34.2,31.3,13.0,42.0,44.3,63.0,48.1
386,Kenneth Dixon,6,BAL,RB,1,22,22.0,27.5,59.1,0.0,59.1,59.1,10.4,47.3
387,Todd Gurley,7,LAR,RB,6,349,58.2,85.7,37.0,8.6,43.0,45.6,155.0,44.4
388,Matt Breida,8,SF,RB,6,163,27.2,39.5,38.7,8.0,45.4,46.6,70.0,42.9
389,Adrian Peterson,9,WAS,RB,5,149,29.8,43.2,51.7,6.7,56.4,58.4,63.5,42.6
390,Phillip Lindsay,10,DEN,RB,7,173,24.7,36.79,43.4,11.6,52.0,54.9,73.5,42.5
391,Alvin Kamara,11,NO,RB,5,260,52.0,75.4,23.8,19.6,38.5,43.5,105.0,40.4
392,Kareem Hunt,12,KC,RB,6,255,42.5,65.09,40.4,5.9,44.3,46.3,98.7,38.7
393,Saquon Barkley,13,NYG,RB,6,309,51.5,80.5,27.2,16.5,40.1,43.7,117.1,37.9
394,Tarik Cohen,14,CHI,RB,5,142,28.4,41.6,22.5,17.6,37.29,40.1,52.9,37.29
395,Mike Davis,15,SEA,RB,5,112,22.4,34.5,37.5,9.8,45.5,47.3,41.4,37.0
396,James White,16,NE,RB,6,210,35.0,51.0,13.8,24.3,31.4,38.1,77.2,36.79
397,Joe Mixon,17,CIN,RB,4,170,42.5,53.6,41.8,11.2,49.4,52.9,61.5,36.2
398,Royce Freeman,18,DEN,RB,7,163,23.3,34.7,43.6,3.7,46.0,47.2,57.0,35.0
399,Aaron Jones,19,GB,RB,4,87,21.8,29.3,36.79,6.9,41.4,43.7,28.9,33.2
400,Corey Clement,20,PHI,RB,4,117,29.2,32.2,32.5,11.1,41.9,43.6,37.5,32.1
401,Jay Ajayi,21,PHI,RB,4,121,30.2,42.0,37.2,5.0,41.3,42.1,38.4,31.7
402,James Conner,22,PIT,RB,6,367,61.2,85.5,28.1,9.5,35.1,37.6,115.0,31.3
403,Kerryon Johnson,23,DET,RB,5,134,26.8,39.79,37.29,11.2,47.0,48.5,41.4,30.9
404,Marlon Mack,24,IND,RB,2,42,21.0,32.29,52.4,9.5,57.1,61.9,12.9,30.7
405,Marshawn Lynch,25,OAK,RB,6,211,35.2,50.4,42.7,9.5,49.8,52.1,64.0,30.3
406,Alex Collins,26,BAL,RB,6,202,33.7,42.4,37.6,6.9,42.1,44.6,60.8,30.1
407,Carlos Hyde,27,CLE,RB,6,238,39.7,51.3,47.9,4.2,50.4,52.1,71.09,29.9
408,Frank Gore,27,MIA,RB,6,139,23.2,38.9,44.6,3.6,47.5,48.2,41.6,29.9
409,Ezekiel Elliott,29,DAL,RB,6,333,55.5,87.2,35.1,9.0,42.0,44.1,97.2,29.2
410,Chris Carson,30,SEA,RB,5,156,31.2,49.4,50.0,5.8,53.8,55.8,45.3,29.0
411,TJ Yeldon,31,JAX,RB,6,274,45.7,68.7,24.5,13.5,33.6,38.0,74.2,27.1
412,Giovani Bernard,32,CIN,RB,4,154,38.5,57.2,22.1,13.6,31.2,35.7,41.3,26.8
413,David Johnson,33,ARI,RB,7,320,45.7,83.6,33.1,9.4,39.4,42.5,82.1,25.7
414,Wendell Smallwood,34,PHI,RB,6,163,27.2,37.0,26.4,10.4,33.1,36.79,41.7,25.6
415,Chris Thompson,35,WAS,RB,4,148,37.0,53.8,15.5,20.9,33.1,36.5,36.0,24.3
416,Bilal Powell,36,NYJ,RB,6,193,32.2,51.3,38.9,8.8,44.0,47.7,46.8,24.2
417,Chris Ivory,37,BUF,RB,6,126,21.0,33.29,40.5,5.6,44.4,46.0,29.3,23.3
418,Tevin Coleman,38,ATL,RB,6,235,39.2,57.3,30.2,6.8,35.7,37.0,54.5,23.2
419,Alfred Morris,39,SF,RB,6,147,24.5,35.6,42.2,6.8,46.3,49.0,33.4,22.7
420,Ty Montgomery,39,GB,RB,6,144,24.0,33.2,16.7,14.6,26.4,31.2,32.7,22.7
421,Javorius Allen,41,BAL,RB,6,223,37.2,46.8,15.7,13.5,26.5,29.1,46.6,20.9
422,Kenyan Drake,42,MIA,RB,6,223,37.2,62.5,23.3,13.9,32.7,37.2,45.5,20.39
423,Leonard Fournette,43,JAX,RB,2,45,22.5,32.1,44.4,8.9,53.3,53.3,9.0,20.0
424,Christian McCaffrey,44,CAR,RB,5,316,63.2,95.2,22.5,12.7,33.2,35.1,62.7,19.8
425,Jalen Richard,45,OAK,RB,6,149,24.8,35.6,7.4,24.8,28.2,32.2,28.5,19.1
426,Nyheim Hines,46,IND,RB,6,252,42.0,56.8,14.3,15.1,26.6,29.4,47.8,19.0
427,Derrick Henry,47,TEN,RB,6,139,23.2,38.7,51.8,4.3,55.4,56.8,26.02,18.7
428,Latavius Murray,48,MIN,RB,6,220,36.7,52.8,24.5,5.9,29.1,30.5,40.4,18.39
429,Jordan Howard,49,CHI,RB,5,213,42.6,62.5,36.6,6.1,41.3,42.7,39.0,18.3
430,Alfred Blue,49,HOU,RB,6,187,31.2,42.9,29.9,8.0,35.79,38.0,34.2,18.3
431,LeSean McCoy,51,BUF,RB,5,193,38.6,62.1,31.6,10.9,38.29,42.5,32.79,17.0
432,Peyton Barber,52,TB,RB,5,200,40.0,61.2,31.5,5.0,34.5,36.5,32.7,16.39
433,Dion Lewis,53,TEN,RB,6,226,37.7,63.0,26.5,11.9,36.7,38.5,36.1,16.0
434,Duke Johnson,54,CLE,RB,6,198,33.0,42.7,9.6,11.1,16.7,20.7,31.5,15.9
435,Lamar Miller,55,HOU,RB,5,247,49.4,56.7,29.6,5.3,33.6,34.79,39.0,15.8
436,Jamaal Williams,56,GB,RB,6,202,33.7,46.5,29.2,7.9,33.2,37.1,30.1,14.9
437,Dalvin Cook,57,MIN,RB,3,125,41.7,57.3,28.8,9.6,36.0,38.4,18.5,14.8
438,Jordan Wilkins,58,IND,RB,6,136,22.7,30.6,32.4,7.4,39.0,39.7,18.89,13.9
439,Devonta Freeman,59,ATL,RB,2,67,33.5,32.7,20.9,10.4,28.4,31.3,9.1,13.6
440,Marcus Murphy,60,BUF,RB,3,62,20.7,32.1,27.4,12.9,30.6,40.29,7.8,12.6
441,Theo Riddick,61,DET,RB,5,134,26.8,39.79,6.0,22.4,23.1,28.4,16.8,12.5
442,Darren Sproles,62,PHI,RB,1,29,29.0,19.2,17.2,24.1,31.0,41.4,3.2,11.0
443,Kyle Juszczyk,63,SF,FB,6,263,43.8,63.7,0.4,8.69,6.8,9.1,27.9,10.6
444,James Develin,64,NE,RB,6,144,24.0,35.0,0.0,6.2,4.2,6.2,2.5,1.7
