,movie_display_name,movie_production_year,movie_genre_display_name,movie_financial_summary_production_budget,movie_financial_summary_international_box_office,movie_annual_summary_tickets_sold,movie_video_summary_domestic_dvd_units,movie_acting_role_display_name,movie_theatrical_release_release_date,movie_creative_type_display_name,movie_production_method_display_name,movie_source_display_name,movie_running_time,movie_technical_role_display_name,movie_production_company_display_name,movie_sequel
0,Transformers: Revenge of the Fallen,2009,Action,210000000,434407829,53614916,11083425.0,Shia LaBeouf,2009-06-24,Science Fiction,Animation/Live Action,Based on TV,149.0,Michael Bay,DreamWorks,1
1,Harry Potter and the Half-Blood Prince,2009,Adventure,250000000,633124489,40261226,11455655.0,Gemma Jones,2009-07-15,Fantasy,Animation/Live Action,Based on Fiction Book/Short Story,153.0,David Yates,Heyday Films,1
2,Up,2009,Adventure,175000000,438538457,39067222,12995860.0,Christopher Plummer,2009-05-29,Fantasy,Digital Animation,Original Screenplay,89.0,Pete Docter,Walt Disney Pictures,0
3,The Hangover,2009,Comedy,35000000,188441583,36976334,12777650.0,Mike Tyson,2009-06-05,Contemporary Fiction,Live Action,Original Screenplay,100.0,Todd Phillips,Warner Bros,0
4,Star Trek,2009,Adventure,140000000,127950427,34364003,8777343.0,Zachary Quinto,2009-05-08,Science Fiction,Live Action,Based on TV,125.0,J.J. Abrams,Bad Robot,1
5,Monsters vs. Aliens,2009,Adventure,175000000,183335854,26446870,5911147.0,Reese Witherspoon,2009-03-27,Kids Fiction,Digital Animation,Based on Comic/Graphic Novel,95.0,Rob Letterman,DreamWorks Animation,0
6,Ice Age: Dawn of the Dinosaurs,2009,Adventure,90000000,663128152,26209827,6438949.0,Kristen Wiig,2009-07-01,Kids Fiction,Digital Animation,Original Screenplay,93.0,Carlos Saldanha,Blue Sky Studios,1
7,X-Men Origins: Wolverine,2009,Action,150000000,194942603,23984421,5494018.0,Hugh Jackman,2009-05-01,Super Hero,Live Action,Spin-Off,107.0,Gavin Hood,20th Century Fox,0
8,Night at the Museum: Battle of the Smithsonian,2009,Comedy,150000000,224987342,23632496,4396089.0,Ben Stiller,2009-05-22,Fantasy,Live Action,Based on Fiction Book/Short Story,105.0,Shawn Levy,Twentieth Century Fox,1
9,The Proposal,2009,Romantic Comedy,40000000,150751686,21861071,6938929.0,Sandra Bullock,2009-06-19,Contemporary Fiction,Live Action,Original Screenplay,107.0,Anne Fletcher,Touchstone Pictures,0
10,Fast & Furious,2009,Action,85000000,208000000,20675235,4141176.0,Shea Whigham,2009-04-03,Contemporary Fiction,Live Action,Based on Factual Book/Article,107.0,Justin Lin,Universal Pictures,1
11,G.I. Joe: The Rise of Cobra,2009,Action,175000000,152267519,20026866,4708941.0,Byung-hun Lee,2009-08-07,Contemporary Fiction,Animation/Live Action,Based on Toy,118.0,David Elliot,di Bonaventura Pictures,0
12,Paul Blart: Mall Cop,2009,Comedy,26000000,39568572,19511490,3879392.0,Kevin James,2009-01-16,Contemporary Fiction,Live Action,Original Screenplay,91.0,Steve Carr,Columbia Pictures,0
13,Taken,2009,Thriller/Suspense,25000000,81940596,19333465,5499564.0,Liam Neeson,2009-01-30,Contemporary Fiction,Live Action,Original Screenplay,91.0,Pierre Morel,Europacorp,0
14,Angels & Demons,2009,Thriller/Suspense,150000000,357500000,17783446,2253525.0,Armin Mueller-Stahl,2009-05-15,Contemporary Fiction,Live Action,Based on Fiction Book/Short Story,138.0,Ron Howard,Columbia Pictures,1
15,Terminator Salvation,2009,Action,200000000,240169323,16709663,2369410.0,Christian Bale,2009-05-21,Science Fiction,Live Action,Original Screenplay,116.0,Joseph McGinty Nichol,Halcyon Company,1
16,G-Force,2009,Adventure,150000000,173381071,15924903,2379150.0,Zach Galifianakis,2009-07-24,Kids Fiction,Animation/Live Action,Original Screenplay,87.0,Hoyt H. Yeatman,Jerry Bruckheimer Films,0
17,District 9,2009,Thriller/Suspense,30000000,96807196,15419498,2106321.0,Mampho Brescia,2009-08-14,Science Fiction,Animation/Live Action,Original Screenplay,111.0,Neill Blomkamp,Wingnut Films,0
18,Inglourious Basterds,2009,Action,70000000,196140670,16103279,4479464.0,Brad Pitt,2009-08-21,Historical Fiction,Live Action,Original Screenplay,152.0,Quentin Tarantino,A Band Apart,0
19,Watchmen,2009,Action,138000000,76558558,14334640,2751103.0,Matthew Goode,2009-03-06,Super Hero,Live Action,Based on Comic/Graphic Novel,161.0,Zack Snyder,Legendary Pictures,0
20,Public Enemies,2009,Drama,102500000,115178089,12947283,2169183.0,Johnny Depp,2009-07-01,Dramatization,Live Action,Based on Fiction Book/Short Story,140.0,Michael Mann,Universal Pictures,0
21,He's Just Not That Into You,2009,Romantic Comedy,40000000,87100004,12527154,2351918.0,Kris Kristofferson,2009-02-06,Contemporary Fiction,Live Action,Based on Fiction Book/Short Story,129.0,Ken Kwapis,New Line Cinema,0
22,Julie & Julia,2009,Comedy,40000000,32520693,12550057,3513786.0,Vanessa Ferlito,2009-08-07,Contemporary Fiction,Live Action,Based on Fiction Book/Short Story,122.0,Nora Ephron,Columbia Pictures,0
23,The Ugly Truth,2009,Romantic Comedy,38000000,116383693,11855362,2119741.0,Katherine Heigl,2009-07-24,Contemporary Fiction,Live Action,Original Screenplay,95.0,Robert Luketic,Columbia Pictures,0
24,Knowing,2009,Thriller/Suspense,50000000,106492683,10661018,1692981.0,D.G. Maloney,2009-03-20,Contemporary Fiction,Live Action,Based on Fiction Book/Short Story,,Alex Proyas,Escape Artists,0
25,Hannah Montana the Movie,2009,Drama,30000000,89597017,10610159,3609731.0,Barry Bostwick,2009-04-10,Contemporary Fiction,Live Action,Based on TV,102.0,Peter Chelsom,Walt Disney Pictures,0
26,Coraline,2009,Adventure,60000000,50750828,10038164,3543508.0,"Robert Bailey, Jr.",2009-02-06,Kids Fiction,Stop-Motion Animation,Based on Fiction Book/Short Story,100.0,Henry Selick,Laika,0
27,Hotel for Dogs,2009,Comedy,75000000,45196303,9757140,2000495.0,Robinne Lee,2009-01-16,Kids Fiction,Live Action,Based on Fiction Book/Short Story,100.0,John Debney,Donners’ Company,0
28,"I Love You, Man",2009,Comedy,40000000,20289492,9601735,1939204.0,J.K. Simmons,2009-03-20,Contemporary Fiction,Live Action,Original Screenplay,105.0,Easton Smith,DreamWorks Pictures,0
29,Obsessed,2009,Thriller/Suspense,20000000,5703069,9101553,1253140.0,Idris Elba,2009-04-24,Contemporary Fiction,Live Action,Original Screenplay,,Steve Shill,,0
30,Race to Witch Mountain,2009,Adventure,50000000,37931189,8956346,2047755.0,Dwayne Johnson,2009-03-13,Science Fiction,Live Action,Based on Fiction Book/Short Story,,Andy Fickman,,0
31,The Taking of Pelham 123,2009,Action,110000000,86912058,8726975,1845490.0,Denzel Washington,2009-06-12,Contemporary Fiction,Live Action,Remake,106.0,Tony Scott,Columbia Pictures,0
32,Friday the 13th,2009,Horror,17000000,27668218,8666936,710447.0,Aaron Yoo,2009-02-13,Fantasy,Live Action,Spin-Off,97.0,Steve Jablonsky,,1
33,17 Again,2009,Comedy,40000000,75307837,8555609,2052241.0,Zac Efron,2009-04-17,Fantasy,Live Action,Original Screenplay,,Burr Steers,,0
34,The Final Destination,2009,Horror,40000000,120906927,8863693,792720.0,,2009-08-28,Fantasy,Live Action,Original Screenplay,,David R. Ellis,,1
35,The Time Traveler's Wife,2009,Drama,39000000,38917289,8455313,1678166.0,Rachel McAdams,2009-08-14,Science Fiction,Live Action,Based on Fiction Book/Short Story,107.0,Robert Schwentke,New Line Cinema,0
36,Brüno,2009,Comedy,42000000,70733713,8007271,809201.0,Sacha Baron Cohen,2009-07-10,Contemporary Fiction,Live Action,Based on TV,82.0,Larry Charles,Universal Pictures,0
37,Bride Wars,2009,Comedy,30000000,56434914,7828735,2118940.0,Kristen Johnston,2009-01-09,Contemporary Fiction,Live Action,Original Screenplay,,,,0
38,The Haunting in Connecticut,2009,Horror,0,23369006,7385269,1503300.0,Erik Berg,2009-03-27,Contemporary Fiction,Live Action,Based on Real Life Events,,Peter Cornwell,Gold Circle Films,0
39,Ghosts of Girlfriends Past,2009,Romantic Comedy,0,47262776,7366670,1614543.0,Matthew McConaughey,2009-05-01,Fantasy,Live Action,Original Screenplay,,Mark Waters,,0
40,Funny People,2009,Comedy,72500000,20025260,6914006,852601.0,Jonah Hill,2009-07-31,Contemporary Fiction,Live Action,Original Screenplay,146.0,Judd Apatow,Universal Pictures,0
41,My Bloody Valentine,2009,Horror,14000000,51290050,6872794,1140109.0,Jaime King,2009-01-16,Contemporary Fiction,Live Action,Remake,101.0,Patrick Lussier,,0
42,Land of the Lost,2009,Comedy,100000000,20110271,6591783,1517941.0,Matt Lauer,2009-06-05,Fantasy,Live Action,Based on TV,102.0,Brad Silberling,Universal Pictures,0
43,My Sister's Keeper,2009,Drama,27500000,47472772,6560031,1708798.0,Cameron Diaz,2009-06-26,Contemporary Fiction,Live Action,Based on Fiction Book/Short Story,109.0,Nick Cassavetes,New Line Cinema,0
44,Underworld 3: Rise of the Lycans,2009,Action,35000000,43300000,6106975,2520335.0,Michael Sheen,2009-01-23,Fantasy,Live Action,Original Screenplay,,,,1
45,Confessions of a Shopaholic,2009,Romantic Comedy,0,63750351,5903647,1261784.0,Julie Hagerty,2009-02-13,Contemporary Fiction,Live Action,Based on Fiction Book/Short Story,102.0,P.J. Hogan,Jerry Bruckeimer Films,0
46,Year One,2009,Comedy,60000000,14267444,5778304,1096865.0,Michael Cera,2009-06-19,Historical Fiction,Live Action,Original Screenplay,97.0,Harold Ramis,Columbia Pictures,0
47,The Unborn,2009,Horror,16000000,35538402,5689388,698023.0,Odette Yustman,2009-01-09,Fantasy,Live Action,Original Screenplay,,David Goyer,,0
48,Drag Me To Hell,2009,Horror,30000000,49287862,5613417,958830.0,Reggie Lee,2009-05-29,Fantasy,Live Action,Original Screenplay,,Sam Raimi,Mandate Pictures,0
49,Orphan,2009,Drama,20000000,36741122,5546167,1017997.0,Vera Farmiga,2009-07-24,Contemporary Fiction,Live Action,Original Screenplay,,,,0
50,Duplicity,2009,Thriller/Suspense,60000000,40506741,5409710,720628.0,Christopher Denham,2009-03-20,Contemporary Fiction,Live Action,Original Screenplay,,,,0
51,State of Play,2009,Thriller/Suspense,60000000,51814255,4935727,1106798.0,Rachel McAdams,2009-04-17,Contemporary Fiction,Live Action,Based on TV,127.0,Kevin MacDonald,Universal Pictures,0
52,Notorious,2009,Drama,19000000,8161469,4912491,1361721.0,Angela Bassett,2009-01-16,Dramatization,Live Action,Based on Real Life Events,122.0,"George Tillman, Jr",Fox Searchlight,0
53,The Pink Panther 2,2009,Comedy,0,34100000,4789730,469549.0,Steve Martin,2009-02-06,Contemporary Fiction,Live Action,,,Marty Eli Schwartz,,1
54,Cloudy with a Chance of Meatballs,2009,Comedy,100000000,111957402,76725,4113153.0,Neil Patrick Harris,2009-09-18,Kids Fiction,Digital Animation,Based on Fiction Book/Short Story,90.0,Christopher Miller,Columbia Pictures,0
55,The Last House on the Left,2009,Horror,15000000,12730721,4366962,1194631.0,Sara Paxton,2009-03-13,Contemporary Fiction,Live Action,Remake,,,,0
56,Earth,2009,Documentary,15000000,77000000,4268210,1056395.0,James Earl Jones,2009-04-22,Factual,Live Action,Based on TV,99.0,Alastair Fothergill,BBC Worldwide,0
57,Push,2009,Thriller/Suspense,38000000,12600000,4241537,1102919.0,Camilla Belle,2009-02-06,Science Fiction,Live Action,Original Screenplay,,,,0
58,The Soloist,2009,Drama,60000000,6668866,4247145,652044.0,Jamie Foxx,2009-04-24,Dramatization,Live Action,Based on Real Life Events,117.0,Joe Wright,Krasnoff/Foster Entertainment,0
59,Halloween 2,2009,Horror,15000000,5119877,4452396,497857.0,Angela Trimbur,2009-08-28,Fantasy,Live Action,Original Screenplay,105.0,Rob Zombie,,1
60,(500) Days of Summer,2009,Romantic Comedy,7500000,26710268,4323422,1539285.0,Clark Gregg,2009-08-07,Contemporary Fiction,Live Action,Original Screenplay,,,,0
61,The Uninvited,2009,Horror,0,14182143,3812909,768664.0,Arielle Kebbel,2009-01-30,Fantasy,Live Action,Remake,,,,0
62,All About Steve,2009,Romantic Comedy,15000000,6264356,4515054,547719.0,Beth Grant,2009-09-04,Contemporary Fiction,Live Action,Original Screenplay,,Phil Traill,Fortis Films,0
63,Dance Flick,2009,Comedy,25000000,6430606,3439202,,Shawn Wayans,2009-05-22,Contemporary Fiction,Live Action,Original Screenplay,,Damien Wayans,,0
64,The International,2009,Thriller/Suspense,50000000,28400000,3393404,518587.0,Clive Owen,2009-02-13,Contemporary Fiction,Live Action,Original Screenplay,,Tom Tykwer,,0
65,Aliens in the Attic,2009,Adventure,45000000,34350871,3360055,874442.0,Ashley Tisdale,2009-07-31,Science Fiction,Live Action,Original Screenplay,,John Debney,,0
66,9,2009,Adventure,30000000,16810105,4233319,783565.0,Martin Landau,2009-09-09,Fantasy,Digital Animation,Original Screenplay,,Shane Acker,,0
67,Observe and Report,2009,Comedy,18000000,3141574,3200977,860386.0,Seth Rogen,2009-04-10,Contemporary Fiction,Live Action,Original Screenplay,,,,0
68,Fighting,2009,Action,0,9740697,3078801,950075.0,Terrence Howard,2009-04-24,Contemporary Fiction,Live Action,Original Screenplay,84.0,Dito Montiel,Rogue Pictures,0
69,Shorts,2009,Adventure,20000000,8951635,2789222,132711.0,Leslie Mann,2009-08-21,Kids Fiction,Live Action,Original Screenplay,,Robert Rodriguez,,0
70,Gamer,2009,Action,50000000,21467122,2737988,775369.0,Efren Ramirez,2009-09-04,Science Fiction,Live Action,Original Screenplay,,Brian Taylor,Lakeshore Entertainment,0
71,Jonas Brothers: The 3D Concert Experience,2009,Concert/Performance,0,11266091,2555032,440324.0,Kevin Jonas,2009-02-27,Factual,Live Action,Based on Real Life Events,,,,0
72,Under the Sea 3D,2009,Documentary,0,11500000,2588803,,Jim Carrey,2009-02-13,Factual,Live Action,Based on Real Life Events,,Howard Hall,,0
73,Inkheart,2009,Adventure,60000000,40748030,2307123,658040.0,Brendan Fraser,2009-01-23,Fantasy,Live Action,Based on Fiction Book/Short Story,106.0,Iain Softley,New Line Cinema,0
74,Fired Up,2009,Comedy,20000000,1377279,2297505,629805.0,Nicolas D'Agosto,2009-02-20,Contemporary Fiction,Live Action,Original Screenplay,,,,0
75,New in Town,2009,Romantic Comedy,8000000,13203626,2231238,1124659.0,"Harry Connick, Jr.",2009-01-30,Contemporary Fiction,Live Action,Original Screenplay,,Jonas Elmer,Gold Circle Films,0
76,A Perfect Getaway,2009,Thriller/Suspense,14000000,7300000,2068728,484650.0,Timothy Olyphant,2009-08-07,Contemporary Fiction,Live Action,Original Screenplay,97.0,David Twohy,Rogue Pictures,0
77,"The Goods: Live Hard, Sell Hard",2009,Comedy,10000000,174642,2016357,,Jeremy Piven,2009-08-14,Contemporary Fiction,Live Action,Original Screenplay,,Neal Brennan,,0
78,"I Love You, Beth Cooper",2009,Comedy,18000000,1581813,1973430,648196.0,Hayden Panettiere,2009-07-10,Contemporary Fiction,Live Action,Based on Fiction Book/Short Story,,Chris Columbus,1492 Pictures,0
79,Gake no ue no Ponyo,2009,Adventure,34000000,190222267,2012053,1511864.0,Betty White,2009-08-14,Kids Fiction,Hand Animation,Original Screenplay,101.0,Toshio Suzuki,Studio Ghibli,0
80,The Informant!,2009,Thriller/Suspense,22000000,8454347,4442243,442623.0,Matt Damon,2009-09-18,Contemporary Fiction,Live Action,Based on Factual Book/Article,,Carmen Cuba,Participant Media,0
81,Crank 2: High Voltage,2009,Thriller/Suspense,20000000,21788490,1824567,1066991.0,Dwight Yoakam,2009-04-17,Contemporary Fiction,Live Action,Original Screenplay,,William Paul Clark,Lakeshore Entertainment,1
82,The Hurt Locker,2009,Drama,15000000,32876412,257147,2360906.0,David Morse,2009-06-26,Contemporary Fiction,Live Action,Original Screenplay,130.0,Kathryn Bigelow,Voltage Pictures,0
83,Sunshine Cleaning,2009,Comedy,5000000,5266779,1608341,344098.0,Amy Adams,2009-03-13,Contemporary Fiction,Live Action,Original Screenplay,,,,0
84,Not Easily Broken,2009,Drama,5000000,160167,1409699,942326.0,Morris Chestnut,2009-01-09,Contemporary Fiction,Live Action,Based on Fiction Book/Short Story,,Bill Duke,,0
85,Love Happens,2009,Drama,18000000,13167904,3062015,458951.0,Aaron Eckhart,2009-09-18,Contemporary Fiction,Live Action,Original Screenplay,,,,0
86,Extract,2009,Comedy,7500000,26000,1443088,,David Koechner,2009-09-04,Contemporary Fiction,Live Action,Original Screenplay,,Mike Judge,,0
87,Next Day Air,2009,Comedy,3000000,145472,1336940,560937.0,Donald Faison,2009-05-08,Contemporary Fiction,Live Action,Original Screenplay,,,,0
88,Sorority Row,2009,Horror,12500000,14770515,1595371,227373.0,Carrie Fisher,2009-09-11,Contemporary Fiction,Live Action,Remake,,,,0
89,Away We Go,2009,Comedy,21000000,656070,1260259,387352.0,Josh Hamilton,2009-06-05,Contemporary Fiction,Live Action,Original Screenplay,,Sam Mendes,,0
