,,age_grp,Count,Notes,Rate,Statistics
0,Year,0-1,,,,County
1,Year,0-1,,,,Adair
2,Year,0-1,,,,Andrew
3,Year,0-1,,,,Atchison
4,Year,0-1,,,,Audrain
5,Year,0-1,,,,Barry
6,Year,0-1,,,,Barton
7,Year,0-1,,,,Bates
8,Year,0-1,,,,Benton
9,Year,0-1,,,,Bollinger
10,Year,0-1,,,,Boone
11,Year,0-1,,,,Buchanan
12,Year,0-1,,,,Butler
13,Year,0-1,,,,Caldwell
14,Year,0-1,,,,Callaway
15,Year,0-1,,,,Camden
16,Year,0-1,,,,Cape Girardeau
17,Year,0-1,,,,Carroll
18,Year,0-1,,,,Carter
19,Year,0-1,,,,Cass
20,Year,0-1,,,,Cedar
21,Year,0-1,,,,Chariton
22,Year,0-1,,,,Christian
23,2001,0-1,0.0,,0.0,
23,2002,0-1,0.0,,0.0,
23,2003,0-1,0.0,,0.0,
23,2004,0-1,0.0,,0.0,
23,2005,0-1,0.0,,0.0,
23,2006,0-1,0.0,,0.0,
23,2007,0-1,0.0,,0.0,
23,2008,0-1,0.0,,0.0,
23,2009,0-1,0.0,,0.0,
23,2010,0-1,0.0,,0.0,
23,2011,0-1,0.0,,0.0,
23,2012,0-1,0.0,,0.0,
23,2013,0-1,0.0,,0.0,
23,2014,0-1,0.0,,0.0,
23,2015,0-1,0.0,,0.0,
23,Year,0-1,,,,Clark
24,Year,0-1,,,,Clay
25,Year,0-1,,,,Clinton
26,Year,0-1,,,,Cole
27,Year,0-1,,,,Cooper
28,Year,0-1,,,,Crawford
29,Year,0-1,,,,Dade
30,Year,0-1,,,,Dallas
31,Year,0-1,,,,Daviess
32,Year,0-1,,,,DeKalb
33,Year,0-1,,,,Dent
34,Year,0-1,,,,Douglas
35,Year,0-1,,,,Dunklin
36,Year,0-1,,,,Franklin
37,Year,0-1,,,,Gasconade
38,Year,0-1,,,,Gentry
39,2001,0-1,,*,,
39,2002,0-1,,*,,
39,2003,0-1,,*,,
39,2004,0-1,,*,,
39,2005,0-1,,*,,
39,2006,0-1,,*,,
39,2007,0-1,,*,,
39,2008,0-1,,*,,
39,2009,0-1,,*,,
39,2010,0-1,,*,,
39,2011,0-1,,*,,
39,2012,0-1,,*,,
39,2013,0-1,,*,,
39,2015,0-1,,*,,
39,2001,0-1,9.0,,2.99,
39,2002,0-1,9.0,,2.92,
39,2003,0-1,9.0,,2.8,
39,2004,0-1,12.0,,3.67,
39,2005,0-1,6.0,,1.74,
39,2006,0-1,10.0,,2.93,
39,2007,0-1,11.0,,2.91,
39,2008,0-1,8.0,,2.19,
39,2009,0-1,6.0,,1.69,
39,2010,0-1,5.0,,1.42,
39,2011,0-1,18.0,,5.07,
39,2012,0-1,5.0,,1.4,
39,2013,0-1,11.0,,3.14,
39,2014,0-1,0.0,,0.0,
39,2015,0-1,5.0,,1.4,
39,Year,0-1,,,,Greene
40,Year,0-1,,,,Grundy
41,Year,0-1,,,,Harrison
42,Year,0-1,,,,Henry
43,Year,0-1,,,,Hickory
44,Year,0-1,,,,Holt
45,Year,0-1,,,,Howard
46,Year,0-1,,,,Howell
47,Year,0-1,,,,Iron
48,2006,0-1,,*,,
48,2001,0-1,33.0,,3.26,
48,2002,0-1,30.0,,2.96,
48,2003,0-1,35.0,,3.45,
48,2004,0-1,32.0,,3.1,
48,2005,0-1,26.0,,2.5,
48,2006,0-1,15.0,,1.4,
48,2007,0-1,32.0,,3.01,
48,2008,0-1,24.0,,2.29,
48,2009,0-1,23.0,,2.22,
48,2010,0-1,36.0,,3.69,
48,2011,0-1,21.0,,2.19,
48,2012,0-1,29.0,,3.01,
48,2013,0-1,33.0,,3.48,
48,2014,0-1,22.0,,2.31,
48,2015,0-1,25.0,,2.68,
48,Year,0-1,,,,Jackson
49,Year,0-1,,,,Jasper
50,Year,0-1,,,,Jefferson
51,Year,0-1,,,,Johnson
52,Year,0-1,,,,Knox
53,Year,0-1,,,,Laclede
54,Year,0-1,,,,Lafayette
55,Year,0-1,,,,Lawrence
56,Year,0-1,,,,Lewis
57,Year,0-1,,,,Lincoln
58,Year,0-1,,,,Linn
59,Year,0-1,,,,Livingston
60,Year,0-1,,,,Macon
61,Year,0-1,,,,Madison
62,Year,0-1,,,,Maries
63,Year,0-1,,,,Marion
64,Year,0-1,,,,McDonald
65,Year,0-1,,,,Mercer
66,Year,0-1,,,,Miller
67,Year,0-1,,,,Mississippi
68,Year,0-1,,,,Moniteau
69,Year,0-1,,,,Monroe
70,Year,0-1,,,,Montgomery
71,Year,0-1,,,,Morgan
72,Year,0-1,,,,New Madrid
73,Year,0-1,,,,Newton
74,Year,0-1,,,,Nodaway
75,Year,0-1,,,,Oregon
76,Year,0-1,,,,Osage
77,Year,0-1,,,,Ozark
78,Year,0-1,,,,Pemiscot
79,Year,0-1,,,,Perry
80,Year,0-1,,,,Pettis
81,Year,0-1,,,,Phelps
82,Year,0-1,,,,Pike
83,Year,0-1,,,,Platte
84,Year,0-1,,,,Polk
85,Year,0-1,,,,Pulaski
86,Year,0-1,,,,Putnam
87,Year,0-1,,,,Ralls
88,Year,0-1,,,,Randolph
89,Year,0-1,,,,Ray
90,Year,0-1,,,,Reynolds
91,Year,0-1,,,,Ripley
92,Year,0-1,,,,Saline
93,Year,0-1,,,,Schuyler
94,Year,0-1,,,,Scotland
95,Year,0-1,,,,Scott
96,Year,0-1,,,,Shannon
97,Year,0-1,,,,Shelby
98,Year,0-1,,,,St. Charles
99,Year,0-1,,,,St. Clair
100,Year,0-1,,,,St. Francois
101,2002,0-1,,*,,
101,2003,0-1,,*,,
101,2004,0-1,,*,,
101,2005,0-1,,*,,
101,2006,0-1,,*,,
101,2007,0-1,,*,,
101,2008,0-1,,*,,
101,2009,0-1,,*,,
101,2010,0-1,,*,,
101,2011,0-1,,*,,
101,2012,0-1,,*,,
101,2014,0-1,,*,,
101,2015,0-1,,*,,
101,2001,0-1,20.0,,3.8,
101,2002,0-1,17.0,,3.3,
101,2003,0-1,9.0,,1.71,
101,2004,0-1,14.0,,2.68,
101,2005,0-1,11.0,,2.17,
101,2006,0-1,14.0,,2.61,
101,2007,0-1,12.0,,2.25,
101,2008,0-1,15.0,,2.77,
101,2009,0-1,14.0,,2.73,
101,2010,0-1,16.0,,3.3,
101,2011,0-1,9.0,,1.82,
101,2012,0-1,15.0,,3.19,
101,2013,0-1,22.0,,4.69,
101,2014,0-1,9.0,,1.92,
101,2015,0-1,9.0,,1.96,
101,Year,0-1,,,,St. Louis City
102,2010,0-1,,*,,
102,2014,0-1,,*,,
102,2001,0-1,35.0,,2.82,
102,2002,0-1,21.0,,1.73,
102,2003,0-1,25.0,,2.04,
102,2004,0-1,24.0,,1.97,
102,2005,0-1,28.0,,2.33,
102,2006,0-1,33.0,,2.65,
102,2007,0-1,29.0,,2.35,
102,2008,0-1,28.0,,2.29,
102,2009,0-1,27.0,,2.29,
102,2010,0-1,18.0,,1.55,
102,2011,0-1,33.0,,2.77,
102,2012,0-1,29.0,,2.5,
102,2013,0-1,31.0,,2.69,
102,2014,0-1,18.0,,1.54,
102,2015,0-1,33.0,,2.83,
102,Year,0-1,,,,St. Louis County
103,Year,0-1,,,,Ste. Genevieve
104,Year,0-1,,,,Stoddard
105,Year,0-1,,,,Stone
106,Year,0-1,,,,Sullivan
107,Year,0-1,,,,Taney
108,Year,0-1,,,,Texas
109,Year,0-1,,,,Vernon
110,Year,0-1,,,,Warren
111,Year,0-1,,,,Washington
112,Year,0-1,,,,Wayne
113,Year,0-1,,,,Webster
114,2001,0-1,0.0,,0.0,
114,2002,0-1,0.0,,0.0,
114,2003,0-1,0.0,,0.0,
114,2004,0-1,0.0,,0.0,
114,2005,0-1,0.0,,0.0,
114,2006,0-1,0.0,,0.0,
114,2007,0-1,0.0,,0.0,
114,2008,0-1,0.0,,0.0,
114,2009,0-1,0.0,,0.0,
114,2010,0-1,0.0,,0.0,
114,2011,0-1,0.0,,0.0,
114,2012,0-1,0.0,,0.0,
114,2013,0-1,0.0,,0.0,
114,2014,0-1,0.0,,0.0,
114,2015,0-1,0.0,,0.0,
114,Year,0-1,,,,Worth
115,Year,0-1,,,,Wright
116,2001,0-1,258.0,,3.43,
116,2002,0-1,258.0,,3.43,
116,2003,0-1,231.0,,3.0,
116,2004,0-1,231.0,,2.97,
116,2005,0-1,256.0,,3.26,
116,2006,0-1,196.0,,2.41,
116,2007,0-1,210.0,,2.56,
116,2008,0-1,228.0,,2.82,
116,2009,0-1,217.0,,2.75,
116,2010,0-1,246.0,,3.21,
116,2011,0-1,215.0,,2.83,
116,2012,0-1,225.0,,2.98,
116,2013,0-1,235.0,,3.12,
116,2014,0-1,181.0,,2.41,
116,2015,0-1,213.0,,2.84,
116,Year,0-1,,,,Total for selection
117,2001,0-1,258.0,,3.43,
117,2002,0-1,258.0,,3.43,
117,2003,0-1,232.0,,3.01,
117,2004,0-1,231.0,,2.97,
117,2005,0-1,256.0,,3.26,
117,2006,0-1,196.0,,2.41,
117,2007,0-1,210.0,,2.56,
117,2008,0-1,228.0,,2.82,
117,2009,0-1,217.0,,2.75,
117,2010,0-1,246.0,,3.21,
117,2011,0-1,215.0,,2.83,
117,2012,0-1,225.0,,2.98,
117,2013,0-1,236.0,,3.14,
117,2014,0-1,181.0,,2.41,
117,2015,0-1,213.0,,2.84,
117,Year,0-1,,,,Missouri
0,Year,1-4,,,,County
1,Year,1-4,,,,Adair
2,Year,1-4,,,,Andrew
3,Year,1-4,,,,Atchison
4,2001,1-4,,*,,
4,2002,1-4,,*,,
4,2003,1-4,,*,,
4,2004,1-4,,*,,
4,2005,1-4,,*,,
4,2006,1-4,,*,,
4,2007,1-4,,*,,
4,2008,1-4,,*,,
4,2009,1-4,,*,,
4,2010,1-4,,*,,
4,2011,1-4,,*,,
4,2012,1-4,,*,,
4,2013,1-4,,*,,
4,2014,1-4,,*,,
4,2015,1-4,,*,,
4,2001,1-4,11.0,,8.51,
4,2002,1-4,8.0,,6.42,
4,2003,1-4,7.0,,5.79,
4,2004,1-4,9.0,,6.78,
4,2005,1-4,12.0,,8.67,
4,2006,1-4,12.0,,8.74,
4,2007,1-4,16.0,,11.39,
4,2008,1-4,13.0,,9.4,
4,2009,1-4,18.0,,12.95,
4,2010,1-4,14.0,,10.3,
4,2011,1-4,12.0,,9.05,
4,2012,1-4,16.0,,12.13,
4,2013,1-4,10.0,,7.83,
4,2014,1-4,11.0,,8.93,
4,2015,1-4,11.0,,8.8,
4,Year,1-4,,,,Audrain
5,2001,1-4,,*,,
5,2002,1-4,,*,,
5,2003,1-4,,*,,
5,2006,1-4,,*,,
5,2007,1-4,,*,,
5,2009,1-4,,*,,
5,2013,1-4,,*,,
5,2014,1-4,,*,,
5,2015,1-4,,*,,
5,2001,1-4,16.0,,8.75,
5,2002,1-4,11.0,,6.1,
5,2003,1-4,18.0,,9.56,
5,2004,1-4,26.0,,14.18,
5,2005,1-4,25.0,,13.03,
5,2006,1-4,16.0,,8.59,
5,2007,1-4,17.0,,9.07,
5,2008,1-4,29.0,,14.8,
5,2009,1-4,18.0,,9.66,
5,2010,1-4,21.0,,11.25,
5,2011,1-4,25.0,,13.56,
5,2012,1-4,21.0,,11.49,
5,2013,1-4,17.0,,9.06,
5,2014,1-4,13.0,,6.96,
5,2015,1-4,15.0,,8.43,
5,Year,1-4,,,,Barry
6,Year,1-4,,,,Barton
7,Year,1-4,,,,Bates
8,Year,1-4,,,,Benton
9,Year,1-4,,,,Bollinger
10,2001,1-4,41.0,,6.04,
10,2002,1-4,32.0,,4.76,
10,2003,1-4,38.0,,5.64,
10,2004,1-4,40.0,,5.78,
10,2005,1-4,59.0,,8.27,
10,2006,1-4,39.0,,5.32,
10,2007,1-4,39.0,,5.18,
10,2008,1-4,43.0,,5.53,
10,2009,1-4,49.0,,6.3,
10,2010,1-4,36.0,,4.42,
10,2011,1-4,50.0,,6.17,
10,2012,1-4,43.0,,5.32,
10,2013,1-4,35.0,,4.34,
10,2014,1-4,40.0,,4.88,
10,2015,1-4,46.0,,5.42,
10,Year,1-4,,,,Boone
11,2001,1-4,48.0,,11.13,
11,2002,1-4,29.0,,6.82,
11,2003,1-4,54.0,,12.68,
11,2004,1-4,26.0,,6.04,
11,2005,1-4,29.0,,6.73,
11,2006,1-4,42.0,,9.91,
11,2007,1-4,27.0,,6.04,
11,2008,1-4,45.0,,9.52,
11,2009,1-4,53.0,,10.95,
11,2010,1-4,45.0,,9.22,
11,2011,1-4,46.0,,9.33,
11,2012,1-4,43.0,,8.81,
11,2013,1-4,53.0,,10.82,
11,2014,1-4,47.0,,9.67,
11,2015,1-4,38.0,,8.08,
11,Year,1-4,,,,Buchanan
12,2001,1-4,31.0,,15.14,
12,2002,1-4,27.0,,12.44,
12,2003,1-4,29.0,,13.77,
12,2004,1-4,32.0,,14.84,
12,2005,1-4,32.0,,14.82,
12,2006,1-4,31.0,,14.2,
12,2007,1-4,30.0,,13.41,
12,2008,1-4,44.0,,20.43,
12,2009,1-4,31.0,,13.88,
12,2010,1-4,24.0,,10.81,
12,2011,1-4,37.0,,17.05,
12,2012,1-4,25.0,,11.8,
12,2013,1-4,23.0,,10.3,
12,2014,1-4,30.0,,13.09,
12,2015,1-4,20.0,,8.93,
12,Year,1-4,,,,Butler
13,Year,1-4,,,,Caldwell
14,2001,1-4,,*,,
14,2002,1-4,,*,,
14,2004,1-4,,*,,
14,2005,1-4,,*,,
14,2008,1-4,,*,,
14,2009,1-4,,*,,
14,2012,1-4,,*,,
14,2013,1-4,,*,,
14,2015,1-4,,*,,
14,2001,1-4,13.0,,6.12,
14,2002,1-4,14.0,,6.6,
14,2003,1-4,22.0,,10.61,
14,2004,1-4,14.0,,6.88,
14,2005,1-4,11.0,,5.09,
14,2006,1-4,22.0,,10.13,
14,2007,1-4,21.0,,9.77,
14,2008,1-4,18.0,,8.16,
14,2009,1-4,18.0,,8.25,
14,2010,1-4,27.0,,12.74,
14,2011,1-4,22.0,,10.57,
14,2012,1-4,16.0,,7.84,
14,2013,1-4,16.0,,7.96,
14,2014,1-4,22.0,,10.86,
14,2015,1-4,17.0,,8.27,
14,Year,1-4,,,,Callaway
15,2001,1-4,,*,,
15,2002,1-4,,*,,
15,2003,1-4,,*,,
15,2005,1-4,,*,,
15,2006,1-4,,*,,
15,2007,1-4,,*,,
15,2008,1-4,,*,,
15,2009,1-4,,*,,
15,2010,1-4,,*,,
15,2011,1-4,,*,,
15,2012,1-4,,*,,
15,2013,1-4,,*,,
15,2014,1-4,,*,,
15,2015,1-4,,*,,
15,2001,1-4,16.0,,11.52,
15,2002,1-4,17.0,,11.85,
15,2003,1-4,16.0,,11.51,
15,2004,1-4,26.0,,16.73,
15,2005,1-4,12.0,,7.68,
15,2006,1-4,12.0,,7.38,
15,2007,1-4,16.0,,9.42,
15,2008,1-4,16.0,,9.21,
15,2009,1-4,19.0,,10.96,
15,2010,1-4,15.0,,8.67,
15,2011,1-4,12.0,,6.95,
15,2012,1-4,13.0,,7.65,
15,2013,1-4,10.0,,6.07,
15,2014,1-4,10.0,,6.31,
15,2015,1-4,14.0,,8.81,
15,Year,1-4,,,,Camden
16,2006,1-4,,*,,
16,2007,1-4,,*,,
16,2009,1-4,,*,,
16,2011,1-4,,*,,
16,2014,1-4,,*,,
16,2001,1-4,26.0,,8.11,
16,2002,1-4,29.0,,8.61,
16,2003,1-4,27.0,,8.02,
16,2004,1-4,21.0,,6.06,
16,2005,1-4,21.0,,6.12,
16,2006,1-4,17.0,,4.76,
16,2007,1-4,19.0,,5.28,
16,2008,1-4,28.0,,7.76,
16,2009,1-4,17.0,,4.58,
16,2010,1-4,27.0,,7.11,
16,2011,1-4,16.0,,4.29,
16,2012,1-4,23.0,,6.21,
16,2013,1-4,23.0,,6.33,
16,2014,1-4,12.0,,3.31,
16,2015,1-4,27.0,,7.39,
16,Year,1-4,,,,Cape Girardeau
17,Year,1-4,,,,Carroll
18,Year,1-4,,,,Carter
19,2001,1-4,44.0,,8.69,
19,2002,1-4,25.0,,4.93,
19,2003,1-4,35.0,,6.9,
19,2004,1-4,39.0,,7.59,
19,2005,1-4,25.0,,4.82,
19,2006,1-4,40.0,,7.7,
19,2007,1-4,61.0,,11.43,
19,2008,1-4,49.0,,9.09,
19,2009,1-4,48.0,,8.88,
19,2010,1-4,31.0,,5.65,
19,2011,1-4,37.0,,6.89,
19,2012,1-4,28.0,,5.39,
19,2013,1-4,20.0,,4.05,
19,2014,1-4,25.0,,5.12,
19,2015,1-4,24.0,,4.84,
19,Year,1-4,,,,Cass
20,2001,1-4,,*,,
20,2002,1-4,,*,,
20,2003,1-4,,*,,
20,2004,1-4,,*,,
20,2005,1-4,,*,,
20,2006,1-4,,*,,
20,2007,1-4,,*,,
20,2008,1-4,,*,,
20,2009,1-4,,*,,
20,2010,1-4,,*,,
20,2011,1-4,,*,,
20,2012,1-4,,*,,
20,2013,1-4,,*,,
20,2014,1-4,,*,,
20,2015,1-4,,*,,
20,2001,1-4,6.0,,8.88,
20,2002,1-4,5.0,,8.08,
20,2003,1-4,6.0,,9.86,
20,2004,1-4,13.0,,21.35,
20,2005,1-4,7.0,,10.59,
20,2006,1-4,5.0,,7.35,
20,2007,1-4,9.0,,13.29,
20,2008,1-4,8.0,,11.8,
20,2009,1-4,7.0,,10.22,
20,2010,1-4,7.0,,10.42,
20,2011,1-4,9.0,,14.63,
20,2012,1-4,8.0,,13.58,
20,2013,1-4,8.0,,13.18,
20,2014,1-4,7.0,,11.46,
20,2015,1-4,5.0,,8.14,
20,Year,1-4,,,,Cedar
21,Year,1-4,,,,Chariton
22,2001,1-4,,*,,
22,2002,1-4,,*,,
22,2003,1-4,,*,,
22,2005,1-4,,*,,
22,2006,1-4,,*,,
22,2010,1-4,,*,,
22,2012,1-4,,*,,
22,2014,1-4,,*,,
22,2015,1-4,,*,,
22,2001,1-4,11.0,,3.08,
22,2002,1-4,17.0,,4.78,
22,2003,1-4,18.0,,5.04,
22,2004,1-4,20.0,,5.36,
22,2005,1-4,14.0,,3.6,
22,2006,1-4,15.0,,3.58,
22,2007,1-4,42.0,,9.58,
22,2008,1-4,22.0,,4.76,
22,2009,1-4,29.0,,6.12,
22,2010,1-4,18.0,,3.87,
22,2011,1-4,24.0,,5.25,
22,2012,1-4,15.0,,3.34,
22,2013,1-4,20.0,,4.55,
22,2014,1-4,11.0,,2.57,
22,2015,1-4,16.0,,3.82,
22,Year,1-4,,,,Christian
23,Year,1-4,,,,Clark
24,2001,1-4,78.0,,7.19,
24,2002,1-4,88.0,,7.81,
24,2003,1-4,91.0,,8.1,
24,2004,1-4,90.0,,7.77,
24,2005,1-4,76.0,,6.46,
24,2006,1-4,84.0,,7.0,
24,2007,1-4,108.0,,8.8,
24,2008,1-4,84.0,,6.73,
24,2009,1-4,83.0,,6.38,
24,2010,1-4,84.0,,6.38,
24,2011,1-4,85.0,,6.59,
24,2012,1-4,83.0,,6.64,
24,2013,1-4,82.0,,6.63,
24,2014,1-4,68.0,,5.58,
24,2015,1-4,74.0,,6.11,
24,Year,1-4,,,,Clay
25,2001,1-4,,*,,
25,2002,1-4,,*,,
25,2003,1-4,,*,,
25,2004,1-4,,*,,
25,2005,1-4,,*,,
25,2006,1-4,,*,,
25,2007,1-4,,*,,
25,2008,1-4,,*,,
25,2009,1-4,,*,,
25,2010,1-4,,*,,
25,2011,1-4,,*,,
25,2012,1-4,,*,,
25,2013,1-4,,*,,
25,2014,1-4,,*,,
25,2015,1-4,,*,,
25,2001,1-4,6.0,,5.88,
25,2002,1-4,7.0,,6.79,
25,2003,1-4,8.0,,7.48,
25,2004,1-4,14.0,,12.64,
25,2005,1-4,5.0,,4.84,
25,2006,1-4,6.0,,5.81,
25,2007,1-4,10.0,,9.34,
25,2008,1-4,14.0,,13.17,
25,2009,1-4,12.0,,11.37,
25,2010,1-4,8.0,,7.39,
25,2011,1-4,9.0,,8.93,
25,2012,1-4,5.0,,5.12,
25,2013,1-4,12.0,,12.07,
25,2014,1-4,7.0,,7.34,
25,2015,1-4,11.0,,11.73,
25,Year,1-4,,,,Clinton
26,2008,1-4,,*,,
26,2001,1-4,27.0,,7.49,
26,2002,1-4,26.0,,7.05,
26,2003,1-4,33.0,,8.9,
26,2004,1-4,20.0,,5.29,
26,2005,1-4,20.0,,5.12,
26,2006,1-4,37.0,,9.46,
26,2007,1-4,29.0,,7.34,
26,2008,1-4,19.0,,4.59,
26,2009,1-4,33.0,,8.0,
26,2010,1-4,23.0,,5.6,
26,2011,1-4,22.0,,5.38,
26,2012,1-4,33.0,,8.51,
26,2013,1-4,23.0,,6.05,
26,2014,1-4,20.0,,5.3,
26,2015,1-4,37.0,,9.61,
26,Year,1-4,,,,Cole
27,Year,1-4,,,,Cooper
28,Year,1-4,,,,Crawford
29,Year,1-4,,,,Dade
30,Year,1-4,,,,Dallas
31,Year,1-4,,,,Daviess
32,Year,1-4,,,,DeKalb
33,Year,1-4,,,,Dent
34,Year,1-4,,,,Douglas
35,2008,1-4,,*,,
35,2001,1-4,36.0,,18.88,
35,2002,1-4,31.0,,16.14,
35,2003,1-4,35.0,,19.07,
35,2004,1-4,33.0,,18.01,
35,2005,1-4,33.0,,18.26,
35,2006,1-4,35.0,,19.62,
35,2007,1-4,31.0,,17.82,
35,2008,1-4,18.0,,10.21,
35,2009,1-4,29.0,,16.79,
35,2010,1-4,33.0,,18.93,
35,2011,1-4,39.0,,21.8,
35,2012,1-4,37.0,,20.14,
35,2013,1-4,33.0,,18.17,
35,2014,1-4,29.0,,15.94,
35,2015,1-4,23.0,,12.41,
35,Year,1-4,,,,Dunklin
36,2001,1-4,25.0,,4.84,
36,2002,1-4,37.0,,7.08,
36,2003,1-4,36.0,,6.87,
36,2004,1-4,34.0,,6.45,
36,2005,1-4,31.0,,5.8,
36,2006,1-4,27.0,,5.14,
36,2007,1-4,32.0,,6.08,
36,2008,1-4,43.0,,8.15,
36,2009,1-4,53.0,,10.16,
36,2010,1-4,47.0,,8.94,
36,2011,1-4,66.0,,12.63,
36,2012,1-4,56.0,,10.86,
36,2013,1-4,54.0,,10.49,
36,2014,1-4,34.0,,6.66,
36,2015,1-4,41.0,,8.22,
36,Year,1-4,,,,Franklin
37,Year,1-4,,,,Gasconade
38,Year,1-4,,,,Gentry
39,2001,1-4,80.0,,6.84,
39,2002,1-4,54.0,,4.62,
39,2003,1-4,75.0,,6.37,
39,2004,1-4,95.0,,7.91,
39,2005,1-4,103.0,,8.48,
39,2006,1-4,109.0,,8.65,
39,2007,1-4,97.0,,7.61,
39,2008,1-4,87.0,,6.66,
39,2009,1-4,116.0,,8.59,
39,2010,1-4,97.0,,7.15,
39,2011,1-4,112.0,,8.19,
39,2012,1-4,101.0,,7.37,
39,2013,1-4,81.0,,5.87,
39,2014,1-4,62.0,,4.49,
39,2015,1-4,59.0,,4.24,
39,Year,1-4,,,,Greene
40,Year,1-4,,,,Grundy
41,Year,1-4,,,,Harrison
42,2001,1-4,,*,,
42,2002,1-4,,*,,
42,2003,1-4,,*,,
42,2004,1-4,,*,,
42,2005,1-4,,*,,
42,2006,1-4,,*,,
42,2007,1-4,,*,,
42,2008,1-4,,*,,
42,2009,1-4,,*,,
42,2010,1-4,,*,,
42,2011,1-4,,*,,
42,2012,1-4,,*,,
42,2013,1-4,,*,,
42,2014,1-4,,*,,
42,2015,1-4,,*,,
42,2001,1-4,19.0,,17.66,
42,2002,1-4,12.0,,11.42,
42,2003,1-4,10.0,,8.92,
42,2004,1-4,5.0,,4.48,
42,2005,1-4,10.0,,9.27,
42,2006,1-4,11.0,,10.05,
42,2007,1-4,16.0,,14.71,
42,2008,1-4,12.0,,11.35,
42,2009,1-4,11.0,,10.67,
42,2010,1-4,7.0,,6.49,
42,2011,1-4,8.0,,7.62,
42,2012,1-4,9.0,,8.76,
42,2013,1-4,12.0,,11.35,
42,2014,1-4,7.0,,6.57,
42,2015,1-4,8.0,,7.56,
42,Year,1-4,,,,Henry
43,Year,1-4,,,,Hickory
44,Year,1-4,,,,Holt
45,Year,1-4,,,,Howard
46,2001,1-4,,*,,
46,2003,1-4,,*,,
46,2001,1-4,12.0,,5.92,
46,2002,1-4,29.0,,14.61,
46,2003,1-4,17.0,,8.47,
46,2004,1-4,23.0,,11.25,
46,2005,1-4,25.0,,12.01,
46,2006,1-4,20.0,,9.69,
46,2007,1-4,24.0,,11.27,
46,2008,1-4,31.0,,14.01,
46,2009,1-4,24.0,,10.67,
46,2010,1-4,30.0,,12.9,
46,2011,1-4,37.0,,16.07,
46,2012,1-4,24.0,,10.58,
46,2013,1-4,36.0,,16.3,
46,2014,1-4,36.0,,16.85,
46,2015,1-4,21.0,,10.22,
46,Year,1-4,,,,Howell
47,Year,1-4,,,,Iron
48,2001,1-4,237.0,,6.56,
48,2002,1-4,240.0,,6.53,
48,2003,1-4,244.0,,6.54,
48,2004,1-4,271.0,,7.23,
48,2005,1-4,260.0,,6.87,
48,2006,1-4,234.0,,6.23,
48,2007,1-4,244.0,,6.48,
48,2008,1-4,226.0,,6.07,
48,2009,1-4,266.0,,7.14,
48,2010,1-4,279.0,,7.32,
48,2011,1-4,255.0,,6.74,
48,2012,1-4,242.0,,6.44,
48,2013,1-4,248.0,,6.65,
48,2014,1-4,212.0,,5.7,
48,2015,1-4,202.0,,5.4,
48,Year,1-4,,,,Jackson
49,2001,1-4,44.0,,7.17,
49,2002,1-4,41.0,,6.41,
49,2003,1-4,61.0,,9.32,
49,2004,1-4,58.0,,8.74,
49,2005,1-4,63.0,,9.43,
49,2006,1-4,61.0,,8.96,
49,2007,1-4,78.0,,11.42,
49,2008,1-4,57.0,,8.07,
49,2009,1-4,85.0,,11.78,
49,2010,1-4,77.0,,10.72,
49,2011,1-4,70.0,,9.69,
49,2012,1-4,60.0,,8.8,
49,2013,1-4,56.0,,8.31,
49,2014,1-4,48.0,,7.14,
49,2015,1-4,34.0,,5.13,
49,Year,1-4,,,,Jasper
50,2001,1-4,59.0,,5.14,
50,2002,1-4,64.0,,5.69,
50,2003,1-4,56.0,,5.05,
50,2004,1-4,58.0,,5.13,
50,2005,1-4,87.0,,7.73,
50,2006,1-4,66.0,,5.72,
50,2007,1-4,55.0,,4.67,
50,2008,1-4,66.0,,5.44,
50,2009,1-4,88.0,,7.27,
50,2010,1-4,67.0,,5.49,
50,2011,1-4,66.0,,5.52,
50,2012,1-4,83.0,,7.2,
50,2013,1-4,55.0,,4.8,
50,2014,1-4,49.0,,4.3,
50,2015,1-4,55.0,,4.94,
50,Year,1-4,,,,Jefferson
51,2001,1-4,,*,,
51,2004,1-4,,*,,
51,2007,1-4,,*,,
51,2010,1-4,,*,,
51,2012,1-4,,*,,
51,2015,1-4,,*,,
51,2001,1-4,6.0,,2.36,
51,2002,1-4,20.0,,7.81,
51,2003,1-4,21.0,,8.21,
51,2004,1-4,15.0,,5.62,
51,2005,1-4,27.0,,9.85,
51,2006,1-4,21.0,,7.94,
51,2007,1-4,17.0,,6.35,
51,2008,1-4,23.0,,8.36,
51,2009,1-4,28.0,,10.02,
51,2010,1-4,17.0,,5.94,
51,2011,1-4,21.0,,7.34,
51,2012,1-4,13.0,,4.51,
51,2013,1-4,26.0,,9.09,
51,2014,1-4,21.0,,7.52,
51,2015,1-4,15.0,,5.34,
51,Year,1-4,,,,Johnson
52,Year,1-4,,,,Knox
53,2011,1-4,,*,,
53,2015,1-4,,*,,
53,2001,1-4,31.0,,17.25,
53,2002,1-4,32.0,,18.0,
53,2003,1-4,20.0,,11.49,
53,2004,1-4,32.0,,17.69,
53,2005,1-4,25.0,,13.28,
53,2006,1-4,41.0,,20.79,
53,2007,1-4,26.0,,12.9,
53,2008,1-4,26.0,,12.49,
53,2009,1-4,37.0,,17.97,
53,2010,1-4,20.0,,9.59,
53,2011,1-4,17.0,,8.91,
53,2012,1-4,29.0,,15.03,
53,2013,1-4,24.0,,12.54,
53,2014,1-4,29.0,,15.92,
53,2015,1-4,19.0,,10.1,
53,Year,1-4,,,,Laclede
54,2001,1-4,,*,,
54,2002,1-4,,*,,
54,2004,1-4,,*,,
54,2005,1-4,,*,,
54,2006,1-4,,*,,
54,2007,1-4,,*,,
54,2008,1-4,,*,,
54,2009,1-4,,*,,
54,2014,1-4,,*,,
54,2015,1-4,,*,,
54,2001,1-4,15.0,,9.72,
54,2002,1-4,14.0,,8.66,
54,2003,1-4,20.0,,11.69,
54,2004,1-4,11.0,,6.73,
54,2005,1-4,17.0,,10.22,
54,2006,1-4,12.0,,7.28,
54,2007,1-4,12.0,,7.33,
54,2008,1-4,16.0,,9.42,
54,2009,1-4,16.0,,9.52,
54,2010,1-4,32.0,,19.09,
54,2011,1-4,20.0,,12.07,
54,2012,1-4,24.0,,15.36,
54,2013,1-4,20.0,,13.0,
54,2014,1-4,15.0,,10.05,
54,2015,1-4,7.0,,4.63,
54,Year,1-4,,,,Lafayette
55,2003,1-4,,*,,
55,2006,1-4,,*,,
55,2011,1-4,,*,,
55,2013,1-4,,*,,
55,2015,1-4,,*,,
55,2001,1-4,25.0,,12.51,
55,2002,1-4,25.0,,12.15,
55,2003,1-4,17.0,,8.41,
55,2004,1-4,21.0,,9.97,
55,2005,1-4,22.0,,10.62,
55,2006,1-4,16.0,,7.86,
55,2007,1-4,29.0,,13.72,
55,2008,1-4,28.0,,13.02,
55,2009,1-4,23.0,,10.48,
55,2010,1-4,23.0,,10.45,
55,2011,1-4,19.0,,9.14,
55,2012,1-4,22.0,,10.79,
55,2013,1-4,18.0,,9.11,
55,2014,1-4,21.0,,10.82,
55,2015,1-4,12.0,,6.19,
55,Year,1-4,,,,Lawrence
56,Year,1-4,,,,Lewis
57,2001,1-4,,*,,
57,2004,1-4,,*,,
57,2014,1-4,,*,,
57,2001,1-4,10.0,,4.17,
57,2002,1-4,23.0,,9.51,
57,2003,1-4,24.0,,9.43,
57,2004,1-4,14.0,,5.41,
57,2005,1-4,20.0,,7.29,
57,2006,1-4,23.0,,7.79,
57,2007,1-4,29.0,,9.52,
57,2008,1-4,40.0,,12.71,
57,2009,1-4,25.0,,7.69,
57,2010,1-4,31.0,,9.33,
57,2011,1-4,30.0,,9.48,
57,2012,1-4,29.0,,9.44,
57,2013,1-4,21.0,,7.04,
57,2014,1-4,15.0,,5.05,
57,2015,1-4,20.0,,6.98,
57,Year,1-4,,,,Lincoln
58,Year,1-4,,,,Linn
59,Year,1-4,,,,Livingston
60,Year,1-4,,,,Macon
61,Year,1-4,,,,Madison
62,Year,1-4,,,,Maries
63,2001,1-4,,*,,
63,2002,1-4,,*,,
63,2003,1-4,,*,,
63,2004,1-4,,*,,
63,2006,1-4,,*,,
63,2008,1-4,,*,,
63,2010,1-4,,*,,
63,2012,1-4,,*,,
63,2013,1-4,,*,,
63,2014,1-4,,*,,
63,2015,1-4,,*,,
63,2001,1-4,10.0,,6.83,
63,2002,1-4,11.0,,7.36,
63,2003,1-4,13.0,,8.47,
63,2004,1-4,15.0,,9.66,
0,Year,5-9,,,,County
1,Year,5-9,,,,Adair
2,Year,5-9,,,,Andrew
3,Year,5-9,,,,Atchison
4,Year,5-9,,,,Audrain
5,Year,5-9,,,,Barry
6,Year,5-9,,,,Barton
7,Year,5-9,,,,Bates
8,Year,5-9,,,,Benton
9,Year,5-9,,,,Bollinger
10,2001,5-9,,*,,
10,2002,5-9,,*,,
10,2003,5-9,,*,,
10,2004,5-9,,*,,
10,2005,5-9,,*,,
10,2006,5-9,,*,,
10,2007,5-9,,*,,
10,2008,5-9,,*,,
10,2009,5-9,,*,,
10,2010,5-9,,*,,
10,2011,5-9,,*,,
10,2012,5-9,,*,,
10,2013,5-9,,*,,
10,2014,5-9,,*,,
10,2001,5-9,14.0,,1.66,
10,2002,5-9,15.0,,1.78,
10,2003,5-9,11.0,,1.31,
10,2004,5-9,11.0,,1.32,
10,2005,5-9,13.0,,1.54,
10,2006,5-9,10.0,,1.12,
10,2007,5-9,10.0,,1.12,
10,2008,5-9,12.0,,1.32,
10,2009,5-9,14.0,,1.49,
10,2010,5-9,13.0,,1.37,
10,2011,5-9,9.0,,0.93,
10,2012,5-9,11.0,,1.11,
10,2013,5-9,15.0,,1.48,
10,2014,5-9,16.0,,1.6,
10,2015,5-9,26.0,,2.59,
10,Year,5-9,,,,Boone
11,2001,5-9,,*,,
11,2002,5-9,,*,,
11,2003,5-9,,*,,
11,2004,5-9,,*,,
11,2005,5-9,,*,,
11,2006,5-9,,*,,
11,2007,5-9,,*,,
11,2008,5-9,,*,,
11,2009,5-9,,*,,
11,2010,5-9,,*,,
11,2011,5-9,,*,,
11,2012,5-9,,*,,
11,2013,5-9,,*,,
11,2014,5-9,,*,,
11,2015,5-9,,*,,
11,2001,5-9,8.0,,1.43,
11,2002,5-9,6.0,,1.09,
11,2003,5-9,16.0,,2.97,
11,2004,5-9,9.0,,1.68,
11,2005,5-9,6.0,,1.12,
11,2006,5-9,17.0,,3.21,
11,2007,5-9,14.0,,2.52,
11,2008,5-9,6.0,,1.07,
11,2009,5-9,9.0,,1.57,
11,2010,5-9,7.0,,1.23,
11,2011,5-9,13.0,,2.22,
11,2012,5-9,14.0,,2.38,
11,2013,5-9,11.0,,1.86,
11,2014,5-9,9.0,,1.54,
11,2015,5-9,18.0,,3.15,
11,Year,5-9,,,,Buchanan
12,2001,5-9,,*,,
12,2002,5-9,,*,,
12,2003,5-9,,*,,
12,2004,5-9,,*,,
12,2005,5-9,,*,,
12,2006,5-9,,*,,
12,2007,5-9,,*,,
12,2008,5-9,,*,,
12,2009,5-9,,*,,
12,2010,5-9,,*,,
12,2011,5-9,,*,,
12,2012,5-9,,*,,
12,2013,5-9,,*,,
12,2014,5-9,,*,,
12,2015,5-9,,*,,
12,2001,5-9,17.0,,6.5,
12,2002,5-9,11.0,,4.3,
12,2003,5-9,11.0,,4.3,
12,2004,5-9,16.0,,6.02,
12,2005,5-9,8.0,,2.93,
12,2006,5-9,10.0,,3.61,
12,2007,5-9,9.0,,3.17,
12,2008,5-9,13.0,,4.53,
12,2009,5-9,11.0,,3.85,
12,2010,5-9,13.0,,4.5,
12,2011,5-9,12.0,,4.13,
12,2012,5-9,13.0,,4.5,
12,2013,5-9,8.0,,2.79,
12,2014,5-9,10.0,,3.52,
12,2015,5-9,12.0,,4.32,
12,Year,5-9,,,,Butler
13,Year,5-9,,,,Caldwell
14,Year,5-9,,,,Callaway
15,Year,5-9,,,,Camden
16,2001,5-9,,*,,
16,2002,5-9,,*,,
16,2003,5-9,,*,,
16,2004,5-9,,*,,
16,2005,5-9,,*,,
16,2006,5-9,,*,,
16,2007,5-9,,*,,
16,2008,5-9,,*,,
16,2009,5-9,,*,,
16,2010,5-9,,*,,
16,2011,5-9,,*,,
16,2012,5-9,,*,,
16,2013,5-9,,*,,
16,2014,5-9,,*,,
16,2015,5-9,,*,,
16,2001,5-9,10.0,,2.25,
16,2002,5-9,9.0,,2.1,
16,2003,5-9,18.0,,4.28,
16,2004,5-9,6.0,,1.46,
16,2005,5-9,6.0,,1.42,
16,2006,5-9,5.0,,1.12,
16,2007,5-9,6.0,,1.37,
16,2008,5-9,12.0,,2.7,
16,2009,5-9,8.0,,1.76,
16,2010,5-9,9.0,,1.95,
16,2011,5-9,6.0,,1.27,
16,2012,5-9,11.0,,2.33,
16,2013,5-9,6.0,,1.26,
16,2014,5-9,13.0,,2.7,
16,2015,5-9,12.0,,2.49,
16,Year,5-9,,,,Cape Girardeau
17,Year,5-9,,,,Carroll
18,Year,5-9,,,,Carter
19,Year,5-9,,,,Cass
20,Year,5-9,,,,Cedar
21,Year,5-9,,,,Chariton
22,Year,5-9,,,,Christian
23,Year,5-9,,,,Clark
24,2002,5-9,,*,,
24,2003,5-9,,*,,
24,2004,5-9,,*,,
24,2006,5-9,,*,,
24,2007,5-9,,*,,
24,2008,5-9,,*,,
24,2010,5-9,,*,,
24,2011,5-9,,*,,
24,2014,5-9,,*,,
24,2015,5-9,,*,,
24,2001,5-9,20.0,,1.48,
24,2002,5-9,17.0,,1.26,
24,2003,5-9,16.0,,1.17,
24,2004,5-9,11.0,,0.79,
24,2005,5-9,22.0,,1.54,
24,2006,5-9,17.0,,1.12,
24,2007,5-9,14.0,,0.91,
24,2008,5-9,18.0,,1.12,
24,2009,5-9,20.0,,1.24,
24,2010,5-9,17.0,,1.04,
24,2011,5-9,18.0,,1.09,
24,2012,5-9,21.0,,1.27,
24,2013,5-9,20.0,,1.18,
24,2014,5-9,18.0,,1.07,
24,2015,5-9,18.0,,1.08,
24,Year,5-9,,,,Clay
25,Year,5-9,,,,Clinton
26,2001,5-9,,*,,
26,2002,5-9,,*,,
26,2003,5-9,,*,,
26,2004,5-9,,*,,
26,2005,5-9,,*,,
26,2006,5-9,,*,,
26,2007,5-9,,*,,
26,2008,5-9,,*,,
26,2009,5-9,,*,,
26,2010,5-9,,*,,
26,2011,5-9,,*,,
26,2012,5-9,,*,,
26,2013,5-9,,*,,
26,2014,5-9,,*,,
26,2001,5-9,7.0,,1.49,
26,2002,5-9,11.0,,2.39,
26,2003,5-9,10.0,,2.16,
26,2004,5-9,11.0,,2.38,
26,2005,5-9,10.0,,2.09,
26,2006,5-9,10.0,,2.12,
26,2007,5-9,7.0,,1.48,
26,2008,5-9,5.0,,1.04,
26,2009,5-9,11.0,,2.25,
26,2010,5-9,10.0,,2.0,
26,2011,5-9,10.0,,1.95,
26,2012,5-9,6.0,,1.17,
26,2013,5-9,13.0,,2.54,
26,2014,5-9,8.0,,1.61,
26,2015,5-9,25.0,,5.14,
26,Year,5-9,,,,Cole
27,Year,5-9,,,,Cooper
28,Year,5-9,,,,Crawford
29,Year,5-9,,,,Dade
30,Year,5-9,,,,Dallas
31,Year,5-9,,,,Daviess
32,Year,5-9,,,,DeKalb
33,Year,5-9,,,,Dent
34,Year,5-9,,,,Douglas
35,2001,5-9,,*,,
35,2002,5-9,,*,,
35,2003,5-9,,*,,
35,2004,5-9,,*,,
35,2005,5-9,,*,,
35,2006,5-9,,*,,
35,2007,5-9,,*,,
35,2008,5-9,,*,,
35,2009,5-9,,*,,
35,2010,5-9,,*,,
35,2011,5-9,,*,,
35,2012,5-9,,*,,
35,2013,5-9,,*,,
35,2014,5-9,,*,,
35,2015,5-9,,*,,
35,2001,5-9,13.0,,5.66,
35,2002,5-9,9.0,,4.0,
35,2003,5-9,9.0,,3.96,
35,2004,5-9,17.0,,7.65,
35,2005,5-9,11.0,,4.88,
35,2006,5-9,11.0,,5.0,
35,2007,5-9,14.0,,6.34,
35,2008,5-9,7.0,,3.17,
35,2009,5-9,13.0,,5.85,
35,2010,5-9,13.0,,5.94,
35,2011,5-9,17.0,,7.72,
35,2012,5-9,16.0,,7.02,
35,2013,5-9,11.0,,4.84,
35,2014,5-9,12.0,,5.4,
35,2015,5-9,11.0,,5.05,
35,Year,5-9,,,,Dunklin
36,2001,5-9,,*,,
36,2002,5-9,,*,,
36,2003,5-9,,*,,
36,2004,5-9,,*,,
36,2005,5-9,,*,,
36,2006,5-9,,*,,
36,2007,5-9,,*,,
36,2008,5-9,,*,,
36,2010,5-9,,*,,
36,2011,5-9,,*,,
36,2012,5-9,,*,,
36,2014,5-9,,*,,
36,2001,5-9,14.0,,2.0,
36,2002,5-9,14.0,,2.04,
36,2003,5-9,11.0,,1.6,
36,2004,5-9,19.0,,2.78,
36,2005,5-9,12.0,,1.73,
36,2006,5-9,5.0,,0.72,
36,2007,5-9,7.0,,1.0,
36,2008,5-9,8.0,,1.12,
36,2009,5-9,22.0,,3.17,
36,2010,5-9,13.0,,1.88,
36,2011,5-9,12.0,,1.77,
36,2012,5-9,6.0,,0.9,
36,2013,5-9,28.0,,4.21,
36,2014,5-9,19.0,,2.86,
36,2015,5-9,23.0,,3.46,
36,Year,5-9,,,,Franklin
37,Year,5-9,,,,Gasconade
38,Year,5-9,,,,Gentry
39,2001,5-9,,*,,
39,2002,5-9,,*,,
39,2003,5-9,,*,,
39,2004,5-9,,*,,
39,2001,5-9,11.0,,0.75,
39,2002,5-9,15.0,,1.03,
39,2003,5-9,10.0,,0.69,
39,2004,5-9,14.0,,0.95,
39,2005,5-9,24.0,,1.62,
39,2006,5-9,30.0,,1.98,
39,2007,5-9,35.0,,2.25,
39,2008,5-9,32.0,,2.04,
39,2009,5-9,38.0,,2.38,
39,2010,5-9,39.0,,2.42,
39,2011,5-9,33.0,,2.0,
39,2012,5-9,23.0,,1.39,
39,2013,5-9,31.0,,1.83,
39,2014,5-9,28.0,,1.65,
39,2015,5-9,20.0,,1.18,
39,Year,5-9,,,,Greene
40,Year,5-9,,,,Grundy
41,Year,5-9,,,,Harrison
42,Year,5-9,,,,Henry
43,Year,5-9,,,,Hickory
44,Year,5-9,,,,Holt
45,Year,5-9,,,,Howard
46,Year,5-9,,,,Howell
47,Year,5-9,,,,Iron
48,2001,5-9,55.0,,1.21,
48,2002,5-9,57.0,,1.29,
48,2003,5-9,45.0,,1.04,
48,2004,5-9,69.0,,1.63,
48,2005,5-9,73.0,,1.72,
48,2006,5-9,41.0,,0.95,
48,2007,5-9,48.0,,1.1,
48,2008,5-9,62.0,,1.39,
48,2009,5-9,56.0,,1.23,
48,2010,5-9,63.0,,1.37,
48,2011,5-9,64.0,,1.39,
48,2012,5-9,55.0,,1.19,
48,2013,5-9,77.0,,1.67,
48,2014,5-9,78.0,,1.68,
48,2015,5-9,72.0,,1.54,
48,Year,5-9,,,,Jackson
49,2001,5-9,,*,,
49,2003,5-9,,*,,
49,2006,5-9,,*,,
49,2015,5-9,,*,,
49,2001,5-9,19.0,,2.57,
49,2002,5-9,25.0,,3.4,
49,2003,5-9,17.0,,2.29,
49,2004,5-9,34.0,,4.51,
49,2005,5-9,24.0,,3.15,
49,2006,5-9,17.0,,2.16,
49,2007,5-9,32.0,,3.93,
49,2008,5-9,21.0,,2.56,
49,2009,5-9,38.0,,4.54,
49,2010,5-9,28.0,,3.26,
49,2011,5-9,24.0,,2.82,
49,2012,5-9,27.0,,3.29,
49,2013,5-9,29.0,,3.45,
49,2014,5-9,21.0,,2.46,
49,2015,5-9,16.0,,1.88,
49,Year,5-9,,,,Jasper
50,2005,5-9,,*,,
50,2006,5-9,,*,,
50,2007,5-9,,*,,
50,2008,5-9,,*,,
50,2014,5-9,,*,,
50,2001,5-9,25.0,,1.65,
50,2002,5-9,38.0,,2.52,
50,2003,5-9,25.0,,1.68,
50,2004,5-9,24.0,,1.59,
50,2005,5-9,14.0,,0.92,
50,2006,5-9,17.0,,1.12,
50,2007,5-9,17.0,,1.12,
50,2008,5-9,18.0,,1.19,
50,2009,5-9,26.0,,1.73,
50,2010,5-9,21.0,,1.39,
50,2011,5-9,24.0,,1.59,
50,2012,5-9,20.0,,1.33,
50,2013,5-9,21.0,,1.38,
50,2014,5-9,18.0,,1.19,
50,2015,5-9,22.0,,1.45,
50,Year,5-9,,,,Jefferson
51,Year,5-9,,,,Johnson
52,Year,5-9,,,,Knox
53,Year,5-9,,,,Laclede
54,Year,5-9,,,,Lafayette
55,Year,5-9,,,,Lawrence
56,Year,5-9,,,,Lewis
57,2001,5-9,,*,,
57,2002,5-9,,*,,
57,2003,5-9,,*,,
57,2004,5-9,,*,,
57,2005,5-9,,*,,
57,2006,5-9,,*,,
57,2007,5-9,,*,,
57,2008,5-9,,*,,
57,2009,5-9,,*,,
57,2010,5-9,,*,,
57,2011,5-9,,*,,
57,2012,5-9,,*,,
57,2013,5-9,,*,,
57,2014,5-9,,*,,
57,2015,5-9,,*,,
57,2001,5-9,8.0,,2.31,
57,2002,5-9,9.0,,2.54,
57,2003,5-9,9.0,,2.54,
57,2004,5-9,8.0,,2.25,
57,2005,5-9,8.0,,2.17,
57,2006,5-9,6.0,,1.56,
57,2007,5-9,9.0,,2.24,
57,2008,5-9,16.0,,3.93,
57,2009,5-9,13.0,,3.27,
57,2010,5-9,12.0,,2.98,
57,2011,5-9,19.0,,4.67,
57,2012,5-9,17.0,,4.19,
57,2013,5-9,12.0,,2.94,
57,2014,5-9,14.0,,3.47,
57,2015,5-9,8.0,,2.02,
57,Year,5-9,,,,Lincoln
58,Year,5-9,,,,Linn
59,Year,5-9,,,,Livingston
60,Year,5-9,,,,Macon
61,Year,5-9,,,,Madison
62,Year,5-9,,,,Maries
63,Year,5-9,,,,Marion
64,Year,5-9,,,,McDonald
65,Year,5-9,,,,Mercer
66,Year,5-9,,,,Miller
67,Year,5-9,,,,Mississippi
68,Year,5-9,,,,Moniteau
69,Year,5-9,,,,Monroe
70,Year,5-9,,,,Montgomery
71,Year,5-9,,,,Morgan
72,Year,5-9,,,,New Madrid
73,2001,5-9,,*,,
73,2002,5-9,,*,,
73,2003,5-9,,*,,
73,2005,5-9,,*,,
73,2006,5-9,,*,,
73,2007,5-9,,*,,
73,2008,5-9,,*,,
73,2010,5-9,,*,,
73,2011,5-9,,*,,
73,2012,5-9,,*,,
73,2013,5-9,,*,,
73,2015,5-9,,*,,
73,2001,5-9,13.0,,3.32,
73,2002,5-9,16.0,,4.11,
73,2003,5-9,14.0,,3.55,
73,2004,5-9,21.0,,5.24,
73,2005,5-9,13.0,,3.25,
73,2006,5-9,12.0,,2.98,
73,2007,5-9,13.0,,3.19,
73,2008,5-9,6.0,,1.51,
73,2009,5-9,20.0,,5.09,
73,2010,5-9,15.0,,3.79,
73,2011,5-9,10.0,,2.47,
73,2012,5-9,12.0,,2.98,
73,2013,5-9,14.0,,3.52,
73,2014,5-9,21.0,,5.28,
73,2015,5-9,12.0,,3.05,
73,Year,5-9,,,,Newton
74,Year,5-9,,,,Nodaway
75,Year,5-9,,,,Oregon
76,Year,5-9,,,,Osage
77,Year,5-9,,,,Ozark
78,Year,5-9,,,,Pemiscot
79,Year,5-9,,,,Perry
80,Year,5-9,,,,Pettis
81,Year,5-9,,,,Phelps
82,Year,5-9,,,,Pike
83,Year,5-9,,,,Platte
84,Year,5-9,,,,Polk
85,Year,5-9,,,,Pulaski
86,Year,5-9,,,,Putnam
87,Year,5-9,,,,Ralls
88,Year,5-9,,,,Randolph
89,Year,5-9,,,,Ray
90,Year,5-9,,,,Reynolds
91,Year,5-9,,,,Ripley
92,Year,5-9,,,,Saline
93,Year,5-9,,,,Schuyler
94,Year,5-9,,,,Scotland
95,Year,5-9,,,,Scott
96,Year,5-9,,,,Shannon
97,Year,5-9,,,,Shelby
98,2013,5-9,,*,,
98,2014,5-9,,*,,
98,2001,5-9,25.0,,1.07,
98,2002,5-9,23.0,,0.97,
98,2003,5-9,30.0,,1.25,
98,2004,5-9,26.0,,1.06,
98,2005,5-9,23.0,,0.92,
98,2006,5-9,26.0,,1.03,
98,2007,5-9,22.0,,0.86,
98,2008,5-9,23.0,,0.9,
98,2009,5-9,33.0,,1.27,
98,2010,5-9,25.0,,0.95,
98,2011,5-9,31.0,,1.2,
98,2012,5-9,33.0,,1.28,
98,2013,5-9,19.0,,0.73,
98,2014,5-9,18.0,,0.7,
98,2015,5-9,23.0,,0.89,
98,Year,5-9,,,,St. Charles
99,Year,5-9,,,,St. Clair
100,2001,5-9,,*,,
100,2002,5-9,,*,,
100,2003,5-9,,*,,
100,2004,5-9,,*,,
100,2005,5-9,,*,,
100,2006,5-9,,*,,
100,2007,5-9,,*,,
100,2008,5-9,,*,,
100,2009,5-9,,*,,
100,2010,5-9,,*,,
100,2011,5-9,,*,,
100,2012,5-9,,*,,
100,2013,5-9,,*,,
100,2001,5-9,12.0,,3.35,
100,2002,5-9,19.0,,5.33,
100,2003,5-9,14.0,,3.82,
100,2004,5-9,18.0,,4.94,
100,2005,5-9,12.0,,3.16,
100,2006,5-9,14.0,,3.64,
100,2007,5-9,10.0,,2.54,
100,2008,5-9,14.0,,3.58,
100,2009,5-9,19.0,,4.76,
100,2010,5-9,19.0,,4.69,
100,2011,5-9,16.0,,3.98,
100,2012,5-9,19.0,,4.65,
100,2013,5-9,10.0,,2.42,
100,2014,5-9,20.0,,4.82,
100,2015,5-9,21.0,,5.11,
100,Year,5-9,,,,St. Francois
101,2006,5-9,,*,,
101,2008,5-9,,*,,
101,2010,5-9,,*,,
101,2001,5-9,40.0,,1.6,
101,2002,5-9,33.0,,1.41,
101,2003,5-9,29.0,,1.32,
101,2004,5-9,34.0,,1.66,
101,2005,5-9,37.0,,1.89,
101,2006,5-9,17.0,,0.9,
101,2007,5-9,22.0,,1.2,
101,2008,5-9,18.0,,1.0,
101,2009,5-9,40.0,,2.27,
101,2010,5-9,17.0,,0.98,
101,2011,5-9,30.0,,1.72,
101,2012,5-9,22.0,,1.24,
101,2013,5-9,22.0,,1.22,
101,2014,5-9,25.0,,1.37,
101,2015,5-9,31.0,,1.72,
101,Year,5-9,,,,St. Louis City
102,2001,5-9,73.0,,1.04,
102,2002,5-9,66.0,,0.96,
102,2003,5-9,87.0,,1.3,
102,2004,5-9,80.0,,1.22,
102,2005,5-9,76.0,,1.18,
102,2006,5-9,78.0,,1.22,
102,2007,5-9,50.0,,0.79,
102,2008,5-9,63.0,,1.0,
102,2009,5-9,67.0,,1.07,
102,2010,5-9,58.0,,0.92,
102,2011,5-9,63.0,,1.01,
102,2012,5-9,72.0,,1.12,
102,2013,5-9,74.0,,1.2,
102,2014,5-9,68.0,,1.12,
102,2015,5-9,88.0,,1.46,
102,Year,5-9,,,,St. Louis County
103,Year,5-9,,,,Ste. Genevieve
104,2001,5-9,,*,,
104,2002,5-9,,*,,
104,2003,5-9,,*,,
104,2004,5-9,,*,,
104,2005,5-9,,*,,
104,2006,5-9,,*,,
104,2007,5-9,,*,,
104,2008,5-9,,*,,
104,2009,5-9,,*,,
104,2010,5-9,,*,,
104,2011,5-9,,*,,
104,2012,5-9,,*,,
104,2013,5-9,,*,,
104,2014,5-9,,*,,
104,2015,5-9,,*,,
104,2001,5-9,9.0,,4.87,
104,2002,5-9,12.0,,6.6,
104,2003,5-9,7.0,,3.88,
104,2004,5-9,11.0,,5.95,
104,2005,5-9,14.0,,7.59,
104,2006,5-9,10.0,,5.27,
104,2007,5-9,8.0,,4.22,
104,2008,5-9,9.0,,4.74,
104,2009,5-9,7.0,,3.75,
104,2010,5-9,7.0,,3.71,
104,2011,5-9,5.0,,2.68,
104,2012,5-9,10.0,,5.3,
104,2013,5-9,7.0,,3.7,
104,2014,5-9,6.0,,3.15,
104,2015,5-9,6.0,,3.29,
104,Year,5-9,,,,Stoddard
105,Year,5-9,,,,Stone
106,Year,5-9,,,,Sullivan
107,Year,5-9,,,,Taney
108,Year,5-9,,,,Texas
109,Year,5-9,,,,Vernon
110,Year,5-9,,,,Warren
111,Year,5-9,,,,Washington
112,Year,5-9,,,,Wayne
113,Year,5-9,,,,Webster
114,Year,5-9,,,,Worth
115,Year,5-9,,,,Wright
116,2001,5-9,687.0,,1.76,
116,2002,5-9,732.0,,1.9,
116,2003,5-9,685.0,,1.8,
116,2004,5-9,834.0,,2.21,
116,2005,5-9,722.0,,1.91,
116,2006,5-9,644.0,,1.69,
116,2007,5-9,617.0,,1.6,
116,2008,5-9,659.0,,1.71,
116,2009,5-9,778.0,,2.0,
116,2010,5-9,700.0,,1.79,
116,2011,5-9,738.0,,1.89,
116,2012,5-9,716.0,,1.83,
116,2013,5-9,758.0,,1.93,
116,2014,5-9,742.0,,1.9,
116,2015,5-9,813.0,,2.1,
116,Year,5-9,,,,Total for selection
117,2001,5-9,687.0,,1.76,
117,2002,5-9,732.0,,1.9,
117,2003,5-9,685.0,,1.8,
117,2004,5-9,834.0,,2.21,
117,2005,5-9,723.0,,1.91,
117,2006,5-9,644.0,,1.69,
117,2007,5-9,617.0,,1.6,
117,2008,5-9,659.0,,1.71,
117,2009,5-9,779.0,,2.0,
117,2010,5-9,700.0,,1.79,
117,2011,5-9,738.0,,1.89,
117,2012,5-9,716.0,,1.83,
117,2013,5-9,758.0,,1.93,
117,2014,5-9,743.0,,1.91,
117,2015,5-9,813.0,,2.1,
117,Year,5-9,,,,Missouri
0,Year,10-14,,,,County
1,Total for selection,10-14,47.0,,2.38,
1,Year,10-14,,,,Adair
2,Total for selection,10-14,16.0,*,0.84,
2,Year,10-14,,,,Andrew
3,Total for selection,10-14,20.0,,3.62,
3,Year,10-14,,,,Atchison
4,Total for selection,10-14,67.0,,2.54,
4,Year,10-14,,,,Audrain
5,2001,10-14,,*,,
5,2002,10-14,,*,,
5,2003,10-14,,*,,
5,2004,10-14,,*,,
5,2005,10-14,,*,,
5,2006,10-14,,*,,
5,2007,10-14,,*,,
5,2008,10-14,,*,,
5,2009,10-14,,*,,
5,2010,10-14,,*,,
5,2011,10-14,,*,,
5,2012,10-14,,*,,
5,2013,10-14,,*,,
5,2014,10-14,,*,,
5,2015,10-14,,*,,
5,2001,10-14,6.0,,2.36,
5,2002,10-14,7.0,,2.71,
5,2003,10-14,5.0,,1.87,
5,2004,10-14,13.0,,4.87,
5,2005,10-14,7.0,,2.59,
5,2006,10-14,14.0,,5.18,
5,2007,10-14,9.0,,3.36,
5,2008,10-14,12.0,,4.54,
5,2009,10-14,5.0,,1.94,
5,2010,10-14,6.0,,2.38,
5,2011,10-14,8.0,,3.35,
5,2012,10-14,11.0,,4.69,
5,2013,10-14,9.0,,3.86,
5,2014,10-14,7.0,,3.08,
5,2015,10-14,14.0,,6.22,
5,Total for selection,10-14,133.0,,3.51,
5,Year,10-14,,,,Barry
6,Total for selection,10-14,53.0,,3.65,
6,Year,10-14,,,,Barton
7,Total for selection,10-14,77.0,,4.13,
7,Year,10-14,,,,Bates
8,Total for selection,10-14,24.0,,1.5,
8,Year,10-14,,,,Benton
9,Total for selection,10-14,34.0,,2.54,
9,Year,10-14,,,,Bollinger
10,2001,10-14,,*,,
10,2002,10-14,,*,,
10,2003,10-14,,*,,
10,2004,10-14,,*,,
10,2005,10-14,,*,,
10,2006,10-14,,*,,
10,2007,10-14,,*,,
10,2008,10-14,,*,,
10,2009,10-14,,*,,
10,2010,10-14,,*,,
10,2011,10-14,,*,,
10,2012,10-14,,*,,
10,2013,10-14,,*,,
10,2014,10-14,,*,,
10,2015,10-14,,*,,
10,2001,10-14,16.0,,1.81,
10,2002,10-14,7.0,,0.79,
10,2003,10-14,9.0,,1.01,
10,2004,10-14,9.0,,1.02,
10,2005,10-14,12.0,,1.38,
10,2006,10-14,15.0,,1.71,
10,2007,10-14,14.0,,1.58,
10,2008,10-14,14.0,,1.58,
10,2009,10-14,16.0,,1.8,
10,2010,10-14,7.0,,0.77,
10,2011,10-14,12.0,,1.29,
10,2012,10-14,7.0,,0.75,
10,2013,10-14,15.0,,1.6,
10,2014,10-14,12.0,,1.27,
10,2015,10-14,11.0,,1.12,
10,Total for selection,10-14,176.0,,1.3,
10,Year,10-14,,,,Boone
11,2001,10-14,,*,,
11,2003,10-14,,*,,
11,2004,10-14,,*,,
11,2006,10-14,,*,,
11,2007,10-14,,*,,
11,2008,10-14,,*,,
11,2009,10-14,,*,,
11,2010,10-14,,*,,
11,2011,10-14,,*,,
11,2013,10-14,,*,,
11,2014,10-14,,*,,
11,2015,10-14,,*,,
11,2001,10-14,19.0,,3.16,
11,2002,10-14,21.0,,3.53,
11,2003,10-14,14.0,,2.34,
11,2004,10-14,10.0,,1.71,
11,2005,10-14,26.0,,4.49,
11,2006,10-14,10.0,,1.77,
11,2007,10-14,9.0,,1.59,
11,2008,10-14,12.0,,2.15,
11,2009,10-14,6.0,,1.08,
11,2010,10-14,12.0,,2.17,
11,2011,10-14,13.0,,2.36,
11,2012,10-14,21.0,,3.83,
11,2013,10-14,19.0,,3.45,
11,2014,10-14,11.0,,2.02,
11,2015,10-14,15.0,,2.79,
11,Total for selection,10-14,218.0,,2.57,
11,Year,10-14,,,,Buchanan
12,Total for selection,10-14,149.0,,3.66,
12,Year,10-14,,,,Butler
13,Total for selection,10-14,24.0,,2.25,
13,Year,10-14,,,,Caldwell
14,Total for selection,10-14,113.0,,2.6,
14,Year,10-14,,,,Callaway
15,Total for selection,10-14,95.0,,2.69,
15,Year,10-14,,,,Camden
16,Total for selection,10-14,150.0,,2.16,
16,Year,10-14,,,,Cape Girardeau
17,Total for selection,10-14,28.0,,2.76,
17,Year,10-14,,,,Carroll
18,Total for selection,10-14,16.0,*,2.47,
18,Year,10-14,,,,Carter
19,2001,10-14,,*,,
19,2002,10-14,,*,,
19,2003,10-14,,*,,
19,2004,10-14,,*,,
19,2005,10-14,,*,,
19,2006,10-14,,*,,
19,2007,10-14,,*,,
19,2008,10-14,,*,,
19,2009,10-14,,*,,
19,2010,10-14,,*,,
19,2011,10-14,,*,,
19,2012,10-14,,*,,
19,2013,10-14,,*,,
19,2014,10-14,,*,,
19,2015,10-14,,*,,
19,2001,10-14,12.0,,1.72,
19,2002,10-14,17.0,,2.37,
19,2003,10-14,11.0,,1.54,
19,2004,10-14,14.0,,1.92,
19,2005,10-14,19.0,,2.57,
19,2006,10-14,14.0,,1.9,
19,2007,10-14,9.0,,1.19,
19,2008,10-14,15.0,,1.96,
19,2009,10-14,12.0,,1.55,
19,2010,10-14,14.0,,1.81,
19,2011,10-14,11.0,,1.42,
19,2012,10-14,19.0,,2.46,
19,2013,10-14,11.0,,1.44,
19,2014,10-14,14.0,,1.85,
19,2015,10-14,18.0,,2.43,
19,Total for selection,10-14,210.0,,1.87,
19,Year,10-14,,,,Cass
20,Total for selection,10-14,45.0,,3.0,
20,Year,10-14,,,,Cedar
21,Total for selection,10-14,11.0,*,1.44,
21,Year,10-14,,,,Chariton
22,Total for selection,10-14,66.0,,0.79,
22,Year,10-14,,,,Christian
23,Total for selection,10-14,6.0,*,0.82,
23,Year,10-14,,,,Clark
24,2001,10-14,31.0,,2.31,
24,2002,10-14,31.0,,2.27,
24,2003,10-14,29.0,,2.06,
24,2004,10-14,28.0,,1.97,
24,2005,10-14,26.0,,1.84,
24,2006,10-14,27.0,,1.85,
24,2007,10-14,23.0,,1.56,
24,2008,10-14,23.0,,1.54,
24,2009,10-14,23.0,,1.51,
24,2010,10-14,23.0,,1.48,
24,2011,10-14,35.0,,2.21,
24,2012,10-14,21.0,,1.31,
24,2013,10-14,53.0,,3.25,
24,2014,10-14,34.0,,2.04,
24,2015,10-14,57.0,,3.42,
24,Total for selection,10-14,464.0,,2.06,
24,Year,10-14,,,,Clay
25,Total for selection,10-14,53.0,,2.4,
25,Year,10-14,,,,Clinton
26,Total for selection,10-14,148.0,,2.0,
26,Year,10-14,,,,Cole
27,Total for selection,10-14,45.0,,2.66,
27,Year,10-14,,,,Cooper
28,Total for selection,10-14,74.0,,2.88,
28,Year,10-14,,,,Crawford
29,Total for selection,10-14,14.0,*,1.68,
29,Year,10-14,,,,Dade
30,Total for selection,10-14,32.0,,1.77,
30,Year,10-14,,,,Dallas
31,Total for selection,10-14,26.0,,2.81,
31,Year,10-14,,,,Daviess
32,Total for selection,10-14,16.0,*,1.59,
32,Year,10-14,,,,DeKalb
33,Total for selection,10-14,79.0,,4.9,
33,Year,10-14,,,,Dent
34,Total for selection,10-14,13.0,*,0.95,
34,Year,10-14,,,,Douglas
35,2001,10-14,,*,,
35,2002,10-14,,*,,
35,2003,10-14,,*,,
35,2004,10-14,,*,,
35,2005,10-14,,*,,
35,2006,10-14,,*,,
35,2007,10-14,,*,,
35,2008,10-14,,*,,
35,2009,10-14,,*,,
35,2010,10-14,,*,,
35,2011,10-14,,*,,
35,2012,10-14,,*,,
35,2013,10-14,,*,,
35,2014,10-14,,*,,
35,2015,10-14,,*,,
35,2001,10-14,14.0,,5.73,
35,2002,10-14,8.0,,3.23,
35,2003,10-14,11.0,,4.46,
35,2004,10-14,8.0,,3.34,
35,2005,10-14,11.0,,4.59,
35,2006,10-14,12.0,,5.09,
35,2007,10-14,5.0,,2.19,
35,2008,10-14,8.0,,3.49,
35,2009,10-14,14.0,,6.02,
35,2010,10-14,8.0,,3.46,
35,2011,10-14,7.0,,2.97,
35,2012,10-14,10.0,,4.33,
35,2013,10-14,12.0,,5.16,
35,2014,10-14,11.0,,4.87,
35,2015,10-14,15.0,,7.06,
35,Total for selection,10-14,154.0,,4.38,
35,Year,10-14,,,,Dunklin
36,2001,10-14,,*,,
36,2003,10-14,,*,,
36,2004,10-14,,*,,
36,2005,10-14,,*,,
36,2006,10-14,,*,,
36,2007,10-14,,*,,
36,2008,10-14,,*,,
36,2009,10-14,,*,,
36,2012,10-14,,*,,
36,2013,10-14,,*,,
36,2014,10-14,,*,,
36,2001,10-14,15.0,,1.98,
36,2002,10-14,23.0,,3.03,
36,2003,10-14,10.0,,1.32,
36,2004,10-14,11.0,,1.45,
36,2005,10-14,9.0,,1.21,
36,2006,10-14,16.0,,2.15,
36,2007,10-14,19.0,,2.6,
36,2008,10-14,16.0,,2.2,
36,2009,10-14,12.0,,1.65,
36,2010,10-14,28.0,,3.86,
36,2011,10-14,21.0,,2.93,
36,2012,10-14,17.0,,2.41,
36,2013,10-14,18.0,,2.57,
36,2014,10-14,16.0,,2.29,
36,2015,10-14,20.0,,2.93,
36,Total for selection,10-14,251.0,,2.29,
36,Year,10-14,,,,Franklin
37,Total for selection,10-14,28.0,,1.81,
37,Year,10-14,,,,Gasconade
38,Total for selection,10-14,18.0,*,2.48,
38,Year,10-14,,,,Gentry
39,2006,10-14,,*,,
39,2013,10-14,,*,,
39,2001,10-14,27.0,,1.81,
39,2002,10-14,33.0,,2.2,
39,2003,10-14,30.0,,1.97,
39,2004,10-14,39.0,,2.56,
39,2005,10-14,29.0,,1.9,
39,2006,10-14,19.0,,1.23,
39,2007,10-14,33.0,,2.14,
39,2008,10-14,42.0,,2.72,
39,2009,10-14,43.0,,2.76,
39,2010,10-14,36.0,,2.31,
39,2011,10-14,29.0,,1.86,
39,2012,10-14,22.0,,1.4,
39,2013,10-14,16.0,,1.0,
39,2014,10-14,24.0,,1.49,
39,2015,10-14,32.0,,1.97,
39,Total for selection,10-14,454.0,,1.95,
39,Year,10-14,,,,Greene
40,Total for selection,10-14,23.0,,2.29,
40,Year,10-14,,,,Grundy
41,Total for selection,10-14,21.0,,2.38,
41,Year,10-14,,,,Harrison
42,Total for selection,10-14,50.0,,2.29,
42,Year,10-14,,,,Henry
43,Total for selection,10-14,13.0,*,1.72,
43,Year,10-14,,,,Hickory
44,Year,10-14,,,,Holt
45,Total for selection,10-14,17.0,*,1.75,
45,Year,10-14,,,,Howard
46,Total for selection,10-14,124.0,,2.98,
46,Year,10-14,,,,Howell
47,Total for selection,10-14,34.0,,3.19,
47,Year,10-14,,,,Iron
48,2001,10-14,117.0,,2.41,
48,2002,10-14,134.0,,2.74,
48,2003,10-14,123.0,,2.52,
48,2004,10-14,111.0,,2.31,
48,2005,10-14,88.0,,1.9,
48,2006,10-14,80.0,,1.76,
48,2007,10-14,79.0,,1.77,
48,2008,10-14,79.0,,1.79,
48,2009,10-14,69.0,,1.56,
48,2010,10-14,84.0,,1.88,
48,2011,10-14,87.0,,1.93,
48,2012,10-14,70.0,,1.56,
48,2013,10-14,92.0,,2.04,
48,2014,10-14,108.0,,2.41,
48,2015,10-14,134.0,,2.97,
48,Total for selection,10-14,1455.0,,2.12,
48,Year,10-14,,,,Jackson
49,2007,10-14,,*,,
49,2014,10-14,,*,,
49,2015,10-14,,*,,
49,2001,10-14,20.0,,2.65,
49,2002,10-14,34.0,,4.43,
49,2003,10-14,27.0,,3.5,
49,2004,10-14,28.0,,3.57,
49,2005,10-14,33.0,,4.23,
49,2006,10-14,24.0,,3.08,
49,2007,10-14,19.0,,2.45,
49,2008,10-14,24.0,,3.05,
49,2009,10-14,23.0,,2.94,
49,2010,10-14,25.0,,3.14,
49,2011,10-14,30.0,,3.65,
49,2012,10-14,28.0,,3.47,
49,2013,10-14,33.0,,4.04,
49,2014,10-14,15.0,,1.81,
49,2015,10-14,19.0,,2.25,
49,Total for selection,10-14,382.0,,3.21,
49,Year,10-14,,,,Jasper
50,2006,10-14,,*,,
50,2008,10-14,,*,,
50,2014,10-14,,*,,
50,2001,10-14,23.0,,1.41,
50,2002,10-14,39.0,,2.38,
50,2003,10-14,28.0,,1.7,
50,2004,10-14,31.0,,1.91,
50,2005,10-14,23.0,,1.45,
50,2006,10-14,16.0,,1.02,
50,2007,10-14,20.0,,1.28,
50,2008,10-14,17.0,,1.1,
50,2009,10-14,31.0,,2.0,
50,2010,10-14,29.0,,1.88,
50,2011,10-14,25.0,,1.62,
50,2012,10-14,27.0,,1.76,
50,2013,10-14,20.0,,1.31,
50,2014,10-14,16.0,,1.05,
50,2015,10-14,28.0,,1.85,
50,Total for selection,10-14,373.0,,1.59,
50,Year,10-14,,,,Jefferson
51,Total for selection,10-14,69.0,,1.41,
51,Year,10-14,,,,Johnson
52,Total for selection,10-14,8.0,*,1.81,
52,Year,10-14,,,,Knox
53,Total for selection,10-14,176.0,,4.69,
53,Year,10-14,,,,Laclede
54,Total for selection,10-14,83.0,,2.29,
54,Year,10-14,,,,Lafayette
55,2001,10-14,,*,,
55,2002,10-14,,*,,
55,2003,10-14,,*,,
55,2004,10-14,,*,,
55,2005,10-14,,*,,
55,2006,10-14,,*,,
55,2007,10-14,,*,,
55,2008,10-14,,*,,
55,2009,10-14,,*,,
55,2010,10-14,,*,,
55,2011,10-14,,*,,
55,2012,10-14,,*,,
55,2013,10-14,,*,,
55,2014,10-14,,*,,
55,2015,10-14,,*,,
55,2001,10-14,7.0,,2.49,
55,2002,10-14,6.0,,2.08,
55,2003,10-14,5.0,,1.72,
55,2004,10-14,15.0,,5.07,
55,2005,10-14,8.0,,2.72,
55,2006,10-14,6.0,,2.0,
55,2007,10-14,6.0,,2.0,
55,2008,10-14,10.0,,3.4,
55,2009,10-14,14.0,,4.75,
55,2010,10-14,5.0,,1.7,
55,2011,10-14,9.0,,3.01,
55,2012,10-14,6.0,,2.02,
55,2013,10-14,5.0,,1.75,
55,2014,10-14,6.0,,2.11,
55,2015,10-14,8.0,,2.87,
55,Total for selection,10-14,116.0,,2.65,
55,Year,10-14,,,,Lawrence
56,Year,10-14,,,,Lewis
57,Total for selection,10-14,160.0,,2.63,
57,Year,10-14,,,,Lincoln
58,Total for selection,10-14,34.0,,2.48,
58,Year,10-14,,,,Linn
59,Total for selection,10-14,28.0,,2.04,
59,Year,10-14,,,,Livingston
60,Total for selection,10-14,33.0,,2.04,
60,Year,10-14,,,,Macon
61,Total for selection,10-14,57.0,,4.5,
61,Year,10-14,,,,Madison
62,Total for selection,10-14,15.0,*,1.61,
62,Year,10-14,,,,Maries
63,Total for selection,10-14,51.0,,1.75,
63,Year,10-14,,,,Marion
64,Total for selection,10-14,56.0,,2.04,
64,Year,10-14,,,,McDonald
65,Year,10-14,,,,Mercer
66,Total for selection,10-14,73.0,,2.75,
66,Year,10-14,,,,Miller
67,Total for selection,10-14,34.0,,2.58,
67,Year,10-14,,,,Mississippi
68,Total for selection,10-14,30.0,,1.78,
68,Year,10-14,,,,Moniteau
69,Total for selection,10-14,14.0,*,1.5,
69,Year,10-14,,,,Monroe
70,Total for selection,10-14,15.0,*,1.21,
70,Year,10-14,,,,Montgomery
71,Total for selection,10-14,44.0,,2.22,
71,Year,10-14,,,,Morgan
72,Total for selection,10-14,42.0,,2.12,
72,Year,10-14,,,,New Madrid
73,2001,10-14,,*,,
73,2002,10-14,,*,,
73,2003,10-14,,*,,
73,2004,10-14,,*,,
73,2005,10-14,,*,,
73,2006,10-14,,*,,
73,2007,10-14,,*,,
73,2008,10-14,,*,,
73,2009,10-14,,*,,
73,2010,10-14,,*,,
73,2011,10-14,,*,,
73,2012,10-14,,*,,
73,2013,10-14,,*,,
73,2014,10-14,,*,,
73,2015,10-14,,*,,
73,2001,10-14,10.0,,2.5,
73,2002,10-14,13.0,,3.25,
73,2003,10-14,11.0,,2.69,
73,2004,10-14,13.0,,3.15,
73,2005,10-14,13.0,,3.11,
73,2006,10-14,10.0,,2.35,
73,2007,10-14,14.0,,3.24,
73,2008,10-14,10.0,,2.35,
73,2009,10-14,11.0,,2.54,
73,2010,10-14,10.0,,2.33,
73,2011,10-14,13.0,,3.03,
73,2012,10-14,7.0,,1.63,
73,2013,10-14,10.0,,2.37,
73,2014,10-14,10.0,,2.45,
73,2015,10-14,12.0,,2.97,
73,Total for selection,10-14,167.0,,2.66,
73,Year,10-14,,,,Newton
74,Total for selection,10-14,15.0,*,0.9,
74,Year,10-14,,,,Nodaway
75,Total for selection,10-14,26.0,,2.43,
75,Year,10-14,,,,Oregon
76,Total for selection,10-14,19.0,*,1.28,
76,Year,10-14,,,,Osage
77,Total for selection,10-14,18.0,*,2.11,
77,Year,10-14,,,,Ozark
78,Total for selection,10-14,66.0,,2.94,
78,Year,10-14,,,,Pemiscot
79,Total for selection,10-14,51.0,,2.57,
79,Year,10-14,,,,Perry
80,Total for selection,10-14,102.0,,2.31,
80,Year,10-14,,,,Pettis
81,Total for selection,10-14,121.0,,2.98,
81,Year,10-14,,,,Phelps
82,Total for selection,10-14,65.0,,3.57,
82,Year,10-14,,,,Pike
83,2001,10-14,,*,,
83,2002,10-14,,*,,
83,2003,10-14,,*,,
83,2004,10-14,,*,,
83,2005,10-14,,*,,
83,2006,10-14,,*,,
83,2007,10-14,,*,,
83,2008,10-14,,*,,
83,2009,10-14,,*,,
83,2010,10-14,,*,,
83,2011,10-14,,*,,
83,2012,10-14,,*,,
83,2013,10-14,,*,,
83,2014,10-14,,*,,
83,2015,10-14,,*,,
83,2001,10-14,10.0,,1.79,
83,2002,10-14,12.0,,2.06,
83,2003,10-14,16.0,,2.73,
83,2004,10-14,10.0,,1.65,
83,2005,10-14,11.0,,1.83,
83,2006,10-14,9.0,,1.5,
83,2007,10-14,6.0,,0.98,
83,2008,10-14,9.0,,1.43,
83,2009,10-14,8.0,,1.26,
83,2010,10-14,5.0,,0.79,
83,2011,10-14,8.0,,1.25,
83,2012,10-14,6.0,,0.93,
83,2013,10-14,11.0,,1.68,
83,2014,10-14,16.0,,2.41,
83,2015,10-14,11.0,,1.64,
83,Total for selection,10-14,148.0,,1.59,
83,Year,10-14,,,,Platte
84,Total for selection,10-14,84.0,,2.64,
84,Year,10-14,,,,Polk
85,Total for selection,10-14,63.0,,1.34,
85,Year,10-14,,,,Pulaski
86,Total for selection,10-14,9.0,*,1.76,
86,Year,10-14,,,,Putnam
87,Total for selection,10-14,19.0,*,1.83,
87,Year,10-14,,,,Ralls
88,Total for selection,10-14,79.0,,3.18,
88,Year,10-14,,,,Randolph
89,Total for selection,10-14,82.0,,3.04,
89,Year,10-14,,,,Ray
90,Total for selection,10-14,29.0,,4.43,
90,Year,10-14,,,,Reynolds
91,Total for selection,10-14,88.0,,6.07,
91,Year,10-14,,,,Ripley
92,Total for selection,10-14,63.0,,2.77,
92,Year,10-14,,,,Saline
93,Total for selection,10-14,5.0,*,1.01,
93,Year,10-14,,,,Schuyler
94,Total for selection,10-14,26.0,,4.34,
94,Year,10-14,,,,Scotland
95,Total for selection,10-14,109.0,,2.57,
95,Year,10-14,,,,Scott
96,Total for selection,10-14,26.0,,2.89,
96,Year,10-14,,,,Shannon
97,Total for selection,10-14,9.0,*,1.28,
97,Year,10-14,,,,Shelby
98,2001,10-14,31.0,,1.25,
98,2002,10-14,43.0,,1.71,
98,2003,10-14,42.0,,1.65,
98,2004,10-14,39.0,,1.52,
98,2005,10-14,27.0,,1.05,
98,2006,10-14,29.0,,1.11,
98,2007,10-14,22.0,,0.84,
98,2008,10-14,31.0,,1.18,
98,2009,10-14,23.0,,0.87,
98,2010,10-14,33.0,,1.24,
98,2011,10-14,42.0,,1.56,
98,2012,10-14,46.0,,1.71,
98,2013,10-14,44.0,,1.63,
98,2014,10-14,39.0,,1.44,
98,2015,10-14,41.0,,1.52,
98,Total for selection,10-14,532.0,,1.35,
98,Year,10-14,,,,St. Charles
99,Total for selection,10-14,27.0,,3.02,
99,Year,10-14,,,,St. Clair
100,2001,10-14,,*,,
100,2002,10-14,,*,,
100,2005,10-14,,*,,
100,2006,10-14,,*,,
100,2007,10-14,,*,,
100,2008,10-14,,*,,
100,2009,10-14,,*,,
100,2010,10-14,,*,,
100,2012,10-14,,*,,
100,2014,10-14,,*,,
100,2001,10-14,15.0,,3.87,
100,2002,10-14,16.0,,4.13,
100,2003,10-14,21.0,,5.48,
100,2004,10-14,24.0,,6.15,
100,2005,10-14,13.0,,3.35,
100,2006,10-14,17.0,,4.46,
100,2007,10-14,12.0,,3.1,
100,2008,10-14,17.0,,4.36,
100,2009,10-14,16.0,,4.13,
100,2010,10-14,13.0,,3.3,
100,2011,10-14,22.0,,5.46,
100,2012,10-14,8.0,,1.96,
100,2013,10-14,22.0,,5.32,
100,2014,10-14,17.0,,4.12,
100,2015,10-14,20.0,,4.8,
100,Total for selection,10-14,253.0,,4.26,
100,Year,10-14,,,,St. Francois
101,2009,10-14,,*,,
101,2010,10-14,,*,,
101,2011,10-14,,*,,
101,2001,10-14,45.0,,1.81,
101,2002,10-14,40.0,,1.62,
101,2003,10-14,63.0,,2.57,
101,2004,10-14,49.0,,2.04,
101,2005,10-14,46.0,,2.02,
101,2006,10-14,34.0,,1.62,
101,2007,10-14,30.0,,1.54,
101,2008,10-14,23.0,,1.26,
101,2009,10-14,9.0,,0.52,
101,2010,10-14,16.0,,0.95,
101,2011,10-14,18.0,,1.08,
101,2012,10-14,22.0,,1.36,
101,2013,10-14,21.0,,1.33,
101,2014,10-14,28.0,,1.78,
101,2015,10-14,21.0,,1.39,
101,Total for selection,10-14,465.0,,1.59,
101,Year,10-14,,,,St. Louis City
102,2001,10-14,101.0,,1.34,
102,2002,10-14,113.0,,1.49,
102,2003,10-14,130.0,,1.71,
102,2004,10-14,125.0,,1.65,
102,2005,10-14,129.0,,1.74,
102,2006,10-14,116.0,,1.59,
102,2007,10-14,79.0,,1.11,
102,2008,10-14,88.0,,1.25,
102,2009,10-14,92.0,,1.34,
102,2010,10-14,94.0,,1.38,
102,2011,10-14,78.0,,1.17,
102,2012,10-14,102.0,,1.55,
102,2013,10-14,92.0,,1.42,
102,2014,10-14,73.0,,1.12,
102,2015,10-14,92.0,,1.44,
102,Total for selection,10-14,1504.0,,1.43,
102,Year,10-14,,,,St. Louis County
103,Total for selection,10-14,25.0,,1.28,
103,Year,10-14,,,,Ste. Genevieve
104,Total for selection,10-14,108.0,,3.69,
104,Year,10-14,,,,Stoddard
105,Total for selection,10-14,70.0,,2.54,
105,Year,10-14,,,,Stone
106,Total for selection,10-14,15.0,*,2.1,
106,Year,10-14,,,,Sullivan
107,Total for selection,10-14,123.0,,2.71,
107,Year,10-14,,,,Taney
108,Total for selection,10-14,118.0,,4.88,
108,Year,10-14,,,,Texas
109,Total for selection,10-14,57.0,,2.54,
109,Year,10-14,,,,Vernon
110,Total for selection,10-14,85.0,,2.58,
110,Year,10-14,,,,Warren
111,Total for selection,10-14,130.0,,4.99,
111,Year,10-14,,,,Washington
112,Total for selection,10-14,30.0,,2.39,
112,Year,10-14,,,,Wayne
113,Total for selection,10-14,70.0,,1.63,
113,Year,10-14,,,,Webster
114,Total for selection,10-14,8.0,*,3.64,
114,Year,10-14,,,,Worth
115,Total for selection,10-14,36.0,,1.77,
115,Year,10-14,,,,Wright
116,2001,10-14,862.0,,2.06,
116,2002,10-14,956.0,,2.29,
116,2003,10-14,936.0,,2.23,
116,2004,10-14,1001.0,,2.4,
116,2005,10-14,890.0,,2.17,
116,2006,10-14,786.0,,1.93,
116,2007,10-14,662.0,,1.65,
116,2008,10-14,762.0,,1.91,
116,2009,10-14,789.0,,1.99,
116,2010,10-14,764.0,,1.92,
116,2011,10-14,765.0,,1.93,
116,2012,10-14,724.0,,1.84,
116,2013,10-14,824.0,,2.1,
116,2014,10-14,777.0,,1.98,
116,2015,10-14,935.0,,2.4,
116,Total for selection,10-14,12433.0,,2.06,
116,Year,10-14,,,,Total for selection
117,2001,10-14,863.0,,2.08,
117,2002,10-14,956.0,,2.29,
117,2003,10-14,936.0,,2.23,
117,2004,10-14,1002.0,,2.4,
117,2005,10-14,891.0,,2.17,
117,2006,10-14,787.0,,1.93,
117,2007,10-14,662.0,,1.65,
117,2008,10-14,762.0,,1.91,
117,2009,10-14,789.0,,1.99,
117,2010,10-14,764.0,,1.92,
117,2011,10-14,765.0,,1.93,
117,2012,10-14,724.0,,1.84,
117,2013,10-14,825.0,,2.1,
117,2014,10-14,777.0,,1.98,
117,2015,10-14,935.0,,2.4,
117,Total for selection,10-14,12438.0,,2.06,
117,Year,10-14,,,,Missouri
0,Year,15-17,,,,County
1,Total for selection,15-17,50.0,,3.99,
1,Year,15-17,,,,Adair
2,Total for selection,15-17,26.0,,2.23,
2,Year,15-17,,,,Andrew
3,Total for selection,15-17,27.0,,6.68,
3,Year,15-17,,,,Atchison
4,Total for selection,15-17,81.0,,4.59,
4,Year,15-17,,,,Audrain
5,Total for selection,15-17,117.0,,5.08,
5,Year,15-17,,,,Barry
6,Total for selection,15-17,36.0,,4.2,
6,Year,15-17,,,,Barton
7,Total for selection,15-17,59.0,,5.05,
7,Year,15-17,,,,Bates
8,Total for selection,15-17,37.0,,3.61,
8,Year,15-17,,,,Benton
9,Total for selection,15-17,22.0,,2.7,
9,Year,15-17,,,,Bollinger
10,2001,15-17,,*,,
10,2002,15-17,,*,,
10,2003,15-17,,*,,
10,2004,15-17,,*,,
10,2006,15-17,,*,,
10,2007,15-17,,*,,
10,2010,15-17,,*,,
10,2011,15-17,,*,,
10,2012,15-17,,*,,
10,2013,15-17,,*,,
10,2014,15-17,,*,,
10,2015,15-17,,*,,
10,2001,15-17,16.0,,3.07,
10,2002,15-17,12.0,,2.29,
10,2003,15-17,14.0,,2.7,
10,2004,15-17,14.0,,2.68,
10,2005,15-17,20.0,,3.67,
10,2006,15-17,14.0,,2.49,
10,2007,15-17,15.0,,2.7,
10,2008,15-17,23.0,,4.18,
10,2009,15-17,22.0,,4.0,
10,2010,15-17,8.0,,1.46,
10,2011,15-17,11.0,,2.0,
10,2012,15-17,10.0,,1.82,
10,2013,15-17,12.0,,2.19,
10,2014,15-17,14.0,,2.52,
10,2015,15-17,11.0,,1.97,
10,Total for selection,15-17,216.0,,2.65,
10,Year,15-17,,,,Boone
11,Total for selection,15-17,282.0,,5.3,
11,Year,15-17,,,,Buchanan
12,2001,15-17,,*,,
12,2002,15-17,,*,,
12,2003,15-17,,*,,
12,2004,15-17,,*,,
12,2005,15-17,,*,,
12,2006,15-17,,*,,
12,2007,15-17,,*,,
12,2008,15-17,,*,,
12,2009,15-17,,*,,
12,2010,15-17,,*,,
12,2011,15-17,,*,,
12,2012,15-17,,*,,
12,2013,15-17,,*,,
12,2014,15-17,,*,,
12,2015,15-17,,*,,
12,2001,15-17,15.0,,7.82,
12,2002,15-17,13.0,,6.91,
12,2003,15-17,7.0,,3.91,
12,2004,15-17,13.0,,7.34,
12,2005,15-17,8.0,,4.62,
12,2006,15-17,12.0,,6.96,
12,2007,15-17,11.0,,6.59,
12,2008,15-17,13.0,,7.45,
12,2009,15-17,5.0,,2.97,
12,2010,15-17,12.0,,7.28,
12,2011,15-17,6.0,,3.59,
12,2012,15-17,10.0,,6.18,
12,2013,15-17,10.0,,6.19,
12,2014,15-17,6.0,,3.59,
12,2015,15-17,12.0,,6.84,
12,Total for selection,15-17,153.0,,5.91,
12,Year,15-17,,,,Butler
13,Total for selection,15-17,30.0,,4.74,
13,Year,15-17,,,,Caldwell
14,Total for selection,15-17,123.0,,4.41,
14,Year,15-17,,,,Callaway
15,Total for selection,15-17,116.0,,4.97,
15,Year,15-17,,,,Camden
16,Total for selection,15-17,121.0,,2.83,
16,Year,15-17,,,,Cape Girardeau
17,Total for selection,15-17,33.0,,5.0,
17,Year,15-17,,,,Carroll
18,Total for selection,15-17,19.0,*,4.55,
18,Year,15-17,,,,Carter
19,2002,15-17,,*,,
19,2003,15-17,,*,,
19,2004,15-17,,*,,
19,2005,15-17,,*,,
19,2006,15-17,,*,,
19,2012,15-17,,*,,
19,2014,15-17,,*,,
19,2001,15-17,24.0,,6.01,
19,2002,15-17,10.0,,2.43,
19,2003,15-17,18.0,,4.26,
19,2004,15-17,7.0,,1.66,
19,2005,15-17,16.0,,3.66,
19,2006,15-17,15.0,,3.27,
19,2007,15-17,26.0,,5.59,
19,2008,15-17,22.0,,4.83,
19,2009,15-17,24.0,,5.36,
19,2010,15-17,21.0,,4.63,
19,2011,15-17,23.0,,5.05,
19,2012,15-17,11.0,,2.4,
19,2013,15-17,20.0,,4.4,
19,2014,15-17,18.0,,3.94,
19,2015,15-17,22.0,,4.66,
19,Total for selection,15-17,277.0,,4.15,
19,Year,15-17,,,,Cass
20,Total for selection,15-17,46.0,,4.79,
20,Year,15-17,,,,Cedar
21,Total for selection,15-17,7.0,*,1.43,
21,Year,15-17,,,,Chariton
22,Total for selection,15-17,110.0,,2.29,
22,Year,15-17,,,,Christian
23,Year,15-17,,,,Clark
24,2001,15-17,33.0,,4.08,
24,2002,15-17,40.0,,4.86,
24,2003,15-17,45.0,,5.48,
24,2004,15-17,25.0,,3.01,
24,2005,15-17,43.0,,5.03,
24,2006,15-17,37.0,,4.17,
24,2007,15-17,38.0,,4.19,
24,2008,15-17,28.0,,3.1,
24,2009,15-17,42.0,,4.53,
24,2010,15-17,52.0,,5.66,
24,2011,15-17,40.0,,4.26,
24,2012,15-17,43.0,,4.58,
24,2013,15-17,42.0,,4.4,
24,2014,15-17,40.0,,4.16,
24,2015,15-17,59.0,,6.02,
24,Total for selection,15-17,607.0,,4.51,
24,Year,15-17,,,,Clay
25,Total for selection,15-17,56.0,,4.01,
25,Year,15-17,,,,Clinton
26,2001,15-17,,*,,
26,2002,15-17,,*,,
26,2003,15-17,,*,,
26,2004,15-17,,*,,
26,2005,15-17,,*,,
26,2006,15-17,,*,,
26,2007,15-17,,*,,
26,2008,15-17,,*,,
26,2009,15-17,,*,,
26,2010,15-17,,*,,
26,2011,15-17,,*,,
26,2012,15-17,,*,,
26,2013,15-17,,*,,
26,2014,15-17,,*,,
26,2001,15-17,6.0,,1.97,
26,2002,15-17,7.0,,2.33,
26,2003,15-17,12.0,,3.98,
26,2004,15-17,7.0,,2.36,
26,2005,15-17,10.0,,3.33,
26,2006,15-17,9.0,,2.98,
26,2007,15-17,8.0,,2.65,
26,2008,15-17,8.0,,2.68,
26,2009,15-17,12.0,,4.0,
26,2010,15-17,10.0,,3.44,
26,2011,15-17,8.0,,2.7,
26,2012,15-17,12.0,,4.03,
26,2013,15-17,6.0,,2.0,
26,2014,15-17,11.0,,3.77,
26,2015,15-17,20.0,,6.81,
26,Total for selection,15-17,146.0,,3.26,
26,Year,15-17,,,,Cole
27,Total for selection,15-17,49.0,,4.67,
27,Year,15-17,,,,Cooper
28,Total for selection,15-17,98.0,,6.17,
28,Year,15-17,,,,Crawford
29,Total for selection,15-17,16.0,*,3.06,
29,Year,15-17,,,,Dade
30,Total for selection,15-17,41.0,,3.62,
30,Year,15-17,,,,Dallas
31,Total for selection,15-17,25.0,,4.34,
31,Year,15-17,,,,Daviess
32,Total for selection,15-17,17.0,*,2.59,
32,Year,15-17,,,,DeKalb
33,Total for selection,15-17,71.0,,7.12,
33,Year,15-17,,,,Dent
34,Total for selection,15-17,12.0,*,1.36,
34,Year,15-17,,,,Douglas
35,Total for selection,15-17,135.0,,6.32,
35,Year,15-17,,,,Dunklin
36,2003,15-17,,*,,
36,2004,15-17,,*,,
36,2005,15-17,,*,,
36,2006,15-17,,*,,
36,2007,15-17,,*,,
36,2012,15-17,,*,,
36,2014,15-17,,*,,
36,2001,15-17,24.0,,5.13,
36,2002,15-17,27.0,,5.64,
36,2003,15-17,19.0,,4.05,
36,2004,15-17,14.0,,3.03,
36,2005,15-17,19.0,,4.09,
36,2006,15-17,19.0,,4.01,
36,2007,15-17,19.0,,3.98,
36,2008,15-17,28.0,,5.96,
36,2009,15-17,24.0,,5.24,
36,2010,15-17,26.0,,5.89,
36,2011,15-17,23.0,,5.3,
36,2012,15-17,17.0,,4.05,
36,2013,15-17,23.0,,5.35,
36,2014,15-17,19.0,,4.5,
36,2015,15-17,26.0,,6.03,
36,Total for selection,15-17,327.0,,4.8,
36,Year,15-17,,,,Franklin
37,Total for selection,15-17,25.0,,2.52,
37,Year,15-17,,,,Gasconade
38,Total for selection,15-17,17.0,*,3.55,
38,Year,15-17,,,,Gentry
39,2001,15-17,27.0,,2.92,
39,2002,15-17,39.0,,4.25,
39,2003,15-17,38.0,,4.16,
39,2004,15-17,41.0,,4.45,
39,2005,15-17,29.0,,3.11,
39,2006,15-17,44.0,,4.63,
39,2007,15-17,37.0,,3.87,
39,2008,15-17,40.0,,4.13,
39,2009,15-17,38.0,,3.97,
39,2010,15-17,39.0,,4.07,
39,2011,15-17,43.0,,4.54,
39,2012,15-17,35.0,,3.66,
39,2013,15-17,30.0,,3.18,
39,2014,15-17,25.0,,2.63,
39,2015,15-17,27.0,,2.8,
39,Total for selection,15-17,532.0,,3.76,
39,Year,15-17,,,,Greene
40,Total for selection,15-17,28.0,,4.54,
40,Year,15-17,,,,Grundy
41,Total for selection,15-17,20.0,,3.71,
41,Year,15-17,,,,Harrison
42,Total for selection,15-17,71.0,,5.26,
42,Year,15-17,,,,Henry
43,Total for selection,15-17,19.0,*,3.79,
43,Year,15-17,,,,Hickory
44,Total for selection,15-17,7.0,*,2.47,
44,Year,15-17,,,,Holt
45,Total for selection,15-17,17.0,*,2.88,
45,Year,15-17,,,,Howard
46,Total for selection,15-17,150.0,,5.88,
46,Year,15-17,,,,Howell
47,Total for selection,15-17,48.0,,7.02,
47,Year,15-17,,,,Iron
48,2001,15-17,109.0,,3.92,
48,2002,15-17,121.0,,4.36,
48,2003,15-17,139.0,,4.97,
48,2004,15-17,126.0,,4.46,
48,2005,15-17,112.0,,3.84,
48,2006,15-17,126.0,,4.3,
48,2007,15-17,128.0,,4.4,
48,2008,15-17,132.0,,4.65,
48,2009,15-17,106.0,,3.82,
48,2010,15-17,100.0,,3.68,
48,2011,15-17,97.0,,3.71,
48,2012,15-17,102.0,,3.96,
48,2013,15-17,138.0,,5.35,
48,2014,15-17,161.0,,6.15,
48,2015,15-17,147.0,,5.52,
48,Total for selection,15-17,1844.0,,4.46,
48,Year,15-17,,,,Jackson
49,2002,15-17,,*,,
49,2011,15-17,,*,,
49,2001,15-17,29.0,,6.42,
49,2002,15-17,17.0,,3.77,
49,2003,15-17,25.0,,5.54,
49,2004,15-17,28.0,,6.17,
49,2005,15-17,27.0,,5.85,
49,2006,15-17,24.0,,5.0,
49,2007,15-17,34.0,,6.89,
49,2008,15-17,33.0,,6.79,
49,2009,15-17,36.0,,7.47,
49,2010,15-17,40.0,,8.36,
49,2011,15-17,19.0,,3.99,
49,2012,15-17,24.0,,5.2,
49,2013,15-17,29.0,,6.25,
49,2014,15-17,27.0,,5.65,
49,2015,15-17,20.0,,4.05,
49,Total for selection,15-17,412.0,,5.83,
49,Year,15-17,,,,Jasper
50,2001,15-17,40.0,,4.13,
50,2002,15-17,41.0,,4.17,
50,2003,15-17,30.0,,3.07,
50,2004,15-17,31.0,,3.13,
50,2005,15-17,29.0,,2.91,
50,2006,15-17,41.0,,4.05,
50,2007,15-17,39.0,,3.92,
50,2008,15-17,31.0,,3.17,
50,2009,15-17,25.0,,2.57,
50,2010,15-17,30.0,,3.16,
50,2011,15-17,34.0,,3.68,
50,2012,15-17,21.0,,2.29,
50,2013,15-17,43.0,,4.74,
50,2014,15-17,34.0,,3.7,
50,2015,15-17,35.0,,3.73,
50,Total for selection,15-17,504.0,,3.5,
50,Year,15-17,,,,Jefferson
51,Total for selection,15-17,77.0,,2.59,
51,Year,15-17,,,,Johnson
52,Year,15-17,,,,Knox
53,Total for selection,15-17,152.0,,6.64,
53,Year,15-17,,,,Laclede
54,Total for selection,15-17,107.0,,4.51,
54,Year,15-17,,,,Lafayette
55,2001,15-17,,*,,
55,2002,15-17,,*,,
55,2003,15-17,,*,,
55,2004,15-17,,*,,
55,2005,15-17,,*,,
55,2006,15-17,,*,,
55,2007,15-17,,*,,
55,2008,15-17,,*,,
55,2009,15-17,,*,,
55,2010,15-17,,*,,
55,2011,15-17,,*,,
55,2012,15-17,,*,,
55,2013,15-17,,*,,
55,2014,15-17,,*,,
55,2015,15-17,,*,,
55,2001,15-17,7.0,,4.13,
55,2002,15-17,7.0,,4.15,
55,2003,15-17,11.0,,6.47,
55,2004,15-17,7.0,,4.11,
55,2005,15-17,8.0,,4.49,
55,2006,15-17,6.0,,3.49,
55,2007,15-17,5.0,,2.76,
55,2008,15-17,10.0,,5.51,
55,2009,15-17,11.0,,6.14,
55,2010,15-17,11.0,,6.25,
55,2011,15-17,7.0,,4.09,
55,2012,15-17,6.0,,3.47,
55,2013,15-17,6.0,,3.43,
55,2014,15-17,6.0,,3.42,
55,2015,15-17,5.0,,2.75,
55,Total for selection,15-17,113.0,,4.3,
55,Year,15-17,,,,Lawrence
56,Year,15-17,,,,Lewis
57,Total for selection,15-17,170.0,,4.65,
57,Year,15-17,,,,Lincoln
58,Total for selection,15-17,40.0,,4.48,
58,Year,15-17,,,,Linn
59,Total for selection,15-17,60.0,,6.81,
59,Year,15-17,,,,Livingston
60,Total for selection,15-17,36.0,,3.74,
60,Year,15-17,,,,Macon
61,Total for selection,15-17,58.0,,7.17,
61,Year,15-17,,,,Madison
62,Total for selection,15-17,19.0,*,3.11,
62,Year,15-17,,,,Maries
63,Total for selection,15-17,61.0,,3.54,
63,Year,15-17,,,,Marion
64,Total for selection,15-17,57.0,,3.44,
64,Year,15-17,,,,McDonald
65,Year,15-17,,,,Mercer
66,Total for selection,15-17,62.0,,3.77,
66,Year,15-17,,,,Miller
67,Total for selection,15-17,37.0,,4.5,
67,Year,15-17,,,,Mississippi
68,Total for selection,15-17,31.0,,3.05,
68,Year,15-17,,,,Moniteau
69,Total for selection,15-17,13.0,*,2.15,
69,Year,15-17,,,,Monroe
70,Total for selection,15-17,31.0,,3.84,
70,Year,15-17,,,,Montgomery
71,Total for selection,15-17,49.0,,3.99,
71,Year,15-17,,,,Morgan
72,Total for selection,15-17,54.0,,4.38,
72,Year,15-17,,,,New Madrid
73,Total for selection,15-17,166.0,,4.26,
73,Year,15-17,,,,Newton
74,Total for selection,15-17,27.0,,2.31,
74,Year,15-17,,,,Nodaway
75,Total for selection,15-17,26.0,,3.69,
75,Year,15-17,,,,Oregon
76,Total for selection,15-17,15.0,*,1.66,
76,Year,15-17,,,,Osage
77,Total for selection,15-17,10.0,*,1.81,
77,Year,15-17,,,,Ozark
78,Total for selection,15-17,77.0,,5.67,
78,Year,15-17,,,,Pemiscot
79,Total for selection,15-17,73.0,,5.83,
79,Year,15-17,,,,Perry
80,Total for selection,15-17,109.0,,4.08,
80,Year,15-17,,,,Pettis
81,Total for selection,15-17,143.0,,5.43,
81,Year,15-17,,,,Phelps
82,Total for selection,15-17,86.0,,7.53,
82,Year,15-17,,,,Pike
83,2002,15-17,,*,,
83,2003,15-17,,*,,
83,2004,15-17,,*,,
83,2005,15-17,,*,,
83,2006,15-17,,*,,
83,2007,15-17,,*,,
83,2009,15-17,,*,,
83,2010,15-17,,*,,
83,2011,15-17,,*,,
83,2012,15-17,,*,,
83,2013,15-17,,*,,
83,2014,15-17,,*,,
83,2015,15-17,,*,,
83,2001,15-17,20.0,,5.85,
83,2002,15-17,17.0,,4.94,
83,2003,15-17,11.0,,3.24,
83,2004,15-17,9.0,,2.6,
83,2005,15-17,10.0,,2.75,
83,2006,15-17,14.0,,3.8,
83,2007,15-17,15.0,,3.95,
83,2008,15-17,21.0,,5.56,
83,2009,15-17,15.0,,3.95,
83,2010,15-17,16.0,,4.13,
83,2011,15-17,15.0,,3.79,
83,2012,15-17,15.0,,3.77,
83,2013,15-17,11.0,,2.8,
83,2014,15-17,13.0,,3.26,
83,2015,15-17,15.0,,3.68,
83,Total for selection,15-17,217.0,,3.86,
83,Year,15-17,,,,Platte
84,Total for selection,15-17,108.0,,5.16,
84,Year,15-17,,,,Polk
85,Total for selection,15-17,87.0,,3.06,
85,Year,15-17,,,,Pulaski
86,Total for selection,15-17,7.0,*,2.25,
86,Year,15-17,,,,Putnam
87,Total for selection,15-17,8.0,*,1.24,
87,Year,15-17,,,,Ralls
88,Total for selection,15-17,56.0,,3.75,
88,Year,15-17,,,,Randolph
89,Total for selection,15-17,72.0,,4.26,
89,Year,15-17,,,,Ray
90,Total for selection,15-17,31.0,,7.06,
90,Year,15-17,,,,Reynolds
91,Total for selection,15-17,108.0,,11.98,
91,Year,15-17,,,,Ripley
92,Total for selection,15-17,79.0,,5.5,
92,Year,15-17,,,,Saline
93,Total for selection,15-17,7.0,*,2.27,
93,Year,15-17,,,,Schuyler
94,Total for selection,15-17,18.0,*,4.99,
94,Year,15-17,,,,Scotland
95,Total for selection,15-17,124.0,,4.66,
95,Year,15-17,,,,Scott
96,Total for selection,15-17,45.0,,7.84,
96,Year,15-17,,,,Shannon
97,Total for selection,15-17,9.0,*,2.0,
97,Year,15-17,,,,Shelby
98,2001,15-17,44.0,,3.12,
98,2002,15-17,58.0,,3.99,
98,2003,15-17,62.0,,4.2,
98,2004,15-17,66.0,,4.38,
98,2005,15-17,61.0,,3.94,
98,2006,15-17,64.0,,4.01,
98,2007,15-17,60.0,,3.73,
98,2008,15-17,74.0,,4.63,
98,2009,15-17,52.0,,3.29,
98,2010,15-17,44.0,,2.8,
98,2011,15-17,52.0,,3.31,
98,2012,15-17,70.0,,4.38,
98,2013,15-17,63.0,,3.92,
98,2014,15-17,71.0,,4.38,
98,2015,15-17,76.0,,4.58,
98,Total for selection,15-17,917.0,,3.92,
98,Year,15-17,,,,St. Charles
99,Total for selection,15-17,21.0,,3.67,
99,Year,15-17,,,,St. Clair
100,2002,15-17,,*,,
100,2003,15-17,,*,,
100,2005,15-17,,*,,
100,2006,15-17,,*,,
100,2007,15-17,,*,,
100,2009,15-17,,*,,
100,2010,15-17,,*,,
100,2011,15-17,,*,,
100,2012,15-17,,*,,
100,2013,15-17,,*,,
100,2014,15-17,,*,,
100,2015,15-17,,*,,
100,2001,15-17,22.0,,9.06,
100,2002,15-17,19.0,,7.62,
100,2003,15-17,15.0,,6.06,
100,2004,15-17,23.0,,9.17,
100,2005,15-17,17.0,,6.9,
100,2006,15-17,16.0,,6.26,
100,2007,15-17,16.0,,6.48,
100,2008,15-17,20.0,,8.25,
100,2009,15-17,14.0,,5.88,
100,2010,15-17,16.0,,6.6,
100,2011,15-17,13.0,,5.4,
100,2012,15-17,8.0,,3.36,
100,2013,15-17,7.0,,2.93,
100,2014,15-17,19.0,,8.3,
100,2015,15-17,19.0,,7.8,
100,Total for selection,15-17,244.0,,6.68,
100,Year,15-17,,,,St. Francois
101,2001,15-17,65.0,,4.63,
101,2002,15-17,54.0,,3.98,
101,2003,15-17,62.0,,4.58,
101,2004,15-17,64.0,,4.76,
101,2005,15-17,40.0,,2.97,
101,2006,15-17,51.0,,3.78,
101,2007,15-17,26.0,,1.93,
101,2008,15-17,38.0,,2.87,
101,2009,15-17,30.0,,2.34,
101,2010,15-17,40.0,,3.29,
101,2011,15-17,28.0,,2.58,
101,2012,15-17,30.0,,2.97,
101,2013,15-17,25.0,,2.62,
101,2014,15-17,22.0,,2.38,
101,2015,15-17,36.0,,3.95,
101,Total for selection,15-17,611.0,,3.36,
101,Year,15-17,,,,St. Louis City
102,2001,15-17,151.0,,3.35,
102,2002,15-17,166.0,,3.67,
102,2003,15-17,155.0,,3.43,
102,2004,15-17,130.0,,2.89,
102,2005,15-17,157.0,,3.4,
102,2006,15-17,143.0,,3.07,
102,2007,15-17,142.0,,3.04,
102,2008,15-17,141.0,,3.08,
102,2009,15-17,119.0,,2.62,
102,2010,15-17,122.0,,2.73,
102,2011,15-17,117.0,,2.71,
102,2012,15-17,111.0,,2.64,
102,2013,15-17,92.0,,2.24,
102,2014,15-17,112.0,,2.76,
102,2015,15-17,154.0,,3.8,
102,Total for selection,15-17,2012.0,,3.03,
102,Year,15-17,,,,St. Louis County
103,Total for selection,15-17,35.0,,2.89,
103,Year,15-17,,,,Ste. Genevieve
104,Total for selection,15-17,104.0,,5.39,
104,Year,15-17,,,,Stoddard
105,Total for selection,15-17,62.0,,3.56,
105,Year,15-17,,,,Stone
106,Total for selection,15-17,24.0,,5.47,
106,Year,15-17,,,,Sullivan
107,2001,15-17,,*,,
107,2002,15-17,,*,,
107,2003,15-17,,*,,
107,2004,15-17,,*,,
107,2005,15-17,,*,,
107,2006,15-17,,*,,
107,2007,15-17,,*,,
107,2008,15-17,,*,,
107,2009,15-17,,*,,
107,2010,15-17,,*,,
107,2011,15-17,,*,,
107,2012,15-17,,*,,
107,2013,15-17,,*,,
107,2014,15-17,,*,,
107,2015,15-17,,*,,
107,2001,15-17,10.0,,6.09,
107,2002,15-17,6.0,,3.82,
107,2003,15-17,8.0,,5.03,
107,2004,15-17,13.0,,7.99,
107,2005,15-17,12.0,,6.75,
107,2006,15-17,7.0,,3.97,
107,2007,15-17,14.0,,7.45,
107,2008,15-17,9.0,,4.68,
107,2009,15-17,11.0,,5.67,
107,2010,15-17,15.0,,7.65,
107,2011,15-17,12.0,,5.99,
107,2012,15-17,9.0,,4.5,
107,2013,15-17,7.0,,3.46,
107,2014,15-17,9.0,,4.43,
107,2015,15-17,15.0,,7.07,
107,Total for selection,15-17,157.0,,5.64,
107,Year,15-17,,,,Taney
108,Total for selection,15-17,106.0,,6.64,
108,Year,15-17,,,,Texas
109,Total for selection,15-17,64.0,,4.3,
109,Year,15-17,,,,Vernon
110,Total for selection,15-17,92.0,,4.55,
110,Year,15-17,,,,Warren
111,Total for selection,15-17,84.0,,5.14,
111,Year,15-17,,,,Washington
112,Total for selection,15-17,37.0,,4.54,
112,Year,15-17,,,,Wayne
113,Total for selection,15-17,77.0,,3.06,
113,Year,15-17,,,,Webster
114,Year,15-17,,,,Worth
115,Total for selection,15-17,56.0,,4.29,
115,Year,15-17,,,,Wright
116,2001,15-17,1003.0,,4.01,
116,2002,15-17,1061.0,,4.24,
116,2003,15-17,1073.0,,4.3,
116,2004,15-17,1038.0,,4.13,
116,2005,15-17,1024.0,,4.01,
116,2006,15-17,1049.0,,4.05,
116,2007,15-17,1000.0,,3.85,
116,2008,15-17,1041.0,,4.07,
116,2009,15-17,938.0,,3.73,
116,2010,15-17,942.0,,3.8,
116,2011,15-17,917.0,,3.78,
116,2012,15-17,862.0,,3.61,
116,2013,15-17,932.0,,3.94,
116,2014,15-17,960.0,,4.05,
116,2015,15-17,1102.0,,4.59,
116,Total for selection,15-17,14942.0,,4.01,
116,Year,15-17,,,,Total for selection
117,2001,15-17,1004.0,,4.01,
117,2002,15-17,1061.0,,4.24,
117,2003,15-17,1073.0,,4.3,
117,2004,15-17,1039.0,,4.15,
117,2005,15-17,1026.0,,4.01,
117,2006,15-17,1050.0,,4.05,
117,2007,15-17,1000.0,,3.85,
117,2008,15-17,1042.0,,4.08,
117,2009,15-17,938.0,,3.73,
117,2010,15-17,942.0,,3.8,
117,2011,15-17,917.0,,3.78,
117,2012,15-17,862.0,,3.61,
117,2013,15-17,932.0,,3.94,
117,2014,15-17,960.0,,4.05,
117,2015,15-17,1105.0,,4.61,
117,Total for selection,15-17,14951.0,,4.01,
117,Year,15-17,,,,Missouri
