,,age_grp,Count,Notes,Rate,Statistics
63,2005,1-4,21.0,,13.65,
63,2006,1-4,13.0,,8.46,
63,2007,1-4,21.0,,15.16,
63,2008,1-4,15.0,,9.74,
63,2009,1-4,22.0,,13.31,
63,2010,1-4,18.0,,11.21,
63,2011,1-4,23.0,,14.69,
63,2012,1-4,7.0,,4.55,
63,2013,1-4,14.0,,9.61,
63,2014,1-4,15.0,,10.23,
63,2015,1-4,14.0,,9.85,
63,Year,1-4,,,,Marion
64,Year,1-4,,,,McDonald
65,Year,1-4,,,,Mercer
66,2001,1-4,,*,,
66,2002,1-4,,*,,
66,2003,1-4,,*,,
66,2004,1-4,,*,,
66,2005,1-4,,*,,
66,2006,1-4,,*,,
66,2007,1-4,,*,,
66,2008,1-4,,*,,
66,2009,1-4,,*,,
66,2010,1-4,,*,,
66,2011,1-4,,*,,
66,2012,1-4,,*,,
66,2013,1-4,,*,,
66,2014,1-4,,*,,
66,2015,1-4,,*,,
66,2001,1-4,9.0,,6.93,
66,2002,1-4,10.0,,7.71,
66,2003,1-4,14.0,,11.53,
66,2004,1-4,11.0,,8.75,
66,2005,1-4,11.0,,8.84,
66,2006,1-4,12.0,,9.38,
66,2007,1-4,16.0,,12.33,
66,2008,1-4,15.0,,11.01,
66,2009,1-4,12.0,,9.05,
66,2010,1-4,8.0,,6.05,
66,2011,1-4,14.0,,10.76,
66,2012,1-4,6.0,,5.01,
66,2013,1-4,10.0,,8.39,
66,2014,1-4,9.0,,7.48,
66,2015,1-4,10.0,,8.33,
66,Year,1-4,,,,Miller
67,Year,1-4,,,,Mississippi
68,Year,1-4,,,,Moniteau
69,Year,1-4,,,,Monroe
70,Year,1-4,,,,Montgomery
71,Year,1-4,,,,Morgan
72,Year,1-4,,,,New Madrid
73,2015,1-4,,*,,
73,2001,1-4,47.0,,16.11,
73,2002,1-4,34.0,,11.5,
73,2003,1-4,32.0,,10.63,
73,2004,1-4,40.0,,13.61,
73,2005,1-4,36.0,,12.19,
73,2006,1-4,31.0,,10.55,
73,2007,1-4,42.0,,14.39,
73,2008,1-4,28.0,,9.23,
73,2009,1-4,35.0,,11.37,
73,2010,1-4,24.0,,7.69,
73,2011,1-4,30.0,,9.72,
73,2012,1-4,24.0,,7.83,
73,2013,1-4,25.0,,8.3,
73,2014,1-4,20.0,,6.78,
73,2015,1-4,14.0,,4.69,
73,Year,1-4,,,,Newton
74,Year,1-4,,,,Nodaway
75,Year,1-4,,,,Oregon
76,Year,1-4,,,,Osage
77,Year,1-4,,,,Ozark
78,2001,1-4,,*,,
78,2002,1-4,,*,,
78,2003,1-4,,*,,
78,2004,1-4,,*,,
78,2005,1-4,,*,,
78,2006,1-4,,*,,
78,2007,1-4,,*,,
78,2008,1-4,,*,,
78,2009,1-4,,*,,
78,2010,1-4,,*,,
78,2011,1-4,,*,,
78,2012,1-4,,*,,
78,2013,1-4,,*,,
78,2014,1-4,,*,,
78,2015,1-4,,*,,
78,2001,1-4,13.0,,10.27,
78,2002,1-4,12.0,,9.67,
78,2003,1-4,17.0,,14.39,
78,2004,1-4,9.0,,7.65,
78,2005,1-4,6.0,,5.01,
78,2006,1-4,10.0,,8.42,
78,2007,1-4,11.0,,9.19,
78,2008,1-4,10.0,,8.57,
78,2009,1-4,16.0,,14.41,
78,2010,1-4,8.0,,7.16,
78,2011,1-4,12.0,,10.62,
78,2012,1-4,7.0,,6.43,
78,2013,1-4,12.0,,11.3,
78,2014,1-4,5.0,,4.59,
78,2015,1-4,5.0,,4.62,
78,Year,1-4,,,,Pemiscot
79,Year,1-4,,,,Perry
80,2003,1-4,,*,,
80,2007,1-4,,*,,
80,2012,1-4,,*,,
80,2013,1-4,,*,,
80,2014,1-4,,*,,
80,2015,1-4,,*,,
80,2001,1-4,26.0,,11.41,
80,2002,1-4,35.0,,15.6,
80,2003,1-4,17.0,,7.39,
80,2004,1-4,29.0,,13.0,
80,2005,1-4,29.0,,12.79,
80,2006,1-4,30.0,,12.85,
80,2007,1-4,15.0,,6.18,
80,2008,1-4,21.0,,8.36,
80,2009,1-4,23.0,,9.15,
80,2010,1-4,24.0,,9.43,
80,2011,1-4,20.0,,8.19,
80,2012,1-4,15.0,,6.22,
80,2013,1-4,17.0,,7.15,
80,2014,1-4,8.0,,3.42,
80,2015,1-4,16.0,,6.93,
80,Year,1-4,,,,Pettis
81,2002,1-4,,*,,
81,2004,1-4,,*,,
81,2008,1-4,,*,,
81,2011,1-4,,*,,
81,2013,1-4,,*,,
81,2014,1-4,,*,,
81,2015,1-4,,*,,
81,2001,1-4,30.0,,17.19,
81,2002,1-4,18.0,,9.38,
81,2003,1-4,21.0,,10.76,
81,2004,1-4,12.0,,5.79,
81,2005,1-4,21.0,,10.38,
81,2006,1-4,23.0,,10.91,
81,2007,1-4,23.0,,10.66,
81,2008,1-4,17.0,,7.86,
81,2009,1-4,28.0,,12.55,
81,2010,1-4,36.0,,15.92,
81,2011,1-4,17.0,,7.82,
81,2012,1-4,35.0,,16.07,
81,2013,1-4,18.0,,8.57,
81,2014,1-4,17.0,,8.11,
81,2015,1-4,12.0,,5.83,
81,Year,1-4,,,,Phelps
82,Year,1-4,,,,Pike
83,2002,1-4,,*,,
83,2010,1-4,,*,,
83,2015,1-4,,*,,
83,2001,1-4,22.0,,5.34,
83,2002,1-4,19.0,,4.59,
83,2003,1-4,29.0,,6.82,
83,2004,1-4,20.0,,4.71,
83,2005,1-4,26.0,,6.02,
83,2006,1-4,25.0,,5.72,
83,2007,1-4,31.0,,6.86,
83,2008,1-4,22.0,,4.95,
83,2009,1-4,29.0,,6.38,
83,2010,1-4,19.0,,4.19,
83,2011,1-4,22.0,,4.75,
83,2012,1-4,24.0,,5.18,
83,2013,1-4,22.0,,4.72,
83,2014,1-4,22.0,,4.68,
83,2015,1-4,16.0,,3.5,
83,Year,1-4,,,,Platte
84,2001,1-4,,*,,
84,2002,1-4,,*,,
84,2003,1-4,,*,,
84,2004,1-4,,*,,
84,2007,1-4,,*,,
84,2008,1-4,,*,,
84,2011,1-4,,*,,
84,2013,1-4,,*,,
84,2014,1-4,,*,,
84,2015,1-4,,*,,
84,2001,1-4,5.0,,3.56,
84,2002,1-4,10.0,,6.85,
84,2003,1-4,15.0,,10.24,
84,2004,1-4,10.0,,7.06,
84,2005,1-4,27.0,,18.23,
84,2006,1-4,20.0,,13.69,
84,2007,1-4,18.0,,11.77,
84,2008,1-4,8.0,,4.94,
84,2009,1-4,24.0,,14.58,
84,2010,1-4,26.0,,15.73,
84,2011,1-4,12.0,,7.82,
84,2012,1-4,27.0,,16.89,
84,2013,1-4,11.0,,7.47,
84,2014,1-4,11.0,,7.33,
84,2015,1-4,15.0,,9.6,
84,Year,1-4,,,,Polk
85,2001,1-4,,*,,
85,2002,1-4,,*,,
85,2003,1-4,,*,,
85,2004,1-4,,*,,
85,2005,1-4,,*,,
85,2006,1-4,,*,,
85,2007,1-4,,*,,
85,2008,1-4,,*,,
85,2009,1-4,,*,,
85,2010,1-4,,*,,
85,2011,1-4,,*,,
85,2012,1-4,,*,,
85,2013,1-4,,*,,
85,2014,1-4,,*,,
85,2015,1-4,,*,,
85,2001,1-4,13.0,,5.21,
85,2002,1-4,5.0,,2.02,
85,2003,1-4,14.0,,5.59,
85,2004,1-4,12.0,,4.99,
85,2005,1-4,10.0,,4.24,
85,2006,1-4,5.0,,2.04,
85,2007,1-4,8.0,,3.16,
85,2008,1-4,12.0,,4.54,
85,2009,1-4,18.0,,6.15,
85,2010,1-4,15.0,,4.96,
85,2011,1-4,17.0,,5.29,
85,2012,1-4,17.0,,5.54,
85,2013,1-4,13.0,,4.25,
85,2014,1-4,11.0,,3.6,
85,2015,1-4,11.0,,3.56,
85,Year,1-4,,,,Pulaski
86,Year,1-4,,,,Putnam
87,Year,1-4,,,,Ralls
88,2002,1-4,,*,,
88,2003,1-4,,*,,
88,2005,1-4,,*,,
88,2007,1-4,,*,,
88,2008,1-4,,*,,
88,2009,1-4,,*,,
88,2011,1-4,,*,,
88,2012,1-4,,*,,
88,2013,1-4,,*,,
88,2014,1-4,,*,,
88,2015,1-4,,*,,
88,2001,1-4,21.0,,16.22,
88,2002,1-4,10.0,,7.47,
88,2003,1-4,17.0,,12.92,
88,2004,1-4,21.0,,16.12,
88,2005,1-4,16.0,,11.86,
88,2006,1-4,20.0,,15.07,
88,2007,1-4,17.0,,13.28,
88,2008,1-4,18.0,,13.36,
88,2009,1-4,13.0,,10.24,
88,2010,1-4,21.0,,16.5,
88,2011,1-4,11.0,,8.72,
88,2012,1-4,9.0,,7.32,
88,2013,1-4,8.0,,6.67,
88,2014,1-4,12.0,,10.11,
88,2015,1-4,6.0,,5.19,
88,Year,1-4,,,,Randolph
89,2001,1-4,,*,,
89,2002,1-4,,*,,
89,2003,1-4,,*,,
89,2004,1-4,,*,,
89,2005,1-4,,*,,
89,2006,1-4,,*,,
89,2007,1-4,,*,,
89,2008,1-4,,*,,
89,2009,1-4,,*,,
89,2010,1-4,,*,,
89,2011,1-4,,*,,
89,2012,1-4,,*,,
89,2013,1-4,,*,,
89,2014,1-4,,*,,
89,2015,1-4,,*,,
89,2001,1-4,8.0,,6.59,
89,2002,1-4,18.0,,15.69,
89,2003,1-4,16.0,,14.47,
89,2004,1-4,8.0,,6.56,
89,2005,1-4,18.0,,16.07,
89,2006,1-4,6.0,,5.11,
89,2007,1-4,13.0,,10.92,
89,2008,1-4,17.0,,13.97,
89,2009,1-4,18.0,,15.42,
89,2010,1-4,13.0,,10.84,
89,2011,1-4,12.0,,10.32,
89,2012,1-4,12.0,,10.71,
89,2013,1-4,8.0,,7.53,
89,2014,1-4,18.0,,17.57,
89,2015,1-4,5.0,,5.07,
89,Year,1-4,,,,Ray
90,Year,1-4,,,,Reynolds
91,2001,1-4,,*,,
91,2002,1-4,,*,,
91,2005,1-4,,*,,
91,2006,1-4,,*,,
91,2007,1-4,,*,,
91,2008,1-4,,*,,
91,2009,1-4,,*,,
91,2010,1-4,,*,,
91,2011,1-4,,*,,
91,2012,1-4,,*,,
91,2013,1-4,,*,,
91,2014,1-4,,*,,
91,2015,1-4,,*,,
91,2001,1-4,12.0,,19.64,
91,2002,1-4,13.0,,20.44,
91,2003,1-4,24.0,,35.45,
91,2004,1-4,27.0,,42.39,
91,2005,1-4,19.0,,27.18,
91,2006,1-4,17.0,,24.85,
91,2007,1-4,13.0,,19.32,
91,2008,1-4,10.0,,15.15,
91,2009,1-4,12.0,,18.63,
91,2010,1-4,10.0,,15.9,
91,2011,1-4,6.0,,8.27,
91,2012,1-4,12.0,,16.19,
91,2013,1-4,8.0,,10.36,
91,2014,1-4,6.0,,7.73,
91,2015,1-4,8.0,,10.34,
91,Year,1-4,,,,Ripley
92,2001,1-4,,*,,
92,2002,1-4,,*,,
92,2003,1-4,,*,,
92,2004,1-4,,*,,
92,2005,1-4,,*,,
92,2006,1-4,,*,,
92,2007,1-4,,*,,
92,2008,1-4,,*,,
92,2009,1-4,,*,,
92,2010,1-4,,*,,
92,2011,1-4,,*,,
92,2012,1-4,,*,,
92,2013,1-4,,*,,
92,2014,1-4,,*,,
92,2015,1-4,,*,,
92,2001,1-4,6.0,,5.51,
92,2002,1-4,14.0,,12.95,
92,2003,1-4,7.0,,6.45,
92,2004,1-4,16.0,,14.35,
92,2005,1-4,8.0,,6.88,
92,2006,1-4,11.0,,9.65,
92,2007,1-4,18.0,,15.1,
92,2008,1-4,8.0,,7.19,
92,2009,1-4,14.0,,11.75,
92,2010,1-4,10.0,,8.33,
92,2011,1-4,13.0,,10.95,
92,2012,1-4,11.0,,9.09,
92,2013,1-4,15.0,,12.61,
92,2014,1-4,9.0,,7.76,
92,2015,1-4,11.0,,9.21,
92,Year,1-4,,,,Saline
93,Year,1-4,,,,Schuyler
94,Year,1-4,,,,Scotland
95,2004,1-4,,*,,
95,2005,1-4,,*,,
95,2006,1-4,,*,,
95,2007,1-4,,*,,
95,2008,1-4,,*,,
95,2009,1-4,,*,,
95,2010,1-4,,*,,
95,2011,1-4,,*,,
95,2012,1-4,,*,,
95,2013,1-4,,*,,
95,2015,1-4,,*,,
95,2001,1-4,28.0,,12.82,
95,2002,1-4,27.0,,12.31,
95,2003,1-4,21.0,,9.61,
95,2004,1-4,19.0,,8.94,
95,2005,1-4,14.0,,6.62,
95,2006,1-4,15.0,,6.97,
95,2007,1-4,16.0,,7.49,
95,2008,1-4,19.0,,8.66,
95,2009,1-4,19.0,,8.69,
95,2010,1-4,15.0,,6.86,
95,2011,1-4,18.0,,8.19,
95,2012,1-4,16.0,,7.3,
95,2013,1-4,16.0,,7.28,
95,2014,1-4,22.0,,10.02,
95,2015,1-4,15.0,,6.8,
95,Year,1-4,,,,Scott
96,Year,1-4,,,,Shannon
97,Year,1-4,,,,Shelby
98,2001,1-4,100.0,,5.59,
98,2002,1-4,112.0,,6.15,
98,2003,1-4,77.0,,4.25,
98,2004,1-4,83.0,,4.53,
98,2005,1-4,79.0,,4.21,
98,2006,1-4,110.0,,5.83,
98,2007,1-4,108.0,,5.61,
98,2008,1-4,102.0,,5.25,
98,2009,1-4,141.0,,7.2,
98,2010,1-4,119.0,,6.04,
98,2011,1-4,109.0,,5.63,
98,2012,1-4,114.0,,5.99,
98,2013,1-4,86.0,,4.59,
98,2014,1-4,51.0,,2.74,
98,2015,1-4,89.0,,4.72,
98,Year,1-4,,,,St. Charles
99,Year,1-4,,,,St. Clair
100,2001,1-4,31.0,,11.37,
100,2002,1-4,38.0,,13.38,
100,2003,1-4,38.0,,13.57,
100,2004,1-4,31.0,,10.58,
100,2005,1-4,54.0,,18.32,
100,2006,1-4,32.0,,10.9,
100,2007,1-4,30.0,,9.93,
100,2008,1-4,38.0,,12.33,
100,2009,1-4,37.0,,11.62,
100,2010,1-4,39.0,,12.0,
100,2011,1-4,36.0,,11.49,
100,2012,1-4,41.0,,13.59,
100,2013,1-4,28.0,,9.65,
100,2014,1-4,34.0,,11.92,
100,2015,1-4,24.0,,8.44,
100,Year,1-4,,,,St. Francois
101,2001,1-4,119.0,,6.67,
101,2002,1-4,124.0,,7.0,
101,2003,1-4,96.0,,5.56,
101,2004,1-4,108.0,,6.28,
101,2005,1-4,111.0,,6.63,
101,2006,1-4,79.0,,4.9,
101,2007,1-4,102.0,,6.35,
101,2008,1-4,96.0,,6.02,
101,2009,1-4,111.0,,6.96,
101,2010,1-4,72.0,,4.43,
101,2011,1-4,115.0,,7.03,
101,2012,1-4,110.0,,6.48,
101,2013,1-4,85.0,,5.11,
101,2014,1-4,63.0,,3.81,
101,2015,1-4,103.0,,6.21,
101,Year,1-4,,,,St. Louis City
102,2001,1-4,240.0,,4.75,
102,2002,1-4,277.0,,5.54,
102,2003,1-4,252.0,,5.15,
102,2004,1-4,232.0,,4.79,
102,2005,1-4,296.0,,6.14,
102,2006,1-4,265.0,,5.64,
102,2007,1-4,248.0,,5.29,
102,2008,1-4,260.0,,5.56,
102,2009,1-4,261.0,,5.58,
102,2010,1-4,256.0,,5.45,
102,2011,1-4,245.0,,5.26,
102,2012,1-4,286.0,,6.11,
102,2013,1-4,233.0,,5.0,
102,2014,1-4,201.0,,4.34,
102,2015,1-4,198.0,,4.23,
102,Year,1-4,,,,St. Louis County
103,Year,1-4,,,,Ste. Genevieve
104,2002,1-4,,*,,
104,2004,1-4,,*,,
104,2006,1-4,,*,,
104,2009,1-4,,*,,
104,2011,1-4,,*,,
104,2012,1-4,,*,,
104,2013,1-4,,*,,
104,2014,1-4,,*,,
104,2015,1-4,,*,,
104,2001,1-4,22.0,,15.36,
104,2002,1-4,13.0,,9.34,
104,2003,1-4,20.0,,14.43,
104,2004,1-4,18.0,,12.79,
104,2005,1-4,21.0,,14.17,
104,2006,1-4,15.0,,10.24,
104,2007,1-4,27.0,,18.05,
104,2008,1-4,22.0,,15.12,
104,2009,1-4,19.0,,12.59,
104,2010,1-4,24.0,,16.44,
104,2011,1-4,17.0,,12.48,
104,2012,1-4,18.0,,13.93,
104,2013,1-4,15.0,,11.43,
104,2014,1-4,8.0,,6.15,
104,2015,1-4,10.0,,7.16,
104,Year,1-4,,,,Stoddard
105,Year,1-4,,,,Stone
106,Year,1-4,,,,Sullivan
107,2001,1-4,,*,,
107,2002,1-4,,*,,
107,2003,1-4,,*,,
107,2004,1-4,,*,,
107,2007,1-4,,*,,
107,2009,1-4,,*,,
107,2010,1-4,,*,,
107,2013,1-4,,*,,
107,2015,1-4,,*,,
107,2001,1-4,12.0,,6.15,
107,2002,1-4,17.0,,8.39,
107,2003,1-4,12.0,,5.9,
107,2004,1-4,17.0,,8.02,
107,2005,1-4,20.0,,9.23,
107,2006,1-4,22.0,,10.24,
107,2007,1-4,19.0,,8.46,
107,2008,1-4,21.0,,8.69,
107,2009,1-4,16.0,,6.55,
107,2010,1-4,19.0,,7.4,
107,2011,1-4,25.0,,9.61,
107,2012,1-4,27.0,,10.36,
107,2013,1-4,18.0,,7.0,
107,2014,1-4,21.0,,8.47,
107,2015,1-4,9.0,,3.63,
107,Year,1-4,,,,Taney
108,2001,1-4,,*,,
108,2003,1-4,,*,,
108,2005,1-4,,*,,
108,2006,1-4,,*,,
108,2007,1-4,,*,,
108,2008,1-4,,*,,
108,2009,1-4,,*,,
108,2010,1-4,,*,,
108,2011,1-4,,*,,
108,2012,1-4,,*,,
108,2013,1-4,,*,,
108,2014,1-4,,*,,
108,2015,1-4,,*,,
108,2001,1-4,10.0,,9.46,
108,2002,1-4,21.0,,19.32,
108,2003,1-4,7.0,,6.24,
108,2004,1-4,24.0,,21.13,
108,2005,1-4,16.0,,13.51,
108,2006,1-4,11.0,,9.21,
108,2007,1-4,7.0,,5.6,
108,2008,1-4,10.0,,8.17,
108,2009,1-4,16.0,,12.6,
108,2010,1-4,18.0,,13.43,
108,2011,1-4,14.0,,10.87,
108,2012,1-4,19.0,,15.2,
108,2013,1-4,13.0,,11.05,
108,2014,1-4,10.0,,8.77,
108,2015,1-4,16.0,,13.78,
108,Year,1-4,,,,Texas
109,Year,1-4,,,,Vernon
110,Year,1-4,,,,Warren
111,2001,1-4,,*,,
111,2003,1-4,,*,,
111,2005,1-4,,*,,
111,2006,1-4,,*,,
111,2007,1-4,,*,,
111,2008,1-4,,*,,
111,2011,1-4,,*,,
111,2013,1-4,,*,,
111,2014,1-4,,*,,
111,2015,1-4,,*,,
111,2001,1-4,17.0,,13.69,
111,2002,1-4,21.0,,16.27,
111,2003,1-4,15.0,,11.64,
111,2004,1-4,20.0,,15.41,
111,2005,1-4,17.0,,14.31,
111,2006,1-4,15.0,,12.05,
111,2007,1-4,17.0,,13.63,
111,2008,1-4,12.0,,8.92,
111,2009,1-4,22.0,,16.26,
111,2010,1-4,27.0,,20.04,
111,2011,1-4,18.0,,14.11,
111,2012,1-4,29.0,,23.31,
111,2013,1-4,13.0,,10.85,
111,2014,1-4,13.0,,10.93,
111,2015,1-4,16.0,,14.07,
111,Year,1-4,,,,Washington
112,Year,1-4,,,,Wayne
113,2001,1-4,,*,,
113,2002,1-4,,*,,
113,2003,1-4,,*,,
113,2004,1-4,,*,,
113,2005,1-4,,*,,
113,2006,1-4,,*,,
113,2007,1-4,,*,,
113,2008,1-4,,*,,
113,2009,1-4,,*,,
113,2010,1-4,,*,,
113,2011,1-4,,*,,
113,2012,1-4,,*,,
113,2013,1-4,,*,,
113,2014,1-4,,*,,
113,2015,1-4,,*,,
113,2001,1-4,6.0,,3.08,
113,2002,1-4,11.0,,5.84,
113,2003,1-4,10.0,,5.05,
113,2004,1-4,6.0,,2.96,
113,2005,1-4,18.0,,8.98,
113,2006,1-4,12.0,,6.09,
113,2007,1-4,10.0,,4.82,
113,2008,1-4,11.0,,5.01,
113,2009,1-4,15.0,,6.79,
113,2010,1-4,10.0,,4.59,
113,2011,1-4,13.0,,6.16,
113,2012,1-4,9.0,,4.51,
113,2013,1-4,9.0,,4.63,
113,2014,1-4,8.0,,4.09,
113,2015,1-4,10.0,,5.03,
113,Year,1-4,,,,Webster
114,Year,1-4,,,,Worth
115,Year,1-4,,,,Wright
116,2001,1-4,2089.0,,7.08,
116,2002,1-4,2153.0,,7.26,
116,2003,1-4,2121.0,,7.18,
116,2004,1-4,2183.0,,7.34,
116,2005,1-4,2304.0,,7.69,
116,2006,1-4,2147.0,,7.16,
116,2007,1-4,2292.0,,7.54,
116,2008,1-4,2273.0,,7.38,
116,2009,1-4,2529.0,,8.14,
116,2010,1-4,2302.0,,7.34,
116,2011,1-4,2294.0,,7.42,
116,2012,1-4,2299.0,,7.53,
116,2013,1-4,1990.0,,6.61,
116,2014,1-4,1739.0,,5.81,
116,2015,1-4,1790.0,,5.98,
116,Year,1-4,,,,Total for selection
117,2001,1-4,2089.0,,7.08,
117,2002,1-4,2153.0,,7.26,
117,2003,1-4,2122.0,,7.18,
117,2004,1-4,2186.0,,7.35,
117,2005,1-4,2306.0,,7.69,
117,2006,1-4,2147.0,,7.16,
117,2007,1-4,2293.0,,7.54,
117,2008,1-4,2275.0,,7.38,
117,2009,1-4,2529.0,,8.14,
117,2010,1-4,2303.0,,7.35,
117,2011,1-4,2295.0,,7.42,
117,2012,1-4,2301.0,,7.54,
117,2013,1-4,1990.0,,6.61,
117,2014,1-4,1739.0,,5.81,
117,2015,1-4,1791.0,,5.98,
117,Year,1-4,,,,Missouri
