,zipcode,businesses_x,counts_x,businesses_y,counts_y,businesses_x_5,counts_x_6,businesses_y_7,counts_y_8,boro,counts_x_10,counts_y_11,indicator,counts
0,10001,Sidewalk Cafe,10,Pawnbroker,1,Debt Collection Agency,5,Cigarette Retail Dealer,98,Manhattan,178,473,Passed Inspection,4371
1,10010,Sidewalk Cafe,21,Pawnbroker,2,Debt Collection Agency,1,Cigarette Retail Dealer,45,Manhattan,82,286,Passed Inspection,2939
2,10011,Sidewalk Cafe,44,Pawnbroker,1,Debt Collection Agency,1,Cigarette Retail Dealer,69,Manhattan,296,1027,Passed Inspection,9580
3,10017,Sidewalk Cafe,7,Pawnbroker,5,Debt Collection Agency,4,Cigarette Retail Dealer,57,Manhattan,41,112,Passed Inspection,2249
4,10018,Sidewalk Cafe,1,Pawnbroker,2,Debt Collection Agency,2,Cigarette Retail Dealer,74,Manhattan,52,184,Passed Inspection,2323
5,10019,Sidewalk Cafe,41,Pawnbroker,1,Debt Collection Agency,3,Cigarette Retail Dealer,104,Manhattan,214,758,Passed Inspection,5004
6,10022,Sidewalk Cafe,28,Pawnbroker,3,Debt Collection Agency,1,Cigarette Retail Dealer,72,Manhattan,131,419,Passed Inspection,5166
7,10032,Sidewalk Cafe,6,Pawnbroker,1,Debt Collection Agency,1,Cigarette Retail Dealer,53,Manhattan,649,2419,Passed Inspection,8846
8,10036,Sidewalk Cafe,33,Pawnbroker,32,Debt Collection Agency,2,Cigarette Retail Dealer,74,Manhattan,142,705,Passed Inspection,4752
9,10458,Sidewalk Cafe,6,Pawnbroker,15,Debt Collection Agency,1,Cigarette Retail Dealer,95,Bronx,3107,7354,Passed Inspection,28913
10,10462,Sidewalk Cafe,2,Pawnbroker,7,Debt Collection Agency,1,Cigarette Retail Dealer,81,Bronx,1462,679,Passed Inspection,3599
11,10463,Sidewalk Cafe,6,Pawnbroker,3,Debt Collection Agency,1,Cigarette Retail Dealer,49,Bronx,844,1020,Passed Inspection,4317
