,school_name,type,Total Students,Total School Budget,Average Math Score,Average Reading Score
0,Bailey High School,District,4976,3124928,77.10151691948658,80.85822637106185
1,Cabrera High School,Charter,1858,1081356,83.06189451022605,83.97578040904197
2,Figueroa High School,District,2949,1884411,76.71176670057646,81.15801966768396
3,Griffin High School,Charter,1468,917500,83.35149863760218,83.816757493188
4,Hernandez High School,District,4635,3022020,77.28975188781014,80.9344120819849
5,Huang High School,District,2917,1910635,76.62941378128214,81.18272197463148
6,Shelton High School,Charter,1761,1056600,83.3594548551959,83.72572402044293
7,Wilson High School,Charter,2283,1319574,83.2742006132282,83.98948751642575
