,school,Average Math Score,Average Reading Score,Number Passing Math,Number Passing Reading
0,Bailey High School,77.04,81.03,3318,4077
1,Cabrera High School,83.06,83.97,1749,1803
2,Figueroa High School,76.71,81.15,1946,2381
3,Ford High School,77.1,80.74,1871,2172
4,Griffin High School,83.35,83.81,1371,1426
5,Hernandez High School,77.28,80.93,3094,3748
6,Holden High School,83.8,83.81,395,411
0,Huang High School,76.62,81.18,1916,2372
1,Johnson High School,77.07,80.96,3145,3867
2,Pena High School,83.83,84.04,910,923
3,Rodriguez High School,76.84,80.74,2654,3208
4,Shelton High School,83.35,83.72,1653,1688
5,Thomas High School,83.41,83.84,1525,1591
6,Wilson High School,83.27,83.98,2143,2204
7,Wright High School,83.68,83.95,1680,1739
