,2012-12-05,0.0075805085
29,2017-10-09,0.0069
26,2017-05-26,0.021708334
6,2014-02-26,0.006966666999999999
33,2018-06-07,0.005433333
30,2018-02-11,0.0065333330000000005
10,2014-08-12,0.0033
1,2013-03-15,0.0076601696
36,2019-02-15,0.032169998
7,2014-03-25,0.00605
4,2013-09-17,0.0088
27,2017-07-03,0.011770000000000001
17,2015-10-29,0.030039999999999997
8,2014-05-13,0.0051333329999999995
0,2013-01-08,0.007620339
16,2015-09-13,0.0197
5,2013-10-26,0.007883334
15,2015-07-27,0.0076
13,2015-05-15,0.008
3,2013-08-23,0.00825
35,2018-12-19,0.0047
28,2017-08-15,0.009335
18,2016-03-05,0.04038
23,2016-11-07,0.051523335
32,2018-04-24,0.0058
12,2015-03-21,0.0082
9,2014-06-25,0.004216667
14,2015-06-16,0.0078000003
20,2016-06-04,0.06106
19,2016-04-28,0.050720003
25,2017-04-23,0.03164667
11,2014-09-28,0.00575
24,2017-03-14,0.041585002
31,2018-03-15,0.0061666667
22,2016-09-18,0.06146167
34,2018-10-25,0.0050666668
21,2016-07-24,0.0714
2,2013-06-28,0.0077
