,Id,SalePrice
0,1461,119592.61306815187
1,1462,154097.37697930165
2,1463,174475.25242496034
3,1464,191950.8782201289
4,1465,188765.00390819422
5,1466,178957.44674444434
6,1467,168543.7479006533
7,1468,174360.44415858955
8,1469,182344.73850999476
9,1470,130194.69117479726
10,1471,209741.97991867294
11,1472,94205.07246944825
12,1473,96963.03702321484
13,1474,158901.40935273553
14,1475,110278.73845750083
15,1476,360035.6344300426
16,1477,241439.19353450718
17,1478,311201.20312679914
18,1479,252939.37011145105
19,1480,412594.55426401104
20,1481,329403.41400684585
21,1482,205010.19599477862
22,1483,190064.30627686298
23,1484,174374.70947780597
24,1485,174464.39087137755
25,1486,198233.01739415686
26,1487,329561.3425893493
27,1488,241127.9315532948
28,1489,192365.377907563
29,1490,214891.2705514143
30,1491,190765.89194784773
31,1492,86753.94086808557
32,1493,176114.15049180426
33,1494,303675.08847622515
34,1495,289304.37765121186
35,1496,234135.60319877585
36,1497,185536.4935730188
37,1498,157903.66509087785
38,1499,152280.98515219928
39,1500,166644.1400186934
40,1501,178373.83816500075
41,1502,160989.64557544186
42,1503,250150.6817256282
43,1504,221608.576677649
44,1505,213489.9813439668
45,1506,169766.86871358368
46,1507,238914.5912849103
47,1508,190705.21376734995
48,1509,163342.30284086431
49,1510,150617.7574363214
50,1511,149676.0266452765
51,1512,170865.53150310804
52,1513,158384.1554734883
53,1514,147485.78093392146
54,1515,207746.6732048405
55,1516,148872.6939673497
56,1517,144587.61305824874
57,1518,142824.4450250581
58,1519,213338.33797268156
59,1520,139021.90405759835
60,1521,138743.84541343115
61,1522,166088.23990326852
62,1523,126803.01295244727
63,1524,126416.92192574394
64,1525,122514.71036522325
65,1526,128193.84350903756
66,1527,113064.24074005795
67,1528,126292.14627771234
68,1529,141238.1015870827
69,1530,164789.22832764304
70,1531,139325.4170358483
71,1532,106030.37982277016
72,1533,143893.45445374073
73,1534,108942.714448564
74,1535,142495.92334562333
75,1536,122181.26321388865
76,1537,76827.51241825504
77,1538,148254.1824069869
78,1539,176712.87586662738
79,1540,114006.20896087485
80,1541,135933.52617035373
81,1542,137083.75426544124
82,1543,185660.67919623386
83,1544,91923.18807611377
84,1545,110343.13840386315
85,1546,128133.60539041524
86,1547,125477.94672292253
87,1548,124813.61001820787
88,1549,113130.9257273404
89,1550,144280.03979573178
90,1551,116125.61388779213
91,1552,140392.1426365342
92,1553,135965.30406043233
93,1554,124096.06813424967
94,1555,157868.06339816898
95,1556,92312.02997757804
96,1557,117910.01980592437
97,1558,86148.99172634886
98,1559,103886.684811575
99,1560,141776.36452584044
100,1561,123529.78742982206
101,1562,132341.82904054833
102,1563,128838.64177877927
103,1564,163128.55329874298
104,1565,149063.35586119184
105,1566,233437.32204626015
106,1567,80530.44595813383
107,1568,203042.7938800661
108,1569,158704.2327903561
109,1570,128603.65998070776
110,1571,119617.70285748164
111,1572,138450.8722756473
112,1573,223770.4716616235
113,1574,115036.88214766936
114,1575,222365.96760472268
115,1576,212362.73286599817
116,1577,188131.40999298362
117,1578,140394.55872533622
118,1579,134838.20641402857
119,1580,190091.00751130952
120,1581,155199.09482771307
121,1582,132770.63972652383
122,1583,307881.5794632473
123,1584,229835.0120834652
124,1585,141150.60504144663
125,1586,73282.60437363648
126,1587,109621.82790886561
127,1588,145006.07919135032
128,1589,101109.8272061664
129,1590,135979.53033982398
130,1591,107367.00327748922
131,1592,133847.04618696767
132,1593,128442.26717298375
133,1594,139671.00074420086
134,1595,131578.88025708336
135,1596,232352.38822936625
136,1597,151583.5940361824
137,1598,185221.4332120834
138,1599,165406.42689830987
139,1600,179031.30669345375
140,1601,89069.49261130046
141,1602,113030.99265612649
142,1603,84576.16882648987
143,1604,293061.99016296986
144,1605,244490.25632585696
145,1606,168002.44625076104
146,1607,164549.21649396347
147,1608,223706.94119953347
148,1609,187275.46532720173
149,1610,159150.7515709877
150,1611,150037.97853618086
151,1612,159787.16194669018
152,1613,165974.51291724548
153,1614,119353.28575539305
154,1615,88287.44560317667
155,1616,85508.88684583156
156,1617,84809.63287209929
157,1618,122757.36316377412
158,1619,135281.1335485812
159,1620,168571.2880469608
160,1621,138433.29313600276
161,1622,141321.29609707822
162,1623,275959.42338457715
163,1624,206936.66000183774
164,1625,124453.89540271439
165,1626,162549.56937458
166,1627,180907.75955157788
167,1628,266697.6384408449
168,1629,178053.46755224286
169,1630,335365.78365147853
170,1631,178914.68163224423
171,1632,253589.99972966852
172,1633,169468.40592296352
173,1634,191632.07451788906
174,1635,178728.49657837464
175,1636,167341.26384261574
176,1637,179486.62927906308
177,1638,188979.47515550329
178,1639,179488.1904171575
179,1640,226312.1125569284
180,1641,176596.7504263091
181,1642,235403.44836046605
182,1643,230150.81650036163
183,1644,216645.96343459818
184,1645,185358.99290786378
185,1646,162442.77758174605
186,1647,159773.94032044447
187,1648,147306.61579948172
188,1649,141601.42195909622
189,1650,121885.24301659613
190,1651,119009.5064932432
191,1652,98961.21495481896
192,1653,98522.34608032787
193,1654,158465.06526484154
194,1655,144087.0052883534
195,1656,153463.65902433402
196,1657,157568.32912694462
197,1658,168545.77546356095
198,1659,126348.6671660798
199,1660,153670.0230814709
200,1661,462329.470101135
201,1662,406416.6838058322
202,1663,354163.6960195228
203,1664,485176.99556316657
204,1665,308058.7362597282
205,1666,314458.3068109257
206,1667,356740.1711923407
207,1668,328068.6740959048
208,1669,300640.60940622515
209,1670,334671.38000297843
210,1671,242232.27444103739
211,1672,461008.6497742861
212,1673,288674.10500592674
213,1674,255314.92515616433
214,1675,194328.49031472293
215,1676,197625.00860801863
216,1677,199231.24698183234
217,1678,444708.697716688
218,1679,373088.1690599938
219,1680,315970.7147439308
220,1681,267251.7513482393
221,1682,292279.2447708209
222,1683,198724.20919440078
223,1684,177594.74633568557
224,1685,178295.46606377317
225,1686,175007.83855007013
226,1687,171687.55035287587
227,1688,191367.199602428
228,1689,185649.09285173763
229,1690,182287.31588750056
230,1691,175859.72468928204
231,1692,250996.74528712343
232,1693,170939.84692562735
233,1694,177770.09771487876
234,1695,170784.93324308482
235,1696,263213.8923137649
236,1697,168792.65547904995
237,1698,316643.57842638396
238,1699,342039.97922852467
239,1700,246074.4001969535
240,1701,261804.40385822643
241,1702,229707.78189593198
242,1703,246419.8268027457
243,1704,261010.01484636148
244,1705,221723.8248645663
245,1706,487941.1719610238
246,1707,220302.66891254592
247,1708,201671.47936122603
248,1709,264302.09706969233
249,1710,221261.20740334605
250,1711,271060.2414964144
251,1712,250911.3335212943
252,1713,267509.81828358717
253,1714,225579.6917548361
254,1715,196936.4148051337
255,1716,171188.89799986567
256,1717,166535.29480630663
257,1718,137590.70862402552
258,1719,203421.25326908642
259,1720,245401.7443448796
260,1721,158670.7772490586
261,1722,132965.4859076469
262,1723,151981.9979743794
263,1724,210886.1259920743
264,1725,227560.0453687984
265,1726,188475.80082426665
266,1727,185070.9614026132
267,1728,172802.17085511723
268,1729,164565.14141507435
269,1730,148676.04995234258
270,1731,129763.68763502028
271,1732,132636.49376520087
272,1733,115481.13923344405
273,1734,131610.8751506724
274,1735,145761.66945097214
275,1736,121500.37161902555
276,1737,317869.85779867606
277,1738,214722.07039200215
278,1739,229101.91820881754
279,1740,206192.5679189732
280,1741,192006.43690419968
281,1742,174494.18279153382
282,1743,171905.8403613756
283,1744,294264.13632735994
284,1745,231462.01454909553
285,1746,242541.652705792
286,1747,200887.47749036254
287,1748,232240.39226759406
288,1749,169025.8488013264
289,1750,142816.3965890829
290,1751,221040.4280907217
291,1752,126093.16992205649
292,1753,145939.45977985984
293,1754,191327.43522672352
294,1755,169694.20141698734
295,1756,128694.18426304929
296,1757,121313.75292926516
297,1758,156431.48551393987
298,1759,159335.50850872704
299,1760,172333.46607736227
300,1761,149462.87778870392
301,1762,173622.25107064092
302,1763,185341.26645648872
303,1764,127361.89544617
304,1765,198183.41931836968
305,1766,168077.28231640192
306,1767,192818.05398813006
307,1768,141708.29156915908
308,1769,163672.07720117032
309,1770,147531.16936158072
310,1771,140805.6122571059
311,1772,142270.85020154945
312,1773,148175.08150837038
313,1774,130212.89008935865
314,1775,140015.82735100965
315,1776,123879.91385524078
316,1777,123408.62264900346
317,1778,140819.631574195
318,1779,131052.1335538207
319,1780,169178.8639883011
320,1781,132772.97916943993
321,1782,104043.91718531278
322,1783,140230.11647989033
323,1784,106858.43581183221
324,1785,121616.87162715895
325,1786,139830.7782593986
326,1787,162328.71865642868
327,1788,71405.55893868688
328,1789,83072.12917929313
329,1790,105617.98149614145
330,1791,172043.20126826438
331,1792,149933.46280250305
332,1793,123188.08662833546
333,1794,137380.1436468758
334,1795,135737.5068399337
335,1796,132756.5024945417
336,1797,107804.90703453824
337,1798,124437.88847799573
338,1799,117516.04852585091
339,1800,135797.68596693638
340,1801,125437.83594899194
341,1802,138106.89806776267
342,1803,156605.53744684823
343,1804,139049.674895411
344,1805,138933.80397552412
345,1806,115636.69058986453
346,1807,126814.67454832785
347,1808,117551.28148312484
348,1809,127310.6845434368
349,1810,143735.67787016422
350,1811,96499.05890975412
351,1812,103482.13817114179
352,1813,124528.5700149028
353,1814,106437.86972353588
354,1815,73430.1577086611
355,1816,114712.55545461936
356,1817,121395.00866504967
357,1818,132284.4185246677
358,1819,116073.0312682124
359,1820,86570.72453556307
360,1821,111159.89407288641
361,1822,147010.86362897573
362,1823,35420.717333334855
363,1824,125777.41106750364
364,1825,137319.14161861743
365,1826,107747.23963080818
366,1827,110972.15042184526
367,1828,128353.9610130058
368,1829,116100.3270464208
369,1830,133382.74062230054
370,1831,149425.5236669814
371,1832,111678.3876135112
372,1833,150464.3623131058
373,1834,117627.87414389868
374,1835,132199.66163310592
375,1836,126281.2283989669
376,1837,107238.65406066313
377,1838,129240.32367072775
378,1839,99942.55084026894
379,1840,166785.15792083406
380,1841,146763.58619439128
381,1842,103400.24615270174
382,1843,136252.92447428152
383,1844,142003.67326151126
384,1845,146878.57612304646
385,1846,156650.18904675794
386,1847,161204.47767576686
387,1848,72780.7382417245
388,1849,114835.84288273375
389,1850,130817.41734141881
390,1851,160026.87388299571
391,1852,126500.27187247414
392,1853,156501.52825800105
393,1854,177923.30318222023
394,1855,162501.0661594415
395,1856,225131.19886949388
396,1857,148878.73392928336
397,1858,137361.5885921341
398,1859,124629.31628887562
399,1860,150667.15564985102
400,1861,122992.32053858721
401,1862,229601.76377176816
402,1863,228722.01157888878
403,1864,228722.01157888878
404,1865,345735.9473921502
405,1866,327947.7227584297
406,1867,237416.33511104184
407,1868,292455.8507779193
408,1869,192661.21574816311
409,1870,230390.95718460024
410,1871,257011.27445179285
411,1872,176250.63760694844
412,1873,236460.23070180818
413,1874,129627.83288359057
414,1875,190549.22288227774
415,1876,194926.73353243835
416,1877,210244.74942779317
417,1878,211808.82303054736
418,1879,127989.75481757193
419,1880,138242.00760379847
420,1881,228498.4403959492
421,1882,247471.43506161927
422,1883,196787.16200195195
423,1884,216415.45447619387
424,1885,236603.0491944986
425,1886,307146.0334181019
426,1887,207544.899955828
427,1888,260081.43579970804
428,1889,174534.28127847463
429,1890,129437.9313315294
430,1891,141543.78934805893
431,1892,113527.08346537099
432,1893,142941.98162283027
433,1894,132723.162600251
434,1895,148281.99182230112
435,1896,131363.21328279914
436,1897,124619.73614168608
437,1898,110044.02379298401
438,1899,135528.4401195582
439,1900,117020.79064793405
440,1901,173200.05305099595
441,1902,138589.85602234144
442,1903,188939.83292808558
443,1904,143950.21603873486
444,1905,193918.20566703108
445,1906,121993.37338332644
446,1907,192768.11537003831
447,1908,116723.84614845188
448,1909,139829.23152075513
449,1910,127414.46335721324
450,1911,200010.1007843486
451,1912,267840.1327559077
452,1913,144993.01830003216
453,1914,36442.88378960811
454,1915,359113.18017208943
455,1916,65277.90359746669
456,1917,247507.72959364453
457,1918,133940.2263362368
458,1919,169984.71624940942
459,1920,151043.18586697048
460,1921,381500.17564697424
461,1922,348169.4213381285
462,1923,208738.71215239746
463,1924,188978.92272333734
464,1925,216626.306215352
465,1926,368471.7090682639
466,1927,126650.77023188415
467,1928,159343.1797768641
468,1929,122832.67425065197
469,1930,137996.27748149884
470,1931,139076.40492670515
471,1932,138653.43217922133
472,1933,179011.90649639402
473,1934,176906.00449693954
474,1935,174622.62719034654
475,1936,179252.50114880656
476,1937,179195.53590259625
477,1938,197274.64501775548
478,1939,278767.6144387239
479,1940,189345.04042070138
480,1941,174318.69908012197
481,1942,187182.96705848
482,1943,197215.49682929798
483,1944,319613.69578467024
484,1945,364235.35344990686
485,1946,151967.83996520494
486,1947,309928.0803600864
487,1948,141673.76979639253
488,1949,260424.76129557204
489,1950,186577.03720609524
490,1951,247715.3898019218
491,1952,233889.47622222203
492,1953,170724.0331797594
493,1954,181852.8784431411
494,1955,133330.60408307056
495,1956,281430.9380152012
496,1957,158830.45728827693
497,1958,305646.1493433187
498,1959,141408.00499693461
499,1960,123397.7321840589
500,1961,132936.737840855
501,1962,94922.01857439952
502,1963,101640.60191445901
503,1964,118144.80924005716
504,1965,145941.34365306495
505,1966,145341.2693731563
506,1967,289041.6633640012
507,1968,422730.10358039825
508,1969,364626.47389303305
509,1970,411989.8527378191
510,1971,416213.0673403496
511,1972,359090.4967962061
512,1973,257787.51523076862
513,1974,320275.4018768113
514,1975,473939.1670945782
515,1976,257397.473408728
516,1977,349295.11707908724
517,1978,335691.7826851392
518,1979,339913.9025266441
519,1980,200136.19067060066
520,1981,352580.70492740616
521,1982,227522.6389061151
522,1983,219276.23684893694
523,1984,172344.36353727136
524,1985,215832.9486404741
525,1986,208587.35920892406
526,1987,179112.41148547694
527,1988,179033.47295585697
528,1989,195689.64217909038
529,1990,219907.77340940753
530,1991,202919.37802322238
531,1992,221921.56604223762
532,1993,179637.59298348453
533,1994,241861.3177557161
534,1995,180212.75510085246
535,1996,247654.49710747
536,1997,318078.37305000186
537,1998,324452.39085753314
538,1999,245235.60431566052
539,2000,308386.32422246144
540,2001,259924.40530497328
541,2002,235228.19594192025
542,2003,255864.9475370475
543,2004,244025.1796495936
544,2005,235388.8512869621
545,2006,209136.03337857148
546,2007,241381.2665496121
547,2008,188787.2434652796
548,2009,191400.78759926005
549,2010,191915.25295811746
550,2011,147888.4564651837
551,2012,178852.31673011038
552,2013,180265.18420477086
553,2014,193563.9499633976
554,2015,192177.1485324561
555,2016,189336.47874566095
556,2017,199016.43851010737
557,2018,130254.90930529142
558,2019,125262.0678217434
559,2020,110405.05682179869
560,2021,118124.98335336224
561,2022,164782.8379377033
562,2023,152559.5315163375
563,2024,237549.5174332999
564,2025,331571.0255617392
565,2026,183340.75285249684
566,2027,158564.6102326168
567,2028,154101.11961184247
568,2029,173597.245171454
569,2030,293816.3266419457
570,2031,220362.85260417144
571,2032,255150.18162777516
572,2033,268823.9255052188
573,2034,163124.1993227476
574,2035,195613.87761715663
575,2036,184001.9131704655
576,2037,183121.4901369901
577,2038,278950.3448971668
578,2039,204985.97033092985
579,2040,338342.56380244234
580,2041,262924.02531379444
581,2042,215595.79503485665
582,2043,160737.96628778108
583,2044,145623.36689520208
584,2045,189189.56978943275
585,2046,137451.66637862814
586,2047,147533.06194206642
587,2048,148898.1626560652
588,2049,136478.55607925882
589,2050,162764.31580459955
590,2051,109841.79593347527
591,2052,143227.21149402758
592,2053,138731.98727756663
593,2054,94507.03865809133
594,2055,153705.55164253313
595,2056,127570.62992584106
596,2057,121631.32198886569
597,2058,205179.09105904234
598,2059,134082.14645535074
599,2060,153212.64267753725
600,2061,166009.78637069982
601,2062,136552.01140902235
602,2063,121620.23993886543
603,2064,139979.08564725998
604,2065,104472.88916757074
605,2066,182615.56042073318
606,2067,139161.0499299936
607,2068,134689.89473151346
608,2069,83156.85981258938
609,2070,108225.63359002175
610,2071,111099.37695969203
611,2072,138661.17344337757
612,2073,143703.3447500182
613,2074,169902.14398773585
614,2075,138158.241880251
615,2076,115892.09067389145
616,2077,150004.0922541543
617,2078,132492.2434007848
618,2079,132943.63557295734
619,2080,127243.65341215275
620,2081,126918.10656472783
621,2082,131673.2662670247
622,2083,137279.54524735073
623,2084,118894.81316061893
624,2085,133347.41409403694
625,2086,107962.18814333492
626,2087,122990.85520526675
627,2088,96355.76731312713
628,2089,94875.32233614102
629,2090,131397.9499189427
630,2091,120021.40184977376
631,2092,133951.80179304324
632,2093,100745.88738548104
633,2094,118122.51643333033
634,2095,146204.51278334518
635,2096,86854.7382940777
636,2097,104603.50600009412
637,2098,132971.00618120434
638,2099,53548.152470280496
639,2100,98622.89909482864
640,2101,111519.79594531636
641,2102,124910.38395042313
642,2103,103564.28663818928
643,2104,126936.33975911586
644,2105,140417.58655952106
645,2106,74449.9732378191
646,2107,184298.4027517452
647,2108,113188.24349561812
648,2109,111767.59432846012
649,2110,139759.11145433065
650,2111,138384.0072704342
651,2112,145094.9287976932
652,2113,113110.67665431756
653,2114,110744.65189114725
654,2115,151250.52350986813
655,2116,112128.14362672945
656,2117,132952.1813589041
657,2118,120855.55696221006
658,2119,109785.57744923596
659,2120,115065.52680525475
660,2121,119102.54730501088
661,2122,112610.25658343465
662,2123,93494.97556458313
663,2124,148391.585461484
664,2125,125624.45809543245
665,2126,173703.75730908307
666,2127,136616.33961693765
667,2128,130681.40027660607
668,2129,112764.30195908793
669,2130,140108.77980359615
670,2131,154508.43948185706
671,2132,123876.21092985268
672,2133,116589.07371583134
673,2134,119899.8740825757
674,2135,104749.80770749992
675,2136,68598.07700215478
676,2137,132137.8620154587
677,2138,139388.40483147773
678,2139,154313.17578567946
679,2140,134081.53746113836
680,2141,143093.13311766766
681,2142,131248.2356807781
682,2143,148096.76462364552
683,2144,118996.20697069078
684,2145,132644.5368124721
685,2146,157352.05369926785
686,2147,156668.8710051134
687,2148,130412.78879791585
688,2149,127737.10826991787
689,2150,190492.6409780966
690,2151,114313.77286480063
691,2152,161140.23244513126
692,2153,157222.88348976235
693,2154,100505.51523184829
694,2155,152570.51048246256
695,2156,240560.5259739092
696,2157,240364.08392083488
697,2158,230684.3730745023
698,2159,208985.34313407267
699,2160,178966.1889143021
700,2161,248574.3713468588
701,2162,379947.39380442735
702,2163,366022.8466735645
703,2164,262202.06948947924
704,2165,177608.5740708597
705,2166,140154.12853441888
706,2167,192306.79521987305
707,2168,207373.0860009261
708,2169,189230.3276793207
709,2170,208393.17637302645
710,2171,144047.34876325913
711,2172,146652.27275104768
712,2173,150028.32301978706
713,2174,231986.84371325967
714,2175,276464.1735075964
715,2176,318494.8666812639
716,2177,246205.67364388765
717,2178,206696.06779465862
718,2179,148609.71017019294
719,2180,186730.35099069442
720,2181,205789.9231055707
721,2182,226528.7030937213
722,2183,198306.172163294
723,2184,130889.01998423196
724,2185,125913.37411683034
725,2186,138831.367051224
726,2187,148871.57618031197
727,2188,149980.8156227542
728,2189,205903.71421424535
729,2190,79745.25996737981
730,2191,89114.20445600893
731,2192,97237.55931877797
732,2193,102790.60105272212
733,2194,107325.89363059484
734,2195,117087.84577350428
735,2196,114867.81623570145
736,2197,130082.08649173401
737,2198,154076.11696436116
738,2199,158551.85084634947
739,2200,135940.06183271896
740,2201,113627.50330776609
741,2202,175865.19096711357
742,2203,162944.23389837507
743,2204,165744.7051568366
744,2205,126530.49526992935
745,2206,119692.06281607186
746,2207,183353.54923799858
747,2208,213953.81463845036
748,2209,197321.16594774288
749,2210,118244.12082789914
750,2211,118395.47493034384
751,2212,108055.15837489662
752,2213,101611.01780961851
753,2214,141359.35882641998
754,2215,101744.82964384931
755,2216,139936.74768782582
756,2217,53024.017811271835
757,2218,44510.61639297839
758,2219,39257.82799144437
759,2220,75313.94605427499
760,2221,368882.75244575314
761,2222,272395.3852434677
762,2223,326161.70167367475
763,2224,209325.21649782493
764,2225,130530.51438680977
765,2226,176034.0266279257
766,2227,215264.35527187
767,2228,285003.8480484769
768,2229,220149.26203847202
769,2230,159063.82857514752
770,2231,209323.4637100088
771,2232,182637.50515632128
772,2233,180197.61535350414
773,2234,225055.61683072048
774,2235,222031.1000051602
775,2236,268365.41011782986
776,2237,338054.35391354404
777,2238,194847.75938609472
778,2239,96844.02106741408
779,2240,161512.48292606027
780,2241,137560.25834265954
781,2242,127005.90789310592
782,2243,119604.84020100946
783,2244,89322.35308439258
784,2245,92445.19805304744
785,2246,145037.72965854118
786,2247,101678.62388824062
787,2248,124384.7525831133
788,2249,120382.18134485715
789,2250,126867.22514181133
790,2251,125085.1282504314
791,2252,171552.34290357007
792,2253,165174.3230814749
793,2254,174285.2669785725
794,2255,183376.2463892546
795,2256,181621.67695166
796,2257,202859.747631145
797,2258,172339.17276462563
798,2259,179494.88491597402
799,2260,152413.12692009757
800,2261,186241.05251831847
801,2262,196735.8472793761
802,2263,334871.9280454364
803,2264,446494.9538662457
804,2265,134342.37502071375
805,2266,301012.0793524102
806,2267,317627.9498335032
807,2268,388876.9818000281
808,2269,162739.3760190082
809,2270,182919.7973660724
810,2271,200495.9262844114
811,2272,186724.52582304587
812,2273,163357.0587015972
813,2274,174813.73950699315
814,2275,165547.39500147526
815,2276,175890.2977965415
816,2277,180323.0531073674
817,2278,142389.20338769926
818,2279,123041.36816275046
819,2280,107154.08844540617
820,2281,187893.50183677586
821,2282,193702.74174926965
822,2283,95298.27241331359
823,2284,114375.77504363016
824,2285,143451.63478394778
825,2286,128420.05947477208
826,2287,358020.31425819284
827,2288,282251.7538531105
828,2289,365832.56838250544
829,2290,439857.7247398821
830,2291,320572.3007079092
831,2292,386863.6644858335
832,2293,482487.49221615493
833,2294,425369.9190810039
834,2295,463063.59847137093
835,2296,260554.4657827997
836,2297,350073.88813072717
837,2298,351776.30493984325
838,2299,349814.3530190054
839,2300,324550.566690589
840,2301,287931.252706228
841,2302,232976.61898450428
842,2303,252214.9173968981
843,2304,236946.53260883124
844,2305,191215.7571757844
845,2306,191215.7571757844
846,2307,195309.468958388
847,2308,222910.9123370864
848,2309,279957.2546218659
849,2310,218779.10847979345
850,2311,200999.5448645297
851,2312,178301.7255868496
852,2313,179595.0358040408
853,2314,168809.49013819773
854,2315,177937.85833100657
855,2316,196394.09393450484
856,2317,185443.92700772363
857,2318,178486.67953240074
858,2319,175406.12520993367
859,2320,184088.7066442984
860,2321,239573.96398001642
861,2322,178944.11060782714
862,2323,180512.8063580355
863,2324,173625.58781121386
864,2325,217062.95599535477
865,2326,168364.31071550286
866,2327,217219.65156052163
867,2328,224562.97565363484
868,2329,180695.0419135234
869,2330,180526.5948722776
870,2331,323363.8710726646
871,2332,442205.7184512217
872,2333,323202.6844075175
873,2334,256153.52955897487
874,2335,269452.2470328789
875,2336,310201.11756509234
876,2337,199990.8588699692
877,2338,257647.96016425182
878,2339,231449.69068156576
879,2340,394322.7384670879
880,2341,217845.3792200113
881,2342,233806.1068919116
882,2343,214942.22553292595
883,2344,222236.94866461528
884,2345,245070.64028362648
885,2346,205635.462162744
886,2347,193019.12268640948
887,2348,213767.7801179113
888,2349,182433.43118686738
889,2350,299473.8671788272
890,2351,285422.7442916509
891,2352,234562.4438218151
892,2353,221985.0328555259
893,2354,134605.7603114731
894,2355,148798.03000754752
895,2356,151488.11861991073
896,2357,207678.74004084122
897,2358,195276.7330420524
898,2359,129029.52779361949
899,2360,131267.88363574573
900,2361,137354.811770767
901,2362,281752.39341162285
902,2363,138939.06739441428
903,2364,148298.10221181595
904,2365,231627.0858860197
905,2366,188538.74407700828
906,2367,235261.8675123716
907,2368,204786.0925228491
908,2369,226934.3312082674
909,2370,171680.68925944465
910,2371,175821.24483190195
911,2372,177593.57574990747
912,2373,263547.3987837827
913,2374,278938.1777551513
914,2375,245279.71046429538
915,2376,271527.0229443842
916,2377,288774.2237413941
917,2378,152543.50107477358
918,2379,202174.67661246622
919,2380,150521.70243764287
920,2381,161855.69343646322
921,2382,189276.13355501925
922,2383,208224.6276997212
923,2384,246498.66516136075
924,2385,158151.25272874662
925,2386,139265.25167425163
926,2387,135391.40251128632
927,2388,91629.34909873057
928,2389,126462.56449573734
929,2390,153002.9038887034
930,2391,121691.01299861039
931,2392,115514.19750025297
932,2393,162104.63477197173
933,2394,152021.62316168056
934,2395,196366.01187289925
935,2396,150714.82350373187
936,2397,193316.87730259102
937,2398,124590.32423342607
938,2399,58338.43855915244
939,2400,81257.74110395096
940,2401,115694.44467522565
941,2402,137698.7143735962
942,2403,137398.6924075788
943,2404,153634.1046228989
944,2405,157585.9460205606
945,2406,134924.4902298902
946,2407,132225.3371555756
947,2408,140652.06780691355
948,2409,133590.79863897388
949,2410,154014.61197920275
950,2411,127563.3474719358
951,2412,148567.61838601658
952,2413,141497.77922945574
953,2414,134912.4076941435
954,2415,131708.73228864925
955,2416,126587.64763767547
956,2417,137788.97392260257
957,2418,129695.91075601561
958,2419,134050.94240924835
959,2420,129030.28944202447
960,2421,152035.92470704086
961,2422,121537.05084267071
962,2423,117523.29495305207
963,2424,145231.4724897543
964,2425,176713.92783739
965,2426,130570.58685397824
966,2427,132591.50559548265
967,2428,165371.13911109898
968,2429,126355.81169648019
969,2430,133227.1950046536
970,2431,123363.91424125989
971,2432,134661.28370555182
972,2433,143697.3053174786
973,2434,148851.17234399822
974,2435,146480.82555904152
975,2436,110148.95642802292
976,2437,94744.74436807136
977,2438,127607.05589869285
978,2439,116133.51174355515
979,2440,121263.728876175
980,2441,101286.03432662117
981,2442,106531.72249506321
982,2443,119888.68687695314
983,2444,127675.54415568568
984,2445,88195.26671998244
985,2446,133823.40416385976
986,2447,160569.38912714954
987,2448,142413.5662162985
988,2449,107003.39556031693
989,2450,143941.21921597674
990,2451,127225.62807566852
991,2452,165682.82082535088
992,2453,92928.07822375174
993,2454,113295.1734030199
994,2455,111965.08180922881
995,2456,126692.53946085832
996,2457,120556.3185769127
997,2458,115442.73624863588
998,2459,117442.22494083205
999,2460,142720.2079201418
1000,2461,123482.08630997413
1001,2462,119445.69696922158
1002,2463,127511.96536895735
1003,2464,155840.58209457286
1004,2465,121975.53427939418
1005,2466,118021.7980784315
1006,2467,132820.46528111654
1007,2468,93478.72975902527
1008,2469,96288.63899080572
1009,2470,165272.71955295512
1010,2471,171336.49448259495
1011,2472,147536.4641159797
1012,2473,116390.14901257475
1013,2474,120388.89210041461
1014,2475,212090.50466409285
1015,2476,111929.12375754284
1016,2477,131719.36919233855
1017,2478,154749.9769602905
1018,2479,121119.1666744228
1019,2480,148359.1308686208
1020,2481,126734.95398301078
1021,2482,133114.25010683745
1022,2483,100536.36303931233
1023,2484,131455.48205752939
1024,2485,130665.0105568642
1025,2486,152136.3071331848
1026,2487,172513.4682508442
1027,2488,136267.60806984865
1028,2489,153633.49570820108
1029,2490,151723.21474022072
1030,2491,66317.08850333789
1031,2492,180859.62582559453
1032,2493,130003.0102405265
1033,2494,156680.25575378895
1034,2495,98421.49779829293
1035,2496,193062.6731000369
1036,2497,154886.54604233016
1037,2498,123533.0461203649
1038,2499,87005.47517988287
1039,2500,148243.80545154127
1040,2501,134585.11871175218
1041,2502,141435.02947522647
1042,2503,96723.14943657626
1043,2504,185755.0158539129
1044,2505,220463.16906050505
1045,2506,251216.87328933
1046,2507,327319.4252998248
1047,2508,246344.27323332487
1048,2509,222088.08784573176
1049,2510,229836.80593077352
1050,2511,187549.66479933038
1051,2512,204559.5617761634
1052,2513,223313.50655080308
1053,2514,229919.61179756574
1054,2515,139058.45276288042
1055,2516,162765.17294918618
1056,2517,131906.7728870201
1057,2518,144724.82258703874
1058,2519,223590.21105892476
1059,2520,202295.01605714773
1060,2521,194522.3479781046
1061,2522,223505.1789500356
1062,2523,124568.81209992869
1063,2524,141058.52095125665
1064,2525,139830.14000820642
1065,2526,132657.77084067886
1066,2527,129950.64737664313
1067,2528,130347.21532608801
1068,2529,127180.89859541215
1069,2530,111193.4550097059
1070,2531,240800.00805026034
1071,2532,226557.64831317266
1072,2533,197538.13365765175
1073,2534,254261.83815395503
1074,2535,308698.963590129
1075,2536,219657.56178013387
1076,2537,213073.88795002183
1077,2538,179340.14129035285
1078,2539,189305.84247371246
1079,2540,185655.15626564028
1080,2541,180060.6194116687
1081,2542,178109.1596161465
1082,2543,117578.27566926957
1083,2544,116351.9858401877
1084,2545,136718.35206910947
1085,2546,141065.71686860896
1086,2547,129319.86726856824
1087,2548,146357.45540717494
1088,2549,155462.77177516095
1089,2550,196358.3082618556
1090,2551,142293.33762664563
1091,2552,126493.09739351945
1092,2553,85465.17457918031
1093,2554,121905.11047506436
1094,2555,109761.84822758117
1095,2556,107530.15792324633
1096,2557,113581.63366549235
1097,2558,151913.85751805906
1098,2559,133671.57076669484
1099,2560,131203.85382903062
1100,2561,117434.89418141685
1101,2562,120481.81350856992
1102,2563,148684.11002870437
1103,2564,188648.3539706848
1104,2565,134256.7406597879
1105,2566,150940.1189791454
1106,2567,134005.1464829657
1107,2568,181927.67255791172
1108,2569,194203.56732436642
1109,2570,117007.63642133745
1110,2571,172103.12008080474
1111,2572,141039.4913189694
1112,2573,203953.74381256144
1113,2574,253249.76334126762
1114,2575,121505.39581694714
1115,2576,148947.20738883002
1116,2577,143077.24494921762
1117,2578,96576.67901073671
1118,2579,92064.65476025916
1119,2580,101475.19860584704
1120,2581,117152.65665215995
1121,2582,126476.18705978474
1122,2583,283803.1989908928
1123,2584,159026.91176481178
1124,2585,200690.49724239847
1125,2586,207390.03425090414
1126,2587,180279.2888065929
1127,2588,136824.3131590374
1128,2589,146326.65154748154
1129,2590,220463.14324330786
1130,2591,204109.14885204655
1131,2592,230803.44901343624
1132,2593,256025.96198370875
1133,2594,176090.30373590815
1134,2595,200733.17644174048
1135,2596,336190.49608878297
1136,2597,219763.27967128585
1137,2598,284712.0780350072
1138,2599,343213.45805405424
1139,2600,124598.15164749215
1140,2601,143339.13531952887
1141,2602,84218.05280626344
1142,2603,88219.52209096262
1143,2604,87581.86070479365
1144,2605,80600.29566393644
1145,2606,150139.5271704209
1146,2607,176751.54476962308
1147,2608,174318.69103133428
1148,2609,161576.50859320562
1149,2610,118648.10762665144
1150,2611,132598.58828946462
1151,2612,154226.79622246837
1152,2613,128228.3153814448
1153,2614,128729.75837573265
1154,2615,156886.4328548634
1155,2616,139290.0330777083
1156,2617,167243.28430276693
1157,2618,161556.61677131458
1158,2619,202999.4086279828
1159,2620,177715.36887937255
1160,2621,180734.63568934452
1161,2622,182903.33401760366
1162,2623,251499.80443175836
1163,2624,298972.397538199
1164,2625,295020.3923929378
1165,2626,168502.5516335947
1166,2627,160833.19270996386
1167,2628,410291.7717286316
1168,2629,425743.55610924994
1169,2630,341842.19221556163
1170,2631,466619.73425831576
1171,2632,402101.21584525524
1172,2633,304938.89817778877
1173,2634,367482.4167207868
1174,2635,158149.87882135675
1175,2636,180349.47801100282
1176,2637,185964.16452601211
1177,2638,248801.16942091976
1178,2639,180953.08927416505
1179,2640,152308.0029320048
1180,2641,121610.19745751485
1181,2642,196926.30022578203
1182,2643,107856.44361842908
1183,2644,137273.1695235446
1184,2645,100471.02969071007
1185,2646,94205.07246944825
1186,2647,98099.18551425707
1187,2648,140934.30879941434
1188,2649,142300.6794836349
1189,2650,143495.81525013215
1190,2651,153150.54710383745
1191,2652,457401.59801630204
1192,2653,246785.5291884455
1193,2654,266976.6664307057
1194,2655,354752.06261694385
1195,2656,315936.970492628
1196,2657,309941.5927276147
1197,2658,295906.61255048256
1198,2659,313270.7371317398
1199,2660,343773.9597035304
1200,2661,347882.3265259384
1201,2662,329989.51109017176
1202,2663,261789.62819278266
1203,2664,279332.75857856363
1204,2665,355930.01978950703
1205,2666,290620.2354851607
1206,2667,174564.0386145999
1207,2668,177410.10854338683
1208,2669,187591.51662614336
1209,2670,264437.4597055553
1210,2671,181283.9473977857
1211,2672,191827.7722443881
1212,2673,212880.7758717807
1213,2674,205396.52844979274
1214,2675,177738.7608786553
1215,2676,187243.73561649368
1216,2677,191271.19400670996
1217,2678,241901.57606249172
1218,2679,272400.4171009969
1219,2680,262914.90079824725
1220,2681,421462.4910702728
1221,2682,333310.05984667444
1222,2683,468912.02489602147
1223,2684,311863.85331494553
1224,2685,313146.1724223558
1225,2686,248321.2056919182
1226,2687,288113.1145852436
1227,2688,226522.3737927621
1228,2689,204287.80051280704
1229,2690,445861.19998467655
1230,2691,194272.89744845915
1231,2692,143661.8526400669
1232,2693,201586.9434351427
1233,2694,139333.77839597888
1234,2695,196200.96357585915
1235,2696,184808.4451494965
1236,2697,188772.47830729518
1237,2698,191973.64675020974
1238,2699,193580.13970001315
1239,2700,168667.4219723443
1240,2701,158331.65330184856
1241,2702,133730.4579014166
1242,2703,118699.24804541538
1243,2704,133486.34498190143
1244,2705,124424.92422697232
1245,2706,121082.99303941905
1246,2707,134484.36613456975
1247,2708,131832.77118688394
1248,2709,106127.40286316912
1249,2710,124356.51332973115
1250,2711,303175.3166293109
1251,2712,390628.9925663145
1252,2713,179829.60836084184
1253,2714,153932.77804274933
1254,2715,174612.72812278895
1255,2716,163365.03221527865
1256,2717,178291.08453981532
1257,2718,242257.69655709414
1258,2719,151085.4706476138
1259,2720,162364.26368650314
1260,2721,140183.1946035949
1261,2722,167340.14232720248
1262,2723,148367.81328492105
1263,2724,133156.56344170665
1264,2725,137085.6770175546
1265,2726,140922.86073672352
1266,2727,164448.7738272873
1267,2728,168439.9178364608
1268,2729,152592.12177662755
1269,2730,142777.58849795128
1270,2731,129202.2369899752
1271,2732,122493.8071654492
1272,2733,153839.9618071608
1273,2734,161794.34934396806
1274,2735,137312.70330816327
1275,2736,146771.12391379153
1276,2737,122570.66268635502
1277,2738,136958.1465638458
1278,2739,159645.51875914197
1279,2740,132869.90660392318
1280,2741,152081.82253824855
1281,2742,157823.5349888791
1282,2743,146855.09769034266
1283,2744,144354.76905073028
1284,2745,134474.71889030753
1285,2746,133209.59896251705
1286,2747,151095.14649866155
1287,2748,122672.3878987587
1288,2749,128165.99533403994
1289,2750,131596.53966109894
1290,2751,129216.74897168345
1291,2752,223451.62044922906
1292,2753,145443.07402522687
1293,2754,198389.35159169094
1294,2755,132131.61438678025
1295,2756,98881.50448252753
1296,2757,74498.52975888533
1297,2758,92763.34205512208
1298,2759,163743.9998960809
1299,2760,135886.10800428898
1300,2761,144758.66878854818
1301,2762,142288.19129052485
1302,2763,183206.7918818741
1303,2764,142355.03003245787
1304,2765,248248.64593348914
1305,2766,110205.84350471315
1306,2767,90547.45541150849
1307,2768,126959.56475242972
1308,2769,122588.84653741756
1309,2770,144134.73534411704
1310,2771,124600.74260255856
1311,2772,121788.85717882324
1312,2773,162811.29270754743
1313,2774,135316.0246989289
1314,2775,124127.16879164605
1315,2776,145954.75822233554
1316,2777,135602.50683533848
1317,2778,86276.63628658731
1318,2779,124626.30095685805
1319,2780,99586.67785830883
1320,2781,104478.66155026012
1321,2782,101339.77069575826
1322,2783,117187.4664821776
1323,2784,126734.3163491443
1324,2785,142620.209846676
1325,2786,90171.22003811676
1326,2787,107758.20343723358
1327,2788,101703.92693746553
1328,2789,153747.83314647322
1329,2790,105717.08543573967
1330,2791,119331.72100676465
1331,2792,62324.883109483446
1332,2793,150233.5584002511
1333,2794,107333.38967321614
1334,2795,115272.50524573034
1335,2796,90101.81988692557
1336,2797,155788.66436204323
1337,2798,101200.43117115568
1338,2799,113826.43117625141
1339,2800,83771.2963764414
1340,2801,114552.15750361016
1341,2802,132829.93295701218
1342,2803,160436.81190257694
1343,2804,127461.91742697744
1344,2805,97884.55562541317
1345,2806,106563.75407993225
1346,2807,142402.9907721639
1347,2808,148065.5353286849
1348,2809,135737.64657181414
1349,2810,136915.44661923355
1350,2811,159938.48275397747
1351,2812,147577.35081157234
1352,2813,150505.0516553696
1353,2814,150864.4596730702
1354,2815,95630.00804298217
1355,2816,216397.7437041128
1356,2817,153349.86595920598
1357,2818,129347.83191961842
1358,2819,169509.60231889487
1359,2820,149606.35617590425
1360,2821,114935.60707673
1361,2822,186153.28289092047
1362,2823,242107.39486495982
1363,2824,175563.04996384998
1364,2825,129287.72560374887
1365,2826,128380.77217959914
1366,2827,147350.8294478083
1367,2828,223133.77060007665
1368,2829,206814.3792419204
1369,2830,226468.1985247532
1370,2831,182364.5956283149
1371,2832,211275.80758689754
1372,2833,296780.67928139586
1373,2834,209889.04709241906
1374,2835,230639.51529953012
1375,2836,191429.90705935485
1376,2837,161868.95449179554
1377,2838,144586.6963960046
1378,2839,177800.83951350054
1379,2840,182363.581602792
1380,2841,199250.0503527605
1381,2842,207795.3656945012
1382,2843,145111.23332652033
1383,2844,159337.613956095
1384,2845,116997.19946099981
1385,2846,200527.81851710528
1386,2847,194637.43213002762
1387,2848,206361.5036480753
1388,2849,212496.0836094193
1389,2850,262123.76487256476
1390,2851,227674.20789492023
1391,2852,217287.6727605984
1392,2853,228391.8712242618
1393,2854,139290.7571567166
1394,2855,206148.4885033324
1395,2856,199029.7993374965
1396,2857,189547.58414579352
1397,2858,201566.82786490774
1398,2859,144462.87911097033
1399,2860,125908.49114915135
1400,2861,132352.1356577194
1401,2862,192019.64583410136
1402,2863,114536.19219876555
1403,2864,231508.84442954746
1404,2865,140633.77839366565
1405,2866,131689.04769343138
1406,2867,109451.23316359641
1407,2868,117247.56586380325
1408,2869,126604.30507695873
1409,2870,146417.79914058573
1410,2871,114442.3045169577
1411,2872,70719.7211223512
1412,2873,102222.00084401928
1413,2874,132004.08952340684
1414,2875,123446.89518223115
1415,2876,150588.75998737858
1416,2877,140247.92287144368
1417,2878,147577.78064847234
1418,2879,136046.40479368105
1419,2880,105269.0860374913
1420,2881,170809.91860260672
1421,2882,169595.61026074653
1422,2883,205763.12685459765
1423,2884,173940.67880900198
1424,2885,196800.79028902316
1425,2886,198830.4958547199
1426,2887,98343.19932461102
1427,2888,123348.0652055868
1428,2889,80240.19289281515
1429,2890,93107.83282898237
1430,2891,141459.66330070814
1431,2892,35886.126749715215
1432,2893,105406.05385982957
1433,2894,37547.9036353384
1434,2895,342312.8621557493
1435,2896,289303.76998193376
1436,2897,192020.00045394053
1437,2898,146762.20061879553
1438,2899,229383.81853349524
1439,2900,160027.65974621175
1440,2901,179910.79518659032
1441,2902,200273.8953373619
1442,2903,335216.7766270719
1443,2904,327244.1523859424
1444,2905,106072.42992964052
1445,2906,183249.8209532864
1446,2907,108829.38940318377
1447,2908,127373.94191425554
1448,2909,141676.88361580585
1449,2910,83743.36412564269
1450,2911,85944.36778673323
1451,2912,154924.11645273757
1452,2913,89729.50410503015
1453,2914,90328.04730276368
1454,2915,89768.54200465162
1455,2916,85806.70593663419
1456,2917,144891.82839512386
1457,2918,122484.41263365425
1458,2919,206101.33882546859
