,sub_grade
A5,231
A4,217
B5,211
C1,196
B4,185
C4,168
C3,168
B3,162
A3,161
C2,160
C5,151
B2,137
D2,117
B1,109
D1,109
D3,86
A2,77
D4,72
D5,48
E1,46
E2,45
E3,36
A1,25
E4,19
E5,19
F1,13
F2,10
F4,6
F3,4
G2,3
F5,3
G1,3
G5,1
G4,1
G3,1
