,sub_grade
A5,282
B5,215
B4,195
A4,194
B3,171
C2,164
C1,149
C3,149
B2,144
A3,140
B1,138
D2,118
A2,87
C4,80
D3,80
D1,75
C5,74
E1,73
D4,72
D5,70
E2,64
E4,50
E3,48
E5,32
F1,29
A1,28
F2,18
F3,11
F4,10
G3,8
G2,8
G4,7
F5,7
G1,6
G5,4
