,sub_grade
C1,162
C2,158
C4,154
D2,153
D3,151
D4,151
C3,143
D1,143
B5,128
D5,123
C5,122
B4,114
E2,114
E1,107
B2,107
B3,97
E3,94
B1,89
A5,76
E4,70
E5,63
A3,50
A4,49
F2,46
F1,45
G5,43
F3,42
A2,38
F4,32
G1,31
F5,27
G4,23
G2,22
G3,20
A1,12
