,city,type,fare
0,Amandaburgh,Urban,23.072
1,Barajasview,Urban,28.754375
2,Carriemouth,Urban,27.25047619047619
3,Christopherfurt,Urban,22.585714285714285
4,Deanville,Urban,24.868
5,East Kaylahaven,Urban,22.62
6,Erikaland,Urban,22.52111111111111
7,Grahamburgh,Urban,22.935555555555556
8,Huntermouth,Urban,28.8445
9,Hurleymouth,Urban,26.385217391304344
10,Jerryton,Urban,26.126470588235296
11,Johnton,Urban,28.416874999999997
12,Joneschester,Urban,20.874375000000004
13,Justinberg,Urban,24.67434782608695
14,Karenberg,Urban,28.571538461538463
15,Karenside,Urban,29.10809523809524
16,Lake Danielberg,Urban,23.593529411764706
17,Lake Jonathanshire,Urban,22.166153846153847
18,Lake Scottton,Urban,21.268571428571427
19,Leahton,Urban,18.824117647058824
20,Liumouth,Urban,25.375238095238096
21,Loganberg,Urban,23.125000000000004
22,Martinezhaven,Urban,21.192777777777778
23,New Jacobville,Urban,27.265
24,New Kimberlyborough,Urban,20.631666666666664
25,New Paulton,Urban,25.768000000000004
26,New Paulville,Urban,19.243333333333332
27,North Barbara,Urban,25.208235294117646
28,North Jasmine,Urban,27.622499999999995
29,North Jason,Urban,20.510909090909095
30,North Madeline,Urban,23.145263157894735
31,North Markport,Urban,30.950000000000006
32,Pattyland,Urban,24.205882352941174
33,Port Angela,Urban,24.93875
34,Port David,Urban,25.385555555555555
35,Port Frank,Urban,28.73173913043479
36,Port Johnbury,Urban,24.44266666666667
37,Port Samanthamouth,Urban,27.501500000000004
38,Raymondhaven,Urban,18.923333333333332
39,Reynoldsfurt,Urban,22.458461538461542
40,Richardfort,Urban,23.923750000000002
41,Roberthaven,Urban,22.351
42,Robertport,Urban,23.521333333333335
43,Rodneyfort,Urban,28.29090909090909
44,Rogerston,Urban,23.806875
45,Royland,Urban,20.73
46,Simpsonburgh,Urban,22.121111111111112
47,South Evanton,Urban,28.18142857142857
48,South Jack,Urban,22.034615384615385
49,South Karenland,Urban,28.3044
50,South Latoya,Urban,19.521875000000005
51,South Michelleport,Urban,23.880952380952387
52,South Phillip,Urban,29.772083333333327
53,Valentineton,Urban,21.28
54,West Angela,Urban,25.67724137931035
55,West Anthony,Urban,24.4228
56,West Christopherberg,Urban,26.24421052631579
57,West Ericstad,Urban,21.573333333333334
58,West Gabriel,Urban,20.9475
59,West Heidi,Urban,24.36318181818182
60,West Josephberg,Urban,21.294285714285714
61,West Patrickchester,Urban,29.086363636363636
62,West Robert,Urban,22.530434782608697
63,West Samuelburgh,Urban,23.450555555555557
64,Williamsstad,Urban,25.214210526315792
65,Williamsview,Urban,27.196923076923078
