,movie_display_name,movie_production_year,movie_genre_display_name,movie_financial_summary_production_budget,movie_financial_summary_international_box_office,movie_annual_summary_tickets_sold,movie_video_summary_domestic_dvd_units,movie_acting_role_display_name,movie_theatrical_release_release_date,movie_creative_type_display_name,movie_production_method_display_name,movie_source_display_name,movie_running_time,movie_technical_role_display_name,movie_production_company_display_name,movie_sequel
0,Nanny McPhee and the Big Bang,2010,Adventure,35000000,68602223,3676960.0,705091.0,Emma Thompson,2010-08-20,Kids Fiction,Live Action,Based on Fiction Book/Short Story,109.0,Debra Osborne,StudioCanal,1
1,Sex and the City 2,2010,Comedy,95000000,199333086,12084625.0,2463557.0,Sarah Jessica Parker,2010-05-27,Contemporary Fiction,Live Action,Based on TV,,Michael Patrick King,,1
2,The Rum Diary,2010,Drama,0,8434917,1653192.0,322440.0,Johnny Depp,2011-10-28,Historical Fiction,Live Action,Based on Fiction Book/Short Story,122.0,Bruce Robinson,Infinitum Nihil,0
3,The Last Station,2010,Drama,18000000,9078279,838766.0,,Anne-Marie Duff,2010-01-15,Dramatization,Live Action,Based on Fiction Book/Short Story,,,,0
4,Inception,2010,Thriller/Suspense,160000000,540008221,37080969.0,6633339.0,Michael Caine,2010-07-16,Science Fiction,Animation/Live Action,Original Screenplay,147.0,Christopher Nolan,,0
5,Death at a Funeral,2010,Comedy,21000000,6237886,5416900.0,861227.0,Peter Dinklage,2010-04-16,Contemporary Fiction,Live Action,Remake,92.0,Neil LaBute,Sidney Kimmel Entertianment,0
6,Straw Dogs,2010,Thriller/Suspense,25000000,929380,1301947.0,797194.0,James Marsden,2011-09-16,Contemporary Fiction,Live Action,Remake,110.0,Rod Lurie,Screen Gems,0
7,Cop Out,2010,Comedy,37000000,11034429,5687640.0,854142.0,Kevin Pollak,2010-02-26,Contemporary Fiction,Live Action,Original Screenplay,107.0,Kevin Smith,Warner Bros.,0
8,Daybreakers,2010,Horror,20000000,21343926,3815155.0,802640.0,Isabel Lucas,2010-01-08,Science Fiction,Live Action,Original Screenplay,,Michael Spierig,,0
9,The Sorcerer's Apprentice,2010,Adventure,160000000,154835329,8003927.0,1552613.0,Alfred Molina,2010-07-14,Fantasy,Animation/Live Action,Based on Short Film,108.0,Jon Turteltaub,Walt Disney Pictures,0
10,Ramona and Beezus,2010,Comedy,15000000,1302619,3316476.0,1559428.0,Bridget Moynahan,2010-07-23,Kids Fiction,Live Action,Based on Fiction Book/Short Story,,,,0
11,Little Fockers,2010,Comedy,100000000,162211974,13000784.0,1245979.0,Teri Polo,2010-12-22,Contemporary Fiction,Live Action,Original Screenplay,98.0,Robert De Niro,Everyman Pictures,1
12,Gulliver's Travels,2010,Comedy,112000000,189238587,3479658.0,462415.0,Billy Connolly,2010-12-25,Fantasy,Animation/Live Action,Based on Fiction Book/Short Story,87.0,Benjamin Cooley,Davis Entertainment ,0
13,Date Night,2010,Comedy,55000000,53557629,12510951.0,1591665.0,Leighton Meester,2010-04-09,Contemporary Fiction,Live Action,Original Screenplay,88.0,Shawn Levy,21 Laps Entertainment,0
14,The Debt,2010,Thriller/Suspense,20000000,15426506,3931594.0,466227.0,Romi Aboulafia,2011-08-31,Historical Fiction,Live Action,Remake,113.0,John Madden,Marv Films,0
15,Percy Jackson & the Olympians: The Lightning Thief,2010,Adventure,95000000,134282571,11250735.0,2899951.0,Pierce Brosnan,2010-02-12,Fantasy,Live Action,Based on Fiction Book/Short Story,119.0,Chris Columbus,Fox 2000 Pictures,0
16,The A-Team,2010,Action,110000000,100019072,9787338.0,1957971.0,Jessica Biel,2010-06-11,Contemporary Fiction,Live Action,Based on TV,118.0,Brian Bloom,20th Century Fox,0
17,The Green Hornet,2010,Action,110000000,130375461,12456499.0,1046440.0,Tom Wilkinson,2011-01-14,Super Hero,Live Action,Based on TV,118.0,Neal H. Moritz,Original Film,0
18,Despicable Me,2010,Comedy,69000000,291981048,31838178.0,14156754.0,Jack McBrayer,2010-07-09,Kids Fiction,Digital Animation,Original Screenplay,95.0,Chris Renaud,Universal Pictures,0
19,The Crazies,2010,Horror,19000000,17321945,4958629.0,731935.0,Joe Anderson,2010-02-26,Contemporary Fiction,Live Action,Remake,,,Participant Media,0
20,The Last Airbender,2010,Adventure,150000000,187941694,16679475.0,1909717.0,Cliff Curtis,2010-07-01,Fantasy,Live Action,Based on TV,103.0,M. Night Shyamalan,Paramount Pictures,0
21,The Fighter,2010,Drama,11000000,35645379,5879449.0,1878463.0,Amy Adams,2010-12-10,Dramatization,Live Action,Based on Real Life Events,115.0,David Hoberman,Closest to the Hole ,0
22,The Wolfman,2010,Horror,150000000,80444474,7855472.0,1222552.0,Benicio Del Toro,2010-02-12,Fantasy,Live Action,Remake,102.0,Joe Johnston,Universal Pictures,0
23,Salt,2010,Thriller/Suspense,130000000,172339126,14995103.0,2329240.0,Angelina Jolie,2010-07-23,Contemporary Fiction,Live Action,Original Screenplay,100.0,Phillip Noyce,Columbia Pictures,0
24,The Twilight Saga: Eclipse,2010,Drama,68000000,405571077,38090209.0,11021913.0,Dakota Fanning,2010-06-30,Fantasy,Live Action,Based on Fiction Book/Short Story,124.0,David Slade,Temple Hill Entertainment,1
25,Jonah Hex,2010,Action,47000000,475579,1336770.0,529494.0,Will Arnett,2010-06-18,Historical Fiction,Live Action,Based on Comic/Graphic Novel,,,,0
26,The Expendables,2010,Action,82000000,165199650,13063184.0,4052894.0,Sylvester Stallone,2010-08-13,Contemporary Fiction,Live Action,Original Screenplay,103.0,Sylvester Stallone,Nu Image,0
27,Tron: Legacy,2010,Adventure,200000000,225500000,16641932.0,1670643.0,Garrett Hedlund,2010-12-17,Science Fiction,Live Action,Original Screenplay,125.0,Joseph Kosinski,Walt Disney Pictures,1
28,Secretariat,2010,Drama,35000000,676734,7484623.0,2867121.0,Dylan Baker,2010-10-08,Dramatization,Live Action,Based on Real Life Events,123.0,William Nack,Walt Disney Pictures,0
29,You Again,2010,Comedy,20000000,7136892,3257547.0,679277.0,Betty White,2010-09-24,Contemporary Fiction,Live Action,Original Screenplay,105.0,John J. Strauss,Touchtone Pictures,0
30,Tangled,2010,Adventure,260000000,385760000,21270213.0,9607615.0,Mandy Moore,2010-11-24,Kids Fiction,Digital Animation,Based on Folk Tale/Legend/Fairytale,101.0,Roy Conli,Walt Disney Animation Studios,0
31,The Losers,2010,Action,25000000,6272408,2990042.0,654168.0,Chris Evans,2010-04-23,Contemporary Fiction,Live Action,Based on Comic/Graphic Novel,97.0,Sylvain White,Dark Castle Entertainment,0
32,MacGruber,2010,Comedy,10000000,104295,1080557.0,291404.0,Kristen Wiig,2010-05-21,,Live Action,Based on TV,,,,0
33,A Nightmare on Elm Street,2010,Horror,35000000,54654610,7994297.0,756901.0,Jackie Earle Haley,2010-04-30,Fantasy,Live Action,Remake,94.0,Dan Hegeman,,0
34,Zookeeper,2010,Romantic Comedy,80000000,90444659,10133778.0,1005738.0,Adam Sandler,2011-07-08,Fantasy,Animation/Live Action,Original Screenplay,101.0,Frank Coraci,Columbia Pictures,0
35,Our Family Wedding,2010,Comedy,14000000,1155265,2566491.0,348378.0,America Ferrera,2010-03-12,Contemporary Fiction,Live Action,Original Screenplay,,,,0
36,Going the Distance,2010,Romantic Comedy,32000000,25799691,2256565.0,,Christina Applegate,2010-09-03,Contemporary Fiction,Live Action,Original Screenplay,109.0,Nanette Burstein,Offspring Entertainment,0
37,Marmaduke,2010,Comedy,50000000,50378823,4264231.0,1030242.0,David Z. Price,2010-06-04,Kids Fiction,Digital Animation,Based on Comic/Graphic Novel,88.0,Tom Dey,Davis Entertainment,0
38,Life as We Know It,2010,Romantic Comedy,38000000,52513156,61560.0,1955077.0,Katherine Heigl,2010-10-08,Contemporary Fiction,Live Action,Original Screenplay,113.0,Greg Berlanti,Josephson Entertainment,0
39,Due Date,2010,Comedy,65000000,111200000,12576922.0,2152122.0,Jamie Foxx,2010-11-05,Contemporary Fiction,Live Action,Original Screenplay,95.0,Todd Phillips,Legendary Pictures,0
40,Remember Me,2010,Drama,16000000,37437880,2416760.0,931087.0,Robert Pattinson,2010-03-12,Contemporary Fiction,Live Action,Original Screenplay,113.0,,,0
41,She's Out of My League,2010,Romantic Comedy,20000000,16670117,4008658.0,643199.0,Jay Baruchel,2010-03-12,Contemporary Fiction,Live Action,Original Screenplay,,,,0
42,Season of the Witch,2010,Thriller/Suspense,40000000,66299372,3130797.0,485259.0,Nicolas Cage,2011-01-07,Fantasy,Live Action,Original Screenplay,98.0,Dominic Sena,Rogue Pictures,0
43,Shrek Forever After,2010,Adventure,165000000,517507886,30214954.0,3797011.0,Lake Bell,2010-05-21,Kids Fiction,Digital Animation,Based on Fiction Book/Short Story,93.0,Harry Gregson-Williams,DreamWorks Animation,1
44,Resident Evil: Afterlife,2010,Horror,57500000,235745624,7620857.0,1456711.0,Milla Jovovich,2010-09-10,Science Fiction,Live Action,Based on Game,97.0,Paul W.S. Anderson,Impact Pictures,1
45,Priest,2010,Horror,60000000,55017400,3674227.0,413532.0,Brad Dourif,2011-05-13,Fantasy,Live Action,Based on Comic/Graphic Novel,87.0,Scott Stewart,Screen Gems,0
46,Your Highness,2010,Comedy,50000000,4525193,2723385.0,332071.0,Damian Lewis,2011-04-08,Fantasy,Live Action,Original Screenplay,102.0,David Gordon Green,Stuber Pictures,0
47,The Roommate,2010,Thriller/Suspense,16000000,15245600,4703670.0,346716.0,Leighton Meester,2011-02-04,Contemporary Fiction,Live Action,Original Screenplay,91.0,Doug Davison,Screen Gems,0
48,Burlesque,2010,Drama,55000000,50216743,4782453.0,2579398.0,Alan Cumming,2010-11-24,Contemporary Fiction,Live Action,Original Screenplay,116.0,Donald De Line,De Line Pictures,0
49,Last Night,2010,Drama,0,12534432,14134.0,,Eva Mendes,2011-05-06,Contemporary Fiction,Live Action,Original Screenplay,92.0,Nick Wechsler,Entertainment One,0
50,City Island,2010,Comedy,6000000,1502203,845505.0,140419.0,Steven Strait,2010-03-19,,Live Action,,,,,0
51,Letters to Juliet,2010,Drama,30000000,29116085,6721476.0,2519113.0,Amanda Seyfried,2010-05-14,Contemporary Fiction,Live Action,Based on Factual Book/Article,105.0,Gary Winick,,0
52,Get Him to the Greek,2010,Comedy,40000000,30302349,7728070.0,1484980.0,Rose Byrne,2010-06-04,Contemporary Fiction,Live Action,Spin-Off,108.0,Nicholas Stoller,Universal Pictures,0
53,Morning Glory,2010,Comedy,40000000,28783338,3898602.0,545856.0,Diane Keaton,2010-11-10,Contemporary Fiction,Live Action,Original Screenplay,110.0,J.J. Abrams,Bad Robot,0
54,Repo Men,2010,Action,32000000,4253231,1748394.0,484185.0,Jude Law,2010-03-19,Science Fiction,Live Action,Based on Fiction Book/Short Story,,,,0
55,Centurion,2010,Action,15000000,6500000,15661.0,284663.0,David Morrissey,2010-08-27,Historical Fiction,Live Action,Original Screenplay,97.0,,,0
56,Footloose,2010,Musical,24000000,11187092,6512610.0,908354.0,Kenny Wormald,2011-10-14,Contemporary Fiction,Live Action,Remake,113.0,Craig Brewer,Paramount Pictures,0
57,Red Dawn,2010,Action,65000000,3357367,5512191.0,698183.0,Chris Hemsworth,2012-11-21,Contemporary Fiction,Live Action,Remake,93.0,Dan Bradley,Contrafilm,0
58,Grown Ups,2010,Comedy,75000000,110222244,20532469.0,3387250.0,Jamie Chung,2010-06-25,Contemporary Fiction,Live Action,Original Screenplay,102.0,Dennis Dugan,Columbia Pictures,0
59,Dinner for Schmucks,2010,Comedy,69000000,13770165,9255556.0,868777.0,Ron Livingston,2010-07-30,Contemporary Fiction,Live Action,Remake,114.0,Walter F. Parkes,DreamWorks,0
60,Alice in Wonderland,2010,Adventure,200000000,691300000,42356287.0,5191037.0,Frank Welker,2010-03-05,Fantasy,Animation/Live Action,Based on Fiction Book/Short Story,108.0,Tim Burton,Walt Disney Pictures,0
61,The Tooth Fairy,2010,Comedy,48000000,52588130,7607383.0,1319788.0,Dwayne Johnson,2010-01-22,Fantasy,Live Action,Original Screenplay,101.0,Michael Lembeck,20th Century Fox,0
62,Possession,2010,Thriller/Suspense,0,693025,,,Sarah Michelle Gellar,,Contemporary Fiction,Live Action,Remake,,,,0
63,Edge of Darkness,2010,Drama,60000000,39498566,5489719.0,872427.0,Gbenga Akinnagbe,2010-01-29,Contemporary Fiction,Live Action,Based on TV,,Martin Campbell,,0
64,How to Train Your Dragon,2010,Adventure,165000000,277289760,27576835.0,9533597.0,Kristen Wiig,2010-03-26,Fantasy,Digital Animation,Based on Fiction Book/Short Story,91.0,Chris Sanders,DreamWorks Animation,0
65,Robin Hood,2010,Action,210000000,216971858,13342171.0,2187000.0,Russell Crowe,2010-05-14,Historical Fiction,Live Action,Based on Folk Tale/Legend/Fairytale,139.0,Ridley Scott,United Artists,0
66,Iron Man 2,2010,Adventure,170000000,311128000,39559993.0,6838022.0,Gwyneth Paltrow,2010-05-07,Super Hero,Live Action,Based on Comic/Graphic Novel,125.0,Jon Favreau,Paramount Pictures,1
67,The Cabin in the Woods,2010,Thriller/Suspense,30000000,28694867,5285587.0,589324.0,Chris Hemsworth,2012-04-13,Fantasy,Live Action,Original Screenplay,95.0,Joss Whedon,Lionsgate,0
68,Gnomeo and Juliet,2010,Comedy,36000000,93770307,12606263.0,1686767.0,James McAvoy,2011-02-11,Fantasy,Digital Animation,Based on Play,84.0,Kelly Asbury,Touchstone Pictures,0
69,Legend of the Guardians: The Owls of Ga'Hoole,2010,Adventure,100000000,84041404,7040535.0,1241055.0,Sam Neill,2010-09-24,Kids Fiction,Digital Animation,Based on Fiction Book/Short Story,90.0,Zareh Nalbandian,Animal Logic,0
70,The Ghost Writer,2010,Thriller/Suspense,45000000,49990942,1969778.0,298920.0,Pierce Brosnan,2010-02-19,Contemporary Fiction,Live Action,Based on Fiction Book/Short Story,,Roman Polanski,,0
71,The Warlords,2010,,40000000,38770714,16359.0,,Andy Lau,2010-04-02,,,,,,,0
72,Harry Potter and the Deathly Hallows: Part I,2010,Adventure,125000000,664300000,35935768.0,8166217.0,Timothy Spall,2010-11-19,Fantasy,Animation/Live Action,Based on Fiction Book/Short Story,146.0,David Yates,Heyday Films,1
73,Piranha 3D,2010,Horror,24000000,58657005,3168967.0,377778.0,Elisabeth Shue,2010-08-20,Science Fiction,Live Action,Remake,88.0,Mark Canton,IPW,0
74,Toy Story 3,2010,Adventure,200000000,654813349,52598844.0,12231791.0,Tim Allen,2010-06-18,Kids Fiction,Digital Animation,Original Screenplay,102.0,Michael Venturini,Walt Disney Pictures,1
75,Youth in Revolt,2010,Comedy,18000000,4400000,1937336.0,352016.0,Michael Cera,2010-01-08,Contemporary Fiction,Live Action,Based on Fiction Book/Short Story,,Miguel Arteta,,0
76,Case 39,2010,Horror,27000000,15511976,1680842.0,269414.0,Jodelle Ferland,2010-10-01,Fantasy,Live Action,Original Screenplay,109.0,Kevin Misher,Misher Films,0
77,Cats & Dogs: The Revenge of Kitty Galore,2010,Comedy,85000000,69440630,5771773.0,705382.0,Chris O'Donnell,2010-07-30,Kids Fiction,Live Action,Original Screenplay,82.0,Brad Peyton,CD2 Pictures,1
78,Shanghai,2010,Drama,0,11211630,5546.0,,John Cusack,2015-10-02,Historical Fiction,Live Action,Original Screenplay,104.0,Mikael Hafstrom,Phoenix Pictures,0
79,Green Zone,2010,Drama,100000000,62025683,4442795.0,1032805.0,Khalid Abdalla,2010-03-12,Historical Fiction,Live Action,Based on Factual Book/Article,114.0,Paul Greengrass,Universal Pictures,0
80,The Chronicles of Narnia: The Voyage of the Dawn Treader,2010,Adventure,155000000,313800000,11017287.0,2566508.0,Will Poulter,2010-12-10,Fantasy,Animation/Live Action,Based on Fiction Book/Short Story,115.0,Ian Gracie,Walden Media,1
81,Kick-Ass,2010,Black Comedy,28000000,49459831,6092687.0,1318787.0,Clark Duke,2010-04-16,Contemporary Fiction,Live Action,Based on Comic/Graphic Novel,117.0,Matthew Vaughn,Lionsgate,0
82,Unstoppable,2010,Action,95000000,87948667,10072051.0,2090432.0,Chris Pine,2010-11-12,Dramatization,Live Action,Based on Real Life Events,98.0,Pete Yorn,Big Screen Prods,0
83,When in Rome,2010,Romantic Comedy,0,7011634,4142032.0,581034.0,Kristen Bell,2010-01-29,Contemporary Fiction,Live Action,Original Screenplay,,Mark Steven Johnson,,0
84,The Book of Eli,2010,Action,80000000,63915758,12019652.0,2419757.0,Michael Gambon,2010-01-15,Science Fiction,Live Action,Original Screenplay,118.0,Gary Whitta,Alcon Entertainment,0
85,Clash of the Titans,2010,Action,125000000,330000000,20686297.0,1994594.0,Alexa Davalos,2010-04-01,Fantasy,Live Action,Remake,106.0,Louis Leterrier,Legendary Pictures,0
86,Prince of Persia: Sands of Time,2010,Action,200000000,223834921,11503127.0,2051809.0,Steve Toussaint,2010-05-28,Fantasy,Live Action,Based on Game,115.0,Mike Newell,Walt Disney Pictures,0
87,Arthur and the War of Two Worlds,2010,Adventure,0,29382139,43997.0,,,2015-11-05,Fantasy,Animation/Live Action,Based on Fiction Book/Short Story,,Luc Besson,,0
88,Arthur et la vengeance de Maltazard,2010,Adventure,0,48648356,43775.0,,,2011-02-25,Fantasy,Animation/Live Action,Based on Fiction Book/Short Story,,,,0
89,Hoodwinked Too: Hood vs. Evil,2010,Adventure,30000000,13209332,1279165.0,199892.0,Heidi Klum,2011-04-29,Kids Fiction,Digital Animation,Based on Folk Tale/Legend/Fairytale,86.0,Mike Disa,Kanbar Entertainment,1
