,air_store_id,dow
0,air_00a91d42b08b08d9,3
1,air_0164b9927d20bcc3,3
2,air_0241aa3964b7f861,3
3,air_0328696196e46f18,3
4,air_034a3d5b40d5b1b1,3
5,air_036d4f1ee7285390,3
6,air_0382c794b73b51ad,3
7,air_03963426c9312048,3
8,air_04341b588bde96cd,3
9,air_049f6d5b402a31b2,3
10,air_04cae7c1bc9b2a0b,3
11,air_0585011fa179bcce,3
12,air_05c325d315cc17f5,3
13,air_0647f17b4dc041c8,3
14,air_064e203265ee5753,3
15,air_066f0221b8a4d533,3
16,air_06f95ac5c33aca10,3
17,air_0728814bd98f7367,3
18,air_0768ab3910f7967f,3
19,air_07b314d83059c4d2,3
20,air_07bb665f9cdfbdfb,3
21,air_082908692355165e,3
22,air_083ddc520ea47e1e,3
23,air_0845d8395f30c6bb,3
24,air_084d98859256acf0,3
25,air_0867f7bebad6a649,3
26,air_08ba8cd01b3ba010,3
27,air_08cb3c4ee6cd6a22,3
28,air_08ef81d5b7a0d13f,3
29,air_08f994758a1e76d4,3
30,air_09040f6df960ddb8,3
31,air_0919d54f0c9a24b8,3
32,air_09661c0f3259cc04,3
33,air_09a845d5b5944b01,3
34,air_09fd1f5c58583141,3
35,air_0a74a5408a0b8642,3
36,air_0b184ec04c741a6a,3
37,air_0b1e72d2d4422b20,3
38,air_0b9038300f8b2b50,3
39,air_0e1eae99b8723bc1,3
40,air_0e7c11b9abc50163,3
41,air_0f0cdeee6c9bf3d7,3
42,air_0f2f96335f274801,3
43,air_0f60e1576a7d397d,3
44,air_1033310359ceeac1,3
45,air_10393f12e9069760,3
46,air_105a7954e32dba9b,3
47,air_10713fbf3071c361,3
48,air_10bbe8acd943d8f6,3
49,air_12c4fb7a423df20d,3
50,air_138ee734ac79ff90,3
51,air_138ff410757b845f,3
52,air_1408dd53f31a8a65,3
53,air_142e78ba7001da9c,3
54,air_1509881b22965b34,3
55,air_152c1f08d7d20e07,3
56,air_15ae33469e9ea2dd,3
57,air_15e6e15c7ea2c162,3
58,air_16179d43b6ee5fd8,3
59,air_1653a6c513865af3,3
60,air_168441ada3e878e1,3
61,air_16c4cfddeb2cf69b,3
62,air_16cf0a73233896de,3
63,air_1707a3f18bb0da07,3
64,air_17a6ab40f97fd4d8,3
65,air_17bed6dbf7c8b0fc,3
66,air_1979eaff8189d086,3
67,air_1ab60ce33bfed8a8,3
68,air_1ae94f514a0bce13,3
69,air_1ba4e87ef7422183,3
70,air_1c0b150f9e696a5f,3
71,air_1c95a84924d72500,3
72,air_1d1e8860ae04f8e9,3
73,air_1d25ca6c76df48b4,3
74,air_1d3f797dd1f7cf1c,3
75,air_1dd8f6f47480d1a2,3
76,air_1dea9815ccd36620,3
77,air_1e23210b584540e7,3
78,air_1e665503b8474c55,3
79,air_1eeff462acb24fb7,3
80,air_1f1390a8be2272b3,3
81,air_1f34e9beded2231a,3
82,air_1f7f8fa557bc0d55,3
83,air_2009041dbf9264de,3
84,air_20619d21192aa571,3
85,air_20add8092c9bb51d,3
86,air_2195cd5025a98033,3
87,air_21f5052d5330528d,3
88,air_220cba70c890b119,3
89,air_22682e965418936f,3
90,air_228f10bec0bda9c8,3
91,air_232dcee6f7c51d37,3
92,air_234d3dbf7f3d5a50,3
93,air_23e1b11aee2a1407,3
94,air_23ee674e91469086,3
95,air_24b9b2a020826ede,3
96,air_24e8414b9b07decb,3
97,air_2545dd3a00f265e2,3
98,air_256be208a979e023,3
99,air_2570ccb93badde68,3
100,air_258ad2619d7bff9a,3
101,air_258dc112912fc458,3
102,air_25c583983246b7b0,3
103,air_25d8e5cc57dd87d9,3
104,air_25e9888d30b386df,3
105,air_2634e41551e9807d,3
106,air_26c5bbeb7bb82bf1,3
107,air_26f10355d9b4d82a,3
108,air_275732a5db46f4d3,3
109,air_27e991812b0d9c92,3
110,air_28064154614b2e6c,3
111,air_287d2de7d3c93406,3
112,air_28a9fa1ec0839375,3
113,air_28dbe91c4c9656be,3
114,air_290e7a57b390f78e,3
115,air_298513175efdf261,3
116,air_2a184c1745274b2b,3
117,air_2a24aec099333f39,3
118,air_2a3743e37aab04b4,3
119,air_2a485b92210c98b5,3
120,air_2a7f14da7fe0f699,3
121,air_2aab19554f91ff82,3
122,air_2ac361b97630e2df,3
123,air_2b8b29ddfd35018e,3
124,air_2b9bc9f5f5168ea1,3
125,air_2bffb19a24d11729,3
126,air_2c505f9ad67d4635,3
127,air_2c6c79d597e48096,3
128,air_2c6fef1ce0e13a5a,3
129,air_2c989829acbd1c6b,3
130,air_2cee51fa6fdf6c0d,3
131,air_2d3afcb91762fe01,3
132,air_2d78d9a1f4dd02ca,3
133,air_2e7cb1f1a2a9cd6a,3
134,air_2f8ced25216df926,3
135,air_2fc149abe33adcb4,3
136,air_2fc478dc9f0a6b31,3
137,air_2fed81034f8834e5,3
138,air_303bac187b53083a,3
139,air_310e467e6e625004,3
140,air_3155ee23d92202da,3
141,air_31c753b48a657b6c,3
142,air_32460819c7600037,3
143,air_324f7c39a8410e7c,3
144,air_326ca454ef3558bc,3
145,air_32b02ba5dc2027f4,3
146,air_32c61b620a766138,3
147,air_32f5d7cd696e3c4a,3
148,air_33b01025210d6007,3
149,air_3440e0ea1b70a99b,3
150,air_346ade7d29230634,3
151,air_347be2c4feeb408b,3
152,air_349278fa964bb12f,3
153,air_3525f11ef0bf0c35,3
154,air_35512c42db0868da,3
155,air_3561fd1c0bce6a95,3
156,air_35c4732dcbfe31be,3
157,air_36429b5ca4407b3e,3
158,air_36bcf77d3382d36e,3
159,air_37189c92b6c761ec,3
160,air_375a5241615b5e22,3
161,air_382f5ace4e2247b8,3
162,air_383f5b2f8d345a49,3
163,air_38746ffe9aa20c7e,3
164,air_396166d47733d5c9,3
165,air_396942e6423a2145,3
166,air_397d3f32a7196aa2,3
167,air_3980af67be35afdb,3
168,air_3982a2c4ea2ed431,3
169,air_399904bdb7685ca0,3
170,air_39dccf7df20b1c6a,3
171,air_3a8a3f8fb5cd7f88,3
172,air_3aa839e8e0cb6c87,3
173,air_3ac24136722e2291,3
174,air_3b20733899b5287f,3
175,air_3b6438b125086430,3
176,air_3bb99a1fe0583897,3
177,air_3bd49f98ab7f36ab,3
178,air_3c05c8f26c611eb9,3
179,air_3c938075889fc059,3
180,air_3cad29d1a23209d2,3
181,air_3caef3f76b8f26c5,3
182,air_3d3a2b509180e798,3
183,air_3e6cea17a9d2c0f1,3
184,air_3e93f3c81008696d,3
185,air_3f91d592acd6cc0b,3
186,air_401b39f97e56b939,3
187,air_4043b7ccfbffa732,3
188,air_4092cfbd95a3ac1b,3
189,air_40953e2d8b4f2857,3
190,air_40f6193ea3ed1b91,3
191,air_414ff459ed18fa48,3
192,air_41bbf6e1d9814c4b,3
193,air_421670f21da5ba31,3
194,air_4254c3fc3ad078bd,3
195,air_42c9aa6d617c5057,3
196,air_42d41eb58cad170e,3
197,air_43b65e4b05bff2d3,3
198,air_43d577e0c9460e64,3
199,air_4433ab8e9999915f,3
200,air_4481a87c1d7c9896,3
201,air_452100f5305dde64,3
202,air_45326ebb8dc72cfb,3
203,air_4570f52104fe0982,3
204,air_4579cb0669fd411b,3
205,air_457efe8c3a30ea17,3
206,air_464a62de0d57be1e,3
207,air_465bddfed3353b23,3
208,air_47070be6093f123e,3
209,air_472b19e3b5bffa41,3
210,air_473cf23b9e7c0a37,3
211,air_473f98b212d37b4a,3
212,air_47beaffd3806c979,3
213,air_483eba479dc9910d,3
214,air_48e9fc98b62495a7,3
215,air_48f4da6223571da4,3
216,air_48ffd31594bc3263,3
217,air_49211568cab5fdee,3
218,air_4974785f48853db9,3
219,air_4b251b9f8373f1ae,3
220,air_4b380b4db9d37883,3
221,air_4b55d8aea1d2b395,3
222,air_4b9085d0d46a6211,3
223,air_4beac252540f865e,3
224,air_4c2ed28f3f19ca52,3
225,air_4c665a2bfff0da3b,3
226,air_4c727b55acdee495,3
227,air_4cab15ad29c0ffbc,3
228,air_4cab91146e3d1897,3
229,air_4cca5666eaf5c709,3
230,air_4ce7b17062a1bf73,3
231,air_4d21676ed11f0bac,3
232,air_4d71826793c09b22,3
233,air_4d90a22572fa1ec9,3
234,air_4de6d887a7b1c1fc,3
235,air_4dea8d17f6f59c56,3
236,air_4e1c38f68f435596,3
237,air_4f762e840b3996e1,3
238,air_4feeb8600f131e43,3
239,air_500641aca4cf673c,3
240,air_506fe758114df773,3
241,air_51281cd059d7b89b,3
242,air_51319e7acf0438cf,3
243,air_52a08ef3efdb4bb0,3
244,air_52e2a1fd42bc917a,3
245,air_536043fcf1a4f8a4,3
246,air_539d693f7317c62d,3
247,air_546b353cbea4a45b,3
248,air_5485912b44f976de,3
249,air_54d6c25d33f5260e,3
250,air_54ed43163b7596c4,3
251,air_55390f784018349a,3
252,air_55c3627912b9c849,3
253,air_55e11c33d4758131,3
254,air_56cd12f31a0afc04,3
255,air_56cebcbd6906e04c,3
256,air_56ea46c14b2dd967,3
257,air_57013002b912772b,3
258,air_573ecdf81b157d22,3
259,air_57c9eea1a2b66e65,3
260,air_57ed725a1930a5b9,3
261,air_5878b6f2a9da12c1,3
262,air_59cc9b2b209c6331,3
263,air_5a9a6cbeeb434c08,3
264,air_5acc13d655a6e8b2,3
265,air_5afb1cca48ceaa19,3
266,air_5b6d18c470bbfaf9,3
267,air_5b704df317ed1962,3
268,air_5bd22f9cc1426a90,3
269,air_5c65468938c07fa5,3
270,air_5c7489c9ec755e2d,3
271,air_5c817ef28f236bdf,3
272,air_5cb030b9f0b91537,3
273,air_5cfc537125d97f16,3
274,air_5d7c744c3a2ef624,3
275,air_5d945ade487cdf4d,3
276,air_5dea8a7a5bf5eb71,3
277,air_5e339a1f364cdb00,3
278,air_5e34c6fe6fabd10e,3
279,air_5e70fe82f9e4fab6,3
280,air_5e939e005bd34633,3
281,air_5ed3198e4a5eed0f,3
282,air_5f3a3ef4cba110a4,3
283,air_5f6fa1b897fe80d5,3
284,air_5fbda8e9302f7c13,3
285,air_602ca92c0db34f8f,3
286,air_609050e4e4f79ae1,3
287,air_60a7057184ec7ec7,3
288,air_60aa54ecbc602348,3
289,air_6108821ffafa9b72,3
290,air_614e2f7e76dff854,3
291,air_61668cc2b0778898,3
292,air_61b8d37c33617f21,3
293,air_61de73b097513f58,3
294,air_622375b4815cf5cb,3
295,air_627cabe2fe53f33f,3
296,air_629d9935273c82ae,3
297,air_629edf21ea38ac2d,3
298,air_632ba66e1f75aa28,3
299,air_638c35eb25e53eea,3
300,air_63a750d8b4b6a976,3
301,air_63a88d81295195ed,3
302,air_63b13c56b7201bd9,3
303,air_63e28ee0b0c955a7,3
304,air_640cf4835f0d9ba3,3
305,air_6411203a47b5ec77,3
306,air_645cb18b33f938cf,3
307,air_646b93e336f0dded,3
308,air_64a5d5c1381837af,3
309,air_64d4491ad8cdb1c6,3
310,air_650f9b9de0c5542c,3
311,air_657a0748462f85de,3
312,air_65e294f1ae6df9c3,3
313,air_6607fe3671242ce3,3
314,air_670a0c1c4108bcea,3
315,air_671b4bea84dafb67,3
316,air_673acd9fa5e0dd78,3
317,air_67483104fa38ef6c,3
318,air_675aa35cba456fd1,3
319,air_67f87c159d9e2ee2,3
320,air_68147db09287bf74,3
321,air_681b0c56328dd2af,3
322,air_681f96e6a6595f82,3
323,air_68301bcb11e2f389,3
324,air_683371d9baabf410,3
325,air_6836438b543ba698,3
326,air_6873982b9e19c7ad,3
327,air_68c1de82037d87e6,3
328,air_68cc910e7b307b09,3
329,air_68d075113f368946,3
330,air_6902e4ec305b3d08,3
331,air_694571ea13fb9e0e,3
332,air_6a15e4eae523189d,3
333,air_6b15edd1b4fbb96a,3
334,air_6b2268863b14a2af,3
335,air_6b65745d432fd77f,3
336,air_6b7678aae65d2d59,3
337,air_6b942d5ebbc759c2,3
338,air_6b9fa44a9cf504a1,3
339,air_6c1128955c58b690,3
340,air_6c91a28278a16f64,3
341,air_6c952e3c6e590945,3
342,air_6ca1d941c8199a67,3
343,air_6cbe54f0aa30b615,3
344,air_6ced51c24fb54262,3
345,air_6d64dba2edd4fc0c,3
346,air_6d65542aa43b598b,3
347,air_6d65dd11d96e00fb,3
348,air_6e06824d0934dd81,3
349,air_6e3fd96320d24324,3
350,air_6e64fb5821402cd2,3
351,air_6ff5fca957798daa,3
352,air_707d4b6328f2c2df,3
353,air_709262d948dd0b6e,3
354,air_70e9e8cd55879414,3
355,air_70f834596eb99fee,3
356,air_710d6537cb7623df,3
357,air_712dd258f7f91b4b,3
358,air_71903025d39a4571,3
359,air_722297e7f26db91d,3
360,air_728ff578acc6ac6e,3
361,air_72f5146cf0c49beb,3
362,air_735bcbe1763d6e98,3
363,air_73f316e6a18d8aa9,3
364,air_7420042ff75f9aca,3
365,air_746211c0b532e8aa,3
366,air_747f375eb3900e1e,3
367,air_74cf22153214064c,3
368,air_7514d90009613cd6,3
369,air_754ae581ad80cc9f,3
370,air_75864c80d2fb334a,3
371,air_75bd5d1b6dc6670d,3
372,air_764f71040a413d4d,3
373,air_77488fa378cf98c3,3
374,air_77dfc83450cbc89c,3
375,air_7831b00996701c0f,3
376,air_789103bf53b8096b,3
377,air_789466e488705c93,3
378,air_78df4dc6a7e83e41,3
379,air_79afb3f52b4d062c,3
380,air_79f528087f49df06,3
381,air_7a81bd7fadcbf3d8,3
382,air_7a946aada80376a4,3
383,air_7bacc4d36fb094c9,3
384,air_7bc6ca04d7b0f3b8,3
385,air_7bda6048a4a78837,3
386,air_7c7774c66fb237f7,3
387,air_7cc17a324ae5c7dc,3
388,air_7cf5a02c0e01b647,3
389,air_7d65049f9d275c0d,3
390,air_7dacea2f22afccfb,3
391,air_7db266904cb0d72a,3
392,air_7e12c5d27f44a8de,3
393,air_7ef9a5ea5c8fe39f,3
394,air_7f3dc18494bce98b,3
395,air_7f9e15afafcf4c75,3
396,air_7fbf7649eb13ad9b,3
397,air_800c02226e2e0288,3
398,air_8093d0b565e9dbdf,3
399,air_8110d68cc869b85e,3
400,air_81546875de9c8e78,3
401,air_81a12d67c22e012f,3
402,air_81bd68142db76f58,3
403,air_81c2600146d07d16,3
404,air_81c5dff692063446,3
405,air_820d1919cbecaa0a,3
406,air_82a6ae14151953ba,3
407,air_831658500aa7c846,3
408,air_832f9dbe9ee4ebd3,3
409,air_83db5aff8f50478e,3
410,air_84060403939d8216,3
411,air_848616680ef061bd,3
412,air_84f6876ff7e83ae7,3
413,air_8523d6a70de49e6c,3
414,air_859feab8e3c9f98d,3
415,air_85bd13a49370c392,3
416,air_86cfbf2624576fad,3
417,air_86f7b2109e4abd65,3
418,air_87059630ab6fe47f,3
419,air_87078cf7903a648c,3
420,air_87467487d21891dd,3
421,air_8764b3473ddcceaf,3
422,air_876d7a23c47811cb,3
423,air_877f79706adbfb06,3
424,air_87ca98aa7664de94,3
425,air_87f9e1024b951f01,3
426,air_883ca28ef0ed3d55,3
427,air_88c8e34baa79217b,3
428,air_88ca84051ba95339,3
429,air_88f31db64991768a,3
430,air_890d7e28e8eaaa11,3
431,air_89e7328af22efe74,3
432,air_8a1d21fad48374e8,3
433,air_8a59bb0c497b771e,3
434,air_8a906e5801eac81c,3
435,air_8b4a46dc521bfcfe,3
436,air_8c119d1f16049f20,3
437,air_8c3175aa5e4fc569,3
438,air_8cc350fd70ee0757,3
439,air_8ce035ee1d8a56a6,3
440,air_8d50c64692322dff,3
441,air_8d61f49aa0373492,3
442,air_8e429650fcf7a0ae,3
443,air_8e4360a64dbd4c50,3
444,air_8e492076a1179383,3
445,air_8e8f42f047537154,3
446,air_8ec47c0f1e2c879e,3
447,air_8f13ef0f5e8c64dd,3
448,air_8f273fb9ad2fed6f,3
449,air_8f3b563416efc6ad,3
450,air_900d755ebd2f7bbd,3
451,air_901925b628677c2e,3
452,air_90213bcae4afa274,3
453,air_90bd5de52c166767,3
454,air_90ed0a2f24755533,3
455,air_90f0efbb702d77b7,3
456,air_9105a29b0eb250d2,3
457,air_91236b89d29567af,3
458,air_9152d9926e5c4a3a,3
459,air_915558a55c2bc56c,3
460,air_91beafbba9382b0a,3
461,air_91d72e16c4bcba55,3
462,air_9241121af22ff1d6,3
463,air_929d8513e3cdb423,3
464,air_931a8a4321b6e7d1,3
465,air_9352c401d5adb01b,3
466,air_9387ff95e886ebc7,3
467,air_938ef91ecdde6878,3
468,air_939964477035ef0b,3
469,air_93b9bb641f8fc982,3
470,air_93dd7070c9bf5453,3
471,air_93ebe490d4abb8e9,3
472,air_9438d67241c81314,3
473,air_947eb2cae4f3e8f2,3
474,air_9483d65e9cc9a6b7,3
475,air_950381108f839348,3
476,air_95d28905941fd4cb,3
477,air_95e917913cd988f3,3
478,air_96005f79124e12bf,3
479,air_965b2e0cf4119003,3
480,air_96743eee94114261,3
481,air_96773a6236d279b1,3
482,air_968d72c12eed09f0,3
483,air_96929a799b12a43e,3
484,air_96ec3cfe78cb0652,3
485,air_97159fc4e90053fe,3
486,air_97958e7fce98b6a3,3
487,air_97b2a9f975fc702c,3
488,air_97cf68dc1a9beac0,3
489,air_97e0f2feec4d577a,3
490,air_9828505fefc77d75,3
491,air_98b54e32ccddd896,3
492,air_990a642a3deb2903,3
493,air_99157b6163835eec,3
494,air_99a5183695b849f9,3
495,air_99b01136f451fc0e,3
496,air_99c3eae84130c1cb,3
497,air_9a30407764f4ff84,3
498,air_9a6f6e7f623003d2,3
499,air_9aa32b3db0fab3a5,3
500,air_9aa92007e3628dbc,3
501,air_9ae7081cb77dc51e,3
502,air_9b13c7feb0a0c431,3
503,air_9b6af3db40da4ae2,3
504,air_9bbc673495e23532,3
505,air_9bf0ccac497c4af3,3
506,air_9bf595ef095572fb,3
507,air_9c6787aa03a45586,3
508,air_9ca2767761efff4d,3
509,air_9cd5e310f488bced,3
510,air_9cf2f1ba86229773,3
511,air_9d3482b4680aee88,3
512,air_9d452a881f7f2bb7,3
513,air_9d474ec2448c700d,3
514,air_9d5a980b211e1795,3
515,air_9d93d95720f2e831,3
516,air_9dc9483f717d73ee,3
517,air_9dd7d38b0f1760c4,3
518,air_9e920b758503ef54,3
519,air_9efaa7ded03c5a71,3
520,air_9f277fb7a2c1d842,3
521,air_9fc607777ad76b26,3
522,air_a083834e7ffe187e,3
523,air_a11473cc1eb9a27f,3
524,air_a17f0778617c76e2,3
525,air_a1fe8c588c8d2f30,3
526,air_a218912784bf767d,3
527,air_a21ffca0bea1661a,3
528,air_a239a44805932bab,3
529,air_a24bf50c3e90d583,3
530,air_a2567267116a3b75,3
531,air_a257c9749d8d0ff6,3
532,air_a271c9ba19e81d17,3
533,air_a2b29aa7feb4e36f,3
534,air_a304330715435390,3
535,air_a33461f4392ec62c,3
536,air_a373500730e2a9e0,3
537,air_a38f25e3399d1b25,3
538,air_a41b032371a63427,3
539,air_a49f1cf0634f13e5,3
540,air_a510dcfe979f09eb,3
541,air_a546cbf478a8b6e4,3
542,air_a55d17bd3f3033cb,3
543,air_a563896da3777078,3
544,air_a678e5b144ca24ce,3
545,air_a7404a854919e990,3
546,air_a8533b7a992bb0ca,3
547,air_a85f0c0c889f6b7e,3
548,air_a85f8c0bfd61889f,3
549,air_a88ac559064dec08,3
550,air_a9133955abccf071,3
551,air_a9178f19da58fe99,3
552,air_a9a380530c1e121f,3
553,air_aa0049fe3cc6f4d6,3
554,air_ab3ae0e410b20069,3
555,air_ab9746a0f83084b7,3
556,air_abcdc8115988a010,3
557,air_abf06fcca748dca5,3
558,air_ac7a7427c9ae12a5,3
559,air_ad13e71e21235131,3
560,air_ad60f6b76c9df7ed,3
561,air_ad7777590c884721,3
562,air_add9a575623726c8,3
563,air_ade6e836ffd1da64,3
564,air_aed3a8b49abe4a48,3
565,air_af03c277a167b2bd,3
566,air_af24e3e817dea1e5,3
567,air_af63df35857b16e6,3
568,air_b0a6a4c5e95c74cf,3
569,air_b162fb07fbbdea33,3
570,air_b192fb5310436005,3
571,air_b1a72bf1ebf4b8ef,3
572,air_b1bb1fae86617d7a,3
573,air_b1d822f75c9fc615,3
574,air_b2395df0e874078d,3
575,air_b23d0f519291247d,3
576,air_b259b4e4a51a690d,3
577,air_b28bed4b2e7167b7,3
578,air_b2a639cc7e02edf1,3
579,air_b2d97bd2337c5ba7,3
580,air_b2dcec37b83e2494,3
581,air_b30fffd7ab1e75a5,3
582,air_b3180b74332ba886,3
583,air_b3a824511477a4ed,3
584,air_b439391e72899756,3
585,air_b45b8e456f53942a,3
586,air_b4f32bcc399da2b9,3
587,air_b5598d12d1b84890,3
588,air_b5bdd318005d9aa4,3
589,air_b60cc7d6aee68194,3
590,air_b711b43ae472cb6b,3
591,air_b7fa3d2fca744dd2,3
592,air_b80fed1a07c817d2,3
593,air_b88192b35ac03c24,3
594,air_b8925441167c3152,3
595,air_b8a5ee69e5fdcc5b,3
596,air_b8d9e1624baaadc2,3
597,air_b9e27558fb8bd5c4,3
598,air_ba495cccc8f0f237,3
599,air_ba937bf13d40fb24,3
600,air_bac5f4441db21db9,3
601,air_baf28ac9f13a307d,3
602,air_bb09595bab7d5cfb,3
603,air_bb26d6d079594414,3
604,air_bb4ff06cd661ee9b,3
605,air_bbe1c1a47e09f161,3
606,air_bc991c51d6613745,3
607,air_bc9a129e11a2efe0,3
608,air_bcce1ea4350b7b72,3
609,air_bd74a9222edfdfe1,3
610,air_bdd32aa407c16335,3
611,air_bebd55ed63ab2422,3
612,air_bed603c423b7d9d4,3
613,air_bedd35489e666605,3
614,air_bf13014b6e3e60ca,3
615,air_bf21b8350771879b,3
616,air_bf617aa68d5f1cfa,3
617,air_bf7591560077332d,3
618,air_bfafaed35e213fd7,3
619,air_bfda7731a6c6fc61,3
620,air_c027e2b560442808,3
621,air_c0385db498b391e5,3
622,air_c1d5d165c055b866,3
623,air_c1ff20617c54fee7,3
624,air_c225148c0fcc5c72,3
625,air_c2626f5f86d57342,3
626,air_c26f027b5bc1f081,3
627,air_c28983412a7eefcf,3
628,air_c2c8435bdb3516d4,3
629,air_c31472d14e29cee8,3
630,air_c3585b0fba3998d0,3
631,air_c3bc011cca3bec65,3
632,air_c3dcaf3aeb18e20e,3
633,air_c47aa7493b15f297,3
634,air_c4fa5c562d5409ca,3
635,air_c52c63c781fe48f6,3
636,air_c5459218282bedd5,3
637,air_c66dbd2c37832d00,3
638,air_c6a164dd4060e960,3
639,air_c6aa2efba0ffc8eb,3
640,air_c6ffd6a93e6b68d6,3
641,air_c73d319ffabf287a,3
642,air_c759b6abeb552160,3
643,air_c77ee2b7d36da265,3
644,air_c7d30ab0e07f31d5,3
645,air_c7f78b4f3cba33ff,3
646,air_c8265ecc116f2284,3
647,air_c88467d88b2c8ecd,3
648,air_c8a657c8c5c93d69,3
649,air_c8c0ef02ed72053f,3
650,air_c8fe396d6c46275d,3
651,air_c92745dfdd2ec68a,3
652,air_c9ed65554b6edffb,3
653,air_c9f6de13be8b8f25,3
654,air_ca1315af9e073bd1,3
655,air_ca6ae8d49a2f1eaf,3
656,air_ca957d3a1529fbd3,3
657,air_cadf9cfb510a1d78,3
658,air_caf996ac27206301,3
659,air_cb25551c4cd8d9f3,3
660,air_cb7467aed805e7fe,3
661,air_cb935ff8610ba3d3,3
662,air_cbe139af83feb388,3
663,air_cbe867adcf44e14f,3
664,air_cc1a0e985ce63711,3
665,air_cc35590cd1da8554,3
666,air_ccd19a5bc5573ae5,3
667,air_cd4b301d5d3918d8,3
668,air_cd5f54969be9ed08,3
669,air_ced6297e5bdf5130,3
670,air_cf2229e64408d9fe,3
671,air_cf5ab75a0afb8af9,3
672,air_cfcc94797d2b5d3d,3
673,air_cfdeb326418194ff,3
674,air_d00161e19f08290b,3
675,air_d00a15343325e5f7,3
676,air_d07e57b21109304a,3
677,air_d0a1e69685259c92,3
678,air_d0e8a085d8dc83aa,3
679,air_d138b593ebda55cc,3
680,air_d1418d6fd6d634f2,3
681,air_d186b2cb0b9ce022,3
682,air_d1f20424f76cc78e,3
683,air_d34c0861a2be94cb,3
684,air_d3e7b5952cd09ccb,3
685,air_d44d210d2994f01b,3
686,air_d473620754bf9fc2,3
687,air_d477b6339b8ce69f,3
688,air_d4981cdde163b172,3
689,air_d4b5a4b04c5f2d04,3
690,air_d4d218b451f82c3d,3
691,air_d500b48a8735fbd3,3
692,air_d54d6fcb116fbed3,3
693,air_d5e0a20370c325c7,3
694,air_d69b08a175bc0387,3
695,air_d6b3e67261f07646,3
696,air_d8abb9e490abf94f,3
697,air_d97dabf7aae60da5,3
698,air_d98380a4aeb0290b,3
699,air_daa7947e1c47f5ed,3
700,air_dabfbd0ec951925a,3
701,air_dad0b6a36138f309,3
702,air_db1233ad855b34d5,3
703,air_db4b38ebe7a7ceff,3
704,air_db80363d35f10926,3
705,air_dbf64f1ce38c7442,3
706,air_dc0e080ba0a5e5af,3
707,air_dc71c6cc06cd1aa2,3
708,air_de692863bb2dd758,3
709,air_de803f7e324936b8,3
710,air_de88770300008624,3
711,air_dea0655f96947922,3
712,air_df507aec929ce5f6,3
713,air_df554c4527a1cfe6,3
714,air_df5cf5cd03eb68d0,3
715,air_df843e6b22e8d540,3
716,air_df9355c47c5df9d3,3
717,air_dfad598ff642dab7,3
718,air_dfe068a1bf85f395,3
719,air_e00fe7853c0100d6,3
720,air_e0118664da63a2d0,3
721,air_e01d99390355408d,3
722,air_e053c561f32acc28,3
723,air_e08b9cf82057a170,3
724,air_e0aee25b56a069f2,3
725,air_e0e69668214ff972,3
726,air_e0f241bd406810c0,3
727,air_e1b76fcb5208fb6b,3
728,air_e2208a79e2678432,3
729,air_e270aff84ac7e4c8,3
730,air_e3020992d5fe5dfd,3
731,air_e34c631c766f2766,3
732,air_e42bdc3377d1eee7,3
733,air_e483f5b3c4f310e0,3
734,air_e524c6a9e06cc3a1,3
735,air_e55abd740f93ecc4,3
736,air_e57dd6884595f60d,3
737,air_e58f669b6f1a08ce,3
738,air_e5cf003abcc5febb,3
739,air_e64de0a6bf0739af,3
740,air_e657ca554b0c008c,3
741,air_e700e390226d9985,3
742,air_e76a668009c5dabc,3
743,air_e7d2ac6d53d1b744,3
744,air_e7fbee4e3cfe65c5,3
745,air_e88bbe2ede3467aa,3
746,air_e89735e80d614a7e,3
747,air_e8ed9335d0c38333,3
748,air_e9ebf7fc520ac76a,3
749,air_ea6d0c3acf00b22a,3
750,air_ea7c16131980c837,3
751,air_eb120e6d384a17a8,3
752,air_eb20a89bba7dd3d0,3
753,air_eb2d2653586315dd,3
754,air_eb5788dba285e725,3
755,air_ebd31e812960f517,3
756,air_ebe02c3090271fa9,3
757,air_ec0fad2def4dcff0,3
758,air_eca4a5a191e8d993,3
759,air_eca5e0064dc9314a,3
760,air_ecab54b57a71b10d,3
761,air_eceb97ad6a7d4c07,3
762,air_ecf7f141339f1d57,3
763,air_eda179770dfa9f91,3
764,air_edd5e3d696a5811b,3
765,air_ee3a01f0c71a769f,3
766,air_ee3ba9af184c6c82,3
767,air_eec5e572b9eb9c23,3
768,air_eeeadee005c006a2,3
769,air_ef47430bcd6f6a89,3
770,air_ef789667e2e6fe96,3
771,air_ef920fa6f4b085f6,3
772,air_efc80d3f96b3aff7,3
773,air_efd70b04de878f25,3
774,air_efef1e3daecce07e,3
775,air_f068442ebb6c246c,3
776,air_f0c7272956e62f12,3
777,air_f0fb0975bdc2cdf9,3
778,air_f1094dbf2aef85d9,3
779,air_f180301886c21375,3
780,air_f183a514cb8ff4fa,3
781,air_f1f9027d4fa8f653,3
782,air_f267dd70a6a6b5d3,3
783,air_f26f36ec4dc5adb0,3
784,air_f2985de32bb792e0,3
785,air_f2c5a1f24279c531,3
786,air_f3602e4fa2f12993,3
787,air_f3f9824b7d70c3cf,3
788,air_f4936b91c9addbf0,3
789,air_f593fa60ac3541e2,3
790,air_f690c42545146e0a,3
791,air_f6b2489ccf873c3b,3
792,air_f6bfd27e2e174d16,3
793,air_f6cdaf7b7fdc6d78,3
794,air_f8233ad00755c35c,3
795,air_f85e21e543cf44f2,3
796,air_f88898cd09f40496,3
797,air_f911308e19d64236,3
798,air_f9168b23fdfc1e52,3
799,air_f927b2da69a82341,3
800,air_f957c6d6467d4d90,3
801,air_f96765e800907c77,3
802,air_fa12b40b02fecfd8,3
803,air_fa4ffc9057812fa2,3
804,air_fab092c35776a9b1,3
805,air_fb44f566d4f64a4e,3
806,air_fbadf737162a5ce3,3
807,air_fc477473134e9ae5,3
808,air_fcd4492c83f1c6b9,3
809,air_fcfbdcf7b1f82c6e,3
810,air_fd154088b1de6fa7,3
811,air_fd6aac1043520e83,3
812,air_fdc02ec4a3d21ea4,3
813,air_fdcfef8bd859f650,3
814,air_fe22ef5a9cbef123,3
815,air_fe58c074ec1445ea,3
816,air_fea5dc9594450608,3
817,air_fee8dcf4d619598e,3
818,air_fef9ccb3ba0da2f7,3
819,air_ffcc2d5087e1b476,3
820,air_fff68b929994bfbd,3
